
     Program PWSCF v.6.5 starts on  2May2020 at 10:27:35 

     This program is part of the open-source Quantum ESPRESSO suite
     for quantum simulation of materials; please cite
         "P. Giannozzi et al., J. Phys.:Condens. Matter 21 395502 (2009);
         "P. Giannozzi et al., J. Phys.:Condens. Matter 29 465901 (2017);
          URL http://www.quantum-espresso.org", 
     in publications or presentations arising from this work. More details at
     http://www.quantum-espresso.org/quote

     Parallel version (MPI), running on    32 processors

     MPI processes distributed on     1 nodes
     K-points division:     npool     =       4
     R & G space division:  proc/nbgrp/npool/nimage =       8
     Fft bands division:     nmany     =       1
     Reading input from iii_1.in

     Current dimensions of program PWSCF are:
     Max number of different atomic species (ntypx) = 10
     Max number of k-points (npk) =  40000
     Max angular momentum in pseudopotentials (lmaxx) =  3

     Subspace diagonalization in iterative solution of the eigenvalue problem:
     a serial algorithm will be used

     [opt_tetra]  Optimized tetrahedron method is used.
 
     Parallelization info
     --------------------
     sticks:   dense  smooth     PW     G-vecs:    dense   smooth      PW
     Min         361     361     96                61341    61341    8578
     Max         362     362     97                61354    61354    8595
     Sum        2893    2893    769               490767   490767   68677
 


     bravais-lattice index     =            4
     lattice parameter (alat)  =       8.9709  a.u.
     unit-cell volume          =    2449.5392 (a.u.)^3
     number of atoms/cell      =           15
     number of atomic types    =            2
     number of electrons       =       231.00
     number of Kohn-Sham states=          278
     kinetic-energy cutoff     =     130.0000  Ry
     charge density cutoff     =     520.0000  Ry
     convergence threshold     =      1.0E-06
     mixing beta               =       0.7000
     number of iterations used =            8  local-TF  mixing
     Exchange-correlation= PBE
                           (   1   4   3   4   0   0   0)
     Non magnetic calculation with spin-orbit


     celldm(1)=   8.970926  celldm(2)=   0.000000  celldm(3)=   3.917797
     celldm(4)=   0.000000  celldm(5)=   0.000000  celldm(6)=   0.000000

     crystal axes: (cart. coord. in units of alat)
               a(1) = (   1.000000   0.000000   0.000000 )  
               a(2) = (  -0.500000   0.866025   0.000000 )  
               a(3) = (   0.000000   0.000000   3.917797 )  

     reciprocal axes: (cart. coord. in units 2 pi/alat)
               b(1) = (  1.000000  0.577350  0.000000 )  
               b(2) = (  0.000000  1.154701  0.000000 )  
               b(3) = (  0.000000  0.000000  0.255245 )  


     PseudoPot. # 1 for Co read from file:
     /gpfs/share/home/1600011702/pseudo/Co.nc.fr.pbe.stringent.upf
     MD5 check sum: 5025e55def73e686899be73cabb26c16
     Pseudo is Norm-conserving + core correction, Zval = 17.0
     Generated using ONCVPSP code by D. R. Hamann
     Using radial grid of 1388 points, 10 beta functions with: 
                l(1) =   0
                l(2) =   0
                l(3) =   1
                l(4) =   1
                l(5) =   1
                l(6) =   1
                l(7) =   2
                l(8) =   2
                l(9) =   2
               l(10) =   2

     PseudoPot. # 2 for W  read from file:
     /gpfs/share/home/1600011702/pseudo/W.nc.fr.pbe.stringent.upf
     MD5 check sum: 75b1d432d85d028982bb81b068264ebf
     Pseudo is Norm-conserving + core correction, Zval = 14.0
     Generated using ONCVPSP code by D. R. Hamann
     Using radial grid of 1396 points, 14 beta functions with: 
                l(1) =   0
                l(2) =   0
                l(3) =   1
                l(4) =   1
                l(5) =   1
                l(6) =   1
                l(7) =   2
                l(8) =   2
                l(9) =   2
               l(10) =   2
               l(11) =   3
               l(12) =   3
               l(13) =   3
               l(14) =   3

     atomic species   valence    mass     pseudopotential
        Co            17.00    58.93320     Co( 1.00)
        W             14.00   183.84000     W ( 1.00)

      6 Sym. Ops. (no inversion) found



   Cartesian axes

     site n.     atom                  positions (alat units)
         1           Co  tau(   1) = (   0.5000000   0.2886751   0.9056483  )
         2           Co  tau(   2) = (  -0.2499054   0.4330673   0.4920549  )
         3           Co  tau(   3) = (   0.0000000   0.8659162   0.4920549  )
         4           Co  tau(   4) = (   0.2499054   0.4330673   0.4920549  )
         5           Co  tau(   5) = (   0.2499054   0.1442829   1.3192417  )
         6           Co  tau(   6) = (   0.5000000   0.5774595   1.3192417  )
         7           Co  tau(   7) = (   0.7500946   0.1442829   1.3192417  )
         8           W   tau(   8) = (  -0.0000000   0.5773503   0.0000000  )
         9           W   tau(   9) = (   0.5000000   0.2886751   1.7984220  )
        10           W   tau(  10) = (  -0.0000000   0.5773503   0.9775587  )
        11           W   tau(  11) = (  -0.0000000   0.5773503   1.5367590  )
        12           W   tau(  12) = (   0.0000000   0.0000000   1.8112966  )
        13           W   tau(  13) = (   0.5000000   0.2886751   0.0128746  )
        14           W   tau(  14) = (   0.0000000   0.0000000   0.8337379  )
        15           W   tau(  15) = (   0.0000000   0.0000000   0.2745376  )

     number of k points=    24 (tetrahedron method)
                       cart. coord. in units 2pi/alat
        k(    1) = (   0.0000000   0.0000000   0.0000000), wk =   0.0051020
        k(    2) = (   0.0000000   0.0824786   0.0000000), wk =   0.0306122
        k(    3) = (   0.0000000   0.1649572   0.0000000), wk =   0.0306122
        k(    4) = (   0.0000000   0.2474358   0.0000000), wk =   0.0306122
        k(    5) = (   0.0000000   0.3299144   0.0000000), wk =   0.0306122
        k(    6) = (   0.0000000   0.4123930   0.0000000), wk =   0.0306122
        k(    7) = (   0.0000000   0.4948717   0.0000000), wk =   0.0306122
        k(    8) = (   0.0000000  -0.5773503   0.0000000), wk =   0.0153061
        k(    9) = (   0.0714286   0.1237179   0.0000000), wk =   0.0306122
        k(   10) = (   0.0714286   0.2061965   0.0000000), wk =   0.0612245
        k(   11) = (   0.0714286   0.2886751   0.0000000), wk =   0.0612245
        k(   12) = (   0.0714286   0.3711537   0.0000000), wk =   0.0612245
        k(   13) = (   0.0714286   0.4536324   0.0000000), wk =   0.0612245
        k(   14) = (   0.0714286   0.5361110   0.0000000), wk =   0.0612245
        k(   15) = (   0.1428571   0.2474358   0.0000000), wk =   0.0306122
        k(   16) = (   0.1428571   0.3299144   0.0000000), wk =   0.0612245
        k(   17) = (   0.1428571   0.4123930   0.0000000), wk =   0.0612245
        k(   18) = (   0.1428571   0.4948717   0.0000000), wk =   0.0612245
        k(   19) = (   0.1428571   0.5773503   0.0000000), wk =   0.0306122
        k(   20) = (   0.2142857   0.3711537   0.0000000), wk =   0.0306122
        k(   21) = (   0.2142857   0.4536324   0.0000000), wk =   0.0612245
        k(   22) = (   0.2142857   0.5361110   0.0000000), wk =   0.0612245
        k(   23) = (   0.2857143   0.4948717   0.0000000), wk =   0.0306122
        k(   24) = (   0.2857143   0.5773503   0.0000000), wk =   0.0306122

     Dense  grid:   490767 G-vectors     FFT dimensions: (  72,  72, 256)

     Estimated max dynamical RAM per process >       1.23 GB

     Estimated total dynamical RAM >      39.48 GB

     Initial potential from superposition of free atoms

     starting charge  230.99378, renormalised to  231.00000
     Starting wfcs are  300 randomized atomic wfcs

     total cpu time spent up to now is       59.6 secs

     Self-consistent Calculation

     iteration #  1     ecut=   130.00 Ry     beta= 0.70
     Davidson diagonalization with overlap
     ethr =  1.00E-02,  avg # of iterations =  3.0

     total cpu time spent up to now is      264.8 secs

     total energy              =   -3368.57886893 Ry
     estimated scf accuracy    <      39.77806767 Ry

     iteration #  2     ecut=   130.00 Ry     beta= 0.70
     Davidson diagonalization with overlap
     ethr =  1.00E-02,  avg # of iterations =  2.0

     total cpu time spent up to now is      424.0 secs

     total energy              =   -3367.77430562 Ry
     estimated scf accuracy    <      64.63659548 Ry

     iteration #  3     ecut=   130.00 Ry     beta= 0.70
     Davidson diagonalization with overlap
     ethr =  1.00E-02,  avg # of iterations =  1.6

     total cpu time spent up to now is      582.1 secs

     total energy              =   -3371.17090757 Ry
     estimated scf accuracy    <      13.57763907 Ry

     iteration #  4     ecut=   130.00 Ry     beta= 0.70
     Davidson diagonalization with overlap
     ethr =  5.88E-03,  avg # of iterations =  1.0

     total cpu time spent up to now is      737.5 secs

     total energy              =   -3371.19029474 Ry
     estimated scf accuracy    <       2.92286037 Ry

     iteration #  5     ecut=   130.00 Ry     beta= 0.70
     Davidson diagonalization with overlap
     ethr =  1.27E-03,  avg # of iterations =  1.0

     total cpu time spent up to now is      892.6 secs

     total energy              =   -3371.28060814 Ry
     estimated scf accuracy    <       0.68287179 Ry

     iteration #  6     ecut=   130.00 Ry     beta= 0.70
     Davidson diagonalization with overlap
     ethr =  2.96E-04,  avg # of iterations =  1.5

     total cpu time spent up to now is     1051.1 secs

     total energy              =   -3371.29885459 Ry
     estimated scf accuracy    <       0.23616664 Ry

     iteration #  7     ecut=   130.00 Ry     beta= 0.70
     Davidson diagonalization with overlap
     ethr =  1.02E-04,  avg # of iterations =  4.5

     total cpu time spent up to now is     1222.6 secs

     total energy              =   -3371.31296418 Ry
     estimated scf accuracy    <       0.08472907 Ry

     iteration #  8     ecut=   130.00 Ry     beta= 0.70
     Davidson diagonalization with overlap
     ethr =  3.67E-05,  avg # of iterations =  5.9

     total cpu time spent up to now is     1404.3 secs

     total energy              =   -3371.31563790 Ry
     estimated scf accuracy    <       0.06515518 Ry

     iteration #  9     ecut=   130.00 Ry     beta= 0.70
     Davidson diagonalization with overlap
     ethr =  2.82E-05,  avg # of iterations =  1.3

     total cpu time spent up to now is     1562.0 secs

     total energy              =   -3371.31658174 Ry
     estimated scf accuracy    <       0.04639725 Ry

     iteration # 10     ecut=   130.00 Ry     beta= 0.70
     Davidson diagonalization with overlap
     ethr =  2.01E-05,  avg # of iterations =  2.2

     total cpu time spent up to now is     1726.5 secs

     total energy              =   -3371.31519236 Ry
     estimated scf accuracy    <       0.03138051 Ry

     iteration # 11     ecut=   130.00 Ry     beta= 0.70
     Davidson diagonalization with overlap
     ethr =  1.36E-05,  avg # of iterations =  2.4

     total cpu time spent up to now is     1892.3 secs

     total energy              =   -3371.31721660 Ry
     estimated scf accuracy    <       0.00146560 Ry

     iteration # 12     ecut=   130.00 Ry     beta= 0.70
     Davidson diagonalization with overlap
     ethr =  6.34E-07,  avg # of iterations =  6.0

     total cpu time spent up to now is     2129.8 secs

     total energy              =   -3371.31754157 Ry
     estimated scf accuracy    <       0.00199580 Ry

     iteration # 13     ecut=   130.00 Ry     beta= 0.70
     Davidson diagonalization with overlap
     ethr =  6.34E-07,  avg # of iterations =  1.0

     total cpu time spent up to now is     2285.4 secs

     total energy              =   -3371.31757600 Ry
     estimated scf accuracy    <       0.00044498 Ry

     iteration # 14     ecut=   130.00 Ry     beta= 0.70
     Davidson diagonalization with overlap
     ethr =  1.93E-07,  avg # of iterations =  2.5

     total cpu time spent up to now is     2467.1 secs

     total energy              =   -3371.31762976 Ry
     estimated scf accuracy    <       0.00003224 Ry

     iteration # 15     ecut=   130.00 Ry     beta= 0.70
     Davidson diagonalization with overlap
     ethr =  1.40E-08,  avg # of iterations =  2.5

     total cpu time spent up to now is     2650.6 secs

     total energy              =   -3371.31763827 Ry
     estimated scf accuracy    <       0.00000364 Ry

     iteration # 16     ecut=   130.00 Ry     beta= 0.70
     Davidson diagonalization with overlap
     ethr =  1.57E-09,  avg # of iterations =  2.8

     total cpu time spent up to now is     2823.5 secs

     End of self-consistent calculation

          k = 0.0000 0.0000 0.0000 ( 61279 PWs)   bands (ev):

   -85.2909 -85.2909 -85.2225 -85.2225 -85.2176 -85.2176 -85.1721 -85.1721
   -85.1721 -85.1721 -85.1721 -85.1721 -85.1721 -85.1721 -63.9807 -63.9807
   -63.9774 -63.9774 -63.9087 -63.9087 -63.8518 -63.8518 -63.7386 -63.7386
   -63.7386 -63.7386 -63.6413 -63.6413 -63.6413 -63.6413 -49.8283 -49.8283
   -49.7721 -49.7721 -49.7716 -49.7716 -49.7570 -49.7570 -49.7563 -49.7563
   -49.6522 -49.6522 -49.6432 -49.6432 -48.0658 -48.0658 -48.0270 -48.0270
   -48.0053 -48.0053 -47.9594 -47.9594 -47.9573 -47.9573 -47.9398 -47.9398
   -47.8700 -47.8700 -47.8326 -47.8326 -47.8319 -47.8319 -47.8067 -47.8067
   -47.7802 -47.7802 -47.7772 -47.7772 -47.7599 -47.7599 -47.7585 -47.7585
   -35.4319 -35.4319 -35.4041 -35.4041 -35.3386 -35.3386 -35.2119 -35.2119
   -35.2094 -35.2094 -35.2064 -35.2064 -34.9941 -34.9941 -34.9940 -34.9940
   -25.8072 -25.8072 -25.7858 -25.7858 -25.7553 -25.7553 -25.6761 -25.6761
   -25.6595 -25.6595 -25.5773 -25.5773 -25.5771 -25.5771 -25.4792 -25.4792
   -25.4784 -25.4784 -25.4091 -25.4091 -25.3709 -25.3709 -25.2949 -25.2949
   -25.2723 -25.2723 -25.2594 -25.2594 -24.8557 -24.8557 -24.8556 -24.8556
     1.0215   1.0215   2.0867   2.0867   3.4822   3.4822   4.7805   4.7805
     5.0141   5.0141   5.1496   5.1496   5.1504   5.1504   5.1749   5.1749
     5.1841   5.1841   5.4728   5.4728   5.5231   5.5231   6.1437   6.1437
     6.1766   6.1766   6.3424   6.3424   6.4398   6.4398   6.5619   6.5619
     6.6711   6.6711   6.9081   6.9081   6.9761   6.9761   7.0197   7.0197
     7.0261   7.0261   7.2203   7.2203   7.3020   7.3020   7.3533   7.3533
     7.3702   7.3702   7.4138   7.4138   7.4611   7.4611   7.8195   7.8195
     7.8844   7.8844   8.0110   8.0110   8.0515   8.0515   8.0789   8.0789
     8.1109   8.1109   8.2399   8.2399   8.2953   8.2953   8.3418   8.3418
     8.5164   8.5164   8.5270   8.5270   8.6605   8.6605   8.7688   8.7688
     8.8380   8.8380   8.8627   8.8627   8.9418   8.9418   9.0924   9.0924
     9.1298   9.1298   9.1317   9.1317   9.1553   9.1553   9.2948   9.2948
     9.3219   9.3219   9.3462   9.3462   9.3499   9.3499   9.4624   9.4624
     9.4703   9.4703   9.5144   9.5144   9.5292   9.5292   9.5510   9.5510
     9.5702   9.5702   9.9309   9.9309   9.9432   9.9432  10.4237  10.4237
    10.4923  10.4923  10.4983  10.4983  10.6232  10.6232  10.6370  10.6370
    10.7326  10.7326  10.8215  10.8215  10.8664  10.8664  11.4195  11.4195
    11.4541  11.4541  11.5456  11.5456  11.5856  11.5856  11.7471  11.7471
    11.7684  11.7684  11.8514  11.8514  11.8583  11.8583  12.8881  12.8881
    13.0501  13.0501  13.1136  13.1136  13.1612  13.1612

          k = 0.0000 0.0825 0.0000 ( 61329 PWs)   bands (ev):

   -85.2908 -85.2908 -85.2220 -85.2220 -85.2171 -85.2171 -85.1727 -85.1727
   -85.1726 -85.1726 -85.1721 -85.1721 -85.1721 -85.1721 -63.9806 -63.9806
   -63.9774 -63.9774 -63.9081 -63.9081 -63.8525 -63.8525 -63.7378 -63.7378
   -63.7378 -63.7378 -63.6422 -63.6422 -63.6421 -63.6421 -49.8284 -49.8284
   -49.7714 -49.7714 -49.7703 -49.7703 -49.7563 -49.7563 -49.7555 -49.7555
   -49.6533 -49.6533 -49.6443 -49.6443 -48.0656 -48.0656 -48.0252 -48.0252
   -48.0041 -48.0041 -47.9581 -47.9581 -47.9560 -47.9560 -47.9395 -47.9395
   -47.8696 -47.8696 -47.8348 -47.8348 -47.8303 -47.8303 -47.8075 -47.8075
   -47.7811 -47.7811 -47.7782 -47.7782 -47.7622 -47.7622 -47.7608 -47.7608
   -35.4310 -35.4310 -35.4040 -35.4040 -35.3375 -35.3375 -35.2121 -35.2121
   -35.2073 -35.2073 -35.2058 -35.2058 -34.9969 -34.9968 -34.9963 -34.9963
   -25.8084 -25.8084 -25.7907 -25.7907 -25.7491 -25.7491 -25.6787 -25.6787
   -25.6613 -25.6613 -25.5765 -25.5765 -25.5741 -25.5741 -25.4761 -25.4761
   -25.4751 -25.4751 -25.4049 -25.4049 -25.3648 -25.3648 -25.2995 -25.2995
   -25.2701 -25.2701 -25.2602 -25.2602 -24.8624 -24.8624 -24.8623 -24.8623
     1.0799   1.0799   2.1410   2.1410   3.5342   3.5342   4.8064   4.8064
     5.0289   5.0289   5.0911   5.0911   5.1265   5.1265   5.2109   5.2109
     5.2475   5.2475   5.4623   5.4623   5.5181   5.5181   6.1139   6.1139
     6.1614   6.1614   6.3703   6.3703   6.4607   6.4607   6.5536   6.5536
     6.6503   6.6503   6.8772   6.8772   6.9142   6.9142   7.0322   7.0322
     7.0745   7.0745   7.2110   7.2110   7.2967   7.2967   7.3352   7.3352
     7.3623   7.3623   7.4578   7.4578   7.4775   7.4775   7.8255   7.8255
     7.9028   7.9028   7.9725   7.9725   8.0117   8.0117   8.0516   8.0516
     8.0788   8.0788   8.1603   8.1603   8.2637   8.2637   8.2967   8.2967
     8.4339   8.4339   8.5014   8.5014   8.6605   8.6605   8.7511   8.7511
     8.8372   8.8372   8.8560   8.8560   8.9115   8.9115   9.0034   9.0034
     9.1105   9.1105   9.1607   9.1607   9.1790   9.1790   9.2657   9.2657
     9.3047   9.3047   9.3364   9.3364   9.3772   9.3773   9.4861   9.4861
     9.4971   9.4971   9.5213   9.5213   9.5631   9.5631   9.5837   9.5837
     9.6125   9.6125   9.9356   9.9356   9.9624   9.9624  10.4221  10.4221
    10.4817  10.4817  10.5043  10.5043  10.5308  10.5308  10.6226  10.6226
    10.6838  10.6838  10.8408  10.8408  10.9727  10.9727  11.3644  11.3644
    11.4104  11.4104  11.5789  11.5789  11.6052  11.6052  11.7666  11.7666
    11.8104  11.8104  11.9562  11.9562  12.0199  12.0199  12.8781  12.8781
    12.9988  12.9988  13.0637  13.0637  13.1477  13.1478

          k = 0.0000 0.1650 0.0000 ( 61340 PWs)   bands (ev):

   -85.2907 -85.2907 -85.2203 -85.2203 -85.2158 -85.2158 -85.1743 -85.1743
   -85.1742 -85.1742 -85.1721 -85.1721 -85.1721 -85.1721 -63.9803 -63.9803
   -63.9773 -63.9773 -63.9063 -63.9063 -63.8544 -63.8544 -63.7356 -63.7355
   -63.7355 -63.7355 -63.6446 -63.6446 -63.6446 -63.6446 -49.8288 -49.8288
   -49.7691 -49.7691 -49.7676 -49.7676 -49.7541 -49.7540 -49.7528 -49.7528
   -49.6565 -49.6565 -49.6476 -49.6476 -48.0651 -48.0651 -48.0202 -48.0202
   -48.0003 -48.0003 -47.9542 -47.9542 -47.9521 -47.9521 -47.9383 -47.9383
   -47.8683 -47.8683 -47.8380 -47.8380 -47.8290 -47.8290 -47.8102 -47.8102
   -47.7842 -47.7842 -47.7816 -47.7816 -47.7681 -47.7681 -47.7669 -47.7669
   -35.4285 -35.4285 -35.4037 -35.4037 -35.3343 -35.3343 -35.2159 -35.2159
   -35.2013 -35.2013 -35.2004 -35.2004 -35.0045 -35.0045 -35.0034 -35.0034
   -25.8122 -25.8122 -25.7983 -25.7983 -25.7371 -25.7371 -25.6856 -25.6856
   -25.6648 -25.6648 -25.5740 -25.5740 -25.5658 -25.5658 -25.4694 -25.4694
   -25.4658 -25.4658 -25.3956 -25.3956 -25.3476 -25.3476 -25.3062 -25.3062
   -25.2700 -25.2700 -25.2601 -25.2601 -24.8816 -24.8816 -24.8813 -24.8813
     1.2525   1.2525   2.3008   2.3008   3.6866   3.6866   4.8541   4.8541
     4.9812   4.9812   5.0924   5.0924   5.1331   5.1331   5.2461   5.2461
     5.3693   5.3693   5.4342   5.4342   5.5139   5.5139   6.0197   6.0198
     6.1600   6.1600   6.3487   6.3487   6.4488   6.4488   6.5860   6.5860
     6.6413   6.6413   6.8508   6.8508   6.8676   6.8676   7.0372   7.0372
     7.1256   7.1256   7.1487   7.1487   7.2795   7.2795   7.3057   7.3057
     7.3664   7.3664   7.4858   7.4858   7.5177   7.5177   7.7467   7.7467
     7.8191   7.8191   7.8700   7.8700   7.9352   7.9352   7.9820   7.9820
     8.0333   8.0333   8.0815   8.0815   8.1317   8.1317   8.1923   8.1923
     8.2852   8.2852   8.4746   8.4746   8.6277   8.6277   8.6992   8.6992
     8.7285   8.7285   8.7903   8.7903   8.8739   8.8739   8.9394   8.9394
     9.1256   9.1256   9.1794   9.1794   9.1936   9.1936   9.2403   9.2403
     9.2782   9.2782   9.3477   9.3477   9.4103   9.4103   9.4898   9.4898
     9.5451   9.5452   9.6055   9.6055   9.6410   9.6410   9.6665   9.6665
     9.6834   9.6834   9.9491   9.9491  10.0256  10.0256  10.2569  10.2569
    10.4222  10.4222  10.4735  10.4735  10.5167  10.5167  10.6409  10.6409
    10.7503  10.7503  10.8617  10.8617  11.0294  11.0294  11.3101  11.3101
    11.3900  11.3900  11.5514  11.5515  11.6860  11.6860  11.9035  11.9035
    11.9906  11.9906  12.1422  12.1422  12.2911  12.2911  12.8048  12.8048
    12.9354  12.9354  12.9948  12.9948  13.0779  13.0779

          k = 0.0000 0.2474 0.0000 ( 61290 PWs)   bands (ev):

   -85.2904 -85.2904 -85.2177 -85.2177 -85.2136 -85.2136 -85.1769 -85.1769
   -85.1766 -85.1766 -85.1721 -85.1721 -85.1721 -85.1721 -63.9798 -63.9798
   -63.9772 -63.9772 -63.9035 -63.9035 -63.8574 -63.8574 -63.7320 -63.7320
   -63.7320 -63.7320 -63.6485 -63.6484 -63.6484 -63.6484 -49.8293 -49.8293
   -49.7664 -49.7664 -49.7649 -49.7648 -49.7495 -49.7495 -49.7473 -49.7473
   -49.6617 -49.6617 -49.6528 -49.6528 -48.0646 -48.0646 -48.0128 -48.0127
   -47.9945 -47.9945 -47.9478 -47.9478 -47.9465 -47.9464 -47.9354 -47.9354
   -47.8662 -47.8662 -47.8420 -47.8420 -47.8284 -47.8284 -47.8150 -47.8150
   -47.7909 -47.7909 -47.7889 -47.7889 -47.7755 -47.7755 -47.7736 -47.7736
   -35.4248 -35.4248 -35.4033 -35.4033 -35.3290 -35.3290 -35.2235 -35.2235
   -35.1917 -35.1917 -35.1905 -35.1905 -35.0163 -35.0163 -35.0148 -35.0148
   -25.8185 -25.8185 -25.8028 -25.8028 -25.7269 -25.7269 -25.6942 -25.6942
   -25.6640 -25.6640 -25.5696 -25.5696 -25.5533 -25.5533 -25.4664 -25.4664
   -25.4506 -25.4506 -25.3925 -25.3925 -25.3219 -25.3219 -25.3016 -25.3016
   -25.2752 -25.2752 -25.2583 -25.2583 -24.9110 -24.9110 -24.9102 -24.9101
     1.5325   1.5325   2.5568   2.5568   3.9276   3.9276   4.7915   4.7915
     4.9515   4.9515   5.1188   5.1188   5.1786   5.1786   5.3133   5.3133
     5.4112   5.4112   5.5142   5.5142   5.5476   5.5476   5.8816   5.8816
     6.0913   6.0913   6.3077   6.3077   6.4745   6.4745   6.6116   6.6116
     6.6552   6.6552   6.8407   6.8407   6.8826   6.8826   6.9957   6.9957
     7.0512   7.0512   7.1492   7.1492   7.2297   7.2297   7.2494   7.2494
     7.3153   7.3153   7.4008   7.4008   7.5026   7.5026   7.5726   7.5726
     7.6353   7.6353   7.7891   7.7891   7.8332   7.8332   7.8759   7.8759
     7.9437   7.9437   8.0220   8.0220   8.0747   8.0747   8.1568   8.1568
     8.2230   8.2230   8.4590   8.4590   8.4999   8.4999   8.5241   8.5241
     8.6123   8.6123   8.7210   8.7210   8.8477   8.8477   8.9592   8.9592
     9.1271   9.1271   9.1806   9.1806   9.2393   9.2393   9.2534   9.2534
     9.2775   9.2775   9.3554   9.3554   9.4251   9.4251   9.4609   9.4609
     9.5616   9.5616   9.6985   9.6985   9.7382   9.7382   9.7853   9.7853
     9.8451   9.8451   9.9713   9.9713  10.0411  10.0411  10.1201  10.1201
    10.3241  10.3241  10.4865  10.4865  10.5115  10.5115  10.6861  10.6861
    10.8463  10.8463  10.9035  10.9035  11.0478  11.0478  11.2967  11.2967
    11.3756  11.3756  11.6275  11.6275  11.8387  11.8387  12.0426  12.0426
    12.1601  12.1601  12.2595  12.2595  12.5890  12.5890  12.7145  12.7145
    12.8986  12.8986  12.9463  12.9463  13.0199  13.0199

          k = 0.0000 0.3299 0.0000 ( 61322 PWs)   bands (ev):

   -85.2902 -85.2902 -85.2144 -85.2144 -85.2107 -85.2107 -85.1803 -85.1803
   -85.1797 -85.1797 -85.1721 -85.1721 -85.1721 -85.1721 -63.9793 -63.9793
   -63.9772 -63.9772 -63.8998 -63.8998 -63.8612 -63.8612 -63.7277 -63.7277
   -63.7276 -63.7276 -63.6531 -63.6531 -63.6531 -63.6531 -49.8297 -49.8297
   -49.7642 -49.7641 -49.7629 -49.7629 -49.7425 -49.7425 -49.7393 -49.7393
   -49.6685 -49.6685 -49.6598 -49.6598 -48.0642 -48.0642 -48.0041 -48.0041
   -47.9879 -47.9879 -47.9416 -47.9416 -47.9387 -47.9387 -47.9282 -47.9282
   -47.8631 -47.8631 -47.8466 -47.8466 -47.8293 -47.8293 -47.8222 -47.8222
   -47.8020 -47.8020 -47.8010 -47.8010 -47.7812 -47.7812 -47.7775 -47.7775
   -35.4205 -35.4205 -35.4030 -35.4030 -35.3218 -35.3218 -35.2333 -35.2333
   -35.1791 -35.1791 -35.1777 -35.1777 -35.0310 -35.0310 -35.0294 -35.0293
   -25.8246 -25.8246 -25.8050 -25.8050 -25.7251 -25.7251 -25.7013 -25.7013
   -25.6513 -25.6513 -25.5634 -25.5634 -25.5383 -25.5383 -25.4692 -25.4692
   -25.4351 -25.4351 -25.4036 -25.4036 -25.2988 -25.2988 -25.2790 -25.2790
   -25.2749 -25.2748 -25.2575 -25.2575 -24.9469 -24.9469 -24.9449 -24.9449
     1.9083   1.9083   2.8933   2.8933   4.2356   4.2356   4.6693   4.6693
     4.7949   4.7949   5.1813   5.1813   5.2501   5.2501   5.3003   5.3003
     5.4755   5.4755   5.5706   5.5706   5.7197   5.7197   5.7582   5.7582
     5.9824   5.9824   6.2970   6.2970   6.4999   6.4999   6.5900   6.5900
     6.6829   6.6829   6.8197   6.8197   6.8499   6.8499   6.9400   6.9400
     6.9804   6.9805   7.0636   7.0636   7.1424   7.1424   7.2001   7.2001
     7.2456   7.2456   7.2945   7.2945   7.3917   7.3917   7.4862   7.4862
     7.5516   7.5516   7.6351   7.6351   7.6529   7.6529   7.6964   7.6964
     7.8416   7.8416   7.9993   7.9993   8.0644   8.0644   8.1315   8.1315
     8.2813   8.2813   8.3022   8.3022   8.3767   8.3767   8.4699   8.4699
     8.5751   8.5751   8.7343   8.7343   8.8361   8.8361   8.9775   8.9775
     9.1317   9.1317   9.1502   9.1502   9.2260   9.2260   9.2899   9.2899
     9.3144   9.3144   9.3252   9.3252   9.3661   9.3661   9.4715   9.4715
     9.5790   9.5790   9.7519   9.7519   9.8242   9.8242   9.8474   9.8474
     9.9321   9.9321  10.0305  10.0305  10.0856  10.0856  10.1923  10.1923
    10.2944  10.2944  10.4683  10.4683  10.4914  10.4914  10.7095  10.7095
    10.9225  10.9225  10.9895  10.9895  11.0841  11.0841  11.2860  11.2860
    11.4793  11.4793  11.7508  11.7508  11.9881  11.9881  12.1422  12.1422
    12.2446  12.2446  12.3077  12.3077  12.5757  12.5757  12.7898  12.7898
    12.8648  12.8648  12.9349  12.9349  13.0575  13.0575

          k = 0.0000 0.4124 0.0000 ( 61324 PWs)   bands (ev):

   -85.2900 -85.2900 -85.2106 -85.2106 -85.2075 -85.2075 -85.1840 -85.1840
   -85.1832 -85.1832 -85.1721 -85.1721 -85.1721 -85.1721 -63.9788 -63.9788
   -63.9772 -63.9772 -63.8956 -63.8956 -63.8655 -63.8655 -63.7232 -63.7232
   -63.7232 -63.7231 -63.6579 -63.6579 -63.6579 -63.6579 -49.8301 -49.8301
   -49.7627 -49.7627 -49.7616 -49.7616 -49.7338 -49.7338 -49.7300 -49.7300
   -49.6763 -49.6763 -49.6678 -49.6678 -48.0641 -48.0641 -47.9960 -47.9960
   -47.9821 -47.9821 -47.9384 -47.9384 -47.9276 -47.9276 -47.9159 -47.9159
   -47.8597 -47.8597 -47.8515 -47.8515 -47.8362 -47.8362 -47.8299 -47.8299
   -47.8147 -47.8147 -47.8124 -47.8124 -47.7849 -47.7849 -47.7795 -47.7795
   -35.4163 -35.4163 -35.4030 -35.4030 -35.3134 -35.3134 -35.2442 -35.2442
   -35.1652 -35.1652 -35.1637 -35.1637 -35.0468 -35.0468 -35.0452 -35.0451
   -25.8288 -25.8288 -25.8062 -25.8062 -25.7294 -25.7294 -25.7057 -25.7057
   -25.6278 -25.6278 -25.5552 -25.5552 -25.5245 -25.5245 -25.4770 -25.4770
   -25.4313 -25.4313 -25.4151 -25.4151 -25.3001 -25.3001 -25.2620 -25.2620
   -25.2503 -25.2503 -25.2424 -25.2424 -24.9839 -24.9838 -24.9807 -24.9807
     2.3635   2.3635   3.2872   3.2872   4.4012   4.4012   4.5625   4.5625
     4.6405   4.6405   5.1099   5.1099   5.3140   5.3140   5.3469   5.3469
     5.4983   5.4983   5.5456   5.5456   5.6903   5.6903   5.8520   5.8520
     5.9958   5.9958   6.2699   6.2699   6.4713   6.4713   6.5659   6.5659
     6.7386   6.7386   6.8289   6.8289   6.8415   6.8415   6.9051   6.9051
     6.9350   6.9350   7.0333   7.0333   7.0854   7.0854   7.1317   7.1317
     7.1698   7.1699   7.2306   7.2306   7.3186   7.3186   7.3412   7.3412
     7.4215   7.4215   7.4610   7.4610   7.5345   7.5345   7.5668   7.5668
     7.7199   7.7199   7.8339   7.8339   7.9678   7.9678   8.1348   8.1348
     8.1818   8.1818   8.2745   8.2745   8.4183   8.4183   8.5015   8.5015
     8.6476   8.6476   8.7802   8.7802   8.8552   8.8552   8.9881   8.9881
     9.0832   9.0832   9.1295   9.1295   9.1622   9.1622   9.2526   9.2526
     9.3202   9.3202   9.3570   9.3570   9.3960   9.3960   9.4539   9.4539
     9.6309   9.6309   9.6909   9.6909   9.7378   9.7378   9.9026   9.9026
    10.0587  10.0588  10.1599  10.1599  10.2022  10.2022  10.2890  10.2890
    10.3394  10.3394  10.4755  10.4755  10.5106  10.5106  10.7125  10.7125
    10.9375  10.9375  11.0493  11.0493  11.1764  11.1764  11.2917  11.2917
    11.6494  11.6494  11.7666  11.7666  12.0537  12.0537  12.2081  12.2081
    12.2299  12.2299  12.3692  12.3692  12.4725  12.4725  12.7147  12.7147
    12.7620  12.7620  12.8575  12.8575  13.0418  13.0418

          k = 0.0000 0.4949 0.0000 ( 61334 PWs)   bands (ev):

   -85.2898 -85.2898 -85.2073 -85.2073 -85.2046 -85.2046 -85.1874 -85.1874
   -85.1863 -85.1863 -85.1721 -85.1721 -85.1721 -85.1721 -63.9785 -63.9785
   -63.9772 -63.9772 -63.8919 -63.8919 -63.8694 -63.8694 -63.7196 -63.7196
   -63.7196 -63.7196 -63.6617 -63.6617 -63.6617 -63.6616 -49.8303 -49.8303
   -49.7619 -49.7619 -49.7609 -49.7609 -49.7254 -49.7254 -49.7218 -49.7218
   -49.6836 -49.6836 -49.6752 -49.6752 -48.0640 -48.0640 -47.9902 -47.9902
   -47.9785 -47.9785 -47.9363 -47.9363 -47.9163 -47.9163 -47.9008 -47.9008
   -47.8604 -47.8604 -47.8554 -47.8554 -47.8484 -47.8484 -47.8367 -47.8367
   -47.8246 -47.8246 -47.8175 -47.8175 -47.7870 -47.7870 -47.7805 -47.7805
   -35.4130 -35.4130 -35.4034 -35.4034 -35.3055 -35.3055 -35.2538 -35.2538
   -35.1526 -35.1526 -35.1516 -35.1516 -35.0602 -35.0602 -35.0590 -35.0590
   -25.8312 -25.8312 -25.8071 -25.8071 -25.7338 -25.7338 -25.7079 -25.7079
   -25.6014 -25.6014 -25.5475 -25.5475 -25.5198 -25.5198 -25.4847 -25.4847
   -25.4428 -25.4428 -25.4147 -25.4147 -25.3054 -25.3054 -25.2633 -25.2633
   -25.2219 -25.2218 -25.2154 -25.2154 -25.0139 -25.0139 -25.0109 -25.0109
     2.8747   2.8747   3.6999   3.6999   3.9638   3.9638   4.4307   4.4307
     4.9176   4.9176   5.0024   5.0024   5.3591   5.3591   5.4033   5.4033
     5.4156   5.4156   5.5210   5.5210   5.5912   5.5912   5.7349   5.7349
     6.2553   6.2553   6.3195   6.3195   6.5207   6.5207   6.6443   6.6443
     6.7641   6.7641   6.7770   6.7770   6.8394   6.8394   6.8862   6.8862
     6.9206   6.9206   6.9959   6.9959   7.0531   7.0531   7.0843   7.0843
     7.1247   7.1247   7.1901   7.1901   7.2138   7.2138   7.2796   7.2796
     7.3229   7.3229   7.3481   7.3481   7.4598   7.4598   7.4936   7.4936
     7.5668   7.5668   7.5909   7.5909   7.9285   7.9285   8.0983   8.0983
     8.2027   8.2027   8.2343   8.2343   8.4290   8.4290   8.4904   8.4904
     8.7008   8.7008   8.8505   8.8505   8.9006   8.9006   8.9842   8.9842
     9.0337   9.0337   9.1081   9.1081   9.1567   9.1567   9.2361   9.2361
     9.3330   9.3330   9.3792   9.3792   9.4201   9.4201   9.4663   9.4663
     9.5810   9.5810   9.7019   9.7019   9.7453   9.7453   9.9318   9.9318
    10.1234  10.1235  10.2040  10.2040  10.2339  10.2339  10.3407  10.3407
    10.4381  10.4381  10.4958  10.4958  10.6520  10.6520  10.7289  10.7289
    10.9484  10.9484  11.1194  11.1194  11.1992  11.1992  11.2739  11.2739
    11.5326  11.5326  11.8826  11.8826  11.9532  11.9533  12.0828  12.0828
    12.2726  12.2726  12.4402  12.4402  12.4778  12.4778  12.6700  12.6700
    12.7201  12.7201  12.8626  12.8626  12.9340  12.9340

          k = 0.0000-0.5774 0.0000 ( 61376 PWs)   bands (ev):

   -85.2898 -85.2898 -85.2057 -85.2057 -85.2033 -85.2033 -85.1890 -85.1890
   -85.1876 -85.1876 -85.1721 -85.1721 -85.1721 -85.1721 -63.9783 -63.9783
   -63.9772 -63.9772 -63.8902 -63.8902 -63.8711 -63.8711 -63.7182 -63.7182
   -63.7182 -63.7182 -63.6631 -63.6631 -63.6631 -63.6631 -49.8304 -49.8304
   -49.7617 -49.7617 -49.7607 -49.7607 -49.7214 -49.7214 -49.7183 -49.7183
   -49.6869 -49.6869 -49.6787 -49.6787 -48.0640 -48.0640 -47.9880 -47.9880
   -47.9774 -47.9774 -47.9355 -47.9355 -47.9106 -47.9106 -47.8909 -47.8909
   -47.8657 -47.8657 -47.8603 -47.8603 -47.8503 -47.8503 -47.8392 -47.8392
   -47.8289 -47.8289 -47.8185 -47.8185 -47.7878 -47.7878 -47.7808 -47.7808
   -35.4117 -35.4117 -35.4036 -35.4036 -35.3017 -35.3017 -35.2581 -35.2581
   -35.1467 -35.1467 -35.1467 -35.1467 -35.0655 -35.0655 -35.0655 -35.0655
   -25.8319 -25.8319 -25.8075 -25.8075 -25.7354 -25.7354 -25.7085 -25.7085
   -25.5870 -25.5870 -25.5460 -25.5460 -25.5213 -25.5213 -25.4877 -25.4877
   -25.4467 -25.4467 -25.4153 -25.4153 -25.3073 -25.3073 -25.2641 -25.2641
   -25.2079 -25.2079 -25.2053 -25.2053 -25.0252 -25.0252 -25.0247 -25.0247
     3.3458   3.3458   3.4932   3.4932   4.0596   4.0596   4.1783   4.1783
     4.9548   4.9548   5.1085   5.1085   5.3207   5.3207   5.4297   5.4297
     5.4368   5.4368   5.4498   5.4498   5.5740   5.5740   5.6290   5.6290
     6.3692   6.3692   6.4515   6.4515   6.5924   6.5924   6.7008   6.7008
     6.7201   6.7201   6.7324   6.7324   6.7602   6.7602   6.8485   6.8485
     6.8951   6.8951   7.0168   7.0168   7.0245   7.0245   7.0516   7.0516
     7.1575   7.1575   7.1766   7.1766   7.2273   7.2273   7.2747   7.2747
     7.3132   7.3132   7.3386   7.3386   7.3962   7.3962   7.4055   7.4055
     7.4527   7.4527   7.5286   7.5286   7.9115   7.9115   8.0961   8.0961
     8.2049   8.2049   8.2323   8.2323   8.4302   8.4302   8.4371   8.4371
     8.7151   8.7151   8.8933   8.8933   8.9524   8.9524   8.9587   8.9587
     9.0139   9.0139   9.1041   9.1041   9.1636   9.1636   9.2699   9.2699
     9.2719   9.2719   9.3798   9.3798   9.4212   9.4212   9.4931   9.4931
     9.6049   9.6049   9.6947   9.6947   9.7863   9.7863   9.9352   9.9352
    10.1497  10.1497  10.1660  10.1660  10.2338  10.2338  10.3619  10.3619
    10.4947  10.4947  10.5088  10.5088  10.7004  10.7004  10.7896  10.7896
    11.0620  11.0620  11.0692  11.0692  11.1913  11.1913  11.1950  11.1950
    11.4321  11.4321  11.8675  11.8675  12.0203  12.0203  12.0214  12.0214
    12.2731  12.2731  12.4710  12.4710  12.4801  12.4801  12.6273  12.6273
    12.7315  12.7315  12.8434  12.8434  12.9749  12.9749

          k = 0.0714 0.1237 0.0000 ( 61337 PWs)   bands (ev):

   -85.2907 -85.2907 -85.2209 -85.2209 -85.2162 -85.2162 -85.1738 -85.1738
   -85.1737 -85.1737 -85.1721 -85.1721 -85.1721 -85.1721 -63.9804 -63.9804
   -63.9773 -63.9773 -63.9069 -63.9069 -63.8537 -63.8537 -63.7363 -63.7363
   -63.7363 -63.7363 -63.6438 -63.6438 -63.6438 -63.6438 -49.8287 -49.8287
   -49.7698 -49.7698 -49.7684 -49.7684 -49.7549 -49.7549 -49.7537 -49.7537
   -49.6554 -49.6554 -49.6465 -49.6465 -48.0652 -48.0652 -48.0219 -48.0218
   -48.0015 -48.0015 -47.9555 -47.9555 -47.9534 -47.9534 -47.9387 -47.9387
   -47.8688 -47.8688 -47.8371 -47.8371 -47.8293 -47.8293 -47.8093 -47.8093
   -47.7831 -47.7831 -47.7803 -47.7803 -47.7663 -47.7663 -47.7651 -47.7651
   -35.4293 -35.4293 -35.4038 -35.4038 -35.3354 -35.3354 -35.2145 -35.2145
   -35.2033 -35.2033 -35.2024 -35.2024 -35.0020 -35.0020 -35.0011 -35.0011
   -25.8110 -25.8110 -25.7963 -25.7963 -25.7404 -25.7404 -25.6835 -25.6835
   -25.6639 -25.6639 -25.5752 -25.5752 -25.5684 -25.5684 -25.4715 -25.4715
   -25.4683 -25.4683 -25.3981 -25.3981 -25.3532 -25.3532 -25.3049 -25.3049
   -25.2695 -25.2695 -25.2603 -25.2603 -24.8756 -24.8756 -24.8749 -24.8749
     1.1953   1.1953   2.2480   2.2480   3.6364   3.6364   4.8506   4.8506
     5.0146   5.0146   5.0749   5.0749   5.0869   5.0869   5.2937   5.2937
     5.3029   5.3029   5.4441   5.4441   5.5136   5.5136   6.0506   6.0506
     6.1623   6.1623   6.3551   6.3551   6.4659   6.4659   6.5570   6.5570
     6.6465   6.6465   6.8452   6.8452   6.8842   6.8842   7.0540   7.0540
     7.1037   7.1037   7.1723   7.1723   7.2658   7.2658   7.3317   7.3317
     7.3635   7.3635   7.4841   7.4841   7.5170   7.5170   7.8002   7.8002
     7.8557   7.8557   7.8965   7.8965   7.9425   7.9425   7.9837   7.9837
     8.0490   8.0490   8.0934   8.0934   8.1866   8.1866   8.2261   8.2261
     8.3126   8.3126   8.4819   8.4819   8.6469   8.6469   8.7166   8.7166
     8.7629   8.7629   8.8337   8.8337   8.8741   8.8741   8.9401   8.9401
     9.1232   9.1232   9.1748   9.1748   9.1877   9.1877   9.2459   9.2459
     9.2922   9.2922   9.3408   9.3408   9.3852   9.3852   9.4967   9.4967
     9.5360   9.5360   9.5940   9.5940   9.6077   9.6077   9.6348   9.6348
     9.6655   9.6655   9.9419   9.9419  10.0047  10.0047  10.3096  10.3096
    10.4181  10.4181  10.5018  10.5018  10.5539  10.5539  10.6088  10.6088
    10.7353  10.7353  10.8377  10.8377  11.0113  11.0113  11.3592  11.3592
    11.3752  11.3752  11.5571  11.5571  11.6019  11.6019  11.8591  11.8592
    12.0023  12.0023  12.0836  12.0836  12.1976  12.1976  12.8346  12.8346
    12.9463  12.9463  12.9952  12.9952  13.1326  13.1326

          k = 0.0714 0.2062 0.0000 ( 61344 PWs)   bands (ev):

   -85.2905 -85.2905 -85.2187 -85.2187 -85.2144 -85.2144 -85.1759 -85.1759
   -85.1757 -85.1757 -85.1721 -85.1721 -85.1721 -85.1721 -63.9800 -63.9800
   -63.9772 -63.9772 -63.9046 -63.9046 -63.8562 -63.8562 -63.7334 -63.7334
   -63.7334 -63.7334 -63.6470 -63.6470 -63.6470 -63.6469 -49.8291 -49.8291
   -49.7673 -49.7673 -49.7657 -49.7657 -49.7514 -49.7514 -49.7496 -49.7496
   -49.6596 -49.6596 -49.6508 -49.6508 -48.0648 -48.0648 -48.0156 -48.0156
   -47.9966 -47.9966 -47.9504 -47.9504 -47.9487 -47.9487 -47.9367 -47.9367
   -47.8670 -47.8670 -47.8405 -47.8405 -47.8284 -47.8284 -47.8131 -47.8131
   -47.7877 -47.7877 -47.7852 -47.7851 -47.7732 -47.7732 -47.7719 -47.7719
   -35.4262 -35.4262 -35.4034 -35.4034 -35.3311 -35.3311 -35.2205 -35.2205
   -35.1955 -35.1955 -35.1944 -35.1944 -35.0117 -35.0117 -35.0104 -35.0104
   -25.8168 -25.8168 -25.8008 -25.8008 -25.7295 -25.7295 -25.6912 -25.6912
   -25.6652 -25.6652 -25.5726 -25.5726 -25.5587 -25.5587 -25.4666 -25.4666
   -25.4551 -25.4551 -25.3918 -25.3918 -25.3322 -25.3322 -25.3052 -25.3052
   -25.2739 -25.2739 -25.2583 -25.2583 -24.9003 -24.9003 -24.8983 -24.8983
     1.4216   1.4216   2.4558   2.4558   3.8329   3.8329   4.8652   4.8652
     4.9744   4.9744   5.0437   5.0437   5.1127   5.1127   5.3732   5.3732
     5.4085   5.4085   5.4525   5.4525   5.5294   5.5294   5.9476   5.9476
     6.1128   6.1128   6.2767   6.2767   6.4967   6.4967   6.5645   6.5645
     6.6838   6.6838   6.8363   6.8363   6.8816   6.8816   7.0407   7.0407
     7.0845   7.0845   7.1380   7.1380   7.2031   7.2031   7.3308   7.3308
     7.3490   7.3490   7.4579   7.4579   7.5311   7.5311   7.5852   7.5852
     7.6893   7.6893   7.8037   7.8037   7.8943   7.8943   7.9264   7.9264
     7.9880   7.9880   8.0499   8.0499   8.0733   8.0733   8.1295   8.1296
     8.2248   8.2248   8.4622   8.4622   8.5499   8.5499   8.5995   8.5995
     8.6807   8.6807   8.7423   8.7423   8.8495   8.8495   8.9515   8.9515
     9.1295   9.1295   9.1729   9.1729   9.2182   9.2182   9.2446   9.2446
     9.2994   9.2994   9.3504   9.3504   9.4086   9.4086   9.4744   9.4744
     9.5809   9.5809   9.6581   9.6581   9.6904   9.6904   9.7328   9.7328
     9.8053   9.8053   9.9718   9.9718  10.0573  10.0573  10.0951  10.0951
    10.3642  10.3642  10.5286  10.5286  10.5688  10.5688  10.6437  10.6437
    10.8028  10.8028  10.8642  10.8642  11.0103  11.0103  11.3090  11.3090
    11.3755  11.3755  11.5632  11.5632  11.6920  11.6920  12.0136  12.0136
    12.1955  12.1955  12.2505  12.2505  12.4566  12.4566  12.7352  12.7352
    12.8995  12.8995  12.9662  12.9662  13.0628  13.0628

          k = 0.0714 0.2887 0.0000 ( 61318 PWs)   bands (ev):

   -85.2903 -85.2903 -85.2157 -85.2157 -85.2119 -85.2119 -85.1789 -85.1789
   -85.1785 -85.1785 -85.1721 -85.1721 -85.1721 -85.1721 -63.9795 -63.9795
   -63.9772 -63.9772 -63.9013 -63.9013 -63.8596 -63.8596 -63.7294 -63.7294
   -63.7294 -63.7294 -63.6513 -63.6512 -63.6512 -63.6512 -49.8295 -49.8295
   -49.7649 -49.7649 -49.7635 -49.7635 -49.7456 -49.7455 -49.7427 -49.7427
   -49.6657 -49.6657 -49.6569 -49.6569 -48.0644 -48.0644 -48.0075 -48.0075
   -47.9902 -47.9902 -47.9444 -47.9444 -47.9422 -47.9422 -47.9315 -47.9315
   -47.8644 -47.8644 -47.8448 -47.8448 -47.8284 -47.8284 -47.8196 -47.8195
   -47.7966 -47.7966 -47.7943 -47.7943 -47.7800 -47.7800 -47.7774 -47.7774
   -35.4222 -35.4222 -35.4031 -35.4031 -35.3248 -35.3248 -35.2293 -35.2293
   -35.1843 -35.1843 -35.1830 -35.1830 -35.0250 -35.0250 -35.0234 -35.0234
   -25.8236 -25.8236 -25.8026 -25.8026 -25.7242 -25.7242 -25.6978 -25.6978
   -25.6585 -25.6585 -25.5686 -25.5686 -25.5463 -25.5463 -25.4656 -25.4656
   -25.4393 -25.4392 -25.3965 -25.3965 -25.3073 -25.3072 -25.2891 -25.2891
   -25.2792 -25.2792 -25.2567 -25.2567 -24.9333 -24.9333 -24.9296 -24.9296
     1.7494   1.7494   2.7520   2.7520   4.1066   4.1066   4.7559   4.7559
     4.9081   4.9081   5.0705   5.0705   5.1689   5.1689   5.3599   5.3599
     5.4696   5.4696   5.5467   5.5467   5.6869   5.6869   5.8022   5.8022
     5.9898   5.9898   6.2714   6.2714   6.5121   6.5121   6.5869   6.5869
     6.7098   6.7098   6.8352   6.8352   6.8895   6.8895   6.9368   6.9368
     7.0032   7.0032   7.1195   7.1195   7.1475   7.1475   7.1741   7.1741
     7.3122   7.3122   7.3402   7.3402   7.4371   7.4371   7.5066   7.5066
     7.5836   7.5836   7.6955   7.6955   7.7458   7.7458   7.7815   7.7815
     7.8916   7.8917   8.0186   8.0186   8.0597   8.0597   8.0914   8.0914
     8.2374   8.2374   8.3540   8.3540   8.4148   8.4148   8.5119   8.5119
     8.6024   8.6024   8.7361   8.7361   8.8445   8.8445   8.9812   8.9812
     9.1316   9.1316   9.1566   9.1566   9.2254   9.2254   9.2560   9.2560
     9.3219   9.3219   9.3507   9.3507   9.4146   9.4146   9.4737   9.4738
     9.5895   9.5895   9.7190   9.7190   9.7923   9.7923   9.8383   9.8383
     9.8747   9.8747   9.9785   9.9785  10.0629  10.0630  10.1526  10.1526
    10.2977  10.2977  10.5094  10.5094  10.5493  10.5493  10.7042  10.7042
    10.8612  10.8612  10.9587  10.9587  11.0451  11.0451  11.2744  11.2744
    11.3830  11.3830  11.6597  11.6597  11.8410  11.8410  12.1277  12.1277
    12.2810  12.2810  12.3584  12.3584  12.6105  12.6105  12.7608  12.7608
    12.8724  12.8724  12.9312  12.9312  13.0411  13.0412

          k = 0.0714 0.3712 0.0000 ( 61299 PWs)   bands (ev):

   -85.2901 -85.2901 -85.2121 -85.2121 -85.2088 -85.2088 -85.1825 -85.1825
   -85.1818 -85.1818 -85.1721 -85.1721 -85.1721 -85.1721 -63.9790 -63.9790
   -63.9772 -63.9772 -63.8973 -63.8973 -63.8638 -63.8638 -63.7249 -63.7249
   -63.7249 -63.7249 -63.6560 -63.6560 -63.6560 -63.6560 -49.8299 -49.8299
   -49.7631 -49.7631 -49.7620 -49.7620 -49.7375 -49.7375 -49.7339 -49.7339
   -49.6731 -49.6731 -49.6645 -49.6645 -48.0642 -48.0642 -47.9990 -47.9990
   -47.9836 -47.9836 -47.9408 -47.9408 -47.9323 -47.9323 -47.9216 -47.9216
   -47.8609 -47.8609 -47.8498 -47.8498 -47.8316 -47.8316 -47.8276 -47.8276
   -47.8085 -47.8085 -47.8063 -47.8062 -47.7846 -47.7846 -47.7803 -47.7803
   -35.4179 -35.4179 -35.4030 -35.4030 -35.3169 -35.3169 -35.2398 -35.2398
   -35.1710 -35.1710 -35.1694 -35.1694 -35.0405 -35.0405 -35.0387 -35.0387
   -25.8291 -25.8290 -25.8032 -25.8032 -25.7273 -25.7273 -25.7012 -25.7012
   -25.6397 -25.6397 -25.5630 -25.5629 -25.5335 -25.5334 -25.4696 -25.4696
   -25.4320 -25.4320 -25.4057 -25.4057 -25.2996 -25.2995 -25.2672 -25.2672
   -25.2616 -25.2616 -25.2528 -25.2528 -24.9700 -24.9700 -24.9645 -24.9645
     2.1649   2.1649   3.1172   3.1172   4.4274   4.4274   4.5830   4.5830
     4.7188   4.7188   5.1365   5.1365   5.1846   5.1846   5.3487   5.3487
     5.4960   5.4960   5.6121   5.6121   5.6957   5.6957   5.8613   5.8613
     5.9344   5.9344   6.2659   6.2659   6.4811   6.4811   6.5677   6.5677
     6.7339   6.7339   6.7981   6.7981   6.8562   6.8562   6.9219   6.9219
     6.9434   6.9434   7.0382   7.0382   7.0879   7.0879   7.1410   7.1410
     7.1739   7.1739   7.2751   7.2751   7.3652   7.3652   7.4099   7.4099
     7.4796   7.4796   7.5305   7.5305   7.5894   7.5894   7.6415   7.6415
     7.7783   7.7783   7.9430   7.9430   7.9850   7.9850   8.0797   8.0797
     8.2158   8.2158   8.2675   8.2675   8.4011   8.4011   8.5240   8.5240
     8.6278   8.6278   8.7838   8.7838   8.8584   8.8584   8.9921   8.9921
     9.1124   9.1124   9.1487   9.1487   9.1847   9.1847   9.2380   9.2380
     9.2849   9.2849   9.3498   9.3498   9.4475   9.4475   9.4830   9.4830
     9.6094   9.6094   9.7258   9.7258   9.7872   9.7872   9.8355   9.8355
     9.9750   9.9750  10.0944  10.0944  10.1664  10.1664  10.2474  10.2474
    10.3004  10.3004  10.5089  10.5089  10.5280  10.5280  10.7299  10.7299
    10.8950  10.8950  10.9868  10.9868  11.1705  11.1705  11.2825  11.2825
    11.4866  11.4866  11.7533  11.7533  11.9811  11.9811  12.1826  12.1826
    12.2703  12.2703  12.3788  12.3788  12.5195  12.5195  12.7643  12.7643
    12.8404  12.8404  12.8807  12.8807  13.0153  13.0153

          k = 0.0714 0.4536 0.0000 ( 61336 PWs)   bands (ev):

   -85.2899 -85.2899 -85.2085 -85.2085 -85.2056 -85.2056 -85.1862 -85.1862
   -85.1852 -85.1852 -85.1721 -85.1721 -85.1721 -85.1721 -63.9786 -63.9786
   -63.9772 -63.9772 -63.8932 -63.8932 -63.8680 -63.8680 -63.7208 -63.7208
   -63.7208 -63.7208 -63.6604 -63.6604 -63.6604 -63.6604 -49.8302 -49.8302
   -49.7620 -49.7620 -49.7611 -49.7611 -49.7287 -49.7287 -49.7248 -49.7248
   -49.6809 -49.6809 -49.6725 -49.6725 -48.0641 -48.0641 -47.9918 -47.9918
   -47.9786 -47.9785 -47.9384 -47.9384 -47.9209 -47.9209 -47.9081 -47.9081
   -47.8588 -47.8588 -47.8545 -47.8545 -47.8429 -47.8429 -47.8336 -47.8336
   -47.8188 -47.8188 -47.8156 -47.8156 -47.7876 -47.7875 -47.7819 -47.7819
   -35.4141 -35.4141 -35.4032 -35.4032 -35.3083 -35.3083 -35.2504 -35.2504
   -35.1573 -35.1573 -35.1559 -35.1559 -35.0556 -35.0556 -35.0540 -35.0539
   -25.8325 -25.8325 -25.8035 -25.8035 -25.7326 -25.7326 -25.7029 -25.7029
   -25.6136 -25.6136 -25.5561 -25.5561 -25.5263 -25.5263 -25.4748 -25.4747
   -25.4447 -25.4447 -25.4035 -25.4035 -25.3061 -25.3061 -25.2613 -25.2612
   -25.2364 -25.2364 -25.2254 -25.2254 -25.0040 -25.0040 -24.9975 -24.9975
     2.6484   2.6484   3.5235   3.5235   4.2131   4.2131   4.5510   4.5510
     4.7739   4.7739   5.0327   5.0327   5.2766   5.2766   5.3764   5.3764
     5.4469   5.4469   5.5328   5.5328   5.6641   5.6641   5.7758   5.7758
     6.1696   6.1696   6.2730   6.2730   6.4830   6.4830   6.6116   6.6116
     6.7317   6.7317   6.8214   6.8214   6.8545   6.8545   6.8839   6.8839
     6.9328   6.9328   6.9941   6.9941   7.0577   7.0577   7.0829   7.0829
     7.1437   7.1437   7.1969   7.1969   7.2581   7.2581   7.3035   7.3035
     7.3558   7.3558   7.4075   7.4075   7.4941   7.4941   7.5347   7.5347
     7.6372   7.6372   7.7100   7.7100   7.9319   7.9319   8.0841   8.0841
     8.1902   8.1902   8.2277   8.2277   8.4516   8.4517   8.5608   8.5608
     8.7091   8.7091   8.8316   8.8316   8.8872   8.8872   8.9910   8.9910
     9.0562   9.0562   9.0825   9.0825   9.1622   9.1622   9.2440   9.2440
     9.2952   9.2952   9.3797   9.3797   9.4319   9.4319   9.5249   9.5249
     9.6239   9.6240   9.6849   9.6849   9.7357   9.7357   9.8975   9.8975
    10.0864  10.0864  10.1752  10.1752  10.2372  10.2372  10.3093  10.3093
    10.3633  10.3633  10.5000  10.5000  10.6152  10.6152  10.7353  10.7353
    10.9201  10.9201  11.0274  11.0274  11.1963  11.1963  11.3551  11.3551
    11.6039  11.6039  11.6930  11.6930  11.9567  11.9567  12.1143  12.1144
    12.2702  12.2702  12.3974  12.3974  12.4547  12.4547  12.6626  12.6626
    12.7519  12.7519  12.8415  12.8415  12.9843  12.9843

          k = 0.0714 0.5361 0.0000 ( 61338 PWs)   bands (ev):

   -85.2898 -85.2898 -85.2057 -85.2057 -85.2033 -85.2033 -85.1890 -85.1890
   -85.1876 -85.1876 -85.1721 -85.1721 -85.1721 -85.1721 -63.9783 -63.9783
   -63.9772 -63.9772 -63.8902 -63.8902 -63.8711 -63.8711 -63.7182 -63.7182
   -63.7182 -63.7182 -63.6631 -63.6631 -63.6631 -63.6631 -49.8304 -49.8304
   -49.7615 -49.7615 -49.7606 -49.7606 -49.7218 -49.7218 -49.7184 -49.7184
   -49.6868 -49.6868 -49.6786 -49.6786 -48.0641 -48.0641 -47.9877 -47.9877
   -47.9760 -47.9760 -47.9370 -47.9370 -47.9116 -47.9116 -47.8947 -47.8947
   -47.8638 -47.8638 -47.8598 -47.8598 -47.8485 -47.8485 -47.8384 -47.8384
   -47.8263 -47.8263 -47.8184 -47.8184 -47.7890 -47.7890 -47.7825 -47.7825
   -35.4117 -35.4117 -35.4036 -35.4036 -35.3017 -35.3017 -35.2580 -35.2580
   -35.1474 -35.1474 -35.1465 -35.1464 -35.0658 -35.0658 -35.0648 -35.0647
   -25.8342 -25.8342 -25.8038 -25.8038 -25.7358 -25.7358 -25.7036 -25.7036
   -25.5900 -25.5900 -25.5521 -25.5521 -25.5299 -25.5299 -25.4753 -25.4753
   -25.4570 -25.4570 -25.4016 -25.4016 -25.3103 -25.3103 -25.2624 -25.2624
   -25.2150 -25.2150 -25.2050 -25.2049 -25.0259 -25.0259 -25.0199 -25.0199
     3.1698   3.1698   3.7147   3.7147   3.9461   3.9461   4.3184   4.3184
     4.9448   4.9448   5.0439   5.0439   5.3137   5.3137   5.3629   5.3629
     5.4186   5.4186   5.5016   5.5016   5.5781   5.5781   5.6697   5.6697
     6.3142   6.3142   6.4170   6.4170   6.5751   6.5751   6.6791   6.6791
     6.7110   6.7110   6.7731   6.7731   6.8116   6.8116   6.8462   6.8462
     6.8901   6.8901   6.9865   6.9865   7.0341   7.0341   7.0758   7.0758
     7.1462   7.1462   7.1939   7.1939   7.2168   7.2168   7.2595   7.2595
     7.2966   7.2966   7.3482   7.3482   7.4200   7.4200   7.4488   7.4488
     7.4970   7.4970   7.5419   7.5419   7.8949   7.8950   8.0829   8.0829
     8.1944   8.1944   8.2187   8.2187   8.4643   8.4643   8.5294   8.5294
     8.7349   8.7349   8.8709   8.8709   8.9046   8.9046   8.9627   8.9627
     9.0445   9.0445   9.0757   9.0757   9.1774   9.1774   9.2472   9.2472
     9.3312   9.3312   9.3770   9.3770   9.4296   9.4296   9.5663   9.5663
     9.6087   9.6087   9.6793   9.6793   9.7591   9.7591   9.9332   9.9332
    10.1207  10.1207  10.1728  10.1728  10.2480  10.2480  10.3825  10.3825
    10.4184  10.4184  10.5128  10.5128  10.6759  10.6759  10.7977  10.7977
    10.9753  10.9753  11.0659  11.0659  11.1933  11.1933  11.2865  11.2865
    11.4722  11.4722  11.7629  11.7629  11.8519  11.8519  12.0042  12.0042
    12.2487  12.2487  12.4511  12.4511  12.5214  12.5214  12.6138  12.6138
    12.7384  12.7384  12.8656  12.8656  12.9364  12.9364

          k = 0.1429 0.2474 0.0000 ( 61310 PWs)   bands (ev):

   -85.2903 -85.2903 -85.2162 -85.2162 -85.2123 -85.2123 -85.1785 -85.1785
   -85.1780 -85.1780 -85.1721 -85.1721 -85.1721 -85.1721 -63.9796 -63.9796
   -63.9772 -63.9772 -63.9018 -63.9018 -63.8591 -63.8591 -63.7300 -63.7300
   -63.7300 -63.7300 -63.6506 -63.6506 -63.6506 -63.6506 -49.8295 -49.8295
   -49.7651 -49.7651 -49.7638 -49.7637 -49.7466 -49.7466 -49.7439 -49.7439
   -49.6647 -49.6647 -49.6559 -49.6559 -48.0645 -48.0645 -48.0086 -48.0086
   -47.9909 -47.9909 -47.9458 -47.9458 -47.9434 -47.9434 -47.9323 -47.9323
   -47.8648 -47.8648 -47.8443 -47.8443 -47.8281 -47.8281 -47.8189 -47.8189
   -47.7944 -47.7943 -47.7908 -47.7908 -47.7799 -47.7799 -47.7781 -47.7781
   -35.4228 -35.4228 -35.4031 -35.4031 -35.3258 -35.3258 -35.2279 -35.2279
   -35.1861 -35.1861 -35.1848 -35.1848 -35.0230 -35.0229 -35.0213 -35.0213
   -25.8238 -25.8238 -25.8009 -25.8009 -25.7237 -25.7237 -25.6960 -25.6960
   -25.6607 -25.6607 -25.5717 -25.5716 -25.5502 -25.5502 -25.4638 -25.4638
   -25.4396 -25.4396 -25.3939 -25.3939 -25.3122 -25.3122 -25.2922 -25.2922
   -25.2806 -25.2805 -25.2559 -25.2559 -24.9288 -24.9288 -24.9240 -24.9240
     1.6956   1.6956   2.7037   2.7037   4.0616   4.0616   4.8502   4.8502
     4.9235   4.9235   5.0367   5.0367   5.0672   5.0672   5.3715   5.3715
     5.4718   5.4718   5.5938   5.5938   5.6511   5.6511   5.8522   5.8522
     5.9585   5.9585   6.2412   6.2412   6.5074   6.5074   6.6040   6.6040
     6.7205   6.7205   6.8421   6.8421   6.8909   6.8909   6.9752   6.9752
     7.0123   7.0123   7.0873   7.0873   7.1428   7.1428   7.2502   7.2502
     7.2842   7.2842   7.3636   7.3636   7.4625   7.4625   7.5017   7.5017
     7.6083   7.6083   7.7191   7.7191   7.7721   7.7722   7.8176   7.8176
     7.9574   7.9574   7.9928   7.9928   8.0364   8.0364   8.0453   8.0453
     8.2093   8.2093   8.3758   8.3758   8.4107   8.4107   8.5589   8.5589
     8.6698   8.6698   8.7273   8.7273   8.8363   8.8363   8.9888   8.9888
     9.1318   9.1318   9.1519   9.1519   9.2285   9.2285   9.2380   9.2380
     9.3160   9.3160   9.3985   9.3985   9.4270   9.4270   9.4630   9.4631
     9.6269   9.6269   9.6895   9.6895   9.7189   9.7189   9.8390   9.8390
     9.8757   9.8757   9.9739   9.9739  10.0479  10.0479  10.1260  10.1260
    10.3174  10.3174  10.5711  10.5711  10.6086  10.6086  10.6952  10.6952
    10.7980  10.7980  10.9569  10.9569  10.9921  10.9922  11.2561  11.2561
    11.3438  11.3438  11.6276  11.6276  11.7196  11.7196  12.1248  12.1248
    12.3178  12.3178  12.4567  12.4568  12.5858  12.5858  12.7062  12.7062
    12.8704  12.8704  12.9643  12.9643  13.0376  13.0376

          k = 0.1429 0.3299 0.0000 ( 61303 PWs)   bands (ev):

   -85.2901 -85.2901 -85.2129 -85.2129 -85.2095 -85.2095 -85.1817 -85.1817
   -85.1811 -85.1811 -85.1721 -85.1721 -85.1721 -85.1721 -63.9791 -63.9791
   -63.9772 -63.9772 -63.8982 -63.8982 -63.8629 -63.8629 -63.7259 -63.7259
   -63.7258 -63.7258 -63.6551 -63.6550 -63.6550 -63.6550 -49.8299 -49.8299
   -49.7633 -49.7632 -49.7622 -49.7622 -49.7395 -49.7395 -49.7360 -49.7359
   -49.6715 -49.6715 -49.6628 -49.6628 -48.0643 -48.0643 -48.0005 -48.0005
   -47.9839 -47.9839 -47.9433 -47.9433 -47.9349 -47.9349 -47.9240 -47.9240
   -47.8616 -47.8616 -47.8491 -47.8491 -47.8293 -47.8293 -47.8271 -47.8271
   -47.8043 -47.8043 -47.7989 -47.7989 -47.7859 -47.7859 -47.7829 -47.7829
   -35.4187 -35.4187 -35.4029 -35.4029 -35.3186 -35.3186 -35.2375 -35.2375
   -35.1740 -35.1740 -35.1725 -35.1724 -35.0372 -35.0371 -35.0353 -35.0353
   -25.8304 -25.8304 -25.7995 -25.7995 -25.7258 -25.7258 -25.6957 -25.6957
   -25.6474 -25.6474 -25.5702 -25.5702 -25.5421 -25.5421 -25.4641 -25.4641
   -25.4302 -25.4301 -25.3980 -25.3980 -25.3009 -25.3009 -25.2771 -25.2771
   -25.2675 -25.2675 -25.2532 -25.2532 -24.9628 -24.9628 -24.9549 -24.9549
     2.0629   2.0629   3.0283   3.0284   4.3476   4.3476   4.7153   4.7153
     4.8490   4.8490   5.0289   5.0289   5.0842   5.0842   5.3327   5.3327
     5.4770   5.4770   5.7010   5.7010   5.7652   5.7652   5.8079   5.8079
     5.8929   5.8929   6.2414   6.2414   6.4785   6.4785   6.6103   6.6103
     6.7273   6.7273   6.8075   6.8075   6.8703   6.8703   6.9160   6.9160
     6.9416   6.9416   7.0286   7.0286   7.0868   7.0868   7.1470   7.1470
     7.1732   7.1732   7.2816   7.2816   7.4038   7.4038   7.4620   7.4620
     7.5051   7.5051   7.5581   7.5581   7.6610   7.6610   7.7131   7.7131
     7.8521   7.8521   7.9425   7.9425   7.9822   7.9822   8.0356   8.0356
     8.1608   8.1608   8.2763   8.2763   8.3883   8.3883   8.5861   8.5861
     8.6562   8.6562   8.7804   8.7804   8.8617   8.8617   9.0108   9.0108
     9.1293   9.1294   9.1540   9.1540   9.2046   9.2046   9.2519   9.2519
     9.3003   9.3003   9.3716   9.3716   9.4768   9.4768   9.5361   9.5361
     9.5967   9.5967   9.6663   9.6663   9.7567   9.7567   9.8290   9.8290
     9.9098   9.9098  10.0514  10.0514  10.1550  10.1550  10.2048  10.2048
    10.3190  10.3190  10.5656  10.5656  10.6235  10.6235  10.7433  10.7433
    10.8099  10.8099  10.9423  10.9423  11.1104  11.1104  11.2103  11.2103
    11.4100  11.4100  11.6992  11.6992  11.8209  11.8209  12.1587  12.1587
    12.3497  12.3497  12.4564  12.4564  12.6035  12.6035  12.7787  12.7787
    12.8431  12.8431  12.9116  12.9116  12.9555  12.9555

          k = 0.1429 0.4124 0.0000 ( 61296 PWs)   bands (ev):

   -85.2899 -85.2899 -85.2092 -85.2092 -85.2063 -85.2063 -85.1855 -85.1855
   -85.1845 -85.1845 -85.1721 -85.1721 -85.1721 -85.1721 -63.9787 -63.9787
   -63.9772 -63.9772 -63.8941 -63.8941 -63.8671 -63.8671 -63.7216 -63.7216
   -63.7216 -63.7215 -63.6596 -63.6596 -63.6596 -63.6596 -49.8302 -49.8302
   -49.7619 -49.7619 -49.7610 -49.7610 -49.7310 -49.7310 -49.7269 -49.7269
   -49.6792 -49.6792 -49.6707 -49.6707 -48.0642 -48.0642 -47.9926 -47.9926
   -47.9773 -47.9772 -47.9418 -47.9418 -47.9245 -47.9245 -47.9128 -47.9128
   -47.8586 -47.8586 -47.8543 -47.8543 -47.8394 -47.8394 -47.8303 -47.8303
   -47.8145 -47.8145 -47.8087 -47.8087 -47.7900 -47.7900 -47.7858 -47.7858
   -35.4148 -35.4148 -35.4030 -35.4030 -35.3101 -35.3101 -35.2481 -35.2481
   -35.1606 -35.1605 -35.1588 -35.1588 -35.0525 -35.0525 -35.0505 -35.0505
   -25.8352 -25.8352 -25.7978 -25.7978 -25.7314 -25.7314 -25.6935 -25.6935
   -25.6252 -25.6252 -25.5676 -25.5676 -25.5367 -25.5367 -25.4689 -25.4689
   -25.4387 -25.4387 -25.3907 -25.3907 -25.3085 -25.3085 -25.2603 -25.2602
   -25.2495 -25.2495 -25.2333 -25.2332 -24.9969 -24.9969 -24.9868 -24.9868
     2.5066   2.5066   3.4069   3.4069   4.4556   4.4556   4.6402   4.6402
     4.7067   4.7067   5.0126   5.0126   5.1187   5.1187   5.3365   5.3365
     5.4600   5.4600   5.5490   5.5490   5.6776   5.6776   5.8434   5.8434
     6.1545   6.1545   6.2450   6.2450   6.4586   6.4586   6.5883   6.5883
     6.6768   6.6768   6.8196   6.8196   6.8668   6.8668   6.9061   6.9061
     6.9173   6.9173   7.0044   7.0044   7.0446   7.0446   7.0602   7.0602
     7.1389   7.1389   7.2389   7.2389   7.2746   7.2746   7.3429   7.3429
     7.3807   7.3807   7.4727   7.4727   7.5361   7.5361   7.5968   7.5968
     7.7237   7.7237   7.8007   7.8007   7.9447   7.9447   8.0226   8.0226
     8.1544   8.1544   8.2509   8.2509   8.4305   8.4305   8.6306   8.6306
     8.7001   8.7001   8.8558   8.8558   8.9193   8.9193   8.9926   8.9926
     9.0957   9.0957   9.1385   9.1385   9.1854   9.1854   9.2336   9.2336
     9.2857   9.2857   9.3800   9.3800   9.4528   9.4528   9.5629   9.5630
     9.6133   9.6133   9.6832   9.6832   9.7852   9.7852   9.8564   9.8564
     9.9950   9.9950  10.1039  10.1039  10.2018  10.2018  10.2692  10.2692
    10.3770  10.3770  10.5684  10.5684  10.6074  10.6074  10.7841  10.7841
    10.8484  10.8484  10.9443  10.9443  11.0717  11.0717  11.3114  11.3114
    11.5417  11.5417  11.7144  11.7144  11.9231  11.9231  12.0776  12.0776
    12.2418  12.2418  12.3601  12.3601  12.4869  12.4869  12.6493  12.6493
    12.7840  12.7840  12.8354  12.8354  12.9648  12.9648

          k = 0.1429 0.4949 0.0000 ( 61325 PWs)   bands (ev):

   -85.2898 -85.2898 -85.2057 -85.2057 -85.2033 -85.2033 -85.1889 -85.1889
   -85.1876 -85.1876 -85.1721 -85.1721 -85.1721 -85.1721 -63.9783 -63.9783
   -63.9773 -63.9773 -63.8902 -63.8902 -63.8711 -63.8711 -63.7182 -63.7182
   -63.7182 -63.7182 -63.6632 -63.6631 -63.6631 -63.6631 -49.8304 -49.8304
   -49.7612 -49.7612 -49.7604 -49.7604 -49.7226 -49.7226 -49.7186 -49.7186
   -49.6867 -49.6867 -49.6783 -49.6783 -48.0643 -48.0643 -47.9868 -47.9868
   -47.9728 -47.9728 -47.9406 -47.9406 -47.9144 -47.9143 -47.9007 -47.9007
   -47.8617 -47.8617 -47.8590 -47.8590 -47.8451 -47.8451 -47.8354 -47.8354
   -47.8209 -47.8209 -47.8169 -47.8169 -47.7924 -47.7924 -47.7872 -47.7872
   -35.4116 -35.4116 -35.4034 -35.4034 -35.3017 -35.3017 -35.2579 -35.2579
   -35.1484 -35.1484 -35.1466 -35.1466 -35.0659 -35.0659 -35.0639 -35.0639
   -25.8380 -25.8380 -25.7966 -25.7966 -25.7358 -25.7358 -25.6917 -25.6917
   -25.5994 -25.5994 -25.5651 -25.5650 -25.5388 -25.5388 -25.4774 -25.4774
   -25.4473 -25.4473 -25.3837 -25.3837 -25.3158 -25.3158 -25.2599 -25.2599
   -25.2268 -25.2268 -25.2083 -25.2083 -25.0238 -25.0238 -25.0133 -25.0132
     3.0037   3.0037   3.8027   3.8027   4.0458   4.0458   4.5064   4.5064
     4.8896   4.8896   4.9365   4.9365   5.1961   5.1961   5.3140   5.3140
     5.4223   5.4223   5.5042   5.5042   5.5910   5.5910   5.7704   5.7704
     6.2266   6.2266   6.3933   6.3933   6.5396   6.5396   6.6242   6.6242
     6.6771   6.6771   6.8244   6.8244   6.8436   6.8436   6.8640   6.8640
     6.9114   6.9114   6.9592   6.9592   7.0073   7.0073   7.0870   7.0870
     7.1235   7.1235   7.1877   7.1877   7.2492   7.2492   7.2636   7.2636
     7.2980   7.2980   7.3854   7.3854   7.4358   7.4358   7.4997   7.4997
     7.5805   7.5805   7.6296   7.6296   7.8939   7.8939   8.0497   8.0497
     8.1754   8.1754   8.2215   8.2215   8.4735   8.4735   8.6626   8.6626
     8.7473   8.7473   8.8805   8.8805   8.9143   8.9143   8.9824   8.9824
     9.0203   9.0203   9.1036   9.1036   9.1582   9.1582   9.2795   9.2795
     9.3235   9.3235   9.4222   9.4222   9.4896   9.4896   9.5841   9.5841
     9.6310   9.6311   9.7219   9.7219   9.7655   9.7655   9.8997   9.8997
    10.0720  10.0720  10.1402  10.1402  10.2224  10.2224  10.3012  10.3012
    10.4480  10.4480  10.5318  10.5318  10.6464  10.6464  10.7640  10.7640
    10.8801  10.8801  10.9947  10.9947  11.1221  11.1221  11.3876  11.3876
    11.5182  11.5182  11.5871  11.5871  11.7345  11.7345  11.9242  11.9242
    12.1815  12.1815  12.4264  12.4264  12.5036  12.5036  12.5777  12.5777
    12.7547  12.7547  12.8156  12.8156  12.9541  12.9541

          k = 0.1429 0.5774 0.0000 ( 61330 PWs)   bands (ev):

   -85.2897 -85.2897 -85.2041 -85.2041 -85.2019 -85.2019 -85.1906 -85.1906
   -85.1891 -85.1891 -85.1721 -85.1721 -85.1721 -85.1721 -63.9781 -63.9781
   -63.9773 -63.9773 -63.8883 -63.8883 -63.8730 -63.8730 -63.7168 -63.7168
   -63.7168 -63.7168 -63.6645 -63.6645 -63.6645 -63.6645 -49.8304 -49.8304
   -49.7609 -49.7609 -49.7601 -49.7601 -49.7184 -49.7184 -49.7150 -49.7150
   -49.6903 -49.6903 -49.6820 -49.6820 -48.0643 -48.0643 -47.9846 -47.9846
   -47.9713 -47.9712 -47.9401 -47.9401 -47.9094 -47.9094 -47.8940 -47.8940
   -47.8658 -47.8658 -47.8633 -47.8633 -47.8445 -47.8445 -47.8376 -47.8376
   -47.8245 -47.8245 -47.8190 -47.8190 -47.7931 -47.7931 -47.7876 -47.7876
   -35.4103 -35.4103 -35.4038 -35.4038 -35.2976 -35.2976 -35.2625 -35.2625
   -35.1429 -35.1429 -35.1412 -35.1412 -35.0717 -35.0717 -35.0699 -35.0698
   -25.8389 -25.8389 -25.7963 -25.7963 -25.7373 -25.7373 -25.6910 -25.6910
   -25.5831 -25.5831 -25.5662 -25.5662 -25.5438 -25.5438 -25.4821 -25.4821
   -25.4492 -25.4492 -25.3819 -25.3819 -25.3183 -25.3183 -25.2604 -25.2604
   -25.2168 -25.2167 -25.1978 -25.1978 -25.0345 -25.0345 -25.0244 -25.0244
     3.4716   3.4716   3.5846   3.5846   4.1474   4.1474   4.2622   4.2622
     4.8418   4.8418   5.0745   5.0745   5.2106   5.2106   5.2432   5.2432
     5.4705   5.4706   5.4929   5.4929   5.5908   5.5908   5.6674   5.6674
     6.2484   6.2484   6.4701   6.4701   6.5999   6.5999   6.6220   6.6220
     6.7197   6.7197   6.8129   6.8129   6.8188   6.8188   6.8396   6.8396
     6.8685   6.8685   6.9742   6.9742   7.0234   7.0234   7.0957   7.0957
     7.1289   7.1289   7.1758   7.1758   7.2046   7.2046   7.2794   7.2794
     7.2998   7.2998   7.3715   7.3715   7.4027   7.4027   7.4229   7.4229
     7.4979   7.4979   7.5385   7.5385   7.8693   7.8693   8.0616   8.0616
     8.1823   8.1823   8.2305   8.2305   8.4816   8.4816   8.6485   8.6485
     8.7583   8.7583   8.8578   8.8578   8.9028   8.9028   8.9478   8.9478
     9.0485   9.0485   9.0911   9.0911   9.1528   9.1528   9.2953   9.2953
     9.3730   9.3730   9.4659   9.4659   9.4991   9.4991   9.6144   9.6144
     9.6419   9.6419   9.6927   9.6927   9.7709   9.7709   9.9320   9.9320
    10.0847  10.0848  10.1409  10.1409  10.2370  10.2370  10.3619  10.3619
    10.4010  10.4010  10.5607  10.5607  10.6432  10.6432  10.7882  10.7882
    10.8844  10.8844  11.0281  11.0281  11.1766  11.1766  11.2807  11.2807
    11.5038  11.5038  11.5703  11.5703  11.6325  11.6325  11.8442  11.8442
    12.1547  12.1547  12.4021  12.4021  12.5639  12.5639  12.6041  12.6041
    12.7299  12.7299  12.8539  12.8540  12.9722  12.9723

          k = 0.2143 0.3712 0.0000 ( 61270 PWs)   bands (ev):

   -85.2899 -85.2899 -85.2095 -85.2095 -85.2065 -85.2065 -85.1852 -85.1852
   -85.1842 -85.1842 -85.1721 -85.1721 -85.1721 -85.1721 -63.9787 -63.9787
   -63.9772 -63.9772 -63.8943 -63.8943 -63.8669 -63.8669 -63.7218 -63.7218
   -63.7218 -63.7218 -63.6593 -63.6593 -63.6593 -63.6593 -49.8302 -49.8302
   -49.7619 -49.7619 -49.7610 -49.7610 -49.7318 -49.7318 -49.7276 -49.7276
   -49.6787 -49.6786 -49.6701 -49.6701 -48.0643 -48.0643 -47.9928 -47.9928
   -47.9765 -47.9765 -47.9433 -47.9433 -47.9262 -47.9262 -47.9141 -47.9141
   -47.8586 -47.8586 -47.8542 -47.8542 -47.8385 -47.8385 -47.8289 -47.8289
   -47.8129 -47.8129 -47.8033 -47.8033 -47.7923 -47.7923 -47.7885 -47.7885
   -35.4150 -35.4150 -35.4029 -35.4029 -35.3107 -35.3107 -35.2473 -35.2473
   -35.1617 -35.1617 -35.1598 -35.1598 -35.0514 -35.0514 -35.0493 -35.0493
   -25.8363 -25.8363 -25.7952 -25.7952 -25.7307 -25.7307 -25.6883 -25.6883
   -25.6308 -25.6308 -25.5722 -25.5722 -25.5419 -25.5419 -25.4679 -25.4678
   -25.4336 -25.4336 -25.3861 -25.3861 -25.3093 -25.3093 -25.2616 -25.2616
   -25.2541 -25.2541 -25.2358 -25.2358 -24.9942 -24.9942 -24.9828 -24.9828
     2.4584   2.4584   3.3665   3.3665   4.5820   4.5820   4.6210   4.6210
     4.7767   4.7767   4.9639   4.9639   5.0137   5.0137   5.3149   5.3149
     5.4584   5.4584   5.5806   5.5806   5.6370   5.6370   5.9483   5.9483
     6.0704   6.0704   6.2880   6.2880   6.4415   6.4415   6.5741   6.5741
     6.6449   6.6450   6.8084   6.8084   6.8645   6.8645   6.9232   6.9232
     6.9378   6.9378   6.9857   6.9857   7.0361   7.0361   7.0563   7.0563
     7.1569   7.1569   7.2084   7.2084   7.3161   7.3161   7.3559   7.3559
     7.3761   7.3761   7.5019   7.5019   7.5670   7.5670   7.6217   7.6217
     7.8017   7.8017   7.8228   7.8228   7.9151   7.9151   8.0445   8.0445
     8.0829   8.0829   8.2749   8.2749   8.4133   8.4133   8.6431   8.6431
     8.7091   8.7091   8.8564   8.8564   8.9010   8.9010   9.0028   9.0028
     9.1302   9.1302   9.1805   9.1805   9.2244   9.2244   9.2927   9.2927
     9.3062   9.3062   9.3941   9.3941   9.4742   9.4742   9.5104   9.5104
     9.5472   9.5472   9.6561   9.6561   9.7634   9.7634   9.8919   9.8919
     9.9602   9.9602  10.0793  10.0793  10.2272  10.2272  10.2477  10.2477
    10.3841  10.3842  10.5826  10.5826  10.6586  10.6586  10.7734  10.7734
    10.8168  10.8168  10.9378  10.9378  11.0439  11.0439  11.0788  11.0788
    11.6725  11.6725  11.7273  11.7273  11.8396  11.8396  12.0620  12.0620
    12.2410  12.2410  12.3817  12.3817  12.5088  12.5088  12.6270  12.6270
    12.7833  12.7833  12.8206  12.8206  12.9784  12.9784

          k = 0.2143 0.4536 0.0000 ( 61254 PWs)   bands (ev):

   -85.2898 -85.2898 -85.2057 -85.2057 -85.2033 -85.2033 -85.1889 -85.1889
   -85.1876 -85.1876 -85.1721 -85.1721 -85.1721 -85.1721 -63.9783 -63.9783
   -63.9773 -63.9773 -63.8902 -63.8902 -63.8711 -63.8711 -63.7182 -63.7181
   -63.7181 -63.7181 -63.6632 -63.6632 -63.6632 -63.6632 -49.8304 -49.8304
   -49.7609 -49.7608 -49.7602 -49.7602 -49.7233 -49.7232 -49.7188 -49.7188
   -49.6866 -49.6866 -49.6780 -49.6780 -48.0644 -48.0644 -47.9859 -47.9859
   -47.9698 -47.9698 -47.9438 -47.9438 -47.9174 -47.9174 -47.9038 -47.9038
   -47.8607 -47.8607 -47.8587 -47.8587 -47.8436 -47.8436 -47.8312 -47.8312
   -47.8198 -47.8198 -47.8098 -47.8098 -47.7966 -47.7965 -47.7926 -47.7925
   -35.4116 -35.4116 -35.4033 -35.4033 -35.3017 -35.3017 -35.2578 -35.2578
   -35.1490 -35.1490 -35.1469 -35.1468 -35.0658 -35.0658 -35.0634 -35.0634
   -25.8404 -25.8404 -25.7914 -25.7914 -25.7352 -25.7352 -25.6801 -25.6801
   -25.6109 -25.6109 -25.5729 -25.5729 -25.5452 -25.5452 -25.4823 -25.4823
   -25.4340 -25.4340 -25.3737 -25.3737 -25.3189 -25.3189 -25.2592 -25.2592
   -25.2357 -25.2357 -25.2113 -25.2113 -25.0217 -25.0217 -25.0087 -25.0087
     2.9162   2.9162   3.7400   3.7400   4.3325   4.3325   4.6210   4.6210
     4.8095   4.8095   4.8677   4.8677   5.0264   5.0264   5.2921   5.2921
     5.4322   5.4322   5.5080   5.5080   5.5628   5.5628   5.8992   5.8992
     6.1565   6.1565   6.4137   6.4137   6.4990   6.4990   6.5757   6.5757
     6.6132   6.6132   6.8202   6.8202   6.8667   6.8667   6.8887   6.8887
     6.9258   6.9259   6.9538   6.9538   7.0013   7.0013   7.0646   7.0646
     7.1491   7.1491   7.1789   7.1789   7.2391   7.2391   7.2513   7.2513
     7.3042   7.3042   7.4458   7.4458   7.4718   7.4718   7.5210   7.5210
     7.6741   7.6741   7.7080   7.7080   7.9020   7.9020   8.0237   8.0237
     8.1406   8.1406   8.2380   8.2380   8.4544   8.4544   8.6698   8.6698
     8.7604   8.7604   8.8690   8.8690   8.9430   8.9430   8.9865   8.9866
     9.0961   9.0961   9.1804   9.1804   9.2377   9.2377   9.3208   9.3208
     9.3476   9.3476   9.4184   9.4184   9.4856   9.4856   9.5436   9.5436
     9.6006   9.6006   9.6910   9.6910   9.7987   9.7987   9.9241   9.9241
    10.0116  10.0116  10.0918  10.0918  10.2327  10.2327  10.2988  10.2988
    10.4579  10.4579  10.5484  10.5484  10.6334  10.6334  10.7793  10.7794
    10.8397  10.8397  10.8675  10.8675  10.9835  10.9835  11.1559  11.1559
    11.5504  11.5504  11.6534  11.6534  11.8125  11.8125  11.9179  11.9179
    12.1539  12.1539  12.3330  12.3330  12.4435  12.4435  12.5734  12.5734
    12.6799  12.6799  12.8335  12.8335  12.9820  12.9820

          k = 0.2143 0.5361 0.0000 ( 61306 PWs)   bands (ev):

   -85.2897 -85.2897 -85.2026 -85.2026 -85.2006 -85.2006 -85.1921 -85.1921
   -85.1903 -85.1903 -85.1721 -85.1721 -85.1721 -85.1721 -63.9780 -63.9780
   -63.9774 -63.9774 -63.8867 -63.8867 -63.8747 -63.8747 -63.7158 -63.7158
   -63.7158 -63.7158 -63.6656 -63.6656 -63.6656 -63.6656 -49.8305 -49.8305
   -49.7603 -49.7603 -49.7598 -49.7597 -49.7159 -49.7159 -49.7120 -49.7120
   -49.6932 -49.6932 -49.6846 -49.6846 -48.0645 -48.0645 -47.9815 -47.9815
   -47.9659 -47.9659 -47.9441 -47.9441 -47.9109 -47.9108 -47.8962 -47.8962
   -47.8655 -47.8654 -47.8644 -47.8644 -47.8406 -47.8405 -47.8344 -47.8344
   -47.8230 -47.8230 -47.8165 -47.8164 -47.7981 -47.7981 -47.7945 -47.7945
   -35.4091 -35.4091 -35.4040 -35.4040 -35.2940 -35.2940 -35.2664 -35.2664
   -35.1398 -35.1397 -35.1372 -35.1372 -35.0762 -35.0762 -35.0735 -35.0735
   -25.8425 -25.8424 -25.7893 -25.7893 -25.7375 -25.7375 -25.6747 -25.6747
   -25.5942 -25.5942 -25.5727 -25.5727 -25.5496 -25.5496 -25.4970 -25.4970
   -25.4309 -25.4309 -25.3691 -25.3691 -25.3236 -25.3236 -25.2600 -25.2600
   -25.2220 -25.2220 -25.1950 -25.1949 -25.0384 -25.0383 -25.0257 -25.0257
     3.4083   3.4083   3.9004   3.9004   4.1235   4.1235   4.4593   4.4593
     4.6503   4.6503   5.0139   5.0139   5.0374   5.0374   5.2019   5.2019
     5.4618   5.4618   5.5460   5.5460   5.5828   5.5828   5.7606   5.7606
     6.1274   6.1274   6.4849   6.4849   6.5293   6.5294   6.6335   6.6335
     6.6721   6.6721   6.8174   6.8174   6.8288   6.8288   6.8736   6.8736
     6.9061   6.9061   6.9676   6.9676   7.0167   7.0167   7.0587   7.0587
     7.1265   7.1265   7.1848   7.1848   7.2256   7.2256   7.2814   7.2814
     7.3010   7.3010   7.3862   7.3862   7.4055   7.4055   7.4580   7.4580
     7.5541   7.5541   7.5827   7.5827   7.8811   7.8811   8.0278   8.0278
     8.1560   8.1560   8.2660   8.2660   8.4800   8.4800   8.6832   8.6832
     8.7449   8.7449   8.8369   8.8369   8.8815   8.8815   8.9732   8.9732
     9.0724   9.0724   9.1690   9.1690   9.2296   9.2296   9.3557   9.3557
     9.4135   9.4135   9.5063   9.5063   9.5618   9.5618   9.6336   9.6336
     9.6705   9.6705   9.7548   9.7549   9.8151   9.8151   9.9011   9.9011
    10.0243  10.0243  10.1016  10.1016  10.2104  10.2104  10.3518  10.3518
    10.4213  10.4213  10.4594  10.4594  10.6730  10.6730  10.7214  10.7214
    10.7978  10.7978  10.9355  10.9355  11.0467  11.0467  11.2026  11.2026
    11.2873  11.2873  11.4735  11.4735  11.7107  11.7107  11.8645  11.8646
    12.0665  12.0665  12.3584  12.3584  12.5034  12.5034  12.5854  12.5854
    12.7032  12.7032  12.8268  12.8268  13.0224  13.0224

          k = 0.2857 0.4949 0.0000 ( 61280 PWs)   bands (ev):

   -85.2897 -85.2897 -85.2020 -85.2020 -85.2001 -85.2001 -85.1927 -85.1927
   -85.1909 -85.1909 -85.1721 -85.1721 -85.1721 -85.1721 -63.9780 -63.9780
   -63.9774 -63.9774 -63.8860 -63.8860 -63.8754 -63.8754 -63.7155 -63.7155
   -63.7155 -63.7155 -63.6660 -63.6660 -63.6660 -63.6659 -49.8305 -49.8305
   -49.7601 -49.7601 -49.7596 -49.7596 -49.7150 -49.7150 -49.7108 -49.7108
   -49.6945 -49.6945 -49.6856 -49.6856 -48.0646 -48.0646 -47.9802 -47.9801
   -47.9633 -47.9633 -47.9462 -47.9462 -47.9124 -47.9124 -47.8971 -47.8971
   -47.8654 -47.8654 -47.8642 -47.8642 -47.8394 -47.8394 -47.8312 -47.8312
   -47.8242 -47.8242 -47.8117 -47.8117 -47.8022 -47.8022 -47.7982 -47.7982
   -35.4087 -35.4087 -35.4041 -35.4041 -35.2924 -35.2924 -35.2680 -35.2680
   -35.1386 -35.1386 -35.1357 -35.1357 -35.0780 -35.0779 -35.0748 -35.0748
   -25.8437 -25.8437 -25.7865 -25.7865 -25.7373 -25.7373 -25.6654 -25.6654
   -25.6039 -25.6039 -25.5755 -25.5755 -25.5490 -25.5490 -25.5027 -25.5027
   -25.4234 -25.4234 -25.3656 -25.3656 -25.3246 -25.3246 -25.2602 -25.2602
   -25.2249 -25.2248 -25.1943 -25.1943 -25.0393 -25.0392 -25.0258 -25.0258
     3.3701   3.3701   4.0808   4.0808   4.2143   4.2143   4.3589   4.3589
     4.7005   4.7005   4.8458   4.8458   5.0006   5.0006   5.1983   5.1983
     5.4586   5.4586   5.5552   5.5552   5.5902   5.5902   5.8363   5.8363
     6.0521   6.0521   6.4958   6.4958   6.5185   6.5185   6.5700   6.5700
     6.6765   6.6765   6.8239   6.8239   6.8356   6.8356   6.8699   6.8699
     6.9139   6.9139   6.9451   6.9451   7.0560   7.0560   7.0705   7.0705
     7.0955   7.0955   7.2027   7.2027   7.2200   7.2200   7.2664   7.2664
     7.2990   7.2990   7.4164   7.4164   7.4366   7.4366   7.4525   7.4525
     7.5836   7.5836   7.6252   7.6252   7.9017   7.9017   7.9936   7.9936
     8.1366   8.1366   8.2832   8.2832   8.4869   8.4869   8.6667   8.6667
     8.7389   8.7389   8.8281   8.8281   8.8721   8.8721   8.9474   8.9474
     9.0955   9.0955   9.2430   9.2430   9.3377   9.3377   9.4117   9.4117
     9.4369   9.4369   9.5304   9.5304   9.5624   9.5624   9.6203   9.6204
     9.6523   9.6523   9.7153   9.7153   9.8170   9.8171   9.9338   9.9338
    10.0043  10.0043  10.0687  10.0687  10.2179  10.2179  10.3547  10.3547
    10.4149  10.4149  10.4885  10.4885  10.6132  10.6132  10.6964  10.6964
    10.7497  10.7497  10.8768  10.8768  10.9305  10.9305  11.1500  11.1500
    11.2425  11.2425  11.4656  11.4656  11.7059  11.7059  11.8951  11.8951
    12.1107  12.1107  12.3711  12.3711  12.4576  12.4576  12.5572  12.5572
    12.6268  12.6268  12.8388  12.8388  13.0490  13.0490

          k = 0.2857 0.5774 0.0000 ( 61314 PWs)   bands (ev):

   -85.2896 -85.2896 -85.1994 -85.1994 -85.1982 -85.1982 -85.1953 -85.1953
   -85.1928 -85.1928 -85.1721 -85.1721 -85.1721 -85.1721 -63.9778 -63.9778
   -63.9775 -63.9775 -63.8831 -63.8831 -63.8783 -63.8783 -63.7144 -63.7144
   -63.7144 -63.7144 -63.6670 -63.6670 -63.6670 -63.6670 -49.8306 -49.8306
   -49.7598 -49.7598 -49.7594 -49.7594 -49.7094 -49.7094 -49.7064 -49.7064
   -49.6998 -49.6998 -49.6900 -49.6900 -48.0647 -48.0647 -47.9778 -47.9777
   -47.9606 -47.9606 -47.9474 -47.9474 -47.9106 -47.9106 -47.8947 -47.8947
   -47.8684 -47.8684 -47.8654 -47.8654 -47.8365 -47.8365 -47.8306 -47.8306
   -47.8259 -47.8259 -47.8143 -47.8143 -47.8036 -47.8036 -47.8006 -47.8005
   -35.4070 -35.4070 -35.4050 -35.4050 -35.2859 -35.2859 -35.2749 -35.2749
   -35.1339 -35.1339 -35.1304 -35.1304 -35.0836 -35.0836 -35.0799 -35.0799
   -25.8449 -25.8449 -25.7847 -25.7847 -25.7380 -25.7380 -25.6578 -25.6578
   -25.6043 -25.6043 -25.5769 -25.5768 -25.5447 -25.5447 -25.5150 -25.5150
   -25.4182 -25.4182 -25.3654 -25.3654 -25.3250 -25.3250 -25.2609 -25.2609
   -25.2207 -25.2207 -25.1877 -25.1877 -25.0455 -25.0455 -25.0326 -25.0326
     3.8133   3.8133   3.8552   3.8552   4.2483   4.2483   4.3874   4.3874
     4.5139   4.5139   4.7794   4.7794   5.0696   5.0696   5.1301   5.1301
     5.4699   5.4699   5.6229   5.6229   5.6738   5.6738   5.7325   5.7325
     5.9874   5.9874   6.5057   6.5057   6.5121   6.5121   6.5689   6.5689
     6.7349   6.7349   6.7985   6.7985   6.8201   6.8201   6.8572   6.8572
     6.8776   6.8776   6.9846   6.9846   7.0505   7.0505   7.0780   7.0780
     7.1613   7.1613   7.2084   7.2084   7.2424   7.2424   7.2803   7.2803
     7.3209   7.3209   7.3568   7.3568   7.4313   7.4313   7.4845   7.4845
     7.5095   7.5095   7.5563   7.5563   7.9081   7.9081   7.9897   7.9897
     8.0819   8.0819   8.4026   8.4027   8.4958   8.4958   8.6255   8.6255
     8.6795   8.6795   8.7805   8.7805   8.8164   8.8164   8.9936   8.9936
     9.0847   9.0847   9.2617   9.2618   9.3553   9.3553   9.4460   9.4460
     9.4795   9.4795   9.5348   9.5348   9.6424   9.6425   9.7226   9.7226
     9.7422   9.7422   9.7944   9.7945   9.8705   9.8705   9.9081   9.9081
    10.0243  10.0243  10.0648  10.0648  10.1182  10.1182  10.2080  10.2080
    10.3159  10.3159  10.4913  10.4913  10.6513  10.6513  10.6954  10.6954
    10.7397  10.7397  10.8424  10.8424  10.9649  10.9649  11.1140  11.1140
    11.1387  11.1387  11.3593  11.3593  11.6651  11.6651  11.8488  11.8488
    12.1336  12.1336  12.3519  12.3519  12.4794  12.4794  12.5130  12.5130
    12.6812  12.6812  12.7974  12.7974  13.0830  13.0830

     the Fermi energy is     9.8409 ev

!    total energy              =   -3371.31763809 Ry
     estimated scf accuracy    <       0.00000072 Ry

     The total energy is the sum of the following terms:
     one-electron contribution =  -15044.20573563 Ry
     hartree contribution      =    7584.09363148 Ry
     xc contribution           =    -659.70837068 Ry
     ewald contribution        =    4748.50283673 Ry

     convergence has been achieved in  16 iterations
 
     init_run     :     52.09s CPU     53.92s WALL (       1 calls)
     electrons    :   2669.12s CPU   2763.96s WALL (       1 calls)

     Called by init_run:
     wfcinit      :     51.06s CPU     52.78s WALL (       1 calls)
     potinit      :      0.52s CPU      0.56s WALL (       1 calls)
     hinit0       :      0.38s CPU      0.40s WALL (       1 calls)

     Called by electrons:
     c_bands      :   2183.79s CPU   2258.96s WALL (      16 calls)
     sum_band     :    459.09s CPU    477.16s WALL (      16 calls)
     v_of_rho     :      2.91s CPU      3.06s WALL (      17 calls)
     mix_rho      :     22.15s CPU     23.50s WALL (      16 calls)

     Called by c_bands:
     init_us_2    :     13.07s CPU     13.35s WALL (     198 calls)
     cegterg      :   1931.75s CPU   2000.00s WALL (      96 calls)

     Called by *egterg:
     cdiaghg      :     67.48s CPU     68.63s WALL (     365 calls)
     h_psi        :   1579.19s CPU   1635.73s WALL (     371 calls)
     g_psi        :      3.29s CPU      3.37s WALL (     269 calls)

     Called by h_psi:
     h_psi:calbec :    143.47s CPU    146.78s WALL (     371 calls)
     vloc_psi     :   1283.08s CPU   1329.07s WALL (     371 calls)
     add_vuspsi   :    144.60s CPU    147.03s WALL (     371 calls)

     General routines
     calbec       :    143.47s CPU    146.78s WALL (     371 calls)
     fft          :      1.64s CPU      1.82s WALL (     218 calls)
     ffts         :     10.89s CPU     11.75s WALL (    1249 calls)
     fftw         :   1226.75s CPU   1279.90s WALL (  293508 calls)
 
     Parallel routines
     fft_scatt_xy :    268.98s CPU    275.95s WALL (  294975 calls)
     fft_scatt_yz :    245.56s CPU    275.61s WALL (  294975 calls)
 
     PWSCF        :  45m26.21s CPU  47m 3.57s WALL

 
   This run was terminated on:  11:14:39   2May2020            

=------------------------------------------------------------------------------=
   JOB DONE.
=------------------------------------------------------------------------------=
