
     Program PWSCF v.6.5 starts on  2May2020 at 10:28:21 

     This program is part of the open-source Quantum ESPRESSO suite
     for quantum simulation of materials; please cite
         "P. Giannozzi et al., J. Phys.:Condens. Matter 21 395502 (2009);
         "P. Giannozzi et al., J. Phys.:Condens. Matter 29 465901 (2017);
          URL http://www.quantum-espresso.org", 
     in publications or presentations arising from this work. More details at
     http://www.quantum-espresso.org/quote

     Parallel version (MPI), running on    32 processors

     MPI processes distributed on     1 nodes
     K-points division:     npool     =       4
     R & G space division:  proc/nbgrp/npool/nimage =       8
     Fft bands division:     nmany     =       1
     Reading input from vii_1.in

     Current dimensions of program PWSCF are:
     Max number of different atomic species (ntypx) = 10
     Max number of k-points (npk) =  40000
     Max angular momentum in pseudopotentials (lmaxx) =  3

     Subspace diagonalization in iterative solution of the eigenvalue problem:
     a serial algorithm will be used

     [opt_tetra]  Optimized tetrahedron method is used.
 
     Parallelization info
     --------------------
     sticks:   dense  smooth     PW     G-vecs:    dense   smooth      PW
     Min         361     361     96                63393    63393    8888
     Max         362     362     97                63406    63406    8907
     Sum        2893    2893    769               507179   507179   71153
 


     bravais-lattice index     =            4
     lattice parameter (alat)  =       8.9709  a.u.
     unit-cell volume          =    2531.4111 (a.u.)^3
     number of atoms/cell      =           16
     number of atomic types    =            2
     number of electrons       =       248.00
     number of Kohn-Sham states=          298
     kinetic-energy cutoff     =     130.0000  Ry
     charge density cutoff     =     520.0000  Ry
     convergence threshold     =      1.0E-06
     mixing beta               =       0.7000
     number of iterations used =            8  local-TF  mixing
     Exchange-correlation= PBE
                           (   1   4   3   4   0   0   0)
     Non magnetic calculation with spin-orbit


     celldm(1)=   8.970926  celldm(2)=   0.000000  celldm(3)=   4.048743
     celldm(4)=   0.000000  celldm(5)=   0.000000  celldm(6)=   0.000000

     crystal axes: (cart. coord. in units of alat)
               a(1) = (   1.000000   0.000000   0.000000 )  
               a(2) = (  -0.500000   0.866025   0.000000 )  
               a(3) = (   0.000000   0.000000   4.048743 )  

     reciprocal axes: (cart. coord. in units 2 pi/alat)
               b(1) = (  1.000000  0.577350  0.000000 )  
               b(2) = (  0.000000  1.154701  0.000000 )  
               b(3) = (  0.000000  0.000000  0.246990 )  


     PseudoPot. # 1 for Co read from file:
     /gpfs/share/home/1600011702/pseudo/Co.nc.fr.pbe.stringent.upf
     MD5 check sum: 5025e55def73e686899be73cabb26c16
     Pseudo is Norm-conserving + core correction, Zval = 17.0
     Generated using ONCVPSP code by D. R. Hamann
     Using radial grid of 1388 points, 10 beta functions with: 
                l(1) =   0
                l(2) =   0
                l(3) =   1
                l(4) =   1
                l(5) =   1
                l(6) =   1
                l(7) =   2
                l(8) =   2
                l(9) =   2
               l(10) =   2

     PseudoPot. # 2 for W  read from file:
     /gpfs/share/home/1600011702/pseudo/W.nc.fr.pbe.stringent.upf
     MD5 check sum: 75b1d432d85d028982bb81b068264ebf
     Pseudo is Norm-conserving + core correction, Zval = 14.0
     Generated using ONCVPSP code by D. R. Hamann
     Using radial grid of 1396 points, 14 beta functions with: 
                l(1) =   0
                l(2) =   0
                l(3) =   1
                l(4) =   1
                l(5) =   1
                l(6) =   1
                l(7) =   2
                l(8) =   2
                l(9) =   2
               l(10) =   2
               l(11) =   3
               l(12) =   3
               l(13) =   3
               l(14) =   3

     atomic species   valence    mass     pseudopotential
        Co            17.00    58.93320     Co( 1.00)
        W             14.00   183.84000     W ( 1.00)

      6 Sym. Ops. (no inversion) found



   Cartesian axes

     site n.     atom                  positions (alat units)
         1           Co  tau(   1) = (  -0.0000000   0.5773503   0.0719104  )
         2           Co  tau(   2) = (   0.5000000   0.2886751   1.8703324  )
         3           Co  tau(   3) = (  -0.2499054   0.4330673   1.4567389  )
         4           Co  tau(   4) = (   0.0000000   0.8659162   1.4567389  )
         5           Co  tau(   5) = (   0.2499054   0.4330673   1.4567389  )
         6           Co  tau(   6) = (   0.7499054   0.4329581   0.4855038  )
         7           Co  tau(   7) = (   0.5000000   0.0001092   0.4855038  )
         8           Co  tau(   8) = (   0.2500946   0.4329581   0.4855038  )
         9           W   tau(   9) = (  -0.0000000   0.5773503   0.9646841  )
        10           W   tau(  10) = (   0.0000000   0.0000000   0.1438207  )
        11           W   tau(  11) = (  -0.0000000   0.5773503   1.9422427  )
        12           W   tau(  12) = (   0.0000000   0.0000000   0.7030210  )
        13           W   tau(  13) = (   0.5000000   0.2886751   0.9775587  )
        14           W   tau(  14) = (   0.0000000   0.0000000   1.7984220  )
        15           W   tau(  15) = (   0.5000000   0.2886751   0.0000000  )
        16           W   tau(  16) = (   0.0000000   0.0000000   1.2392217  )

     number of k points=    24 (tetrahedron method)
                       cart. coord. in units 2pi/alat
        k(    1) = (   0.0000000   0.0000000   0.0000000), wk =   0.0051020
        k(    2) = (   0.0000000   0.0824786   0.0000000), wk =   0.0306122
        k(    3) = (   0.0000000   0.1649572   0.0000000), wk =   0.0306122
        k(    4) = (   0.0000000   0.2474358   0.0000000), wk =   0.0306122
        k(    5) = (   0.0000000   0.3299144   0.0000000), wk =   0.0306122
        k(    6) = (   0.0000000   0.4123930   0.0000000), wk =   0.0306122
        k(    7) = (   0.0000000   0.4948717   0.0000000), wk =   0.0306122
        k(    8) = (   0.0000000  -0.5773503   0.0000000), wk =   0.0153061
        k(    9) = (   0.0714286   0.1237179   0.0000000), wk =   0.0306122
        k(   10) = (   0.0714286   0.2061965   0.0000000), wk =   0.0612245
        k(   11) = (   0.0714286   0.2886751   0.0000000), wk =   0.0612245
        k(   12) = (   0.0714286   0.3711537   0.0000000), wk =   0.0612245
        k(   13) = (   0.0714286   0.4536324   0.0000000), wk =   0.0612245
        k(   14) = (   0.0714286   0.5361110   0.0000000), wk =   0.0612245
        k(   15) = (   0.1428571   0.2474358   0.0000000), wk =   0.0306122
        k(   16) = (   0.1428571   0.3299144   0.0000000), wk =   0.0612245
        k(   17) = (   0.1428571   0.4123930   0.0000000), wk =   0.0612245
        k(   18) = (   0.1428571   0.4948717   0.0000000), wk =   0.0612245
        k(   19) = (   0.1428571   0.5773503   0.0000000), wk =   0.0306122
        k(   20) = (   0.2142857   0.3711537   0.0000000), wk =   0.0306122
        k(   21) = (   0.2142857   0.4536324   0.0000000), wk =   0.0612245
        k(   22) = (   0.2142857   0.5361110   0.0000000), wk =   0.0612245
        k(   23) = (   0.2857143   0.4948717   0.0000000), wk =   0.0306122
        k(   24) = (   0.2857143   0.5773503   0.0000000), wk =   0.0306122

     Dense  grid:   507179 G-vectors     FFT dimensions: (  72,  72, 270)

     Estimated max dynamical RAM per process >       1.36 GB

     Estimated total dynamical RAM >      43.42 GB

     Initial potential from superposition of free atoms

     starting charge  247.99349, renormalised to  248.00000

     negative rho (up, down):  2.491E-07 0.000E+00
     Starting wfcs are  320 randomized atomic wfcs

     total cpu time spent up to now is       70.6 secs

     Self-consistent Calculation

     iteration #  1     ecut=   130.00 Ry     beta= 0.70
     Davidson diagonalization with overlap
     ethr =  1.00E-02,  avg # of iterations =  3.0

     total cpu time spent up to now is      319.9 secs

     total energy              =   -3676.54616480 Ry
     estimated scf accuracy    <      24.32938477 Ry

     iteration #  2     ecut=   130.00 Ry     beta= 0.70
     Davidson diagonalization with overlap
     ethr =  9.81E-03,  avg # of iterations =  2.0

     total cpu time spent up to now is      506.1 secs

     total energy              =   -3676.04845872 Ry
     estimated scf accuracy    <      38.28639797 Ry

     iteration #  3     ecut=   130.00 Ry     beta= 0.70
     Davidson diagonalization with overlap
     ethr =  9.81E-03,  avg # of iterations =  1.2

     total cpu time spent up to now is      686.7 secs

     total energy              =   -3679.25653979 Ry
     estimated scf accuracy    <       4.49005693 Ry

     iteration #  4     ecut=   130.00 Ry     beta= 0.70
     Davidson diagonalization with overlap
     ethr =  1.81E-03,  avg # of iterations =  1.7

     total cpu time spent up to now is      869.6 secs

     total energy              =   -3679.30110155 Ry
     estimated scf accuracy    <       3.86701981 Ry

     iteration #  5     ecut=   130.00 Ry     beta= 0.70
     Davidson diagonalization with overlap
     ethr =  1.56E-03,  avg # of iterations =  1.0

     total cpu time spent up to now is     1049.5 secs

     total energy              =   -3679.34624999 Ry
     estimated scf accuracy    <       1.19957599 Ry

     iteration #  6     ecut=   130.00 Ry     beta= 0.70
     Davidson diagonalization with overlap
     ethr =  4.84E-04,  avg # of iterations =  1.2

     total cpu time spent up to now is     1230.3 secs

     total energy              =   -3679.40879682 Ry
     estimated scf accuracy    <       0.14776762 Ry

     iteration #  7     ecut=   130.00 Ry     beta= 0.70
     Davidson diagonalization with overlap
     ethr =  5.96E-05,  avg # of iterations =  6.6

     total cpu time spent up to now is     1447.9 secs

     total energy              =   -3679.42714293 Ry
     estimated scf accuracy    <       0.31684400 Ry

     iteration #  8     ecut=   130.00 Ry     beta= 0.70
     Davidson diagonalization with overlap
     ethr =  5.96E-05,  avg # of iterations =  1.0

     total cpu time spent up to now is     1628.1 secs

     total energy              =   -3679.41377620 Ry
     estimated scf accuracy    <       0.20315529 Ry

     iteration #  9     ecut=   130.00 Ry     beta= 0.70
     Davidson diagonalization with overlap
     ethr =  5.96E-05,  avg # of iterations =  1.0

     total cpu time spent up to now is     1808.4 secs

     total energy              =   -3679.41660179 Ry
     estimated scf accuracy    <       0.02703706 Ry

     iteration # 10     ecut=   130.00 Ry     beta= 0.70
     Davidson diagonalization with overlap
     ethr =  1.09E-05,  avg # of iterations =  2.8

     total cpu time spent up to now is     1998.8 secs

     total energy              =   -3679.41714357 Ry
     estimated scf accuracy    <       0.05676181 Ry

     iteration # 11     ecut=   130.00 Ry     beta= 0.70
     Davidson diagonalization with overlap
     ethr =  1.09E-05,  avg # of iterations =  1.0

     total cpu time spent up to now is     2179.3 secs

     total energy              =   -3679.41741702 Ry
     estimated scf accuracy    <       0.01714270 Ry

     iteration # 12     ecut=   130.00 Ry     beta= 0.70
     Davidson diagonalization with overlap
     ethr =  6.91E-06,  avg # of iterations =  1.0

     total cpu time spent up to now is     2359.7 secs

     total energy              =   -3679.41805387 Ry
     estimated scf accuracy    <       0.00712536 Ry

     iteration # 13     ecut=   130.00 Ry     beta= 0.70
     Davidson diagonalization with overlap
     ethr =  2.87E-06,  avg # of iterations =  7.1

     total cpu time spent up to now is     2570.4 secs

     total energy              =   -3679.41845243 Ry
     estimated scf accuracy    <       0.00394833 Ry

     iteration # 14     ecut=   130.00 Ry     beta= 0.70
     Davidson diagonalization with overlap
     ethr =  1.59E-06,  avg # of iterations =  1.6

     total cpu time spent up to now is     2752.9 secs

     total energy              =   -3679.41854639 Ry
     estimated scf accuracy    <       0.00439621 Ry

     iteration # 15     ecut=   130.00 Ry     beta= 0.70
     Davidson diagonalization with overlap
     ethr =  1.59E-06,  avg # of iterations =  1.0

     total cpu time spent up to now is     2933.5 secs

     total energy              =   -3679.41867108 Ry
     estimated scf accuracy    <       0.00011793 Ry

     iteration # 16     ecut=   130.00 Ry     beta= 0.70
     Davidson diagonalization with overlap
     ethr =  4.76E-08,  avg # of iterations =  4.6

     total cpu time spent up to now is     3138.9 secs

     total energy              =   -3679.41868588 Ry
     estimated scf accuracy    <       0.00002128 Ry

     iteration # 17     ecut=   130.00 Ry     beta= 0.70
     Davidson diagonalization with overlap
     ethr =  8.58E-09,  avg # of iterations =  2.1

     total cpu time spent up to now is     3329.5 secs

     total energy              =   -3679.41868848 Ry
     estimated scf accuracy    <       0.00000523 Ry

     iteration # 18     ecut=   130.00 Ry     beta= 0.70
     Davidson diagonalization with overlap
     ethr =  2.11E-09,  avg # of iterations =  2.7

     total cpu time spent up to now is     3520.6 secs

     total energy              =   -3679.41868846 Ry
     estimated scf accuracy    <       0.00000989 Ry

     iteration # 19     ecut=   130.00 Ry     beta= 0.70
     Davidson diagonalization with overlap
     ethr =  2.11E-09,  avg # of iterations =  1.1

     total cpu time spent up to now is     3701.9 secs

     total energy              =   -3679.41868866 Ry
     estimated scf accuracy    <       0.00000126 Ry

     iteration # 20     ecut=   130.00 Ry     beta= 0.70
     Davidson diagonalization with overlap
     ethr =  5.07E-10,  avg # of iterations =  1.2

     total cpu time spent up to now is     3881.3 secs

     End of self-consistent calculation

          k = 0.0000 0.0000 0.0000 ( 63371 PWs)   bands (ev):

   -85.1287 -85.1287 -85.1286 -85.1286 -85.0779 -85.0779 -85.0779 -85.0779
   -85.0778 -85.0778 -85.0778 -85.0778 -84.7466 -84.7466 -84.7463 -84.7463
   -63.9723 -63.9723 -63.9723 -63.9723 -63.8352 -63.8352 -63.7705 -63.7705
   -63.7538 -63.7538 -63.6937 -63.6937 -63.6622 -63.6622 -63.6600 -63.6600
   -49.6729 -49.6729 -49.6728 -49.6728 -49.6624 -49.6624 -49.6623 -49.6623
   -49.5623 -49.5623 -49.5620 -49.5620 -49.2681 -49.2681 -49.2679 -49.2679
   -47.9191 -47.9191 -47.9188 -47.9188 -47.8644 -47.8644 -47.8643 -47.8643
   -47.7925 -47.7925 -47.7924 -47.7924 -47.7452 -47.7452 -47.7447 -47.7447
   -47.7033 -47.7033 -47.7033 -47.7033 -47.6525 -47.6525 -47.6525 -47.6525
   -47.4465 -47.4465 -47.4463 -47.4463 -47.3804 -47.3804 -47.3802 -47.3802
   -35.3828 -35.3828 -35.3818 -35.3818 -35.3083 -35.3083 -35.2714 -35.2714
   -35.2147 -35.2147 -35.0544 -35.0544 -35.0423 -35.0423 -35.0022 -35.0022
   -25.8661 -25.8661 -25.7569 -25.7569 -25.6890 -25.6890 -25.6804 -25.6804
   -25.6537 -25.6537 -25.6170 -25.6170 -25.6030 -25.6030 -25.4907 -25.4907
   -25.4593 -25.4593 -25.4242 -25.4242 -25.3318 -25.3318 -25.1991 -25.1991
   -25.1001 -25.1001 -25.0973 -25.0973 -24.9688 -24.9688 -24.9600 -24.9600
     0.9694   0.9694   2.1533   2.1533   3.3846   3.3846   4.7173   4.7173
     4.8326   4.8326   4.9906   4.9906   5.0066   5.0066   5.5113   5.5113
     5.5462   5.5462   5.6682   5.6682   5.6714   5.6714   5.6934   5.6934
     5.8614   5.8614   6.0604   6.0604   6.2880   6.2880   6.7131   6.7131
     6.8169   6.8169   7.0713   7.0713   7.1268   7.1268   7.1446   7.1446
     7.1507   7.1507   7.1610   7.1610   7.1684   7.1684   7.3140   7.3140
     7.3290   7.3290   7.3521   7.3521   7.4148   7.4148   7.8026   7.8026
     7.8590   7.8590   7.8803   7.8803   7.9134   7.9134   7.9964   7.9964
     8.0203   8.0203   8.2325   8.2325   8.3077   8.3077   8.4517   8.4517
     8.4745   8.4745   8.4814   8.4814   8.5968   8.5968   8.6064   8.6064
     8.7871   8.7871   8.8014   8.8014   8.8653   8.8653   8.8870   8.8870
     8.9426   8.9426   8.9801   8.9801   9.0326   9.0326   9.0338   9.0338
     9.0695   9.0695   9.1500   9.1500   9.2057   9.2057   9.2173   9.2173
     9.3129   9.3129   9.3203   9.3203   9.3788   9.3788   9.4041   9.4041
     9.4090   9.4090   9.6226   9.6226   9.7348   9.7348   9.8914   9.8914
     9.9660   9.9660  10.0724  10.0724  10.0999  10.0999  10.2094  10.2094
    10.5875  10.5875  10.6029  10.6029  10.6036  10.6036  10.7678  10.7678
    10.8638  10.8638  10.8709  10.8709  10.9063  10.9063  11.0303  11.0303
    11.0825  11.0825  11.0839  11.0839  11.4362  11.4362  11.4418  11.4418
    11.5835  11.5835  11.7721  11.7721  12.0831  12.0831  12.4702  12.4702
    13.0120  13.0120  13.1816  13.1816  13.2197  13.2198  13.2491  13.2491
    13.3278  13.3278

          k = 0.0000 0.0825 0.0000 ( 63379 PWs)   bands (ev):

   -85.1281 -85.1281 -85.1281 -85.1281 -85.0785 -85.0785 -85.0784 -85.0784
   -85.0779 -85.0779 -85.0778 -85.0778 -84.7466 -84.7466 -84.7463 -84.7463
   -63.9722 -63.9722 -63.9722 -63.9722 -63.8346 -63.8346 -63.7701 -63.7701
   -63.7539 -63.7539 -63.6947 -63.6947 -63.6624 -63.6624 -63.6601 -63.6601
   -49.6721 -49.6721 -49.6719 -49.6719 -49.6617 -49.6617 -49.6616 -49.6616
   -49.5633 -49.5633 -49.5630 -49.5630 -49.2682 -49.2680 -49.2679 -49.2678
   -47.9175 -47.9175 -47.9168 -47.9168 -47.8631 -47.8630 -47.8629 -47.8628
   -47.7921 -47.7921 -47.7921 -47.7921 -47.7462 -47.7462 -47.7452 -47.7451
   -47.7044 -47.7044 -47.7042 -47.7042 -47.6549 -47.6549 -47.6549 -47.6549
   -47.4465 -47.4465 -47.4463 -47.4463 -47.3806 -47.3804 -47.3802 -47.3800
   -35.3820 -35.3820 -35.3810 -35.3809 -35.3084 -35.3084 -35.2692 -35.2692
   -35.2140 -35.2140 -35.0558 -35.0558 -35.0431 -35.0431 -35.0049 -35.0049
   -25.8669 -25.8669 -25.7554 -25.7554 -25.6914 -25.6914 -25.6856 -25.6856
   -25.6536 -25.6536 -25.6133 -25.6133 -25.5994 -25.5994 -25.4859 -25.4859
   -25.4523 -25.4523 -25.4255 -25.4255 -25.3272 -25.3272 -25.1999 -25.1999
   -25.1025 -25.1025 -25.1013 -25.1013 -24.9710 -24.9710 -24.9665 -24.9665
     1.0319   1.0319   2.2041   2.2041   3.4337   3.4337   4.7496   4.7496
     4.8534   4.8534   5.0097   5.0097   5.0314   5.0314   5.3984   5.3984
     5.5021   5.5021   5.5647   5.5647   5.7126   5.7126   5.7341   5.7341
     5.9576   5.9576   6.1426   6.1426   6.2877   6.2877   6.6720   6.6720
     6.7827   6.7827   7.0629   7.0629   7.1177   7.1177   7.1402   7.1402
     7.1460   7.1460   7.1638   7.1638   7.1913   7.1913   7.2962   7.2962
     7.3110   7.3110   7.3593   7.3593   7.4256   7.4256   7.7195   7.7195
     7.7531   7.7531   7.8332   7.8332   7.9660   7.9660   8.0455   8.0455
     8.0997   8.0997   8.2029   8.2029   8.2712   8.2712   8.3883   8.3883
     8.4309   8.4309   8.4624   8.4625   8.5528   8.5528   8.5940   8.5940
     8.7464   8.7464   8.7834   8.7834   8.8422   8.8422   8.8646   8.8646
     8.9105   8.9105   8.9430   8.9430   9.0005   9.0005   9.0672   9.0673
     9.1066   9.1066   9.1490   9.1490   9.1844   9.1844   9.2230   9.2230
     9.3081   9.3081   9.3279   9.3279   9.3832   9.3832   9.3999   9.3999
     9.4239   9.4239   9.5784   9.5784   9.8047   9.8047   9.9569   9.9569
     9.9957   9.9957  10.0748  10.0748  10.1220  10.1220  10.2387  10.2387
    10.5864  10.5865  10.5901  10.5901  10.6072  10.6072  10.7339  10.7339
    10.8464  10.8464  10.8600  10.8600  10.8814  10.8814  10.9911  10.9911
    11.0943  11.0943  11.1756  11.1756  11.4256  11.4256  11.4619  11.4619
    11.6367  11.6367  11.7768  11.7768  12.1123  12.1123  12.4850  12.4850
    13.0554  13.0554  13.1442  13.1442  13.2041  13.2041  13.2442  13.2442
    13.3519  13.3522

          k = 0.0000 0.1650 0.0000 ( 63408 PWs)   bands (ev):

   -85.1265 -85.1265 -85.1264 -85.1264 -85.0801 -85.0801 -85.0801 -85.0801
   -85.0779 -85.0779 -85.0778 -85.0778 -84.7466 -84.7466 -84.7463 -84.7463
   -63.9719 -63.9719 -63.9718 -63.9718 -63.8330 -63.8330 -63.7689 -63.7689
   -63.7539 -63.7539 -63.6976 -63.6976 -63.6627 -63.6627 -63.6604 -63.6604
   -49.6700 -49.6700 -49.6698 -49.6697 -49.6593 -49.6593 -49.6592 -49.6592
   -49.5663 -49.5663 -49.5659 -49.5658 -49.2682 -49.2680 -49.2680 -49.2678
   -47.9128 -47.9127 -47.9114 -47.9114 -47.8590 -47.8590 -47.8586 -47.8586
   -47.7910 -47.7910 -47.7910 -47.7909 -47.7489 -47.7488 -47.7470 -47.7470
   -47.7076 -47.7076 -47.7072 -47.7072 -47.6618 -47.6617 -47.6617 -47.6616
   -47.4465 -47.4465 -47.4463 -47.4463 -47.3808 -47.3806 -47.3800 -47.3798
   -35.3799 -35.3799 -35.3787 -35.3787 -35.3087 -35.3087 -35.2626 -35.2626
   -35.2118 -35.2118 -35.0601 -35.0601 -35.0454 -35.0453 -35.0125 -35.0125
   -25.8694 -25.8694 -25.7507 -25.7507 -25.6977 -25.6976 -25.6953 -25.6952
   -25.6573 -25.6573 -25.6032 -25.6032 -25.5866 -25.5866 -25.4761 -25.4761
   -25.4364 -25.4364 -25.4238 -25.4238 -25.3157 -25.3157 -25.2024 -25.2024
   -25.1135 -25.1135 -25.1088 -25.1088 -24.9952 -24.9952 -24.9669 -24.9669
     1.2166   1.2166   2.3541   2.3541   3.5760   3.5760   4.8402   4.8402
     4.8999   4.8999   5.0483   5.0483   5.1085   5.1085   5.1609   5.1609
     5.4423   5.4423   5.5020   5.5020   5.7701   5.7701   5.7814   5.7814
     6.1008   6.1008   6.2447   6.2447   6.2887   6.2887   6.5464   6.5464
     6.7488   6.7488   7.0185   7.0185   7.0630   7.0630   7.1036   7.1036
     7.1374   7.1374   7.1856   7.1856   7.1986   7.1986   7.2376   7.2376
     7.2928   7.2928   7.3704   7.3704   7.4181   7.4181   7.6029   7.6029
     7.6566   7.6566   7.7956   7.7956   7.9499   7.9499   8.0375   8.0375
     8.1049   8.1049   8.1614   8.1614   8.1736   8.1736   8.2466   8.2466
     8.3501   8.3501   8.4007   8.4008   8.4815   8.4815   8.5446   8.5446
     8.6526   8.6526   8.7387   8.7387   8.8265   8.8265   8.8604   8.8604
     8.8664   8.8664   8.9071   8.9072   8.9771   8.9771   9.0273   9.0273
     9.1141   9.1142   9.1535   9.1535   9.1968   9.1968   9.2500   9.2500
     9.2825   9.2825   9.3452   9.3452   9.3927   9.3927   9.4260   9.4260
     9.4441   9.4442   9.5681   9.5681   9.8973   9.8973   9.9722   9.9722
    10.0241  10.0241  10.1334  10.1334  10.2263  10.2263  10.3055  10.3055
    10.5359  10.5359  10.5537  10.5538  10.5824  10.5824  10.6218  10.6218
    10.8381  10.8381  10.8621  10.8621  10.9280  10.9280  11.0414  11.0414
    11.1861  11.1861  11.2795  11.2795  11.4254  11.4255  11.4966  11.4966
    11.7102  11.7102  11.8193  11.8193  12.1558  12.1558  12.5398  12.5398
    13.0059  13.0059  13.1205  13.1206  13.1874  13.1874  13.2174  13.2174
    13.3562  13.3571

          k = 0.0000 0.2474 0.0000 ( 63368 PWs)   bands (ev):

   -85.1238 -85.1238 -85.1238 -85.1238 -85.0828 -85.0828 -85.0827 -85.0827
   -85.0779 -85.0779 -85.0779 -85.0778 -84.7466 -84.7466 -84.7463 -84.7463
   -63.9714 -63.9714 -63.9713 -63.9713 -63.8307 -63.8307 -63.7666 -63.7666
   -63.7540 -63.7540 -63.7022 -63.7022 -63.6632 -63.6632 -63.6609 -63.6609
   -49.6679 -49.6678 -49.6677 -49.6676 -49.6545 -49.6544 -49.6542 -49.6542
   -49.5712 -49.5711 -49.5706 -49.5705 -49.2683 -49.2681 -49.2680 -49.2678
   -47.9055 -47.9055 -47.9037 -47.9036 -47.8520 -47.8520 -47.8515 -47.8514
   -47.7891 -47.7890 -47.7890 -47.7889 -47.7532 -47.7531 -47.7506 -47.7506
   -47.7131 -47.7130 -47.7125 -47.7124 -47.6718 -47.6717 -47.6714 -47.6714
   -47.4466 -47.4466 -47.4463 -47.4463 -47.3808 -47.3806 -47.3799 -47.3797
   -35.3767 -35.3767 -35.3754 -35.3754 -35.3093 -35.3093 -35.2523 -35.2523
   -35.2081 -35.2081 -35.0680 -35.0680 -35.0487 -35.0487 -35.0233 -35.0233
   -25.8730 -25.8730 -25.7445 -25.7445 -25.7063 -25.7063 -25.7032 -25.7031
   -25.6600 -25.6600 -25.5893 -25.5893 -25.5669 -25.5669 -25.4724 -25.4724
   -25.4215 -25.4215 -25.4066 -25.4066 -25.3017 -25.3017 -25.2069 -25.2069
   -25.1322 -25.1322 -25.1181 -25.1181 -25.0315 -25.0315 -24.9662 -24.9662
     1.5153   1.5153   2.5954   2.5954   3.7955   3.7955   4.8570   4.8570
     4.9676   4.9676   5.0303   5.0303   5.0768   5.0768   5.2365   5.2365
     5.3351   5.3351   5.5108   5.5108   5.8038   5.8038   5.8570   5.8570
     6.1796   6.1796   6.2386   6.2386   6.3587   6.3587   6.4428   6.4429
     6.7216   6.7216   6.8515   6.8515   7.0081   7.0081   7.0224   7.0224
     7.1279   7.1279   7.1595   7.1595   7.1959   7.1959   7.2285   7.2285
     7.2588   7.2588   7.3236   7.3236   7.3923   7.3923   7.4651   7.4651
     7.6470   7.6470   7.7071   7.7071   7.8842   7.8842   7.9296   7.9296
     7.9771   7.9771   7.9996   7.9996   8.0403   8.0404   8.2249   8.2249
     8.3017   8.3017   8.3365   8.3366   8.3887   8.3888   8.4606   8.4606
     8.6091   8.6091   8.6542   8.6542   8.7706   8.7706   8.8262   8.8262
     8.8626   8.8626   8.8843   8.8843   8.9282   8.9282   9.0410   9.0411
     9.0905   9.0905   9.2060   9.2060   9.2304   9.2304   9.2768   9.2768
     9.3152   9.3152   9.3834   9.3835   9.4085   9.4086   9.4480   9.4480
     9.5057   9.5057   9.6733   9.6733   9.8756   9.8756   9.9632   9.9632
    10.0179  10.0179  10.2439  10.2439  10.2735  10.2735  10.3478  10.3478
    10.4418  10.4418  10.4949  10.4949  10.5315  10.5316  10.5727  10.5727
    10.8957  10.8957  10.9193  10.9193  11.0170  11.0170  11.1624  11.1624
    11.3377  11.3377  11.3804  11.3804  11.4723  11.4723  11.5760  11.5760
    11.6846  11.6846  11.9589  11.9589  12.1638  12.1638  12.6762  12.6762
    12.8748  12.8748  13.0874  13.0874  13.1584  13.1584  13.1892  13.1892
    13.3789  13.3789

          k = 0.0000 0.3299 0.0000 ( 63338 PWs)   bands (ev):

   -85.1205 -85.1205 -85.1204 -85.1204 -85.0862 -85.0862 -85.0861 -85.0861
   -85.0779 -85.0779 -85.0779 -85.0779 -84.7465 -84.7465 -84.7463 -84.7463
   -63.9708 -63.9708 -63.9708 -63.9708 -63.8283 -63.8283 -63.7633 -63.7633
   -63.7541 -63.7541 -63.7081 -63.7081 -63.6638 -63.6638 -63.6615 -63.6615
   -49.6663 -49.6663 -49.6662 -49.6661 -49.6472 -49.6472 -49.6468 -49.6468
   -49.5775 -49.5774 -49.5768 -49.5768 -49.2684 -49.2682 -49.2681 -49.2679
   -47.8973 -47.8972 -47.8952 -47.8951 -47.8417 -47.8417 -47.8412 -47.8411
   -47.7860 -47.7860 -47.7859 -47.7859 -47.7591 -47.7590 -47.7561 -47.7560
   -47.7215 -47.7215 -47.7209 -47.7208 -47.6823 -47.6823 -47.6818 -47.6817
   -47.4466 -47.4466 -47.4464 -47.4464 -47.3808 -47.3806 -47.3799 -47.3797
   -35.3730 -35.3730 -35.3718 -35.3718 -35.3100 -35.3100 -35.2398 -35.2398
   -35.2020 -35.2020 -35.0806 -35.0806 -35.0524 -35.0524 -35.0343 -35.0343
   -25.8770 -25.8770 -25.7430 -25.7430 -25.7135 -25.7135 -25.7098 -25.7097
   -25.6499 -25.6499 -25.5745 -25.5745 -25.5449 -25.5449 -25.4768 -25.4768
   -25.4035 -25.4035 -25.3856 -25.3856 -25.2906 -25.2906 -25.2129 -25.2129
   -25.1555 -25.1555 -25.1292 -25.1292 -25.0692 -25.0692 -24.9657 -24.9657
     1.9144   1.9144   2.9152   2.9152   4.0590   4.0590   4.7057   4.7058
     4.9553   4.9553   4.9939   4.9939   5.1235   5.1235   5.2486   5.2486
     5.4128   5.4128   5.5685   5.5685   5.7936   5.7936   5.9626   5.9626
     6.1422   6.1423   6.2027   6.2027   6.3735   6.3735   6.5549   6.5549
     6.6172   6.6172   6.6928   6.6928   6.8977   6.8977   7.0004   7.0004
     7.0899   7.0899   7.1127   7.1127   7.1588   7.1588   7.1878   7.1878
     7.2550   7.2551   7.2849   7.2849   7.3810   7.3810   7.4398   7.4398
     7.5133   7.5133   7.5787   7.5787   7.6922   7.6922   7.7360   7.7360
     7.8217   7.8217   7.9067   7.9067   8.0577   8.0577   8.1355   8.1355
     8.2087   8.2087   8.2832   8.2832   8.3163   8.3163   8.3352   8.3352
     8.3904   8.3904   8.5784   8.5784   8.7160   8.7160   8.8146   8.8146
     8.8447   8.8448   8.9322   8.9322   8.9898   8.9898   9.0745   9.0745
     9.0994   9.0994   9.2394   9.2395   9.2704   9.2704   9.3254   9.3254
     9.3641   9.3642   9.4645   9.4646   9.4898   9.4898   9.5375   9.5375
     9.6077   9.6077   9.7808   9.7809   9.8316   9.8317   9.9206   9.9206
     9.9797   9.9798  10.2568  10.2568  10.2842  10.2843  10.3133  10.3133
    10.4114  10.4114  10.4814  10.4814  10.5387  10.5387  10.6191  10.6191
    10.9267  10.9268  11.0057  11.0057  11.1441  11.1441  11.2146  11.2146
    11.3841  11.3841  11.4813  11.4813  11.5517  11.5517  11.6267  11.6267
    11.8076  11.8076  12.1003  12.1003  12.2404  12.2404  12.7598  12.7598
    12.8539  12.8539  13.0529  13.0530  13.1270  13.1271  13.2125  13.2125
    13.4173  13.4173

          k = 0.0000 0.4124 0.0000 ( 63334 PWs)   bands (ev):

   -85.1167 -85.1167 -85.1167 -85.1167 -85.0899 -85.0899 -85.0899 -85.0899
   -85.0779 -85.0779 -85.0779 -85.0779 -84.7465 -84.7465 -84.7463 -84.7463
   -63.9703 -63.9703 -63.9703 -63.9703 -63.8263 -63.8263 -63.7590 -63.7590
   -63.7541 -63.7541 -63.7145 -63.7145 -63.6644 -63.6644 -63.6619 -63.6619
   -49.6653 -49.6653 -49.6652 -49.6651 -49.6388 -49.6387 -49.6382 -49.6382
   -49.5847 -49.5847 -49.5841 -49.5840 -49.2684 -49.2682 -49.2682 -49.2679
   -47.8897 -47.8896 -47.8879 -47.8878 -47.8282 -47.8281 -47.8281 -47.8280
   -47.7822 -47.7821 -47.7818 -47.7817 -47.7659 -47.7658 -47.7634 -47.7634
   -47.7337 -47.7337 -47.7332 -47.7331 -47.6904 -47.6904 -47.6899 -47.6898
   -47.4466 -47.4466 -47.4464 -47.4464 -47.3807 -47.3805 -47.3800 -47.3798
   -35.3694 -35.3694 -35.3685 -35.3685 -35.3107 -35.3107 -35.2288 -35.2288
   -35.1915 -35.1915 -35.0984 -35.0984 -35.0559 -35.0559 -35.0428 -35.0428
   -25.8804 -25.8804 -25.7472 -25.7472 -25.7182 -25.7182 -25.7152 -25.7152
   -25.6244 -25.6244 -25.5624 -25.5624 -25.5244 -25.5244 -25.4821 -25.4821
   -25.3877 -25.3877 -25.3725 -25.3725 -25.2867 -25.2867 -25.2186 -25.2186
   -25.1791 -25.1791 -25.1418 -25.1418 -25.0964 -25.0964 -24.9657 -24.9657
     2.3947   2.3947   3.2943   3.2943   4.2976   4.2976   4.4872   4.4872
     4.7955   4.7955   4.8267   4.8268   5.2074   5.2074   5.2461   5.2461
     5.6033   5.6033   5.6618   5.6618   5.7567   5.7567   5.9713   5.9713
     6.1825   6.1826   6.2579   6.2579   6.3507   6.3507   6.4688   6.4688
     6.6545   6.6545   6.7396   6.7396   6.8065   6.8065   6.9720   6.9720
     6.9898   6.9898   7.0377   7.0377   7.1301   7.1301   7.1693   7.1694
     7.2000   7.2000   7.2932   7.2932   7.3579   7.3579   7.3902   7.3902
     7.4487   7.4487   7.4686   7.4686   7.5058   7.5058   7.5699   7.5699
     7.6651   7.6651   7.8223   7.8223   7.9702   7.9702   7.9989   7.9989
     8.0602   8.0602   8.1777   8.1777   8.2146   8.2146   8.2566   8.2566
     8.3567   8.3567   8.5332   8.5333   8.6815   8.6815   8.8113   8.8113
     8.8417   8.8417   8.9906   8.9907   9.0109   9.0109   9.1193   9.1193
     9.1351   9.1351   9.2658   9.2658   9.3125   9.3125   9.3411   9.3411
     9.3934   9.3934   9.5370   9.5370   9.5843   9.5843   9.6342   9.6342
     9.7227   9.7227   9.8117   9.8117   9.8701   9.8701   9.9140   9.9140
     9.9714   9.9714  10.2331  10.2331  10.2854  10.2854  10.3262  10.3262
    10.4438  10.4438  10.5095  10.5095  10.5852  10.5852  10.6980  10.6980
    10.9610  10.9610  11.0740  11.0740  11.1436  11.1436  11.2356  11.2357
    11.3399  11.3399  11.5271  11.5271  11.5421  11.5421  11.7353  11.7353
    11.8427  11.8427  12.2762  12.2762  12.5018  12.5018  12.7795  12.7795
    12.8529  12.8529  13.0376  13.0376  13.2114  13.2114  13.2611  13.2613
    13.3559  13.3559

          k = 0.0000 0.4949 0.0000 ( 63364 PWs)   bands (ev):

   -85.1133 -85.1133 -85.1133 -85.1133 -85.0933 -85.0933 -85.0933 -85.0933
   -85.0779 -85.0779 -85.0779 -85.0779 -84.7465 -84.7465 -84.7463 -84.7463
   -63.9700 -63.9700 -63.9700 -63.9700 -63.8250 -63.8250 -63.7550 -63.7550
   -63.7540 -63.7540 -63.7202 -63.7202 -63.6647 -63.6647 -63.6623 -63.6623
   -49.6647 -49.6646 -49.6646 -49.6646 -49.6309 -49.6308 -49.6304 -49.6304
   -49.5915 -49.5915 -49.5910 -49.5910 -49.2684 -49.2682 -49.2682 -49.2680
   -47.8843 -47.8842 -47.8832 -47.8832 -47.8135 -47.8134 -47.8128 -47.8127
   -47.7824 -47.7823 -47.7796 -47.7795 -47.7689 -47.7689 -47.7683 -47.7683
   -47.7482 -47.7481 -47.7476 -47.7476 -47.6948 -47.6947 -47.6945 -47.6944
   -47.4466 -47.4466 -47.4464 -47.4464 -47.3805 -47.3803 -47.3801 -47.3799
   -35.3668 -35.3668 -35.3663 -35.3663 -35.3112 -35.3112 -35.2223 -35.2223
   -35.1756 -35.1756 -35.1190 -35.1190 -35.0583 -35.0583 -35.0477 -35.0477
   -25.8825 -25.8825 -25.7520 -25.7520 -25.7209 -25.7209 -25.7190 -25.7189
   -25.5930 -25.5930 -25.5583 -25.5583 -25.5087 -25.5087 -25.4839 -25.4839
   -25.3859 -25.3859 -25.3671 -25.3671 -25.2860 -25.2860 -25.2232 -25.2232
   -25.1952 -25.1952 -25.1532 -25.1532 -25.1089 -25.1089 -24.9660 -24.9660
     2.9295   2.9295   3.7046   3.7046   4.0362   4.0362   4.4759   4.4759
     4.5377   4.5377   4.7401   4.7401   5.2221   5.2221   5.3024   5.3024
     5.7110   5.7110   5.7597   5.7597   5.7913   5.7913   5.9257   5.9257
     6.1817   6.1817   6.2895   6.2895   6.4829   6.4829   6.4994   6.4994
     6.6323   6.6323   6.7464   6.7464   6.7963   6.7963   6.9022   6.9022
     6.9260   6.9260   6.9922   6.9922   7.1304   7.1304   7.1726   7.1726
     7.2056   7.2056   7.2343   7.2343   7.2826   7.2826   7.3015   7.3015
     7.3439   7.3439   7.3760   7.3760   7.4477   7.4477   7.4979   7.4979
     7.5272   7.5272   7.7214   7.7214   7.7844   7.7844   7.8651   7.8651
     8.0310   8.0310   8.1223   8.1223   8.1449   8.1449   8.3335   8.3335
     8.3888   8.3888   8.4954   8.4954   8.6502   8.6502   8.8052   8.8052
     8.8282   8.8283   8.9764   8.9764   9.0426   9.0426   9.1043   9.1043
     9.2047   9.2047   9.3046   9.3046   9.3501   9.3501   9.3659   9.3659
     9.4402   9.4402   9.4977   9.4977   9.5129   9.5130   9.5392   9.5392
     9.8827   9.8827   9.8934   9.8934   9.9665   9.9665  10.0173  10.0173
    10.0677  10.0677  10.2145  10.2145  10.2974  10.2974  10.3818  10.3819
    10.4634  10.4634  10.5678  10.5678  10.6195  10.6195  10.7966  10.7966
    10.9775  10.9775  11.0310  11.0310  11.1179  11.1179  11.1953  11.1953
    11.3366  11.3366  11.4899  11.4899  11.5715  11.5715  11.6208  11.6208
    11.9745  11.9745  12.4314  12.4314  12.5829  12.5829  12.7567  12.7567
    12.9348  12.9349  13.0429  13.0429  13.0906  13.0906  13.1772  13.1772
    13.3830  13.3831

          k = 0.0000-0.5774 0.0000 ( 63448 PWs)   bands (ev):

   -85.1118 -85.1118 -85.1117 -85.1117 -85.0949 -85.0949 -85.0948 -85.0948
   -85.0779 -85.0779 -85.0779 -85.0779 -84.7465 -84.7465 -84.7463 -84.7463
   -63.9699 -63.9699 -63.9698 -63.9698 -63.8245 -63.8245 -63.7544 -63.7544
   -63.7526 -63.7526 -63.7226 -63.7226 -63.6649 -63.6649 -63.6624 -63.6624
   -49.6645 -49.6645 -49.6644 -49.6644 -49.6270 -49.6270 -49.6270 -49.6270
   -49.5946 -49.5946 -49.5944 -49.5944 -49.2683 -49.2683 -49.2681 -49.2681
   -47.8820 -47.8820 -47.8819 -47.8819 -47.8033 -47.8033 -47.8033 -47.8033
   -47.7865 -47.7865 -47.7861 -47.7861 -47.7629 -47.7629 -47.7627 -47.7627
   -47.7591 -47.7591 -47.7591 -47.7591 -47.6960 -47.6960 -47.6959 -47.6959
   -47.4466 -47.4466 -47.4464 -47.4464 -47.3803 -47.3803 -47.3801 -47.3801
   -35.3658 -35.3658 -35.3656 -35.3656 -35.3114 -35.3114 -35.2204 -35.2204
   -35.1639 -35.1639 -35.1322 -35.1322 -35.0591 -35.0591 -35.0493 -35.0493
   -25.8833 -25.8833 -25.7540 -25.7540 -25.7218 -25.7218 -25.7203 -25.7203
   -25.5710 -25.5710 -25.5656 -25.5656 -25.5018 -25.5018 -25.4833 -25.4833
   -25.3924 -25.3924 -25.3638 -25.3638 -25.2849 -25.2849 -25.2257 -25.2257
   -25.2004 -25.2004 -25.1575 -25.1575 -25.1121 -25.1121 -24.9661 -24.9661
     3.4181   3.4181   3.5712   3.5712   4.0504   4.0504   4.2121   4.2121
     4.6025   4.6025   4.6584   4.6584   5.2584   5.2584   5.3161   5.3161
     5.6998   5.6998   5.8037   5.8037   5.8693   5.8693   5.9175   5.9175
     6.1859   6.1859   6.2391   6.2391   6.5612   6.5612   6.6121   6.6121
     6.6436   6.6436   6.7250   6.7250   6.7543   6.7543   6.8372   6.8372
     6.8379   6.8379   7.0891   7.0891   7.1500   7.1500   7.1677   7.1677
     7.1944   7.1944   7.2150   7.2150   7.2831   7.2831   7.2853   7.2853
     7.3039   7.3039   7.3113   7.3113   7.3206   7.3206   7.4447   7.4447
     7.5062   7.5062   7.6619   7.6619   7.7592   7.7592   7.8183   7.8183
     8.0187   8.0187   8.0980   8.0980   8.1170   8.1170   8.3924   8.3924
     8.4497   8.4497   8.4537   8.4537   8.6518   8.6518   8.8021   8.8021
     8.8138   8.8138   8.9700   8.9700   8.9747   8.9747   9.1716   9.1716
     9.2977   9.2977   9.3059   9.3059   9.3409   9.3409   9.3727   9.3727
     9.3911   9.3911   9.4350   9.4350   9.4480   9.4480   9.5587   9.5587
     9.9239   9.9239   9.9676   9.9676  10.0015  10.0015  10.0808  10.0808
    10.1378  10.1378  10.2016  10.2016  10.3051  10.3051  10.4036  10.4036
    10.4597  10.4597  10.5844  10.5844  10.6790  10.6790  10.8742  10.8742
    10.9030  10.9030  10.9810  10.9810  11.1719  11.1719  11.1820  11.1820
    11.3390  11.3390  11.3664  11.3664  11.5368  11.5368  11.6584  11.6584
    12.0679  12.0679  12.4099  12.4099  12.6585  12.6585  12.6909  12.6909
    12.9170  12.9170  12.9599  12.9599  13.0932  13.0932  13.1175  13.1175
    13.4114  13.4114

          k = 0.0714 0.1237 0.0000 ( 63373 PWs)   bands (ev):

   -85.1270 -85.1270 -85.1270 -85.1270 -85.0796 -85.0796 -85.0795 -85.0795
   -85.0779 -85.0779 -85.0778 -85.0778 -84.7466 -84.7466 -84.7463 -84.7463
   -63.9720 -63.9720 -63.9720 -63.9719 -63.8335 -63.8335 -63.7693 -63.7693
   -63.7539 -63.7539 -63.6966 -63.6966 -63.6626 -63.6626 -63.6603 -63.6603
   -49.6706 -49.6706 -49.6704 -49.6703 -49.6602 -49.6601 -49.6601 -49.6601
   -49.5654 -49.5653 -49.5649 -49.5649 -49.2682 -49.2680 -49.2680 -49.2678
   -47.9143 -47.9143 -47.9131 -47.9131 -47.8604 -47.8604 -47.8601 -47.8600
   -47.7914 -47.7914 -47.7913 -47.7913 -47.7480 -47.7480 -47.7464 -47.7463
   -47.7066 -47.7065 -47.7062 -47.7061 -47.6596 -47.6595 -47.6595 -47.6594
   -47.4465 -47.4465 -47.4463 -47.4463 -47.3807 -47.3805 -47.3801 -47.3799
   -35.3806 -35.3806 -35.3794 -35.3794 -35.3086 -35.3086 -35.2648 -35.2648
   -35.2126 -35.2126 -35.0587 -35.0587 -35.0446 -35.0446 -35.0101 -35.0101
   -25.8686 -25.8686 -25.7521 -25.7521 -25.6973 -25.6972 -25.6909 -25.6909
   -25.6563 -25.6563 -25.6071 -25.6070 -25.5904 -25.5904 -25.4783 -25.4783
   -25.4410 -25.4410 -25.4255 -25.4255 -25.3192 -25.3192 -25.2015 -25.2015
   -25.1091 -25.1091 -25.1072 -25.1072 -24.9871 -24.9871 -24.9670 -24.9670
     1.1555   1.1555   2.3045   2.3045   3.5294   3.5294   4.8112   4.8112
     4.8898   4.8898   5.0418   5.0418   5.0794   5.0794   5.2761   5.2761
     5.3102   5.3102   5.6538   5.6538   5.7229   5.7229   5.7678   5.7678
     6.0460   6.0460   6.2280   6.2280   6.2875   6.2875   6.5819   6.5819
     6.7574   6.7574   7.0350   7.0350   7.0852   7.0852   7.1253   7.1253
     7.1371   7.1371   7.1719   7.1719   7.1973   7.1973   7.2646   7.2646
     7.2936   7.2937   7.3740   7.3740   7.4378   7.4378   7.5712   7.5712
     7.7025   7.7025   7.8174   7.8174   7.9695   7.9695   8.0699   8.0699
     8.1158   8.1158   8.1640   8.1640   8.2008   8.2008   8.2874   8.2874
     8.3548   8.3549   8.4220   8.4220   8.5033   8.5033   8.5743   8.5744
     8.6808   8.6808   8.7424   8.7424   8.8147   8.8147   8.8400   8.8400
     8.8870   8.8870   8.9414   8.9414   8.9768   8.9768   9.0516   9.0516
     9.1190   9.1191   9.1405   9.1405   9.1935   9.1935   9.2319   9.2319
     9.2953   9.2953   9.3403   9.3403   9.3869   9.3870   9.4251   9.4251
     9.4352   9.4353   9.5541   9.5541   9.8741   9.8741   9.9718   9.9719
    10.0531  10.0531  10.0969  10.0970  10.1843  10.1843  10.2882  10.2882
    10.5354  10.5354  10.5636  10.5636  10.6169  10.6169  10.6773  10.6774
    10.8262  10.8262  10.8683  10.8684  10.9042  10.9042  10.9917  10.9917
    11.1492  11.1492  11.2517  11.2517  11.4262  11.4262  11.4739  11.4739
    11.7036  11.7036  11.8135  11.8135  12.1416  12.1416  12.5084  12.5084
    13.0440  13.0440  13.1354  13.1354  13.1836  13.1836  13.2318  13.2318
    13.3472  13.3472

          k = 0.0714 0.2062 0.0000 ( 63388 PWs)   bands (ev):

   -85.1249 -85.1249 -85.1248 -85.1248 -85.0817 -85.0817 -85.0817 -85.0817
   -85.0779 -85.0779 -85.0778 -85.0778 -84.7466 -84.7466 -84.7463 -84.7463
   -63.9716 -63.9716 -63.9715 -63.9715 -63.8316 -63.8316 -63.7675 -63.7675
   -63.7540 -63.7540 -63.7004 -63.7004 -63.6631 -63.6631 -63.6607 -63.6607
   -49.6686 -49.6685 -49.6683 -49.6682 -49.6565 -49.6565 -49.6563 -49.6563
   -49.5693 -49.5692 -49.5687 -49.5687 -49.2683 -49.2681 -49.2680 -49.2678
   -47.9083 -47.9082 -47.9066 -47.9065 -47.8549 -47.8549 -47.8544 -47.8543
   -47.7899 -47.7898 -47.7898 -47.7897 -47.7515 -47.7515 -47.7492 -47.7491
   -47.7107 -47.7107 -47.7102 -47.7101 -47.6681 -47.6681 -47.6678 -47.6678
   -47.4466 -47.4465 -47.4464 -47.4463 -47.3808 -47.3806 -47.3799 -47.3797
   -35.3779 -35.3779 -35.3767 -35.3766 -35.3091 -35.3091 -35.2562 -35.2562
   -35.2097 -35.2097 -35.0647 -35.0647 -35.0474 -35.0474 -35.0193 -35.0193
   -25.8718 -25.8718 -25.7450 -25.7450 -25.7079 -25.7079 -25.6953 -25.6953
   -25.6618 -25.6618 -25.5972 -25.5972 -25.5721 -25.5721 -25.4712 -25.4712
   -25.4271 -25.4271 -25.4151 -25.4151 -25.3064 -25.3064 -25.2053 -25.2053
   -25.1237 -25.1237 -25.1157 -25.1157 -25.0180 -25.0180 -24.9662 -24.9662
     1.3971   1.3971   2.5002   2.5002   3.7106   3.7106   4.9214   4.9215
     4.9264   4.9264   5.0595   5.0596   5.0911   5.0911   5.1662   5.1662
     5.2118   5.2118   5.6755   5.6755   5.7899   5.7899   5.8253   5.8253
     6.1449   6.1449   6.2542   6.2542   6.3073   6.3073   6.4525   6.4525
     6.7368   6.7368   6.9562   6.9562   7.0119   7.0119   7.0709   7.0709
     7.1240   7.1240   7.1669   7.1670   7.1960   7.1960   7.2219   7.2219
     7.2838   7.2838   7.3341   7.3342   7.3846   7.3846   7.4488   7.4488
     7.6986   7.6986   7.8062   7.8062   7.9009   7.9009   7.9649   7.9649
     8.0056   8.0057   8.0606   8.0606   8.0818   8.0818   8.2326   8.2326
     8.2907   8.2907   8.3780   8.3781   8.4503   8.4504   8.5320   8.5320
     8.6312   8.6312   8.6823   8.6823   8.7626   8.7626   8.7994   8.7995
     8.8785   8.8786   8.9075   8.9076   8.9409   8.9409   9.0203   9.0203
     9.1111   9.1111   9.1909   9.1909   9.1981   9.1981   9.2657   9.2657
     9.3064   9.3065   9.3611   9.3611   9.4052   9.4052   9.4314   9.4314
     9.4754   9.4754   9.6336   9.6336   9.8876   9.8876   9.9663   9.9663
    10.0519  10.0519  10.2013  10.2013  10.2336  10.2337  10.3460  10.3460
    10.4414  10.4414  10.5239  10.5239  10.6042  10.6042  10.6443  10.6443
    10.8414  10.8414  10.8953  10.8953  10.9778  10.9778  11.0472  11.0472
    11.2804  11.2804  11.3477  11.3477  11.4237  11.4237  11.5248  11.5248
    11.7354  11.7354  11.9324  11.9324  12.1602  12.1602  12.5609  12.5609
    12.9296  12.9296  13.1220  13.1220  13.1712  13.1712  13.2386  13.2386
    13.3397  13.3398

          k = 0.0714 0.2887 0.0000 ( 63374 PWs)   bands (ev):

   -85.1219 -85.1219 -85.1218 -85.1218 -85.0848 -85.0848 -85.0847 -85.0847
   -85.0779 -85.0779 -85.0779 -85.0779 -84.7465 -84.7465 -84.7463 -84.7463
   -63.9710 -63.9710 -63.9710 -63.9710 -63.8293 -63.8293 -63.7647 -63.7647
   -63.7540 -63.7540 -63.7057 -63.7057 -63.6636 -63.6636 -63.6612 -63.6612
   -49.6668 -49.6668 -49.6666 -49.6665 -49.6504 -49.6503 -49.6500 -49.6499
   -49.5749 -49.5748 -49.5742 -49.5742 -49.2684 -49.2681 -49.2680 -49.2678
   -47.9005 -47.9004 -47.8983 -47.8982 -47.8465 -47.8465 -47.8457 -47.8457
   -47.7873 -47.7873 -47.7871 -47.7871 -47.7567 -47.7567 -47.7538 -47.7538
   -47.7172 -47.7172 -47.7166 -47.7165 -47.6787 -47.6787 -47.6782 -47.6782
   -47.4466 -47.4465 -47.4464 -47.4463 -47.3808 -47.3806 -47.3799 -47.3797
   -35.3745 -35.3745 -35.3732 -35.3732 -35.3097 -35.3097 -35.2444 -35.2444
   -35.2052 -35.2052 -35.0750 -35.0750 -35.0509 -35.0509 -35.0302 -35.0302
   -25.8760 -25.8760 -25.7382 -25.7382 -25.7178 -25.7178 -25.6994 -25.6993
   -25.6610 -25.6610 -25.5849 -25.5849 -25.5495 -25.5495 -25.4726 -25.4726
   -25.4108 -25.4108 -25.3954 -25.3954 -25.2937 -25.2937 -25.2113 -25.2113
   -25.1438 -25.1438 -25.1263 -25.1263 -25.0552 -25.0552 -24.9654 -24.9654
     1.7457   1.7457   2.7808   2.7808   3.9538   3.9538   4.8030   4.8030
     5.0035   5.0035   5.0425   5.0425   5.0828   5.0828   5.1448   5.1448
     5.3030   5.3030   5.6642   5.6642   5.8368   5.8368   5.9256   5.9256
     6.1580   6.1581   6.2211   6.2211   6.3459   6.3459   6.4227   6.4227
     6.7157   6.7157   6.7498   6.7498   6.9667   6.9668   6.9902   6.9902
     7.1049   7.1049   7.1442   7.1442   7.1599   7.1599   7.2048   7.2048
     7.2437   7.2437   7.2677   7.2677   7.3567   7.3567   7.4496   7.4496
     7.5730   7.5730   7.6572   7.6573   7.7562   7.7562   7.8473   7.8473
     7.8845   7.8845   7.9461   7.9461   8.0194   8.0194   8.1762   8.1762
     8.2220   8.2220   8.3328   8.3328   8.3808   8.3808   8.4546   8.4546
     8.4922   8.4922   8.6200   8.6200   8.7016   8.7016   8.7512   8.7512
     8.8438   8.8438   8.8950   8.8950   8.9682   8.9683   9.0417   9.0417
     9.1224   9.1225   9.2262   9.2263   9.2770   9.2770   9.3165   9.3165
     9.3509   9.3510   9.4075   9.4075   9.4532   9.4532   9.4974   9.4974
     9.5540   9.5541   9.7431   9.7431   9.8184   9.8184   9.9920   9.9921
    10.0161  10.0161  10.2141  10.2141  10.2694  10.2694  10.3342  10.3342
    10.4151  10.4151  10.5351  10.5351  10.5518  10.5518  10.6321  10.6321
    10.8891  10.8891  10.9552  10.9552  11.0806  11.0806  11.1497  11.1497
    11.3170  11.3170  11.4488  11.4488  11.5213  11.5213  11.6261  11.6261
    11.7781  11.7781  12.0834  12.0834  12.1684  12.1684  12.6640  12.6640
    12.8348  12.8348  13.0566  13.0566  13.1360  13.1360  13.2238  13.2238
    13.4195  13.4195

          k = 0.0714 0.3712 0.0000 ( 63349 PWs)   bands (ev):

   -85.1182 -85.1182 -85.1182 -85.1182 -85.0884 -85.0884 -85.0884 -85.0883
   -85.0779 -85.0779 -85.0779 -85.0779 -84.7465 -84.7465 -84.7463 -84.7463
   -63.9705 -63.9705 -63.9705 -63.9705 -63.8271 -63.8271 -63.7608 -63.7608
   -63.7541 -63.7541 -63.7119 -63.7119 -63.6642 -63.6642 -63.6618 -63.6618
   -49.6656 -49.6656 -49.6654 -49.6653 -49.6423 -49.6423 -49.6419 -49.6418
   -49.5817 -49.5817 -49.5811 -49.5810 -49.2684 -49.2682 -49.2681 -49.2679
   -47.8924 -47.8924 -47.8901 -47.8901 -47.8350 -47.8349 -47.8342 -47.8342
   -47.7836 -47.7836 -47.7833 -47.7833 -47.7634 -47.7634 -47.7605 -47.7605
   -47.7270 -47.7270 -47.7263 -47.7262 -47.6885 -47.6884 -47.6878 -47.6878
   -47.4466 -47.4465 -47.4464 -47.4463 -47.3808 -47.3805 -47.3799 -47.3797
   -35.3709 -35.3708 -35.3697 -35.3697 -35.3104 -35.3104 -35.2318 -35.2318
   -35.1976 -35.1976 -35.0905 -35.0905 -35.0546 -35.0546 -35.0397 -35.0397
   -25.8799 -25.8799 -25.7386 -25.7386 -25.7252 -25.7252 -25.7026 -25.7026
   -25.6440 -25.6440 -25.5725 -25.5725 -25.5271 -25.5270 -25.4778 -25.4778
   -25.3952 -25.3952 -25.3777 -25.3777 -25.2865 -25.2865 -25.2184 -25.2184
   -25.1666 -25.1666 -25.1381 -25.1381 -25.0872 -25.0872 -24.9650 -24.9650
     2.1847   2.1847   3.1305   3.1305   4.2131   4.2131   4.6225   4.6225
     4.8567   4.8567   4.9448   4.9448   5.1628   5.1628   5.1882   5.1882
     5.4634   5.4634   5.6530   5.6530   5.8395   5.8395   6.0087   6.0087
     6.1615   6.1615   6.1960   6.1960   6.3370   6.3370   6.4746   6.4746
     6.6565   6.6565   6.7092   6.7092   6.8490   6.8490   6.9592   6.9592
     7.0485   7.0485   7.0886   7.0886   7.1269   7.1269   7.1672   7.1672
     7.1864   7.1864   7.2769   7.2769   7.3788   7.3788   7.4359   7.4359
     7.4813   7.4813   7.5198   7.5198   7.5951   7.5951   7.6436   7.6436
     7.7091   7.7091   7.8574   7.8574   7.9907   7.9907   8.0744   8.0744
     8.1365   8.1365   8.1979   8.1979   8.2633   8.2633   8.3045   8.3045
     8.4106   8.4106   8.5742   8.5742   8.6820   8.6820   8.7794   8.7794
     8.8324   8.8324   8.9338   8.9339   9.0004   9.0004   9.0697   9.0697
     9.1363   9.1363   9.2383   9.2384   9.3228   9.3229   9.3675   9.3675
     9.4007   9.4007   9.5063   9.5063   9.5592   9.5592   9.5851   9.5851
     9.6693   9.6694   9.7836   9.7836   9.8401   9.8401   9.9417   9.9417
     9.9961   9.9961  10.2043  10.2043  10.2770  10.2771  10.3280  10.3280
    10.4300  10.4300  10.5233  10.5233  10.5872  10.5872  10.6709  10.6709
    10.9433  10.9434  11.0034  11.0034  11.1498  11.1498  11.1944  11.1944
    11.3530  11.3530  11.4844  11.4844  11.5938  11.5938  11.6461  11.6461
    11.8938  11.8938  12.1681  12.1681  12.4222  12.4222  12.7261  12.7261
    12.8145  12.8145  12.9692  12.9693  13.1208  13.1208  13.2354  13.2355
    13.4414  13.4429

          k = 0.0714 0.4536 0.0000 ( 63380 PWs)   bands (ev):

   -85.1145 -85.1145 -85.1145 -85.1145 -85.0921 -85.0921 -85.0921 -85.0921
   -85.0779 -85.0779 -85.0779 -85.0779 -84.7465 -84.7465 -84.7463 -84.7463
   -63.9701 -63.9701 -63.9701 -63.9701 -63.8254 -63.8254 -63.7562 -63.7562
   -63.7541 -63.7541 -63.7183 -63.7183 -63.6646 -63.6646 -63.6622 -63.6622
   -49.6648 -49.6648 -49.6646 -49.6646 -49.6339 -49.6338 -49.6334 -49.6333
   -49.5890 -49.5890 -49.5884 -49.5884 -49.2684 -49.2682 -49.2682 -49.2680
   -47.8858 -47.8858 -47.8839 -47.8838 -47.8211 -47.8210 -47.8205 -47.8204
   -47.7806 -47.7806 -47.7789 -47.7788 -47.7693 -47.7692 -47.7682 -47.7681
   -47.7400 -47.7400 -47.7393 -47.7393 -47.6949 -47.6949 -47.6943 -47.6943
   -47.4467 -47.4465 -47.4464 -47.4463 -47.3806 -47.3804 -47.3800 -47.3798
   -35.3678 -35.3678 -35.3669 -35.3669 -35.3110 -35.3110 -35.2226 -35.2226
   -35.1846 -35.1846 -35.1103 -35.1103 -35.0575 -35.0575 -35.0461 -35.0461
   -25.8829 -25.8829 -25.7433 -25.7433 -25.7305 -25.7305 -25.7050 -25.7049
   -25.6143 -25.6143 -25.5639 -25.5639 -25.5091 -25.5091 -25.4809 -25.4809
   -25.3912 -25.3912 -25.3660 -25.3660 -25.2855 -25.2855 -25.2250 -25.2250
   -25.1855 -25.1854 -25.1499 -25.1499 -25.1055 -25.1055 -24.9650 -24.9650
     2.6912   2.6912   3.5267   3.5267   4.2707   4.2707   4.4397   4.4397
     4.6954   4.6954   4.7690   4.7690   5.1929   5.1929   5.2625   5.2625
     5.6063   5.6063   5.6654   5.6654   5.8307   5.8307   5.9808   5.9808
     6.1605   6.1605   6.3060   6.3060   6.3903   6.3903   6.4633   6.4633
     6.6688   6.6688   6.7540   6.7540   6.8162   6.8162   6.8941   6.8941
     6.9798   6.9798   6.9985   6.9985   7.1250   7.1250   7.1482   7.1482
     7.1835   7.1835   7.2680   7.2680   7.2967   7.2967   7.3770   7.3770
     7.4083   7.4083   7.4288   7.4288   7.4860   7.4860   7.5243   7.5243
     7.5769   7.5769   7.7974   7.7974   7.8290   7.8290   7.8867   7.8867
     8.0342   8.0342   8.1305   8.1305   8.2007   8.2007   8.2774   8.2774
     8.4203   8.4203   8.5323   8.5324   8.6573   8.6573   8.7844   8.7844
     8.8242   8.8243   8.9713   8.9713   9.0209   9.0209   9.1053   9.1053
     9.1647   9.1647   9.2530   9.2530   9.3394   9.3394   9.3862   9.3862
     9.4567   9.4567   9.4967   9.4967   9.5780   9.5781   9.6073   9.6073
     9.8178   9.8178   9.8383   9.8383   9.9254   9.9254   9.9778   9.9778
    10.0067  10.0068  10.1968  10.1968  10.2897  10.2897  10.3782  10.3782
    10.4559  10.4559  10.5629  10.5629  10.6253  10.6253  10.7421  10.7421
    10.9606  10.9606  11.0347  11.0347  11.1233  11.1233  11.2347  11.2347
    11.3303  11.3303  11.5272  11.5272  11.5778  11.5778  11.6644  11.6644
    11.8343  11.8343  12.4213  12.4213  12.5559  12.5559  12.7451  12.7451
    12.8936  12.8936  12.9512  12.9512  13.0635  13.0636  13.2404  13.2404
    13.3044  13.3045

          k = 0.0714 0.5361 0.0000 ( 63388 PWs)   bands (ev):

   -85.1118 -85.1118 -85.1117 -85.1117 -85.0949 -85.0949 -85.0948 -85.0948
   -85.0779 -85.0779 -85.0779 -85.0779 -84.7465 -84.7465 -84.7463 -84.7463
   -63.9699 -63.9699 -63.9698 -63.9698 -63.8245 -63.8245 -63.7543 -63.7543
   -63.7525 -63.7525 -63.7228 -63.7228 -63.6649 -63.6649 -63.6624 -63.6624
   -49.6644 -49.6644 -49.6642 -49.6642 -49.6274 -49.6274 -49.6272 -49.6271
   -49.5946 -49.5945 -49.5942 -49.5942 -49.2684 -49.2683 -49.2682 -49.2681
   -47.8820 -47.8820 -47.8806 -47.8806 -47.8081 -47.8081 -47.8072 -47.8072
   -47.7853 -47.7852 -47.7827 -47.7827 -47.7666 -47.7665 -47.7654 -47.7653
   -47.7537 -47.7536 -47.7525 -47.7524 -47.6978 -47.6977 -47.6974 -47.6973
   -47.4467 -47.4465 -47.4465 -47.4463 -47.3805 -47.3803 -47.3801 -47.3799
   -35.3661 -35.3661 -35.3653 -35.3653 -35.3114 -35.3114 -35.2184 -35.2184
   -35.1685 -35.1685 -35.1298 -35.1298 -35.0591 -35.0591 -35.0492 -35.0492
   -25.8844 -25.8844 -25.7467 -25.7467 -25.7334 -25.7333 -25.7063 -25.7062
   -25.5861 -25.5861 -25.5641 -25.5641 -25.4993 -25.4993 -25.4795 -25.4795
   -25.4005 -25.4005 -25.3592 -25.3592 -25.2848 -25.2848 -25.2301 -25.2301
   -25.1949 -25.1949 -25.1573 -25.1573 -25.1123 -25.1123 -24.9650 -24.9650
     3.2313   3.2313   3.7938   3.7938   3.9382   3.9382   4.3647   4.3647
     4.5779   4.5779   4.6875   4.6875   5.2414   5.2414   5.2913   5.2913
     5.6355   5.6355   5.7148   5.7149   5.8395   5.8395   6.0199   6.0199
     6.1531   6.1531   6.2404   6.2404   6.5399   6.5399   6.5999   6.5999
     6.6536   6.6536   6.7377   6.7377   6.7828   6.7829   6.8397   6.8397
     6.8762   6.8762   7.0542   7.0542   7.1351   7.1351   7.1537   7.1537
     7.2036   7.2037   7.2310   7.2310   7.2699   7.2699   7.2967   7.2967
     7.3098   7.3098   7.3440   7.3440   7.3951   7.3952   7.4709   7.4709
     7.4987   7.4987   7.6869   7.6869   7.7585   7.7585   7.8256   7.8256
     8.0076   8.0077   8.0553   8.0553   8.1617   8.1617   8.3832   8.3832
     8.4435   8.4435   8.4916   8.4916   8.6415   8.6415   8.7666   8.7667
     8.8208   8.8208   8.9477   8.9477   9.0041   9.0042   9.1540   9.1540
     9.2480   9.2480   9.2974   9.2974   9.3379   9.3379   9.3757   9.3758
     9.4118   9.4119   9.4828   9.4828   9.5210   9.5210   9.5708   9.5708
     9.8638   9.8638   9.9071   9.9071  10.0127  10.0127  10.0539  10.0540
    10.1076  10.1076  10.2115  10.2115  10.2607  10.2607  10.4343  10.4343
    10.4694  10.4694  10.6180  10.6180  10.6660  10.6660  10.8370  10.8370
    10.9210  10.9210  10.9997  10.9997  11.0989  11.0989  11.2649  11.2650
    11.3520  11.3520  11.4149  11.4149  11.5814  11.5814  11.6185  11.6185
    11.9374  11.9374  12.4440  12.4440  12.5859  12.5859  12.6919  12.6919
    12.8403  12.8403  12.9751  12.9751  13.0571  13.0571  13.1018  13.1018
    13.3019  13.3020

          k = 0.1429 0.2474 0.0000 ( 63324 PWs)   bands (ev):

   -85.1223 -85.1223 -85.1223 -85.1223 -85.0843 -85.0843 -85.0842 -85.0842
   -85.0779 -85.0779 -85.0779 -85.0779 -84.7466 -84.7466 -84.7463 -84.7463
   -63.9711 -63.9711 -63.9711 -63.9711 -63.8296 -63.8296 -63.7652 -63.7652
   -63.7540 -63.7540 -63.7049 -63.7049 -63.6635 -63.6635 -63.6612 -63.6612
   -49.6670 -49.6670 -49.6667 -49.6667 -49.6514 -49.6514 -49.6511 -49.6510
   -49.5740 -49.5739 -49.5733 -49.5733 -49.2684 -49.2681 -49.2680 -49.2678
   -47.9016 -47.9015 -47.8993 -47.8993 -47.8482 -47.8482 -47.8473 -47.8473
   -47.7877 -47.7877 -47.7875 -47.7875 -47.7560 -47.7560 -47.7532 -47.7531
   -47.7156 -47.7156 -47.7149 -47.7149 -47.6776 -47.6775 -47.6770 -47.6770
   -47.4466 -47.4465 -47.4464 -47.4463 -47.3808 -47.3806 -47.3799 -47.3797
   -35.3750 -35.3750 -35.3737 -35.3737 -35.3096 -35.3096 -35.2459 -35.2459
   -35.2063 -35.2063 -35.0732 -35.0732 -35.0504 -35.0504 -35.0286 -35.0286
   -25.8758 -25.8758 -25.7339 -25.7339 -25.7195 -25.7195 -25.6944 -25.6944
   -25.6677 -25.6677 -25.5908 -25.5908 -25.5495 -25.5495 -25.4699 -25.4699
   -25.4132 -25.4132 -25.4006 -25.4006 -25.2947 -25.2947 -25.2110 -25.2110
   -25.1379 -25.1379 -25.1269 -25.1269 -25.0500 -25.0500 -24.9651 -24.9651
     1.6883   1.6883   2.7351   2.7351   3.9165   3.9165   4.9366   4.9366
     4.9634   4.9634   5.0153   5.0153   5.0403   5.0403   5.1317   5.1317
     5.2239   5.2239   5.7407   5.7407   5.9049   5.9049   5.9255   5.9255
     6.1524   6.1524   6.2375   6.2375   6.2930   6.2930   6.3466   6.3466
     6.7323   6.7323   6.8382   6.8382   6.9464   6.9465   7.0292   7.0292
     7.0760   7.0761   7.1413   7.1413   7.1632   7.1632   7.2110   7.2110
     7.2308   7.2308   7.2601   7.2601   7.3578   7.3578   7.4499   7.4499
     7.5753   7.5753   7.7128   7.7128   7.7857   7.7857   7.8227   7.8227
     7.9602   7.9602   7.9924   7.9925   8.0217   8.0217   8.1225   8.1225
     8.2235   8.2235   8.3733   8.3733   8.4565   8.4565   8.5024   8.5025
     8.5336   8.5336   8.6185   8.6185   8.6589   8.6589   8.7424   8.7424
     8.8076   8.8076   8.9081   8.9082   8.9546   8.9546   9.0443   9.0444
     9.1444   9.1444   9.2186   9.2186   9.2657   9.2658   9.3057   9.3057
     9.3458   9.3459   9.3896   9.3896   9.4385   9.4385   9.4973   9.4973
     9.5288   9.5288   9.7300   9.7300   9.8119   9.8119  10.0136  10.0137
    10.0616  10.0617  10.1602  10.1602  10.2565  10.2565  10.3441  10.3441
    10.4310  10.4310  10.5456  10.5456  10.6175  10.6175  10.7254  10.7254
    10.8283  10.8283  10.9153  10.9153  11.0219  11.0219  11.0746  11.0746
    11.2694  11.2694  11.3855  11.3855  11.5269  11.5269  11.6537  11.6537
    11.8081  11.8081  12.0739  12.0739  12.1584  12.1584  12.5562  12.5562
    12.8617  12.8617  13.0616  13.0616  13.1329  13.1329  13.2388  13.2389
    13.4310  13.4310

          k = 0.1429 0.3299 0.0000 ( 63331 PWs)   bands (ev):

   -85.1190 -85.1190 -85.1190 -85.1190 -85.0876 -85.0876 -85.0876 -85.0876
   -85.0779 -85.0779 -85.0779 -85.0779 -84.7465 -84.7465 -84.7463 -84.7463
   -63.9706 -63.9706 -63.9706 -63.9706 -63.8275 -63.8275 -63.7616 -63.7616
   -63.7541 -63.7541 -63.7106 -63.7106 -63.6641 -63.6641 -63.6617 -63.6617
   -49.6657 -49.6657 -49.6654 -49.6654 -49.6443 -49.6442 -49.6438 -49.6438
   -49.5802 -49.5802 -49.5795 -49.5795 -49.2684 -49.2682 -49.2681 -49.2679
   -47.8938 -47.8937 -47.8911 -47.8910 -47.8389 -47.8389 -47.8378 -47.8377
   -47.7844 -47.7843 -47.7839 -47.7839 -47.7623 -47.7623 -47.7593 -47.7593
   -47.7225 -47.7225 -47.7216 -47.7216 -47.6882 -47.6881 -47.6874 -47.6873
   -47.4467 -47.4465 -47.4465 -47.4463 -47.3808 -47.3806 -47.3798 -47.3796
   -35.3717 -35.3717 -35.3703 -35.3703 -35.3103 -35.3103 -35.2328 -35.2328
   -35.2015 -35.2015 -35.0866 -35.0866 -35.0538 -35.0538 -35.0378 -35.0378
   -25.8804 -25.8804 -25.7331 -25.7331 -25.7192 -25.7192 -25.6936 -25.6936
   -25.6657 -25.6657 -25.5830 -25.5830 -25.5247 -25.5246 -25.4728 -25.4728
   -25.4001 -25.4001 -25.3842 -25.3842 -25.2859 -25.2859 -25.2195 -25.2195
   -25.1555 -25.1555 -25.1395 -25.1395 -25.0812 -25.0812 -24.9639 -24.9639
     2.0760   2.0760   3.0459   3.0459   4.1614   4.1614   4.7329   4.7329
     4.8859   4.8859   5.0388   5.0388   5.0890   5.0890   5.1440   5.1440
     5.3013   5.3013   5.7005   5.7005   5.9923   5.9923   6.0600   6.0600
     6.1381   6.1382   6.2100   6.2100   6.2720   6.2720   6.3353   6.3353
     6.6820   6.6820   6.7456   6.7456   6.8817   6.8817   6.9476   6.9476
     7.0280   7.0280   7.1055   7.1055   7.1431   7.1431   7.1844   7.1844
     7.2151   7.2152   7.2410   7.2410   7.3740   7.3740   7.4305   7.4305
     7.4860   7.4860   7.5672   7.5672   7.6034   7.6034   7.6629   7.6629
     7.8573   7.8573   7.8997   7.8997   7.9903   7.9903   8.0431   8.0431
     8.1608   8.1608   8.2369   8.2370   8.3161   8.3161   8.3914   8.3914
     8.5137   8.5137   8.5605   8.5605   8.6432   8.6432   8.7266   8.7266
     8.8174   8.8174   8.8914   8.8914   8.9884   8.9884   9.0679   9.0679
     9.1678   9.1678   9.2611   9.2611   9.3234   9.3235   9.3668   9.3669
     9.4104   9.4104   9.4507   9.4507   9.5332   9.5332   9.5588   9.5589
     9.6161   9.6161   9.7394   9.7394   9.8105   9.8105  10.0099  10.0099
    10.0850  10.0850  10.1725  10.1725  10.2513  10.2513  10.3472  10.3472
    10.4405  10.4405  10.5507  10.5507  10.6352  10.6352  10.7331  10.7331
    10.8388  10.8388  10.9682  10.9682  11.0822  11.0822  11.1307  11.1307
    11.2519  11.2520  11.3799  11.3799  11.5904  11.5904  11.7972  11.7972
    11.9641  11.9641  12.1000  12.1000  12.3202  12.3202  12.5851  12.5851
    12.8200  12.8201  12.9721  12.9721  13.0489  13.0489  13.1709  13.1710
    13.5319  13.5321

          k = 0.1429 0.4124 0.0000 ( 63366 PWs)   bands (ev):

   -85.1153 -85.1153 -85.1152 -85.1152 -85.0914 -85.0914 -85.0913 -85.0913
   -85.0779 -85.0779 -85.0779 -85.0779 -84.7465 -84.7465 -84.7463 -84.7463
   -63.9702 -63.9702 -63.9701 -63.9701 -63.8258 -63.8258 -63.7570 -63.7570
   -63.7542 -63.7542 -63.7171 -63.7171 -63.6645 -63.6645 -63.6621 -63.6621
   -49.6648 -49.6647 -49.6645 -49.6644 -49.6360 -49.6359 -49.6355 -49.6354
   -49.5874 -49.5874 -49.5867 -49.5867 -49.2684 -49.2682 -49.2682 -49.2680
   -47.8864 -47.8864 -47.8836 -47.8835 -47.8275 -47.8275 -47.8263 -47.8262
   -47.7801 -47.7801 -47.7790 -47.7789 -47.7693 -47.7692 -47.7673 -47.7673
   -47.7321 -47.7321 -47.7312 -47.7311 -47.6970 -47.6970 -47.6961 -47.6961
   -47.4467 -47.4465 -47.4464 -47.4462 -47.3808 -47.3806 -47.3799 -47.3797
   -35.3686 -35.3686 -35.3672 -35.3672 -35.3109 -35.3109 -35.2201 -35.2201
   -35.1931 -35.1931 -35.1049 -35.1049 -35.0570 -35.0570 -35.0448 -35.0448
   -25.8843 -25.8843 -25.7410 -25.7409 -25.7180 -25.7180 -25.6928 -25.6928
   -25.6445 -25.6445 -25.5755 -25.5754 -25.5029 -25.5029 -25.4756 -25.4756
   -25.4002 -25.4002 -25.3669 -25.3669 -25.2836 -25.2836 -25.2287 -25.2287
   -25.1733 -25.1733 -25.1505 -25.1505 -25.1025 -25.1025 -24.9631 -24.9631
     2.5396   2.5396   3.4139   3.4139   4.3879   4.3879   4.4822   4.4822
     4.7575   4.7575   4.9037   4.9037   5.1230   5.1230   5.1988   5.1988
     5.4231   5.4231   5.6269   5.6269   5.9621   5.9621   6.0389   6.0390
     6.1224   6.1224   6.2640   6.2640   6.3368   6.3368   6.4345   6.4345
     6.6732   6.6732   6.7559   6.7559   6.8216   6.8216   6.8790   6.8790
     7.0096   7.0096   7.0498   7.0498   7.1146   7.1146   7.1530   7.1530
     7.1923   7.1923   7.2553   7.2554   7.3034   7.3035   7.3666   7.3666
     7.4502   7.4502   7.4882   7.4882   7.5283   7.5283   7.5638   7.5638
     7.6782   7.6782   7.8386   7.8386   7.8742   7.8742   7.9040   7.9041
     8.0156   8.0156   8.1599   8.1599   8.1957   8.1957   8.3079   8.3079
     8.5133   8.5133   8.5929   8.5930   8.6324   8.6324   8.7165   8.7165
     8.8141   8.8142   8.8700   8.8700   9.0238   9.0238   9.1159   9.1160
     9.1698   9.1698   9.2499   9.2499   9.3698   9.3698   9.4215   9.4215
     9.4432   9.4432   9.4832   9.4832   9.5644   9.5644   9.6466   9.6466
     9.7057   9.7058   9.8256   9.8256   9.8774   9.8774   9.9807   9.9807
    10.1001  10.1001  10.1880  10.1880  10.2836  10.2836  10.3489  10.3489
    10.4324  10.4324  10.5504  10.5505  10.6880  10.6880  10.7464  10.7464
    10.8800  10.8800  10.9945  10.9945  11.1182  11.1182  11.1828  11.1828
    11.2954  11.2954  11.4164  11.4164  11.5685  11.5685  11.7448  11.7448
    11.9163  11.9163  12.3822  12.3822  12.5509  12.5509  12.6499  12.6499
    12.7862  12.7863  12.8467  12.8467  12.9399  12.9399  13.1505  13.1505
    13.3489  13.3490

          k = 0.1429 0.4949 0.0000 ( 63359 PWs)   bands (ev):

   -85.1118 -85.1118 -85.1117 -85.1117 -85.0949 -85.0949 -85.0948 -85.0948
   -85.0779 -85.0779 -85.0779 -85.0779 -84.7465 -84.7465 -84.7463 -84.7463
   -63.9699 -63.9699 -63.9698 -63.9698 -63.8247 -63.8247 -63.7543 -63.7543
   -63.7522 -63.7522 -63.7230 -63.7230 -63.6649 -63.6649 -63.6624 -63.6624
   -49.6642 -49.6641 -49.6638 -49.6638 -49.6281 -49.6280 -49.6276 -49.6276
   -49.5944 -49.5944 -49.5938 -49.5938 -49.2684 -49.2682 -49.2682 -49.2680
   -47.8811 -47.8811 -47.8784 -47.8783 -47.8157 -47.8156 -47.8145 -47.8144
   -47.7825 -47.7825 -47.7794 -47.7794 -47.7692 -47.7691 -47.7678 -47.7678
   -47.7441 -47.7441 -47.7430 -47.7430 -47.7021 -47.7020 -47.7014 -47.7013
   -47.4467 -47.4465 -47.4464 -47.4462 -47.3807 -47.3805 -47.3799 -47.3797
   -35.3664 -35.3664 -35.3650 -35.3650 -35.3114 -35.3114 -35.2128 -35.2128
   -35.1785 -35.1785 -35.1256 -35.1256 -35.0592 -35.0591 -35.0489 -35.0489
   -25.8868 -25.8868 -25.7462 -25.7461 -25.7212 -25.7212 -25.6927 -25.6927
   -25.6136 -25.6136 -25.5719 -25.5718 -25.4915 -25.4915 -25.4728 -25.4728
   -25.4137 -25.4137 -25.3545 -25.3545 -25.2847 -25.2847 -25.2363 -25.2363
   -25.1853 -25.1852 -25.1577 -25.1577 -25.1125 -25.1125 -24.9626 -24.9626
     3.0513   3.0513   3.8117   3.8117   4.0842   4.0842   4.5385   4.5385
     4.6020   4.6021   4.7122   4.7122   5.2011   5.2011   5.2245   5.2245
     5.4916   5.4916   5.5734   5.5734   5.9080   5.9080   6.0368   6.0368
     6.0965   6.0965   6.2398   6.2398   6.5227   6.5227   6.5546   6.5546
     6.7156   6.7156   6.7436   6.7436   6.8177   6.8177   6.8732   6.8732
     6.9407   6.9407   6.9951   6.9951   7.1035   7.1035   7.1511   7.1511
     7.2042   7.2042   7.2332   7.2332   7.2777   7.2777   7.3052   7.3052
     7.3642   7.3642   7.4121   7.4121   7.4285   7.4286   7.4938   7.4938
     7.5934   7.5934   7.7217   7.7217   7.7555   7.7555   7.8644   7.8644
     7.9735   7.9735   8.0479   8.0479   8.2004   8.2004   8.2963   8.2963
     8.5058   8.5058   8.5531   8.5531   8.6465   8.6465   8.7278   8.7278
     8.7994   8.7995   8.8841   8.8841   9.0098   9.0098   9.1192   9.1192
     9.2153   9.2154   9.2784   9.2784   9.3404   9.3404   9.4006   9.4006
     9.4641   9.4641   9.5292   9.5292   9.5969   9.5969   9.6332   9.6332
     9.7997   9.7997   9.8750   9.8750   9.9411   9.9411  10.0154  10.0154
    10.1144  10.1144  10.1677  10.1677  10.1859  10.1859  10.4400  10.4400
    10.4843  10.4843  10.6503  10.6503  10.7193  10.7193  10.7981  10.7981
    10.9041  10.9041  11.0075  11.0076  11.1017  11.1017  11.2201  11.2201
    11.3416  11.3416  11.4495  11.4495  11.5470  11.5470  11.6717  11.6717
    11.8408  11.8408  12.4368  12.4368  12.5288  12.5288  12.6587  12.6587
    12.7163  12.7163  12.8794  12.8795  13.0209  13.0209  13.1312  13.1312
    13.2355  13.2357

          k = 0.1429 0.5774 0.0000 ( 63424 PWs)   bands (ev):

   -85.1101 -85.1101 -85.1101 -85.1101 -85.0966 -85.0966 -85.0965 -85.0965
   -85.0779 -85.0779 -85.0779 -85.0779 -84.7465 -84.7465 -84.7463 -84.7463
   -63.9697 -63.9697 -63.9697 -63.9697 -63.8243 -63.8243 -63.7543 -63.7543
   -63.7498 -63.7498 -63.7258 -63.7258 -63.6650 -63.6650 -63.6625 -63.6625
   -49.6640 -49.6639 -49.6636 -49.6636 -49.6241 -49.6241 -49.6240 -49.6239
   -49.5978 -49.5977 -49.5975 -49.5974 -49.2684 -49.2683 -49.2682 -49.2681
   -47.8792 -47.8792 -47.8765 -47.8765 -47.8090 -47.8090 -47.8077 -47.8077
   -47.7871 -47.7870 -47.7851 -47.7850 -47.7630 -47.7630 -47.7608 -47.7608
   -47.7538 -47.7538 -47.7514 -47.7514 -47.7036 -47.7036 -47.7030 -47.7030
   -47.4467 -47.4465 -47.4464 -47.4462 -47.3807 -47.3805 -47.3799 -47.3797
   -35.3656 -35.3656 -35.3642 -35.3642 -35.3116 -35.3116 -35.2108 -35.2108
   -35.1666 -35.1666 -35.1392 -35.1392 -35.0599 -35.0599 -35.0502 -35.0502
   -25.8877 -25.8877 -25.7479 -25.7479 -25.7228 -25.7228 -25.6927 -25.6927
   -25.5956 -25.5956 -25.5736 -25.5736 -25.4893 -25.4893 -25.4691 -25.4691
   -25.4236 -25.4236 -25.3501 -25.3501 -25.2852 -25.2852 -25.2395 -25.2395
   -25.1893 -25.1893 -25.1600 -25.1600 -25.1152 -25.1152 -24.9625 -24.9625
     3.5173   3.5173   3.6491   3.6491   4.1467   4.1467   4.3080   4.3080
     4.5802   4.5802   4.7025   4.7025   5.2181   5.2181   5.2480   5.2480
     5.4973   5.4973   5.5630   5.5631   5.8851   5.8851   6.0756   6.0756
     6.1164   6.1164   6.1813   6.1813   6.5682   6.5682   6.6776   6.6776
     6.7253   6.7253   6.7663   6.7663   6.7956   6.7956   6.8466   6.8466
     6.8709   6.8709   7.0130   7.0130   7.1391   7.1391   7.1685   7.1685
     7.2019   7.2019   7.2328   7.2328   7.2613   7.2613   7.2784   7.2784
     7.3118   7.3118   7.3395   7.3396   7.3599   7.3599   7.4612   7.4612
     7.5711   7.5711   7.6965   7.6965   7.7236   7.7236   7.8729   7.8729
     7.9386   7.9386   7.9978   7.9978   8.1909   8.1909   8.3685   8.3685
     8.4624   8.4624   8.5527   8.5527   8.6380   8.6380   8.7322   8.7322
     8.7894   8.7894   8.8974   8.8974   8.9909   8.9909   9.1258   9.1258
     9.2009   9.2009   9.2869   9.2869   9.3778   9.3778   9.4271   9.4272
     9.5088   9.5088   9.5313   9.5313   9.5468   9.5468   9.6069   9.6070
     9.8204   9.8205   9.8515   9.8515   9.9419   9.9419  10.0621  10.0621
    10.1217  10.1217  10.1479  10.1479  10.2119  10.2119  10.4594  10.4594
    10.5130  10.5130  10.6928  10.6929  10.7451  10.7451  10.8469  10.8470
    10.9156  10.9157  11.0038  11.0038  11.0782  11.0783  11.2483  11.2483
    11.3094  11.3094  11.4707  11.4707  11.5580  11.5580  11.6935  11.6935
    11.7863  11.7863  12.3396  12.3396  12.4497  12.4497  12.6359  12.6359
    12.7097  12.7097  12.9449  12.9449  13.0338  13.0338  13.0708  13.0708
    13.2421  13.2422

          k = 0.2143 0.3712 0.0000 ( 63378 PWs)   bands (ev):

   -85.1156 -85.1156 -85.1155 -85.1155 -85.0911 -85.0911 -85.0910 -85.0910
   -85.0779 -85.0779 -85.0779 -85.0779 -84.7465 -84.7465 -84.7463 -84.7463
   -63.9702 -63.9702 -63.9702 -63.9702 -63.8259 -63.8259 -63.7572 -63.7572
   -63.7542 -63.7542 -63.7167 -63.7167 -63.6645 -63.6645 -63.6621 -63.6621
   -49.6647 -49.6647 -49.6644 -49.6643 -49.6367 -49.6367 -49.6362 -49.6362
   -49.5869 -49.5868 -49.5862 -49.5861 -49.2684 -49.2682 -49.2682 -49.2679
   -47.8865 -47.8865 -47.8833 -47.8832 -47.8300 -47.8300 -47.8284 -47.8284
   -47.7801 -47.7800 -47.7790 -47.7790 -47.7693 -47.7692 -47.7670 -47.7670
   -47.7286 -47.7286 -47.7275 -47.7275 -47.6984 -47.6984 -47.6974 -47.6974
   -47.4467 -47.4465 -47.4464 -47.4462 -47.3808 -47.3806 -47.3798 -47.3796
   -35.3689 -35.3688 -35.3673 -35.3673 -35.3109 -35.3109 -35.2183 -35.2183
   -35.1970 -35.1970 -35.1031 -35.1031 -35.0568 -35.0568 -35.0442 -35.0442
   -25.8849 -25.8849 -25.7433 -25.7432 -25.6972 -25.6971 -25.6885 -25.6885
   -25.6679 -25.6679 -25.5808 -25.5808 -25.4997 -25.4997 -25.4730 -25.4730
   -25.4040 -25.4040 -25.3683 -25.3683 -25.2826 -25.2826 -25.2302 -25.2302
   -25.1667 -25.1666 -25.1529 -25.1529 -25.1011 -25.1011 -24.9622 -24.9622
     2.4877   2.4877   3.3753   3.3753   4.3805   4.3805   4.5656   4.5656
     4.7529   4.7529   5.0637   5.0637   5.0708   5.0708   5.1205   5.1205
     5.3112   5.3112   5.6354   5.6354   6.0022   6.0022   6.1201   6.1201
     6.1334   6.1334   6.2193   6.2193   6.3201   6.3201   6.3714   6.3714
     6.6323   6.6323   6.7809   6.7809   6.8182   6.8182   6.9018   6.9018
     6.9954   6.9954   7.0686   7.0686   7.1413   7.1413   7.1747   7.1747
     7.2250   7.2250   7.2350   7.2351   7.2918   7.2918   7.3330   7.3330
     7.4583   7.4583   7.4776   7.4776   7.5329   7.5329   7.5783   7.5783
     7.8107   7.8107   7.8633   7.8633   7.8934   7.8935   7.9060   7.9060
     7.9700   7.9700   8.1392   8.1392   8.2063   8.2063   8.3927   8.3927
     8.4600   8.4600   8.5950   8.5950   8.6439   8.6439   8.7146   8.7147
     8.7934   8.7934   8.8531   8.8532   9.0233   9.0233   9.1340   9.1341
     9.1911   9.1912   9.2862   9.2862   9.3514   9.3514   9.4144   9.4144
     9.4655   9.4655   9.5035   9.5035   9.5153   9.5153   9.6150   9.6150
     9.6638   9.6638   9.8017   9.8017   9.8464   9.8464  10.0398  10.0398
    10.1294  10.1294  10.2352  10.2352  10.2876  10.2877  10.3861  10.3861
    10.4230  10.4230  10.5028  10.5028  10.6880  10.6880  10.7336  10.7336
    10.9184  10.9184  10.9410  10.9410  11.0501  11.0501  11.1244  11.1244
    11.2571  11.2571  11.3821  11.3821  11.5536  11.5536  11.7940  11.7940
    12.1026  12.1026  12.3191  12.3191  12.4896  12.4896  12.5528  12.5528
    12.7627  12.7627  12.8424  12.8424  12.8857  12.8857  13.1119  13.1119
    13.3614  13.3614

          k = 0.2143 0.4536 0.0000 ( 63316 PWs)   bands (ev):

   -85.1118 -85.1118 -85.1117 -85.1117 -85.0949 -85.0949 -85.0948 -85.0948
   -85.0779 -85.0779 -85.0779 -85.0779 -84.7465 -84.7465 -84.7463 -84.7463
   -63.9699 -63.9699 -63.9698 -63.9698 -63.8248 -63.8248 -63.7542 -63.7542
   -63.7519 -63.7519 -63.7233 -63.7233 -63.6649 -63.6649 -63.6624 -63.6624
   -49.6640 -49.6639 -49.6636 -49.6635 -49.6286 -49.6285 -49.6281 -49.6280
   -49.5942 -49.5942 -49.5936 -49.5935 -49.2684 -49.2682 -49.2682 -49.2680
   -47.8802 -47.8802 -47.8765 -47.8765 -47.8209 -47.8209 -47.8191 -47.8190
   -47.7810 -47.7809 -47.7778 -47.7778 -47.7705 -47.7704 -47.7690 -47.7690
   -47.7364 -47.7364 -47.7352 -47.7351 -47.7068 -47.7068 -47.7058 -47.7058
   -47.4468 -47.4466 -47.4464 -47.4462 -47.3808 -47.3806 -47.3798 -47.3796
   -35.3666 -35.3666 -35.3649 -35.3649 -35.3114 -35.3114 -35.2050 -35.2050
   -35.1891 -35.1891 -35.1230 -35.1230 -35.0592 -35.0592 -35.0486 -35.0486
   -25.8885 -25.8885 -25.7510 -25.7510 -25.6906 -25.6906 -25.6836 -25.6836
   -25.6476 -25.6476 -25.5794 -25.5794 -25.4843 -25.4843 -25.4679 -25.4679
   -25.4227 -25.4227 -25.3534 -25.3534 -25.2850 -25.2850 -25.2394 -25.2393
   -25.1776 -25.1776 -25.1598 -25.1598 -25.1122 -25.1122 -24.9607 -24.9607
     2.9554   2.9554   3.7475   3.7475   4.3183   4.3183   4.4998   4.4998
     4.6684   4.6684   4.8620   4.8621   5.0946   5.0946   5.1648   5.1648
     5.3517   5.3517   5.5223   5.5223   5.9648   5.9649   6.0259   6.0259
     6.0773   6.0774   6.2143   6.2143   6.5175   6.5175   6.5281   6.5281
     6.6769   6.6769   6.7910   6.7910   6.8347   6.8347   6.8757   6.8757
     6.9752   6.9752   7.0644   7.0644   7.0855   7.0855   7.1525   7.1525
     7.2076   7.2076   7.2324   7.2324   7.2497   7.2497   7.2735   7.2735
     7.3834   7.3834   7.4120   7.4120   7.4950   7.4950   7.5529   7.5529
     7.6886   7.6886   7.7406   7.7406   7.7660   7.7660   7.8996   7.8996
     7.9297   7.9297   8.0565   8.0566   8.1580   8.1580   8.3166   8.3166
     8.5272   8.5272   8.5981   8.5981   8.6489   8.6489   8.6915   8.6915
     8.7736   8.7737   8.8207   8.8207   9.0097   9.0097   9.1503   9.1503
     9.2217   9.2217   9.2756   9.2756   9.3573   9.3573   9.4057   9.4057
     9.4720   9.4720   9.5370   9.5370   9.6014   9.6014   9.6628   9.6628
     9.7252   9.7252   9.8300   9.8300   9.9639   9.9639  10.0333  10.0333
    10.1104  10.1104  10.1923  10.1923  10.2614  10.2614  10.4193  10.4193
    10.4779  10.4779  10.5783  10.5783  10.6923  10.6923  10.7823  10.7823
    10.9125  10.9125  10.9818  10.9818  11.0898  11.0898  11.1591  11.1591
    11.2324  11.2325  11.4423  11.4423  11.5199  11.5199  11.6459  11.6459
    12.1117  12.1117  12.3824  12.3824  12.4570  12.4570  12.5762  12.5762
    12.6754  12.6754  12.8024  12.8025  12.9701  12.9701  13.1266  13.1266
    13.2483  13.2484

          k = 0.2143 0.5361 0.0000 ( 63326 PWs)   bands (ev):

   -85.1087 -85.1087 -85.1086 -85.1086 -85.0980 -85.0980 -85.0980 -85.0980
   -85.0779 -85.0779 -85.0779 -85.0779 -84.7465 -84.7465 -84.7463 -84.7463
   -63.9697 -63.9697 -63.9696 -63.9696 -63.8241 -63.8241 -63.7543 -63.7543
   -63.7472 -63.7472 -63.7286 -63.7286 -63.6651 -63.6651 -63.6626 -63.6626
   -49.6636 -49.6635 -49.6631 -49.6631 -49.6217 -49.6216 -49.6213 -49.6213
   -49.6005 -49.6005 -49.6000 -49.6000 -49.2684 -49.2683 -49.2682 -49.2680
   -47.8764 -47.8764 -47.8725 -47.8725 -47.8139 -47.8138 -47.8118 -47.8118
   -47.7871 -47.7871 -47.7852 -47.7852 -47.7624 -47.7623 -47.7600 -47.7600
   -47.7461 -47.7461 -47.7444 -47.7443 -47.7110 -47.7110 -47.7103 -47.7102
   -47.4468 -47.4466 -47.4464 -47.4462 -47.3808 -47.3806 -47.3798 -47.3796
   -35.3653 -35.3653 -35.3635 -35.3635 -35.3117 -35.3117 -35.1999 -35.1999
   -35.1740 -35.1740 -35.1428 -35.1428 -35.0605 -35.0605 -35.0508 -35.0508
   -25.8904 -25.8904 -25.7551 -25.7551 -25.6921 -25.6921 -25.6823 -25.6822
   -25.6190 -25.6190 -25.5818 -25.5818 -25.4822 -25.4822 -25.4601 -25.4601
   -25.4409 -25.4409 -25.3446 -25.3445 -25.2889 -25.2889 -25.2443 -25.2443
   -25.1843 -25.1843 -25.1616 -25.1616 -25.1167 -25.1167 -24.9598 -24.9598
     3.4440   3.4440   3.9267   3.9267   4.1328   4.1328   4.4421   4.4421
     4.5457   4.5457   4.7996   4.7996   5.0861   5.0861   5.2288   5.2288
     5.3521   5.3521   5.4234   5.4234   5.9147   5.9147   5.9963   5.9963
     6.1060   6.1060   6.1765   6.1765   6.5837   6.5837   6.6835   6.6835
     6.7539   6.7539   6.8147   6.8147   6.8400   6.8400   6.8963   6.8963
     6.9355   6.9355   6.9899   6.9899   7.1419   7.1419   7.1659   7.1659
     7.1973   7.1973   7.2195   7.2195   7.2324   7.2324   7.2630   7.2630
     7.2847   7.2847   7.3279   7.3279   7.3994   7.3994   7.5277   7.5277
     7.6614   7.6614   7.6820   7.6821   7.7291   7.7291   7.8598   7.8598
     7.9372   7.9372   7.9968   7.9968   8.2402   8.2402   8.2819   8.2819
     8.4724   8.4724   8.6005   8.6005   8.6503   8.6503   8.7208   8.7209
     8.7623   8.7623   8.8474   8.8474   8.9758   8.9758   9.0760   9.0760
     9.1522   9.1522   9.3247   9.3247   9.3887   9.3887   9.4682   9.4682
     9.4981   9.4982   9.5799   9.5799   9.6294   9.6294   9.6798   9.6798
     9.7485   9.7485   9.8026   9.8026   9.9297   9.9297  10.0255  10.0256
    10.0851  10.0851  10.1384  10.1384  10.2398  10.2398  10.4337  10.4337
    10.5671  10.5671  10.6891  10.6891  10.7480  10.7480  10.8668  10.8668
    10.9373  10.9373  11.0003  11.0003  11.0923  11.0923  11.1424  11.1424
    11.2666  11.2666  11.4481  11.4481  11.5413  11.5413  11.6206  11.6206
    11.9202  11.9202  12.1481  12.1481  12.3139  12.3139  12.5442  12.5442
    12.7633  12.7633  12.9107  12.9108  13.0312  13.0312  13.0867  13.0867
    13.2308  13.2309

          k = 0.2857 0.4949 0.0000 ( 63304 PWs)   bands (ev):

   -85.1080 -85.1080 -85.1080 -85.1080 -85.0986 -85.0986 -85.0986 -85.0986
   -85.0779 -85.0779 -85.0779 -85.0779 -84.7465 -84.7465 -84.7463 -84.7463
   -63.9696 -63.9696 -63.9696 -63.9696 -63.8241 -63.8241 -63.7543 -63.7543
   -63.7460 -63.7460 -63.7299 -63.7299 -63.6651 -63.6651 -63.6626 -63.6626
   -49.6634 -49.6633 -49.6629 -49.6629 -49.6207 -49.6207 -49.6202 -49.6202
   -49.6017 -49.6016 -49.6010 -49.6010 -49.2684 -49.2683 -49.2682 -49.2680
   -47.8752 -47.8752 -47.8707 -47.8707 -47.8164 -47.8163 -47.8139 -47.8139
   -47.7869 -47.7869 -47.7851 -47.7851 -47.7624 -47.7624 -47.7601 -47.7600
   -47.7411 -47.7410 -47.7396 -47.7395 -47.7154 -47.7154 -47.7145 -47.7145
   -47.4468 -47.4466 -47.4464 -47.4461 -47.3808 -47.3806 -47.3798 -47.3796
   -35.3652 -35.3652 -35.3632 -35.3632 -35.3118 -35.3118 -35.1876 -35.1876
   -35.1861 -35.1861 -35.1431 -35.1431 -35.0607 -35.0607 -35.0510 -35.0510
   -25.8914 -25.8914 -25.7577 -25.7577 -25.6786 -25.6786 -25.6634 -25.6634
   -25.6447 -25.6447 -25.5851 -25.5851 -25.4796 -25.4796 -25.4587 -25.4587
   -25.4449 -25.4449 -25.3428 -25.3428 -25.2913 -25.2913 -25.2453 -25.2453
   -25.1823 -25.1823 -25.1622 -25.1622 -25.1171 -25.1171 -24.9587 -24.9587
     3.4007   3.4007   4.1013   4.1013   4.1875   4.1875   4.2710   4.2710
     4.7710   4.7710   4.8418   4.8418   4.9069   4.9069   5.2204   5.2204
     5.2993   5.2994   5.3610   5.3610   5.9322   5.9322   5.9584   5.9584
     6.0926   6.0926   6.1784   6.1784   6.5914   6.5914   6.6881   6.6881
     6.7432   6.7432   6.7983   6.7983   6.8636   6.8636   6.9001   6.9001
     6.9892   6.9892   7.0979   7.0979   7.1081   7.1081   7.1408   7.1408
     7.1889   7.1889   7.2133   7.2133   7.2318   7.2318   7.2391   7.2392
     7.2438   7.2438   7.3398   7.3398   7.4371   7.4371   7.5892   7.5892
     7.6564   7.6564   7.7010   7.7010   7.7281   7.7281   7.8262   7.8262
     7.9116   7.9116   8.0453   8.0453   8.2050   8.2050   8.3186   8.3186
     8.5065   8.5065   8.5668   8.5669   8.6527   8.6528   8.7319   8.7319
     8.7648   8.7649   8.8009   8.8009   8.9746   8.9746   9.0515   9.0515
     9.1941   9.1941   9.3115   9.3115   9.3769   9.3769   9.4216   9.4216
     9.4855   9.4855   9.6255   9.6255   9.6409   9.6410   9.6935   9.6935
     9.7361   9.7361   9.7864   9.7864   9.9775   9.9775  10.0315  10.0315
    10.0710  10.0710  10.1497  10.1497  10.2843  10.2843  10.4155  10.4155
    10.6133  10.6133  10.6622  10.6622  10.7017  10.7017  10.7880  10.7881
    10.9438  10.9438  10.9850  10.9850  11.1123  11.1123  11.1446  11.1446
    11.2404  11.2404  11.4012  11.4012  11.5364  11.5364  11.6181  11.6181
    11.9802  11.9802  12.0468  12.0468  12.3716  12.3716  12.4913  12.4913
    12.7122  12.7122  12.8853  12.8854  13.0356  13.0357  13.1380  13.1380
    13.2259  13.2259

          k = 0.2857 0.5774 0.0000 ( 63370 PWs)   bands (ev):

   -85.1054 -85.1054 -85.1054 -85.1054 -85.1012 -85.1012 -85.1012 -85.1012
   -85.0779 -85.0779 -85.0779 -85.0779 -84.7465 -84.7465 -84.7463 -84.7463
   -63.9696 -63.9696 -63.9695 -63.9695 -63.8239 -63.8239 -63.7543 -63.7543
   -63.7417 -63.7417 -63.7344 -63.7344 -63.6652 -63.6652 -63.6627 -63.6627
   -49.6632 -49.6631 -49.6627 -49.6627 -49.6153 -49.6153 -49.6150 -49.6149
   -49.6068 -49.6067 -49.6063 -49.6062 -49.2684 -49.2683 -49.2682 -49.2681
   -47.8733 -47.8732 -47.8684 -47.8683 -47.8147 -47.8147 -47.8118 -47.8118
   -47.7896 -47.7896 -47.7886 -47.7886 -47.7567 -47.7566 -47.7522 -47.7521
   -47.7462 -47.7462 -47.7436 -47.7435 -47.7188 -47.7188 -47.7183 -47.7182
   -47.4468 -47.4466 -47.4463 -47.4461 -47.3808 -47.3806 -47.3797 -47.3795
   -35.3647 -35.3647 -35.3626 -35.3626 -35.3119 -35.3119 -35.1857 -35.1857
   -35.1723 -35.1723 -35.1587 -35.1587 -35.0613 -35.0613 -35.0518 -35.0518
   -25.8924 -25.8924 -25.7600 -25.7600 -25.6764 -25.6763 -25.6594 -25.6594
   -25.6317 -25.6317 -25.5909 -25.5909 -25.4799 -25.4798 -25.4672 -25.4672
   -25.4423 -25.4423 -25.3386 -25.3386 -25.2956 -25.2956 -25.2468 -25.2468
   -25.1844 -25.1844 -25.1623 -25.1623 -25.1185 -25.1185 -24.9580 -24.9580
     3.8071   3.8071   3.8693   3.8693   4.1840   4.1840   4.4074   4.4074
     4.5574   4.5574   4.8484   4.8484   4.9836   4.9836   5.2124   5.2124
     5.2513   5.2513   5.2881   5.2881   5.9094   5.9094   5.9387   5.9387
     6.1258   6.1258   6.1481   6.1481   6.6283   6.6283   6.6898   6.6898
     6.7621   6.7621   6.8659   6.8659   6.9047   6.9047   6.9360   6.9360
     6.9996   6.9996   7.0750   7.0750   7.1054   7.1054   7.1444   7.1444
     7.1631   7.1631   7.1768   7.1768   7.2243   7.2243   7.2348   7.2348
     7.2627   7.2627   7.2981   7.2981   7.3580   7.3580   7.6116   7.6116
     7.6673   7.6673   7.7075   7.7075   7.7490   7.7490   7.7595   7.7595
     7.8273   7.8273   8.1383   8.1383   8.2443   8.2443   8.3326   8.3327
     8.4378   8.4378   8.5508   8.5508   8.6574   8.6574   8.7569   8.7569
     8.7801   8.7801   8.8248   8.8248   8.9294   8.9294   9.0181   9.0181
     9.1908   9.1909   9.2620   9.2620   9.3677   9.3677   9.4112   9.4112
     9.5370   9.5370   9.6233   9.6233   9.6730   9.6730   9.6934   9.6935
     9.7533   9.7534   9.8164   9.8165   9.9337   9.9337   9.9936   9.9936
    10.0939  10.0939  10.1288  10.1288  10.2677  10.2677  10.4266  10.4266
    10.6603  10.6603  10.6810  10.6811  10.7611  10.7612  10.7990  10.7990
    10.9199  10.9199  11.0602  11.0602  11.1024  11.1024  11.1711  11.1711
    11.2619  11.2619  11.4084  11.4084  11.5254  11.5254  11.6425  11.6425
    11.7482  11.7482  11.8682  11.8682  12.4191  12.4191  12.4647  12.4647
    12.7016  12.7016  12.8955  12.8955  13.0092  13.0093  13.1248  13.1248
    13.2905  13.2905

     the Fermi energy is    10.0258 ev

!    total energy              =   -3679.41868844 Ry
     estimated scf accuracy    <       0.00000024 Ry

     The total energy is the sum of the following terms:
     one-electron contribution =  -15295.22835037 Ry
     hartree contribution      =    7717.30063286 Ry
     xc contribution           =    -716.15035814 Ry
     ewald contribution        =    4614.65938721 Ry

     convergence has been achieved in  20 iterations
 
     init_run     :     65.77s CPU     69.89s WALL (       1 calls)
     electrons    :   3678.67s CPU   3810.69s WALL (       1 calls)

     Called by init_run:
     wfcinit      :     64.20s CPU     68.12s WALL (       1 calls)
     potinit      :      0.67s CPU      0.72s WALL (       1 calls)
     hinit0       :      0.43s CPU      0.45s WALL (       1 calls)

     Called by electrons:
     c_bands      :   2971.37s CPU   3078.08s WALL (      20 calls)
     sum_band     :    665.91s CPU    688.67s WALL (      20 calls)
     v_of_rho     :      3.95s CPU      4.20s WALL (      21 calls)
     mix_rho      :     36.11s CPU     38.31s WALL (      20 calls)

     Called by c_bands:
     init_us_2    :     14.82s CPU     15.21s WALL (     246 calls)
     cegterg      :   2617.85s CPU   2713.40s WALL (     120 calls)

     Called by *egterg:
     cdiaghg      :     75.94s CPU     76.96s WALL (     395 calls)
     h_psi        :   2175.40s CPU   2258.47s WALL (     401 calls)
     g_psi        :      3.85s CPU      3.94s WALL (     275 calls)

     Called by h_psi:
     h_psi:calbec :    196.52s CPU    200.79s WALL (     401 calls)
     vloc_psi     :   1771.76s CPU   1841.97s WALL (     401 calls)
     add_vuspsi   :    198.32s CPU    201.13s WALL (     401 calls)

     General routines
     calbec       :    196.52s CPU    200.79s WALL (     401 calls)
     fft          :      2.63s CPU      2.83s WALL (     270 calls)
     ffts         :     18.22s CPU     19.63s WALL (    1921 calls)
     fftw         :   1715.91s CPU   1792.16s WALL (  374732 calls)
 
     Parallel routines
     fft_scatt_xy :    372.45s CPU    382.19s WALL (  376923 calls)
     fft_scatt_yz :    343.08s CPU    385.15s WALL (  376923 calls)
 
     PWSCF        :      1h 2m CPU      1h 4m WALL

 
   This run was terminated on:  11:33: 3   2May2020            

=------------------------------------------------------------------------------=
   JOB DONE.
=------------------------------------------------------------------------------=
