
     Program PWSCF v.6.5 starts on  2May2020 at 10:28:32 

     This program is part of the open-source Quantum ESPRESSO suite
     for quantum simulation of materials; please cite
         "P. Giannozzi et al., J. Phys.:Condens. Matter 21 395502 (2009);
         "P. Giannozzi et al., J. Phys.:Condens. Matter 29 465901 (2017);
          URL http://www.quantum-espresso.org", 
     in publications or presentations arising from this work. More details at
     http://www.quantum-espresso.org/quote

     Parallel version (MPI), running on    32 processors

     MPI processes distributed on     1 nodes
     K-points division:     npool     =       4
     R & G space division:  proc/nbgrp/npool/nimage =       8
     Fft bands division:     nmany     =       1
     Reading input from viii_1.in

     Current dimensions of program PWSCF are:
     Max number of different atomic species (ntypx) = 10
     Max number of k-points (npk) =  40000
     Max angular momentum in pseudopotentials (lmaxx) =  3

     Subspace diagonalization in iterative solution of the eigenvalue problem:
     a serial algorithm will be used

     [opt_tetra]  Optimized tetrahedron method is used.
 
     Parallelization info
     --------------------
     sticks:   dense  smooth     PW     G-vecs:    dense   smooth      PW
     Min         361     361     96                61111    61111    8560
     Max         362     362     97                61124    61124    8577
     Sum        2893    2893    769               488919   488919   68533
 


     bravais-lattice index     =            4
     lattice parameter (alat)  =       8.9709  a.u.
     unit-cell volume          =    2441.4895 (a.u.)^3
     number of atoms/cell      =           14
     number of atomic types    =            2
     number of electrons       =       220.00
     number of Kohn-Sham states=          264
     kinetic-energy cutoff     =     130.0000  Ry
     charge density cutoff     =     520.0000  Ry
     convergence threshold     =      1.0E-06
     mixing beta               =       0.7000
     number of iterations used =            8  local-TF  mixing
     Exchange-correlation= PBE
                           (   1   4   3   4   0   0   0)
     Non magnetic calculation with spin-orbit


     celldm(1)=   8.970926  celldm(2)=   0.000000  celldm(3)=   3.904923
     celldm(4)=   0.000000  celldm(5)=   0.000000  celldm(6)=   0.000000

     crystal axes: (cart. coord. in units of alat)
               a(1) = (   1.000000   0.000000   0.000000 )  
               a(2) = (  -0.500000   0.866025   0.000000 )  
               a(3) = (   0.000000   0.000000   3.904923 )  

     reciprocal axes: (cart. coord. in units 2 pi/alat)
               b(1) = (  1.000000  0.577350  0.000000 )  
               b(2) = (  0.000000  1.154701  0.000000 )  
               b(3) = (  0.000000  0.000000  0.256087 )  


     PseudoPot. # 1 for Co read from file:
     /gpfs/share/home/1600011702/pseudo/Co.nc.fr.pbe.stringent.upf
     MD5 check sum: 5025e55def73e686899be73cabb26c16
     Pseudo is Norm-conserving + core correction, Zval = 17.0
     Generated using ONCVPSP code by D. R. Hamann
     Using radial grid of 1388 points, 10 beta functions with: 
                l(1) =   0
                l(2) =   0
                l(3) =   1
                l(4) =   1
                l(5) =   1
                l(6) =   1
                l(7) =   2
                l(8) =   2
                l(9) =   2
               l(10) =   2

     PseudoPot. # 2 for W  read from file:
     /gpfs/share/home/1600011702/pseudo/W.nc.fr.pbe.stringent.upf
     MD5 check sum: 75b1d432d85d028982bb81b068264ebf
     Pseudo is Norm-conserving + core correction, Zval = 14.0
     Generated using ONCVPSP code by D. R. Hamann
     Using radial grid of 1396 points, 14 beta functions with: 
                l(1) =   0
                l(2) =   0
                l(3) =   1
                l(4) =   1
                l(5) =   1
                l(6) =   1
                l(7) =   2
                l(8) =   2
                l(9) =   2
               l(10) =   2
               l(11) =   3
               l(12) =   3
               l(13) =   3
               l(14) =   3

     atomic species   valence    mass     pseudopotential
        Co            17.00    58.93320     Co( 1.00)
        W             14.00   183.84000     W ( 1.00)

      6 Sym. Ops. (no inversion) found



   Cartesian axes

     site n.     atom                  positions (alat units)
         1           Co  tau(   1) = (  -0.0000000   0.5773503   0.0000000  )
         2           Co  tau(   2) = (   0.5000000   0.2886751   1.7984220  )
         3           Co  tau(   3) = (  -0.2499054   0.4330673   1.3848286  )
         4           Co  tau(   4) = (   0.0000000   0.8659162   1.3848286  )
         5           Co  tau(   5) = (   0.2499054   0.4330673   1.3848286  )
         6           Co  tau(   6) = (   0.7499054   0.4329581   0.4135934  )
         7           Co  tau(   7) = (   0.5000000   0.0001092   0.4135934  )
         8           Co  tau(   8) = (   0.2500946   0.4329581   0.4135934  )
         9           W   tau(   9) = (  -0.0000000   0.5773503   0.8927737  )
        10           W   tau(  10) = (   0.0000000   0.0000000   0.0719104  )
        11           W   tau(  11) = (   0.0000000   0.0000000   0.6311107  )
        12           W   tau(  12) = (   0.5000000   0.2886751   0.9056483  )
        13           W   tau(  13) = (   0.0000000   0.0000000   1.7265116  )
        14           W   tau(  14) = (   0.0000000   0.0000000   1.1673113  )

     number of k points=    24 (tetrahedron method)
                       cart. coord. in units 2pi/alat
        k(    1) = (   0.0000000   0.0000000   0.0000000), wk =   0.0051020
        k(    2) = (   0.0000000   0.0824786   0.0000000), wk =   0.0306122
        k(    3) = (   0.0000000   0.1649572   0.0000000), wk =   0.0306122
        k(    4) = (   0.0000000   0.2474358   0.0000000), wk =   0.0306122
        k(    5) = (   0.0000000   0.3299144   0.0000000), wk =   0.0306122
        k(    6) = (   0.0000000   0.4123930   0.0000000), wk =   0.0306122
        k(    7) = (   0.0000000   0.4948717   0.0000000), wk =   0.0306122
        k(    8) = (   0.0000000  -0.5773503   0.0000000), wk =   0.0153061
        k(    9) = (   0.0714286   0.1237179   0.0000000), wk =   0.0306122
        k(   10) = (   0.0714286   0.2061965   0.0000000), wk =   0.0612245
        k(   11) = (   0.0714286   0.2886751   0.0000000), wk =   0.0612245
        k(   12) = (   0.0714286   0.3711537   0.0000000), wk =   0.0612245
        k(   13) = (   0.0714286   0.4536324   0.0000000), wk =   0.0612245
        k(   14) = (   0.0714286   0.5361110   0.0000000), wk =   0.0612245
        k(   15) = (   0.1428571   0.2474358   0.0000000), wk =   0.0306122
        k(   16) = (   0.1428571   0.3299144   0.0000000), wk =   0.0612245
        k(   17) = (   0.1428571   0.4123930   0.0000000), wk =   0.0612245
        k(   18) = (   0.1428571   0.4948717   0.0000000), wk =   0.0612245
        k(   19) = (   0.1428571   0.5773503   0.0000000), wk =   0.0306122
        k(   20) = (   0.2142857   0.3711537   0.0000000), wk =   0.0306122
        k(   21) = (   0.2142857   0.4536324   0.0000000), wk =   0.0612245
        k(   22) = (   0.2142857   0.5361110   0.0000000), wk =   0.0612245
        k(   23) = (   0.2857143   0.4948717   0.0000000), wk =   0.0306122
        k(   24) = (   0.2857143   0.5773503   0.0000000), wk =   0.0306122

     Dense  grid:   488919 G-vectors     FFT dimensions: (  72,  72, 256)

     Estimated max dynamical RAM per process >       1.17 GB

     Estimated total dynamical RAM >      37.30 GB

     Initial potential from superposition of free atoms

     starting charge  219.99454, renormalised to  220.00000

     negative rho (up, down):  1.668E-07 0.000E+00
     Starting wfcs are  280 randomized atomic wfcs

     total cpu time spent up to now is       53.9 secs

     Self-consistent Calculation

     iteration #  1     ecut=   130.00 Ry     beta= 0.70
     Davidson diagonalization with overlap
     ethr =  1.00E-02,  avg # of iterations =  3.2

     total cpu time spent up to now is      253.9 secs

     total energy              =   -3372.67200247 Ry
     estimated scf accuracy    <      17.26658179 Ry

     iteration #  2     ecut=   130.00 Ry     beta= 0.70
     Davidson diagonalization with overlap
     ethr =  7.85E-03,  avg # of iterations =  2.2

     total cpu time spent up to now is      411.4 secs

     total energy              =   -3372.35074516 Ry
     estimated scf accuracy    <      42.27113183 Ry

     iteration #  3     ecut=   130.00 Ry     beta= 0.70
     Davidson diagonalization with overlap
     ethr =  7.85E-03,  avg # of iterations =  2.0

     total cpu time spent up to now is      558.4 secs

     total energy              =   -3374.86917553 Ry
     estimated scf accuracy    <       4.74445273 Ry

     iteration #  4     ecut=   130.00 Ry     beta= 0.70
     Davidson diagonalization with overlap
     ethr =  2.16E-03,  avg # of iterations =  2.1

     total cpu time spent up to now is      706.7 secs

     total energy              =   -3374.87894468 Ry
     estimated scf accuracy    <       9.38426124 Ry

     iteration #  5     ecut=   130.00 Ry     beta= 0.70
     Davidson diagonalization with overlap
     ethr =  2.16E-03,  avg # of iterations =  1.0

     total cpu time spent up to now is      850.3 secs

     total energy              =   -3375.18255553 Ry
     estimated scf accuracy    <       1.63874151 Ry

     iteration #  6     ecut=   130.00 Ry     beta= 0.70
     Davidson diagonalization with overlap
     ethr =  7.45E-04,  avg # of iterations =  1.0

     total cpu time spent up to now is      993.9 secs

     total energy              =   -3375.25032413 Ry
     estimated scf accuracy    <       0.55307256 Ry

     iteration #  7     ecut=   130.00 Ry     beta= 0.70
     Davidson diagonalization with overlap
     ethr =  2.51E-04,  avg # of iterations =  3.3

     total cpu time spent up to now is     1148.8 secs

     total energy              =   -3375.24137343 Ry
     estimated scf accuracy    <       0.26481686 Ry

     iteration #  8     ecut=   130.00 Ry     beta= 0.70
     Davidson diagonalization with overlap
     ethr =  1.20E-04,  avg # of iterations =  3.8

     total cpu time spent up to now is     1305.1 secs

     total energy              =   -3375.24996484 Ry
     estimated scf accuracy    <       0.31172037 Ry

     iteration #  9     ecut=   130.00 Ry     beta= 0.70
     Davidson diagonalization with overlap
     ethr =  1.20E-04,  avg # of iterations =  1.0

     total cpu time spent up to now is     1449.2 secs

     total energy              =   -3375.24947262 Ry
     estimated scf accuracy    <       0.08521684 Ry

     iteration # 10     ecut=   130.00 Ry     beta= 0.70
     Davidson diagonalization with overlap
     ethr =  3.87E-05,  avg # of iterations =  4.4

     total cpu time spent up to now is     1609.8 secs

     total energy              =   -3375.24404099 Ry
     estimated scf accuracy    <       0.04077575 Ry

     iteration # 11     ecut=   130.00 Ry     beta= 0.70
     Davidson diagonalization with overlap
     ethr =  1.85E-05,  avg # of iterations =  3.5

     total cpu time spent up to now is     1766.5 secs

     total energy              =   -3375.24427292 Ry
     estimated scf accuracy    <       0.13000600 Ry

     iteration # 12     ecut=   130.00 Ry     beta= 0.70
     Davidson diagonalization with overlap
     ethr =  1.85E-05,  avg # of iterations =  1.0

     total cpu time spent up to now is     1911.1 secs

     total energy              =   -3375.24783371 Ry
     estimated scf accuracy    <       0.00191797 Ry

     iteration # 13     ecut=   130.00 Ry     beta= 0.70
     Davidson diagonalization with overlap
     ethr =  8.72E-07,  avg # of iterations =  7.2

     total cpu time spent up to now is     2087.2 secs

     total energy              =   -3375.24838150 Ry
     estimated scf accuracy    <       0.00078319 Ry

     iteration # 14     ecut=   130.00 Ry     beta= 0.70
     Davidson diagonalization with overlap
     ethr =  3.56E-07,  avg # of iterations =  2.1

     total cpu time spent up to now is     2235.8 secs

     total energy              =   -3375.24846331 Ry
     estimated scf accuracy    <       0.00064637 Ry

     iteration # 15     ecut=   130.00 Ry     beta= 0.70
     Davidson diagonalization with overlap
     ethr =  2.94E-07,  avg # of iterations =  1.0

     total cpu time spent up to now is     2380.7 secs

     total energy              =   -3375.24849615 Ry
     estimated scf accuracy    <       0.00021409 Ry

     iteration # 16     ecut=   130.00 Ry     beta= 0.70
     Davidson diagonalization with overlap
     ethr =  9.73E-08,  avg # of iterations =  1.1

     total cpu time spent up to now is     2526.1 secs

     total energy              =   -3375.24851235 Ry
     estimated scf accuracy    <       0.00007815 Ry

     iteration # 17     ecut=   130.00 Ry     beta= 0.70
     Davidson diagonalization with overlap
     ethr =  3.55E-08,  avg # of iterations =  1.7

     total cpu time spent up to now is     2673.1 secs

     total energy              =   -3375.24851441 Ry
     estimated scf accuracy    <       0.00000314 Ry

     iteration # 18     ecut=   130.00 Ry     beta= 0.70
     Davidson diagonalization with overlap
     ethr =  1.43E-09,  avg # of iterations =  3.9

     total cpu time spent up to now is     2850.4 secs

     End of self-consistent calculation

          k = 0.0000 0.0000 0.0000 ( 61015 PWs)   bands (ev):

   -86.6838 -86.6838 -86.6837 -86.6837 -86.6331 -86.6331 -86.6331 -86.6331
   -86.6330 -86.6330 -86.6330 -86.6330 -86.1273 -86.1273 -86.1272 -86.1272
   -65.8715 -65.8715 -65.8713 -65.8713 -65.5412 -65.5412 -65.4905 -65.4905
   -65.4471 -65.4471 -65.4242 -65.4242 -51.2307 -51.2307 -51.2305 -51.2305
   -51.2251 -51.2251 -51.2250 -51.2250 -51.1187 -51.1187 -51.1183 -51.1183
   -50.6623 -50.6623 -50.6622 -50.6622 -49.4910 -49.4910 -49.4908 -49.4908
   -49.4467 -49.4467 -49.4466 -49.4466 -49.3408 -49.3408 -49.3406 -49.3406
   -49.2810 -49.2810 -49.2807 -49.2807 -49.2359 -49.2359 -49.2357 -49.2357
   -49.2105 -49.2105 -49.2104 -49.2104 -48.8157 -48.8157 -48.8156 -48.8156
   -48.8104 -48.8104 -48.8103 -48.8103 -37.2563 -37.2563 -37.2525 -37.2525
   -37.0020 -37.0020 -36.9900 -36.9900 -36.9087 -36.9087 -36.7353 -36.7353
   -27.6766 -27.6766 -27.5278 -27.5278 -27.4792 -27.4792 -27.4210 -27.4210
   -27.4100 -27.4100 -27.3261 -27.3261 -27.2649 -27.2649 -27.1937 -27.1937
   -27.1203 -27.1203 -27.1157 -27.1157 -26.7608 -26.7608 -26.6797 -26.6797
    -0.5867  -0.5867   1.0250   1.0250   2.5376   2.5376   3.4187   3.4187
     3.4199   3.4199   3.4496   3.4496   4.0171   4.0171   4.0350   4.0350
     4.0482   4.0482   4.1749   4.1749   4.2054   4.2054   4.4102   4.4102
     4.4553   4.4553   4.5315   4.5315   5.0353   5.0353   5.2808   5.2808
     5.3599   5.3599   5.4429   5.4429   5.5549   5.5549   5.5849   5.5849
     5.6195   5.6195   5.8568   5.8568   5.8629   5.8629   5.8870   5.8870
     5.9203   5.9203   6.2249   6.2249   6.3572   6.3572   6.4531   6.4531
     6.4715   6.4715   6.7900   6.7900   6.7997   6.7997   6.8282   6.8282
     6.8869   6.8869   6.9412   6.9412   7.0898   7.0898   7.1221   7.1221
     7.1543   7.1543   7.2266   7.2266   7.2436   7.2436   7.2857   7.2857
     7.3066   7.3066   7.3499   7.3499   7.3781   7.3781   7.4646   7.4646
     7.6427   7.6427   7.6526   7.6526   7.7992   7.7992   7.8114   7.8114
     7.8181   7.8181   7.8954   7.8954   7.9397   7.9397   8.1405   8.1405
     8.1560   8.1560   8.2757   8.2757   8.2954   8.2954   8.4850   8.4850
     8.5135   8.5135   8.8089   8.8089   8.8982   8.8982   8.9850   8.9850
     8.9885   8.9885   8.9927   8.9927   9.2867   9.2867   9.3499   9.3499
     9.3503   9.3503   9.3542   9.3542   9.4724   9.4724   9.7090   9.7090
    10.0829  10.0829  10.2849  10.2849  10.4002  10.4002  10.6139  10.6140
    10.6153  10.6153  10.7215  10.7215  11.3277  11.3277  11.6191  11.6191

          k = 0.0000 0.0825 0.0000 ( 61153 PWs)   bands (ev):

   -86.6833 -86.6833 -86.6832 -86.6832 -86.6337 -86.6337 -86.6336 -86.6336
   -86.6331 -86.6331 -86.6330 -86.6330 -86.1273 -86.1273 -86.1272 -86.1272
   -65.8715 -65.8715 -65.8713 -65.8713 -65.5402 -65.5402 -65.4905 -65.4905
   -65.4471 -65.4471 -65.4252 -65.4252 -51.2299 -51.2299 -51.2297 -51.2297
   -51.2243 -51.2243 -51.2242 -51.2242 -51.1197 -51.1197 -51.1194 -51.1194
   -50.6624 -50.6623 -50.6623 -50.6621 -49.4896 -49.4895 -49.4891 -49.4890
   -49.4456 -49.4455 -49.4453 -49.4452 -49.3408 -49.3408 -49.3407 -49.3407
   -49.2820 -49.2819 -49.2809 -49.2808 -49.2370 -49.2369 -49.2365 -49.2363
   -49.2126 -49.2126 -49.2124 -49.2124 -48.8157 -48.8157 -48.8156 -48.8156
   -48.8105 -48.8104 -48.8103 -48.8101 -37.2563 -37.2563 -37.2525 -37.2525
   -36.9999 -36.9999 -36.9899 -36.9899 -36.9079 -36.9079 -36.7386 -36.7386
   -27.6769 -27.6769 -27.5301 -27.5301 -27.4740 -27.4740 -27.4217 -27.4217
   -27.4101 -27.4101 -27.3324 -27.3324 -27.2648 -27.2648 -27.1846 -27.1846
   -27.1374 -27.1374 -27.0934 -27.0934 -26.7623 -26.7623 -26.6884 -26.6884
    -0.5238  -0.5238   1.0692   1.0692   2.5591   2.5591   3.4225   3.4225
     3.4449   3.4449   3.4772   3.4772   3.8883   3.8883   3.9859   3.9859
     4.0628   4.0628   4.1792   4.1792   4.2641   4.2641   4.4066   4.4066
     4.4699   4.4699   4.6674   4.6674   5.0413   5.0413   5.2149   5.2149
     5.3114   5.3114   5.5008   5.5008   5.5843   5.5843   5.6040   5.6040
     5.6558   5.6558   5.8349   5.8349   5.8632   5.8632   5.8949   5.8949
     5.9043   5.9043   6.1919   6.1919   6.3039   6.3039   6.4273   6.4273
     6.4402   6.4403   6.7452   6.7452   6.7570   6.7570   6.7971   6.7971
     6.8529   6.8529   6.9101   6.9101   7.0643   7.0644   7.0848   7.0848
     7.1249   7.1249   7.1954   7.1954   7.2215   7.2215   7.2937   7.2937
     7.3327   7.3327   7.3832   7.3832   7.4161   7.4161   7.4821   7.4821
     7.6363   7.6363   7.6724   7.6724   7.7410   7.7410   7.8329   7.8329
     7.8575   7.8575   7.9117   7.9117   7.9395   7.9395   8.1699   8.1699
     8.1797   8.1798   8.2425   8.2425   8.2926   8.2926   8.5078   8.5078
     8.6079   8.6079   8.7142   8.7142   8.9028   8.9028   8.9693   8.9693
     8.9734   8.9735   9.0164   9.0164   9.0818   9.0818   9.3118   9.3118
     9.3779   9.3780   9.3899   9.3899   9.5485   9.5485   9.7396   9.7396
    10.2246  10.2246  10.2827  10.2827  10.3615  10.3615  10.5518  10.5518
    10.6667  10.6667  10.6967  10.6967  11.3764  11.3764  11.6856  11.6856

          k = 0.0000 0.1650 0.0000 ( 61146 PWs)   bands (ev):

   -86.6816 -86.6816 -86.6815 -86.6815 -86.6354 -86.6354 -86.6352 -86.6352
   -86.6331 -86.6331 -86.6330 -86.6330 -86.1273 -86.1273 -86.1272 -86.1272
   -65.8715 -65.8715 -65.8713 -65.8713 -65.5375 -65.5375 -65.4904 -65.4904
   -65.4471 -65.4471 -65.4281 -65.4281 -51.2283 -51.2282 -51.2281 -51.2280
   -51.2213 -51.2213 -51.2212 -51.2211 -51.1229 -51.1228 -51.1225 -51.1224
   -50.6624 -50.6623 -50.6622 -50.6621 -49.4855 -49.4853 -49.4845 -49.4844
   -49.4419 -49.4418 -49.4413 -49.4412 -49.3410 -49.3410 -49.3409 -49.3409
   -49.2841 -49.2840 -49.2820 -49.2818 -49.2401 -49.2400 -49.2392 -49.2390
   -49.2180 -49.2180 -49.2179 -49.2179 -48.8157 -48.8157 -48.8156 -48.8156
   -48.8106 -48.8104 -48.8102 -48.8100 -37.2563 -37.2563 -37.2525 -37.2525
   -36.9949 -36.9949 -36.9886 -36.9886 -36.9056 -36.9056 -36.7483 -36.7483
   -27.6777 -27.6777 -27.5341 -27.5341 -27.4618 -27.4618 -27.4236 -27.4236
   -27.4105 -27.4105 -27.3453 -27.3453 -27.2650 -27.2650 -27.1664 -27.1664
   -27.1476 -27.1476 -27.0654 -27.0654 -26.7685 -26.7685 -26.7115 -26.7115
    -0.3381  -0.3381   1.1997   1.1997   2.6159   2.6159   3.4255   3.4255
     3.5048   3.5049   3.5550   3.5550   3.6792   3.6792   3.9442   3.9442
     4.0751   4.0751   4.1625   4.1626   4.2922   4.2922   4.5150   4.5150
     4.5660   4.5661   4.8263   4.8264   5.0452   5.0452   5.1358   5.1358
     5.2647   5.2647   5.5014   5.5014   5.5893   5.5894   5.6342   5.6342
     5.6842   5.6842   5.8014   5.8014   5.8562   5.8562   5.9024   5.9024
     5.9458   5.9458   6.1033   6.1033   6.2314   6.2314   6.3262   6.3262
     6.3685   6.3685   6.6344   6.6345   6.6822   6.6822   6.7195   6.7195
     6.7719   6.7719   6.8467   6.8467   6.9825   6.9825   7.0268   7.0268
     7.0776   7.0776   7.1320   7.1320   7.1827   7.1827   7.2592   7.2592
     7.3714   7.3714   7.4156   7.4156   7.4505   7.4505   7.5294   7.5294
     7.6150   7.6150   7.6788   7.6789   7.7422   7.7422   7.8452   7.8452
     7.9117   7.9118   7.9254   7.9254   8.0032   8.0032   8.1382   8.1382
     8.2334   8.2334   8.2620   8.2620   8.3176   8.3176   8.5343   8.5343
     8.5917   8.5917   8.6830   8.6830   8.7598   8.7598   8.8964   8.8965
     8.9141   8.9142   8.9771   8.9771   9.1442   9.1442   9.2968   9.2968
     9.3913   9.3914   9.4356   9.4356   9.6761   9.6761   9.8295   9.8295
    10.1572  10.1572  10.3079  10.3079  10.4661  10.4661  10.5430  10.5430
    10.6389  10.6389  10.7247  10.7247  11.4665  11.4665  11.8921  11.8921

          k = 0.0000 0.2474 0.0000 ( 61110 PWs)   bands (ev):

   -86.6790 -86.6790 -86.6789 -86.6789 -86.6380 -86.6380 -86.6379 -86.6379
   -86.6331 -86.6331 -86.6330 -86.6330 -86.1273 -86.1273 -86.1272 -86.1272
   -65.8715 -65.8715 -65.8713 -65.8713 -65.5334 -65.5334 -65.4901 -65.4901
   -65.4472 -65.4472 -65.4327 -65.4327 -51.2270 -51.2269 -51.2268 -51.2268
   -51.2154 -51.2153 -51.2152 -51.2151 -51.1279 -51.1277 -51.1274 -51.1273
   -50.6625 -50.6624 -50.6622 -50.6621 -49.4794 -49.4793 -49.4781 -49.4780
   -49.4352 -49.4351 -49.4344 -49.4343 -49.3417 -49.3416 -49.3415 -49.3414
   -49.2869 -49.2868 -49.2840 -49.2839 -49.2463 -49.2462 -49.2449 -49.2448
   -49.2247 -49.2247 -49.2246 -49.2246 -48.8157 -48.8157 -48.8156 -48.8156
   -48.8106 -48.8105 -48.8101 -48.8100 -37.2562 -37.2562 -37.2525 -37.2525
   -36.9925 -36.9925 -36.9808 -36.9808 -36.9018 -36.9018 -36.7637 -36.7637
   -27.6790 -27.6790 -27.5368 -27.5368 -27.4499 -27.4499 -27.4236 -27.4236
   -27.4110 -27.4110 -27.3552 -27.3552 -27.2653 -27.2653 -27.1693 -27.1693
   -27.1285 -27.1285 -27.0371 -27.0371 -26.7855 -26.7855 -26.7381 -26.7381
    -0.0377  -0.0377   1.4100   1.4100   2.6853   2.6853   3.3980   3.3980
     3.4728   3.4728   3.5780   3.5780   3.6926   3.6926   3.9452   3.9452
     4.0350   4.0350   4.2158   4.2158   4.2772   4.2772   4.6012   4.6012
     4.7681   4.7681   4.9369   4.9369   5.0160   5.0160   5.1515   5.1515
     5.2132   5.2132   5.3401   5.3401   5.5323   5.5323   5.6774   5.6774
     5.7121   5.7121   5.7564   5.7564   5.8125   5.8125   5.9200   5.9200
     5.9466   5.9467   6.0178   6.0178   6.1849   6.1849   6.2256   6.2256
     6.3478   6.3478   6.5318   6.5318   6.5836   6.5836   6.6351   6.6351
     6.6779   6.6779   6.7625   6.7625   6.8649   6.8649   6.9526   6.9527
     7.0505   7.0506   7.0707   7.0708   7.1128   7.1129   7.2240   7.2240
     7.3654   7.3654   7.4096   7.4097   7.4469   7.4469   7.4869   7.4869
     7.5887   7.5887   7.7466   7.7466   7.7748   7.7748   7.8336   7.8336
     7.9382   7.9383   7.9740   7.9741   8.0697   8.0697   8.1035   8.1035
     8.2276   8.2276   8.3072   8.3072   8.3683   8.3683   8.4013   8.4013
     8.4660   8.4660   8.6730   8.6730   8.8104   8.8105   8.8250   8.8250
     8.9027   8.9027   9.0781   9.0781   9.2891   9.2891   9.3270   9.3270
     9.4100   9.4100   9.4574   9.4574   9.6907   9.6907   9.8735   9.8735
    10.1270  10.1270  10.3180  10.3180  10.5375  10.5375  10.5659  10.5659
    10.6745  10.6745  10.8620  10.8620  11.5448  11.5448  11.8410  11.8410

          k = 0.0000 0.3299 0.0000 ( 61110 PWs)   bands (ev):

   -86.6757 -86.6756 -86.6755 -86.6755 -86.6414 -86.6414 -86.6412 -86.6412
   -86.6331 -86.6331 -86.6330 -86.6330 -86.1273 -86.1273 -86.1272 -86.1272
   -65.8715 -65.8715 -65.8713 -65.8713 -65.5287 -65.5287 -65.4890 -65.4890
   -65.4472 -65.4472 -65.4385 -65.4385 -51.2260 -51.2260 -51.2259 -51.2258
   -51.2073 -51.2071 -51.2071 -51.2069 -51.1344 -51.1343 -51.1340 -51.1339
   -50.6625 -50.6624 -50.6622 -50.6621 -49.4729 -49.4727 -49.4715 -49.4714
   -49.4253 -49.4251 -49.4245 -49.4244 -49.3433 -49.3432 -49.3430 -49.3428
   -49.2899 -49.2898 -49.2867 -49.2865 -49.2564 -49.2563 -49.2547 -49.2545
   -49.2299 -49.2298 -49.2297 -49.2296 -48.8157 -48.8157 -48.8156 -48.8156
   -48.8106 -48.8104 -48.8101 -48.8100 -37.2562 -37.2562 -37.2524 -37.2524
   -36.9925 -36.9925 -36.9681 -36.9681 -36.8961 -36.8961 -36.7837 -36.7837
   -27.6805 -27.6805 -27.5378 -27.5378 -27.4487 -27.4487 -27.4164 -27.4164
   -27.4106 -27.4106 -27.3546 -27.3546 -27.2648 -27.2648 -27.1774 -27.1774
   -27.1031 -27.1031 -27.0149 -27.0149 -26.8178 -26.8178 -26.7545 -26.7545
     0.3635   0.3635   1.6888   1.6888   2.7430   2.7430   3.2707   3.2707
     3.3476   3.3476   3.5527   3.5527   3.8643   3.8643   3.9771   3.9771
     4.0433   4.0433   4.1531   4.1531   4.3998   4.3998   4.6703   4.6703
     4.8926   4.8926   4.9832   4.9832   5.0353   5.0353   5.1514   5.1514
     5.2042   5.2042   5.2727   5.2727   5.5265   5.5266   5.5895   5.5895
     5.6916   5.6916   5.7180   5.7180   5.7977   5.7977   5.8548   5.8548
     5.9184   5.9184   5.9507   5.9507   6.0941   6.0941   6.1645   6.1645
     6.3826   6.3826   6.4232   6.4233   6.5092   6.5092   6.5641   6.5641
     6.6043   6.6043   6.6700   6.6700   6.7523   6.7524   6.8472   6.8472
     6.9099   6.9099   7.0338   7.0338   7.1032   7.1032   7.1972   7.1972
     7.3450   7.3450   7.3635   7.3636   7.4031   7.4031   7.4890   7.4890
     7.5119   7.5119   7.7836   7.7836   7.8055   7.8055   7.8633   7.8633
     7.9261   7.9261   8.0114   8.0114   8.0673   8.0673   8.1403   8.1403
     8.1729   8.1729   8.3296   8.3296   8.3648   8.3648   8.4309   8.4309
     8.4774   8.4775   8.6776   8.6776   8.7783   8.7784   8.8598   8.8598
     8.9515   8.9515   9.1356   9.1356   9.2702   9.2703   9.3498   9.3498
     9.3992   9.3993   9.5307   9.5307   9.7179   9.7179   9.8534   9.8534
    10.3091  10.3091  10.3705  10.3706  10.5397  10.5397  10.6142  10.6142
    10.6936  10.6936  11.0878  11.0878  11.2183  11.2183  11.6084  11.6084

          k = 0.0000 0.4124 0.0000 ( 61140 PWs)   bands (ev):

   -86.6719 -86.6719 -86.6718 -86.6718 -86.6451 -86.6451 -86.6450 -86.6450
   -86.6331 -86.6331 -86.6330 -86.6330 -86.1273 -86.1273 -86.1272 -86.1272
   -65.8715 -65.8715 -65.8713 -65.8713 -65.5244 -65.5244 -65.4871 -65.4871
   -65.4474 -65.4474 -65.4448 -65.4448 -51.2253 -51.2252 -51.2251 -51.2251
   -51.1982 -51.1980 -51.1979 -51.1978 -51.1420 -51.1419 -51.1416 -51.1414
   -50.6625 -50.6624 -50.6623 -50.6622 -49.4673 -49.4672 -49.4662 -49.4661
   -49.4127 -49.4125 -49.4122 -49.4121 -49.3466 -49.3465 -49.3460 -49.3459
   -49.2923 -49.2922 -49.2893 -49.2892 -49.2683 -49.2681 -49.2664 -49.2662
   -49.2330 -49.2329 -49.2328 -49.2327 -48.8157 -48.8157 -48.8156 -48.8156
   -48.8105 -48.8104 -48.8101 -48.8100 -37.2562 -37.2562 -37.2524 -37.2524
   -36.9927 -36.9927 -36.9549 -36.9549 -36.8876 -36.8876 -36.8066 -36.8066
   -27.6818 -27.6818 -27.5380 -27.5380 -27.4539 -27.4539 -27.4138 -27.4138
   -27.4063 -27.4063 -27.3402 -27.3402 -27.2623 -27.2623 -27.1828 -27.1828
   -27.0849 -27.0849 -27.0079 -27.0079 -26.8463 -26.8462 -26.7647 -26.7647
     0.8454   0.8454   2.0169   2.0169   2.7938   2.7938   2.9595   2.9595
     3.2549   3.2549   3.4072   3.4072   3.9892   3.9892   4.0661   4.0661
     4.1023   4.1023   4.1368   4.1368   4.5314   4.5314   4.7233   4.7233
     4.8939   4.8939   5.0221   5.0221   5.0667   5.0667   5.1622   5.1622
     5.2690   5.2690   5.3568   5.3568   5.4406   5.4406   5.5395   5.5395
     5.5757   5.5757   5.6952   5.6952   5.8010   5.8010   5.8190   5.8191
     5.9018   5.9019   5.9223   5.9223   5.9875   5.9875   6.1617   6.1617
     6.2637   6.2638   6.4005   6.4005   6.4317   6.4317   6.4817   6.4817
     6.4916   6.4916   6.5730   6.5730   6.6111   6.6111   6.7170   6.7170
     6.8125   6.8125   7.0273   7.0273   7.1062   7.1062   7.1461   7.1461
     7.3059   7.3060   7.3797   7.3797   7.4373   7.4373   7.4681   7.4681
     7.5517   7.5518   7.7314   7.7314   7.8146   7.8146   7.8757   7.8757
     7.8987   7.8988   8.0293   8.0293   8.1015   8.1015   8.1422   8.1422
     8.1514   8.1514   8.3271   8.3272   8.4062   8.4062   8.5208   8.5208
     8.5788   8.5788   8.6349   8.6349   8.8163   8.8163   8.8428   8.8429
     8.9953   8.9954   9.0927   9.0927   9.1879   9.1879   9.3082   9.3082
     9.4444   9.4444   9.5651   9.5651   9.7210   9.7210  10.0192  10.0193
    10.3290  10.3290  10.3793  10.3793  10.4620  10.4620  10.6018  10.6018
    10.7102  10.7102  11.0695  11.0695  11.4465  11.4465  11.5599  11.5599

          k = 0.0000 0.4949 0.0000 ( 61128 PWs)   bands (ev):

   -86.6685 -86.6685 -86.6684 -86.6684 -86.6485 -86.6485 -86.6484 -86.6484
   -86.6331 -86.6331 -86.6330 -86.6330 -86.1273 -86.1273 -86.1272 -86.1272
   -65.8715 -65.8715 -65.8713 -65.8713 -65.5214 -65.5214 -65.4846 -65.4846
   -65.4505 -65.4505 -65.4471 -65.4471 -51.2248 -51.2248 -51.2246 -51.2246
   -51.1899 -51.1898 -51.1897 -51.1896 -51.1491 -51.1490 -51.1488 -51.1487
   -50.6625 -50.6623 -50.6623 -50.6622 -49.4636 -49.4634 -49.4630 -49.4628
   -49.4001 -49.4000 -49.3999 -49.3999 -49.3517 -49.3516 -49.3511 -49.3509
   -49.2931 -49.2930 -49.2910 -49.2908 -49.2780 -49.2779 -49.2764 -49.2763
   -49.2346 -49.2346 -49.2344 -49.2343 -48.8157 -48.8157 -48.8156 -48.8156
   -48.8104 -48.8103 -48.8102 -48.8101 -37.2562 -37.2562 -37.2524 -37.2524
   -36.9929 -36.9929 -36.9449 -36.9449 -36.8747 -36.8747 -36.8303 -36.8303
   -27.6827 -27.6827 -27.5381 -27.5381 -27.4584 -27.4584 -27.4139 -27.4139
   -27.4040 -27.4040 -27.3223 -27.3223 -27.2566 -27.2566 -27.1846 -27.1846
   -27.0800 -27.0800 -27.0148 -27.0148 -26.8565 -26.8565 -26.7722 -26.7722
     1.3794   1.3794   2.3418   2.3418   2.5350   2.5350   2.8744   2.8744
     3.0960   3.0960   3.1815   3.1815   4.0164   4.0164   4.0527   4.0527
     4.2185   4.2185   4.2936   4.2936   4.6461   4.6461   4.8012   4.8012
     4.9780   4.9780   5.0202   5.0202   5.0452   5.0452   5.1212   5.1212
     5.2537   5.2537   5.3550   5.3550   5.3851   5.3851   5.4850   5.4850
     5.6172   5.6172   5.6968   5.6968   5.8193   5.8193   5.8468   5.8468
     5.8826   5.8826   5.9129   5.9129   5.9356   5.9356   6.1522   6.1522
     6.1927   6.1928   6.2289   6.2289   6.3624   6.3624   6.3769   6.3769
     6.4153   6.4153   6.4480   6.4480   6.5380   6.5380   6.6172   6.6172
     6.8648   6.8648   7.0174   7.0174   7.0637   7.0637   7.1368   7.1368
     7.2965   7.2965   7.4004   7.4004   7.4518   7.4518   7.5547   7.5547
     7.6007   7.6007   7.6598   7.6598   7.7943   7.7944   7.8374   7.8375
     7.9141   7.9141   7.9935   7.9935   8.0590   8.0590   8.1358   8.1358
     8.2080   8.2080   8.3713   8.3713   8.4702   8.4702   8.5562   8.5562
     8.6543   8.6543   8.7066   8.7067   8.7354   8.7354   8.8898   8.8899
     8.9721   8.9721   9.0475   9.0475   9.1378   9.1379   9.2473   9.2473
     9.5224   9.5224   9.5764   9.5764   9.7580   9.7581  10.0518  10.0518
    10.1221  10.1221  10.3308  10.3308  10.4587  10.4587  10.5305  10.5305
    10.7339  10.7339  11.2633  11.2633  11.5310  11.5310  11.6646  11.6646

          k = 0.0000-0.5774 0.0000 ( 61112 PWs)   bands (ev):

   -86.6670 -86.6670 -86.6668 -86.6668 -86.6501 -86.6501 -86.6499 -86.6499
   -86.6331 -86.6331 -86.6330 -86.6330 -86.1273 -86.1273 -86.1272 -86.1272
   -65.8715 -65.8715 -65.8713 -65.8713 -65.5204 -65.5204 -65.4833 -65.4833
   -65.4528 -65.4528 -65.4472 -65.4472 -51.2246 -51.2246 -51.2244 -51.2244
   -51.1860 -51.1860 -51.1859 -51.1859 -51.1524 -51.1524 -51.1522 -51.1522
   -50.6624 -50.6624 -50.6623 -50.6623 -49.4621 -49.4621 -49.4619 -49.4619
   -49.3940 -49.3940 -49.3939 -49.3939 -49.3547 -49.3547 -49.3545 -49.3545
   -49.2920 -49.2920 -49.2919 -49.2919 -49.2813 -49.2813 -49.2811 -49.2811
   -49.2351 -49.2351 -49.2349 -49.2349 -48.8157 -48.8157 -48.8156 -48.8156
   -48.8103 -48.8103 -48.8102 -48.8102 -37.2562 -37.2562 -37.2524 -37.2524
   -36.9930 -36.9930 -36.9412 -36.9412 -36.8616 -36.8616 -36.8473 -36.8473
   -27.6830 -27.6830 -27.5381 -27.5381 -27.4600 -27.4600 -27.4140 -27.4140
   -27.4036 -27.4036 -27.3150 -27.3150 -27.2526 -27.2526 -27.1841 -27.1841
   -27.0829 -27.0829 -27.0188 -27.0188 -26.8571 -26.8571 -26.7753 -26.7753
     1.8417   1.8417   2.0539   2.0539   2.6322   2.6322   2.9089   2.9089
     2.9880   2.9880   3.0120   3.0120   4.0274   4.0274   4.0372   4.0372
     4.2762   4.2762   4.3853   4.3853   4.7049   4.7049   4.8404   4.8404
     5.0110   5.0110   5.0127   5.0127   5.0594   5.0594   5.1084   5.1084
     5.1622   5.1622   5.3051   5.3051   5.3634   5.3634   5.5027   5.5027
     5.6662   5.6662   5.6827   5.6827   5.8327   5.8327   5.8584   5.8584
     5.8996   5.8996   5.9377   5.9377   5.9832   5.9832   6.0578   6.0578
     6.1506   6.1506   6.1983   6.1983   6.2338   6.2338   6.3685   6.3685
     6.3960   6.3960   6.4162   6.4162   6.5233   6.5233   6.5747   6.5747
     6.9227   6.9227   6.9678   6.9678   7.0725   7.0725   7.1261   7.1261
     7.3137   7.3137   7.3923   7.3923   7.4727   7.4727   7.5363   7.5363
     7.6529   7.6529   7.6799   7.6799   7.7804   7.7804   7.7819   7.7819
     7.9268   7.9268   7.9879   7.9879   8.0222   8.0222   8.1333   8.1333
     8.2333   8.2333   8.4013   8.4013   8.5305   8.5305   8.5474   8.5474
     8.6398   8.6398   8.6884   8.6884   8.7622   8.7622   8.9018   8.9018
     8.9993   8.9993   9.0872   9.0872   9.1036   9.1036   9.1536   9.1536
     9.5613   9.5613   9.5799   9.5799   9.7847   9.7847   9.9603   9.9603
    10.1445  10.1445  10.2818  10.2818  10.3937  10.3937  10.5662  10.5662
    10.7419  10.7419  11.1828  11.1828  11.6884  11.6884  11.7326  11.7326

          k = 0.0714 0.1237 0.0000 ( 61163 PWs)   bands (ev):

   -86.6822 -86.6822 -86.6820 -86.6820 -86.6348 -86.6348 -86.6347 -86.6347
   -86.6331 -86.6331 -86.6330 -86.6330 -86.1273 -86.1273 -86.1272 -86.1272
   -65.8715 -65.8715 -65.8713 -65.8713 -65.5384 -65.5384 -65.4905 -65.4905
   -65.4471 -65.4471 -65.4271 -65.4271 -51.2287 -51.2286 -51.2285 -51.2284
   -51.2225 -51.2224 -51.2223 -51.2222 -51.1218 -51.1217 -51.1215 -51.1214
   -50.6624 -50.6623 -50.6622 -50.6621 -49.4868 -49.4867 -49.4860 -49.4858
   -49.4432 -49.4430 -49.4427 -49.4425 -49.3409 -49.3409 -49.3408 -49.3408
   -49.2835 -49.2833 -49.2816 -49.2814 -49.2390 -49.2389 -49.2382 -49.2380
   -49.2164 -49.2163 -49.2162 -49.2162 -48.8157 -48.8157 -48.8156 -48.8156
   -48.8105 -48.8104 -48.8102 -48.8101 -37.2563 -37.2563 -37.2525 -37.2525
   -36.9963 -36.9963 -36.9893 -36.9893 -36.9064 -36.9064 -36.7451 -36.7451
   -27.6774 -27.6774 -27.5330 -27.5330 -27.4653 -27.4653 -27.4231 -27.4231
   -27.4104 -27.4104 -27.3419 -27.3419 -27.2650 -27.2650 -27.1699 -27.1699
   -27.1474 -27.1474 -27.0730 -27.0730 -26.7662 -26.7662 -26.7043 -26.7043
    -0.3996  -0.3996   1.1565   1.1565   2.5985   2.5985   3.4266   3.4266
     3.4898   3.4898   3.5275   3.5275   3.7556   3.7556   3.8751   3.8751
     4.1068   4.1068   4.2265   4.2265   4.2961   4.2962   4.4085   4.4085
     4.5562   4.5563   4.7897   4.7897   5.0484   5.0484   5.1467   5.1467
     5.2801   5.2801   5.5043   5.5043   5.6123   5.6123   5.6470   5.6471
     5.6755   5.6755   5.7568   5.7568   5.8566   5.8566   5.9057   5.9058
     5.9571   5.9571   6.1295   6.1295   6.2448   6.2448   6.3618   6.3618
     6.3875   6.3875   6.6639   6.6640   6.6983   6.6983   6.7539   6.7539
     6.7821   6.7821   6.8729   6.8729   7.0108   7.0108   7.0455   7.0456
     7.0943   7.0943   7.1456   7.1457   7.1886   7.1887   7.2677   7.2677
     7.3580   7.3581   7.4173   7.4174   7.4411   7.4411   7.5304   7.5305
     7.6396   7.6397   7.6635   7.6635   7.7246   7.7246   7.8524   7.8524
     7.8882   7.8883   7.9271   7.9271   7.9777   7.9778   8.1529   8.1530
     8.2158   8.2158   8.2508   8.2508   8.3156   8.3156   8.5344   8.5344
     8.6051   8.6051   8.7198   8.7198   8.7792   8.7792   8.9165   8.9165
     8.9422   8.9423   8.9705   8.9705   9.1000   9.1001   9.2944   9.2944
     9.3798   9.3798   9.4196   9.4196   9.6588   9.6588   9.8012   9.8012
    10.1938  10.1938  10.3058  10.3058  10.4172  10.4172  10.5389  10.5389
    10.6517  10.6517  10.7086  10.7086  11.4431  11.4431  11.8282  11.8282

          k = 0.0714 0.2062 0.0000 ( 61140 PWs)   bands (ev):

   -86.6800 -86.6800 -86.6799 -86.6799 -86.6370 -86.6370 -86.6368 -86.6368
   -86.6331 -86.6331 -86.6330 -86.6330 -86.1273 -86.1273 -86.1272 -86.1272
   -65.8715 -65.8715 -65.8713 -65.8713 -65.5350 -65.5350 -65.4902 -65.4902
   -65.4472 -65.4472 -65.4309 -65.4309 -51.2274 -51.2273 -51.2272 -51.2271
   -51.2179 -51.2177 -51.2177 -51.2175 -51.1259 -51.1258 -51.1255 -51.1254
   -50.6625 -50.6623 -50.6622 -50.6621 -49.4817 -49.4815 -49.4804 -49.4803
   -49.4380 -49.4379 -49.4372 -49.4371 -49.3413 -49.3413 -49.3412 -49.3411
   -49.2859 -49.2857 -49.2832 -49.2831 -49.2436 -49.2434 -49.2423 -49.2421
   -49.2226 -49.2225 -49.2224 -49.2223 -48.8158 -48.8157 -48.8156 -48.8156
   -48.8106 -48.8105 -48.8101 -48.8100 -37.2563 -37.2563 -37.2525 -37.2525
   -36.9929 -36.9929 -36.9843 -36.9843 -36.9034 -36.9034 -36.7577 -36.7577
   -27.6785 -27.6785 -27.5359 -27.5359 -27.4522 -27.4522 -27.4250 -27.4250
   -27.4109 -27.4109 -27.3533 -27.3533 -27.2654 -27.2654 -27.1636 -27.1636
   -27.1404 -27.1404 -27.0464 -27.0464 -26.7778 -26.7778 -26.7291 -26.7291
    -0.1566  -0.1566   1.3270   1.3270   2.6630   2.6630   3.4156   3.4156
     3.5277   3.5278   3.5756   3.5756   3.6394   3.6394   3.8319   3.8319
     4.1637   4.1637   4.2148   4.2148   4.3170   4.3170   4.4993   4.4993
     4.6930   4.6931   4.9093   4.9093   5.0421   5.0421   5.1217   5.1217
     5.2387   5.2387   5.4402   5.4402   5.5218   5.5218   5.6300   5.6300
     5.6924   5.6924   5.7395   5.7395   5.8416   5.8416   5.9316   5.9316
     6.0061   6.0062   6.0632   6.0633   6.2078   6.2078   6.2574   6.2574
     6.3270   6.3271   6.5600   6.5601   6.6064   6.6064   6.6586   6.6586
     6.7064   6.7064   6.8151   6.8151   6.9145   6.9145   6.9900   6.9900
     7.0448   7.0449   7.0898   7.0898   7.1347   7.1347   7.2304   7.2304
     7.3275   7.3275   7.4285   7.4285   7.4781   7.4781   7.5216   7.5216
     7.6060   7.6061   7.7254   7.7254   7.7580   7.7580   7.8500   7.8500
     7.9137   7.9137   7.9529   7.9529   8.0637   8.0637   8.1151   8.1151
     8.2087   8.2087   8.3119   8.3119   8.3533   8.3534   8.4605   8.4605
     8.4921   8.4921   8.6178   8.6178   8.8174   8.8174   8.8683   8.8684
     8.9149   8.9150   9.0605   9.0605   9.2571   9.2572   9.2857   9.2858
     9.3806   9.3806   9.4446   9.4446   9.7075   9.7075   9.9007   9.9007
    10.0415  10.0415  10.3264  10.3264  10.5423  10.5423  10.5713  10.5714
    10.6298  10.6298  10.7764  10.7764  11.5278  11.5278  12.0549  12.0549

          k = 0.0714 0.2887 0.0000 ( 61104 PWs)   bands (ev):

   -86.6770 -86.6770 -86.6769 -86.6769 -86.6400 -86.6400 -86.6398 -86.6398
   -86.6331 -86.6331 -86.6330 -86.6330 -86.1273 -86.1273 -86.1272 -86.1272
   -65.8715 -65.8715 -65.8713 -65.8713 -65.5305 -65.5305 -65.4895 -65.4895
   -65.4472 -65.4472 -65.4361 -65.4361 -51.2264 -51.2263 -51.2261 -51.2260
   -51.2107 -51.2106 -51.2105 -51.2103 -51.1317 -51.1316 -51.1313 -51.1311
   -50.6625 -50.6624 -50.6622 -50.6621 -49.4754 -49.4752 -49.4738 -49.4737
   -49.4298 -49.4297 -49.4288 -49.4287 -49.3424 -49.3423 -49.3422 -49.3421
   -49.2888 -49.2887 -49.2857 -49.2855 -49.2517 -49.2515 -49.2500 -49.2498
   -49.2287 -49.2285 -49.2283 -49.2282 -48.8158 -48.8157 -48.8157 -48.8156
   -48.8106 -48.8105 -48.8101 -48.8099 -37.2562 -37.2562 -37.2525 -37.2525
   -36.9924 -36.9924 -36.9731 -36.9731 -36.8988 -36.8988 -36.7754 -36.7754
   -27.6800 -27.6800 -27.5371 -27.5371 -27.4444 -27.4444 -27.4217 -27.4217
   -27.4111 -27.4111 -27.3587 -27.3587 -27.2657 -27.2657 -27.1716 -27.1716
   -27.1156 -27.1155 -27.0214 -27.0214 -26.8049 -26.8049 -26.7484 -26.7484
     0.1939   0.1939   1.5719   1.5719   2.7287   2.7287   3.3458   3.3458
     3.3798   3.3798   3.5962   3.5962   3.7644   3.7645   3.8676   3.8676
     4.1464   4.1464   4.2054   4.2054   4.3627   4.3627   4.6330   4.6330
     4.8524   4.8524   4.9532   4.9532   5.0386   5.0386   5.1537   5.1537
     5.1957   5.1957   5.2725   5.2726   5.5033   5.5033   5.5425   5.5426
     5.7182   5.7182   5.7661   5.7661   5.8210   5.8210   5.8841   5.8841
     5.9488   5.9488   6.0040   6.0040   6.1097   6.1098   6.1964   6.1964
     6.3951   6.3951   6.4591   6.4591   6.4995   6.4996   6.5705   6.5706
     6.6426   6.6426   6.7427   6.7427   6.7880   6.7881   6.9011   6.9011
     6.9819   6.9819   7.0491   7.0491   7.0682   7.0682   7.2099   7.2099
     7.2751   7.2751   7.3763   7.3764   7.4569   7.4569   7.5111   7.5112
     7.5629   7.5630   7.7696   7.7697   7.7985   7.7985   7.8552   7.8552
     7.9454   7.9454   7.9930   7.9930   8.0590   8.0590   8.1322   8.1322
     8.1820   8.1820   8.3022   8.3022   8.3849   8.3850   8.4263   8.4263
     8.4656   8.4657   8.6696   8.6696   8.7632   8.7632   8.8336   8.8337
     8.9810   8.9810   9.1681   9.1681   9.2586   9.2587   9.3604   9.3605
     9.4226   9.4226   9.4877   9.4878   9.7029   9.7029   9.8461   9.8462
    10.1601  10.1601  10.3252  10.3252  10.5299  10.5299  10.6379  10.6379
    10.7057  10.7057  10.9292  10.9292  11.4105  11.4105  11.6316  11.6317

          k = 0.0714 0.3712 0.0000 ( 61087 PWs)   bands (ev):

   -86.6734 -86.6734 -86.6733 -86.6733 -86.6436 -86.6436 -86.6435 -86.6435
   -86.6331 -86.6331 -86.6330 -86.6330 -86.1273 -86.1273 -86.1272 -86.1272
   -65.8715 -65.8715 -65.8713 -65.8713 -65.5260 -65.5260 -65.4879 -65.4879
   -65.4473 -65.4473 -65.4423 -65.4423 -51.2256 -51.2254 -51.2253 -51.2251
   -51.2020 -51.2019 -51.2017 -51.2016 -51.1389 -51.1387 -51.1384 -51.1383
   -50.6625 -50.6624 -50.6623 -50.6621 -49.4693 -49.4692 -49.4677 -49.4676
   -49.4187 -49.4186 -49.4177 -49.4176 -49.3447 -49.3446 -49.3443 -49.3441
   -49.2917 -49.2915 -49.2885 -49.2883 -49.2628 -49.2627 -49.2608 -49.2606
   -49.2327 -49.2326 -49.2323 -49.2321 -48.8158 -48.8157 -48.8157 -48.8156
   -48.8105 -48.8104 -48.8101 -48.8099 -37.2562 -37.2562 -37.2524 -37.2524
   -36.9926 -36.9926 -36.9596 -36.9596 -36.8923 -36.8923 -36.7968 -36.7968
   -27.6816 -27.6816 -27.5371 -27.5371 -27.4476 -27.4476 -27.4146 -27.4146
   -27.4086 -27.4086 -27.3516 -27.3516 -27.2647 -27.2647 -27.1782 -27.1782
   -27.0951 -27.0951 -27.0063 -27.0063 -26.8374 -26.8374 -26.7595 -26.7595
     0.6346   0.6347   1.8762   1.8762   2.7824   2.7824   3.1109   3.1110
     3.2998   3.2998   3.5103   3.5103   3.9044   3.9044   3.9547   3.9547
     4.1297   4.1297   4.1828   4.1828   4.4940   4.4941   4.7065   4.7065
     4.8782   4.8782   4.9950   4.9950   5.0868   5.0868   5.1443   5.1443
     5.2148   5.2148   5.2978   5.2978   5.4309   5.4309   5.5452   5.5452
     5.6534   5.6535   5.7313   5.7313   5.7856   5.7856   5.8331   5.8331
     5.8903   5.8903   5.9508   5.9508   6.0434   6.0434   6.1580   6.1580
     6.3149   6.3149   6.3856   6.3857   6.4745   6.4745   6.5078   6.5078
     6.5654   6.5654   6.6395   6.6396   6.6831   6.6831   6.7769   6.7769
     6.8252   6.8252   7.0461   7.0462   7.0756   7.0756   7.1638   7.1638
     7.2437   7.2437   7.3439   7.3439   7.4279   7.4279   7.5103   7.5103
     7.5505   7.5506   7.7826   7.7827   7.8183   7.8183   7.8730   7.8730
     7.9199   7.9199   8.0159   8.0160   8.0947   8.0947   8.1373   8.1374
     8.1705   8.1706   8.2951   8.2951   8.4041   8.4041   8.4950   8.4950
     8.5563   8.5563   8.6218   8.6218   8.7558   8.7559   8.8373   8.8373
     9.0284   9.0284   9.1470   9.1470   9.2445   9.2445   9.3373   9.3373
     9.4200   9.4200   9.5460   9.5461   9.7133   9.7133   9.9724   9.9724
    10.2698  10.2698  10.4002  10.4002  10.5014  10.5014  10.5976  10.5976
    10.7251  10.7251  10.9730  10.9730  11.1831  11.1831  11.6757  11.6757

          k = 0.0714 0.4536 0.0000 ( 61112 PWs)   bands (ev):

   -86.6697 -86.6697 -86.6696 -86.6696 -86.6473 -86.6473 -86.6472 -86.6472
   -86.6331 -86.6331 -86.6330 -86.6330 -86.1273 -86.1273 -86.1272 -86.1272
   -65.8715 -65.8715 -65.8713 -65.8713 -65.5225 -65.5225 -65.4853 -65.4853
   -65.4489 -65.4489 -65.4470 -65.4470 -51.2249 -51.2248 -51.2246 -51.2245
   -51.1931 -51.1929 -51.1928 -51.1927 -51.1465 -51.1464 -51.1461 -51.1460
   -50.6625 -50.6624 -50.6623 -50.6622 -49.4647 -49.4646 -49.4633 -49.4632
   -49.4061 -49.4060 -49.4053 -49.4051 -49.3489 -49.3488 -49.3482 -49.3480
   -49.2935 -49.2933 -49.2908 -49.2907 -49.2738 -49.2737 -49.2716 -49.2714
   -49.2350 -49.2349 -49.2346 -49.2344 -48.8158 -48.8157 -48.8157 -48.8156
   -48.8105 -48.8103 -48.8101 -48.8100 -37.2562 -37.2562 -37.2524 -37.2524
   -36.9929 -36.9929 -36.9472 -36.9472 -36.8823 -36.8823 -36.8202 -36.8202
   -27.6828 -27.6828 -27.5367 -27.5367 -27.4528 -27.4528 -27.4139 -27.4139
   -27.4047 -27.4047 -27.3335 -27.3335 -27.2611 -27.2611 -27.1817 -27.1817
   -27.0867 -27.0867 -27.0068 -27.0068 -26.8553 -26.8553 -26.7677 -26.7677
     1.1417   1.1417   2.2140   2.2140   2.7473   2.7474   2.8440   2.8440
     3.1837   3.1838   3.3121   3.3121   3.9786   3.9786   4.0179   4.0179
     4.1758   4.1758   4.2424   4.2424   4.6128   4.6128   4.7746   4.7746
     4.9274   4.9275   5.0086   5.0086   5.0856   5.0856   5.1429   5.1429
     5.2516   5.2516   5.3260   5.3260   5.4427   5.4427   5.4862   5.4862
     5.5986   5.5987   5.6965   5.6965   5.7792   5.7792   5.8303   5.8304
     5.8634   5.8634   5.8901   5.8901   6.0003   6.0003   6.1432   6.1432
     6.2309   6.2309   6.2838   6.2838   6.3941   6.3942   6.4390   6.4390
     6.4625   6.4626   6.5133   6.5133   6.5741   6.5741   6.6710   6.6710
     6.8233   6.8233   7.0217   7.0217   7.0809   7.0810   7.1262   7.1262
     7.2704   7.2704   7.3488   7.3488   7.4489   7.4489   7.5282   7.5283
     7.6069   7.6069   7.6812   7.6812   7.8195   7.8196   7.8722   7.8722
     7.9035   7.9035   8.0330   8.0331   8.0896   8.0896   8.1229   8.1229
     8.2062   8.2062   8.3389   8.3389   8.4468   8.4468   8.5079   8.5079
     8.6157   8.6158   8.6727   8.6727   8.7655   8.7655   8.8322   8.8322
     9.0023   9.0023   9.0620   9.0620   9.1802   9.1802   9.3045   9.3046
     9.4652   9.4653   9.6220   9.6220   9.7447   9.7447  10.0689  10.0689
    10.1963  10.1963  10.3157  10.3158  10.4712  10.4713  10.5592  10.5592
    10.6425  10.6425  11.2173  11.2173  11.3608  11.3609  11.4686  11.4686

          k = 0.0714 0.5361 0.0000 ( 61128 PWs)   bands (ev):

   -86.6670 -86.6670 -86.6668 -86.6668 -86.6501 -86.6501 -86.6499 -86.6499
   -86.6331 -86.6331 -86.6330 -86.6330 -86.1273 -86.1273 -86.1272 -86.1272
   -65.8715 -65.8715 -65.8713 -65.8713 -65.5206 -65.5206 -65.4830 -65.4830
   -65.4530 -65.4530 -65.4472 -65.4472 -51.2246 -51.2245 -51.2243 -51.2242
   -51.1864 -51.1863 -51.1862 -51.1860 -51.1523 -51.1522 -51.1521 -51.1520
   -50.6624 -50.6624 -50.6623 -50.6623 -49.4622 -49.4621 -49.4610 -49.4609
   -49.3963 -49.3962 -49.3955 -49.3954 -49.3536 -49.3534 -49.3527 -49.3526
   -49.2935 -49.2934 -49.2920 -49.2919 -49.2810 -49.2809 -49.2787 -49.2785
   -49.2361 -49.2360 -49.2356 -49.2355 -48.8158 -48.8157 -48.8157 -48.8156
   -48.8104 -48.8103 -48.8102 -48.8100 -37.2562 -37.2562 -37.2524 -37.2524
   -36.9930 -36.9930 -36.9398 -36.9398 -36.8681 -36.8681 -36.8422 -36.8422
   -27.6834 -27.6834 -27.5366 -27.5366 -27.4559 -27.4559 -27.4140 -27.4140
   -27.4035 -27.4035 -27.3192 -27.3192 -27.2555 -27.2554 -27.1819 -27.1819
   -27.0914 -27.0914 -27.0119 -27.0119 -26.8583 -26.8583 -26.7729 -26.7729
     1.6754   1.6754   2.2479   2.2479   2.5719   2.5719   2.9308   2.9308
     3.0059   3.0059   3.0945   3.0945   3.9880   3.9880   4.0309   4.0310
     4.2348   4.2348   4.3635   4.3635   4.6978   4.6979   4.8330   4.8330
     4.9879   4.9880   5.0467   5.0467   5.0654   5.0654   5.1176   5.1176
     5.1896   5.1896   5.2841   5.2841   5.3803   5.3803   5.5340   5.5340
     5.6288   5.6288   5.6741   5.6741   5.7872   5.7872   5.8313   5.8314
     5.8588   5.8588   5.9290   5.9290   5.9960   5.9961   6.0845   6.0845
     6.1141   6.1141   6.2427   6.2427   6.3067   6.3067   6.3434   6.3434
     6.4001   6.4001   6.4842   6.4843   6.5472   6.5472   6.5866   6.5866
     6.8830   6.8831   6.9760   6.9760   7.0797   7.0797   7.1284   7.1285
     7.2901   7.2901   7.3579   7.3579   7.4867   7.4867   7.5650   7.5650
     7.5883   7.5884   7.7034   7.7035   7.7752   7.7753   7.8058   7.8059
     7.9405   7.9405   8.0308   8.0308   8.0581   8.0581   8.1244   8.1244
     8.2398   8.2398   8.3682   8.3682   8.4591   8.4591   8.5462   8.5462
     8.6373   8.6373   8.6871   8.6871   8.7404   8.7405   8.8703   8.8703
     8.9612   8.9612   9.0538   9.0538   9.1471   9.1471   9.2621   9.2621
     9.4370   9.4370   9.6983   9.6984   9.8057   9.8058  10.0134  10.0134
    10.1206  10.1206  10.2427  10.2427  10.4271  10.4271  10.5439  10.5439
    10.6763  10.6763  11.2011  11.2011  11.4147  11.4147  11.8025  11.8025

          k = 0.1429 0.2474 0.0000 ( 61128 PWs)   bands (ev):

   -86.6775 -86.6775 -86.6774 -86.6774 -86.6395 -86.6395 -86.6394 -86.6394
   -86.6331 -86.6331 -86.6330 -86.6330 -86.1273 -86.1273 -86.1272 -86.1272
   -65.8715 -65.8715 -65.8713 -65.8713 -65.5312 -65.5312 -65.4896 -65.4896
   -65.4472 -65.4472 -65.4353 -65.4353 -51.2265 -51.2264 -51.2261 -51.2260
   -51.2120 -51.2118 -51.2116 -51.2115 -51.1308 -51.1307 -51.1303 -51.1302
   -50.6625 -50.6624 -50.6622 -50.6621 -49.4762 -49.4761 -49.4746 -49.4745
   -49.4314 -49.4313 -49.4303 -49.4302 -49.3421 -49.3420 -49.3419 -49.3419
   -49.2885 -49.2883 -49.2853 -49.2852 -49.2499 -49.2498 -49.2482 -49.2480
   -49.2284 -49.2282 -49.2279 -49.2277 -48.8158 -48.8157 -48.8157 -48.8156
   -48.8106 -48.8105 -48.8101 -48.8099 -37.2562 -37.2562 -37.2525 -37.2525
   -36.9924 -36.9924 -36.9748 -36.9748 -36.8998 -36.8998 -36.7725 -36.7725
   -27.6800 -27.6800 -27.5365 -27.5365 -27.4397 -27.4397 -27.4264 -27.4264
   -27.4112 -27.4111 -27.3608 -27.3608 -27.2662 -27.2662 -27.1671 -27.1671
   -27.1226 -27.1226 -27.0236 -27.0236 -26.8008 -26.8008 -26.7454 -26.7454
     0.1362   0.1362   1.5322   1.5322   2.7264   2.7264   3.3685   3.3685
     3.3877   3.3877   3.6316   3.6316   3.7061   3.7061   3.8079   3.8079
     4.1825   4.1825   4.2537   4.2537   4.4366   4.4366   4.5456   4.5456
     4.8021   4.8021   4.9686   4.9687   5.0556   5.0556   5.1153   5.1153
     5.2112   5.2112   5.3200   5.3200   5.4336   5.4336   5.5110   5.5110
     5.7356   5.7356   5.7606   5.7606   5.8321   5.8321   5.9090   5.9090
     5.9787   5.9787   6.0577   6.0577   6.0922   6.0923   6.2308   6.2308
     6.3795   6.3795   6.4531   6.4531   6.4977   6.4977   6.5735   6.5735
     6.6594   6.6595   6.7658   6.7659   6.8130   6.8130   6.9359   6.9360
     6.9782   6.9782   7.0398   7.0398   7.0699   7.0699   7.1866   7.1866
     7.2809   7.2810   7.3696   7.3696   7.4622   7.4622   7.5448   7.5449
     7.5926   7.5927   7.7692   7.7693   7.7949   7.7950   7.8562   7.8563
     7.9151   7.9151   8.0131   8.0131   8.0774   8.0774   8.1126   8.1127
     8.1613   8.1613   8.3226   8.3226   8.3602   8.3602   8.4372   8.4372
     8.4850   8.4850   8.6218   8.6218   8.7831   8.7832   8.8541   8.8542
     8.9977   8.9978   9.2093   9.2093   9.2408   9.2408   9.3311   9.3311
     9.4353   9.4353   9.4674   9.4674   9.7122   9.7122   9.8651   9.8651
    10.0257  10.0257  10.3329  10.3329  10.5709  10.5709  10.6195  10.6195
    10.6991  10.6991  10.8327  10.8327  11.4999  11.4999  11.6614  11.6614

          k = 0.1429 0.3299 0.0000 ( 61091 PWs)   bands (ev):

   -86.6742 -86.6742 -86.6741 -86.6741 -86.6428 -86.6428 -86.6427 -86.6427
   -86.6331 -86.6331 -86.6330 -86.6330 -86.1273 -86.1273 -86.1272 -86.1272
   -65.8715 -65.8715 -65.8713 -65.8713 -65.5270 -65.5270 -65.4881 -65.4881
   -65.4473 -65.4473 -65.4411 -65.4411 -51.2256 -51.2255 -51.2252 -51.2251
   -51.2042 -51.2040 -51.2038 -51.2037 -51.1373 -51.1371 -51.1368 -51.1367
   -50.6625 -50.6624 -50.6623 -50.6621 -49.4703 -49.4702 -49.4683 -49.4682
   -49.4222 -49.4221 -49.4208 -49.4206 -49.3436 -49.3435 -49.3434 -49.3433
   -49.2914 -49.2912 -49.2882 -49.2880 -49.2592 -49.2590 -49.2570 -49.2568
   -49.2332 -49.2331 -49.2325 -49.2323 -48.8158 -48.8157 -48.8157 -48.8156
   -48.8106 -48.8105 -48.8100 -48.8099 -37.2562 -37.2562 -37.2524 -37.2524
   -36.9926 -36.9926 -36.9617 -36.9617 -36.8950 -36.8950 -36.7917 -36.7917
   -27.6817 -27.6817 -27.5357 -27.5357 -27.4368 -27.4368 -27.4191 -27.4191
   -27.4105 -27.4105 -27.3616 -27.3616 -27.2664 -27.2664 -27.1718 -27.1718
   -27.1053 -27.1053 -27.0053 -27.0053 -26.8324 -26.8324 -26.7553 -26.7553
     0.5254   0.5254   1.8035   1.8035   2.7891   2.7891   3.1738   3.1738
     3.3189   3.3189   3.6102   3.6102   3.7936   3.7936   3.8700   3.8700
     4.1663   4.1663   4.2680   4.2680   4.5140   4.5140   4.7023   4.7023
     4.8744   4.8745   4.9353   4.9354   5.0968   5.0968   5.1210   5.1210
     5.1750   5.1750   5.2875   5.2875   5.3413   5.3413   5.5418   5.5418
     5.7124   5.7124   5.7445   5.7445   5.7773   5.7774   5.8661   5.8662
     5.9291   5.9291   5.9904   5.9904   6.0398   6.0398   6.1801   6.1801
     6.3300   6.3300   6.3643   6.3643   6.4819   6.4819   6.5326   6.5326
     6.5847   6.5847   6.6655   6.6656   6.7244   6.7245   6.8244   6.8244
     6.8919   6.8919   6.9770   6.9770   7.0611   7.0611   7.1515   7.1516
     7.2113   7.2113   7.3300   7.3300   7.4349   7.4349   7.5329   7.5329
     7.6019   7.6019   7.7805   7.7806   7.8241   7.8242   7.9030   7.9030
     7.9578   7.9578   7.9840   7.9840   8.0618   8.0619   8.1260   8.1261
     8.1848   8.1848   8.2939   8.2939   8.3691   8.3691   8.5284   8.5285
     8.5672   8.5672   8.6056   8.6056   8.6939   8.6939   8.8447   8.8447
     9.0963   9.0964   9.1868   9.1869   9.2711   9.2711   9.3291   9.3292
     9.4529   9.4529   9.5424   9.5425   9.6949   9.6949   9.9681   9.9681
    10.1100  10.1100  10.3043  10.3043  10.5338  10.5338  10.6361  10.6361
    10.7857  10.7857  10.8802  10.8802  11.0411  11.0411  11.7369  11.7369

          k = 0.1429 0.4124 0.0000 ( 61092 PWs)   bands (ev):

   -86.6705 -86.6705 -86.6703 -86.6703 -86.6466 -86.6466 -86.6464 -86.6464
   -86.6331 -86.6331 -86.6330 -86.6330 -86.1273 -86.1273 -86.1272 -86.1272
   -65.8715 -65.8715 -65.8713 -65.8713 -65.5233 -65.5233 -65.4855 -65.4855
   -65.4481 -65.4481 -65.4467 -65.4467 -51.2249 -51.2248 -51.2244 -51.2243
   -51.1953 -51.1952 -51.1950 -51.1948 -51.1448 -51.1447 -51.1443 -51.1442
   -50.6625 -50.6624 -50.6623 -50.6622 -49.4652 -49.4651 -49.4630 -49.4628
   -49.4111 -49.4110 -49.4095 -49.4094 -49.3466 -49.3465 -49.3459 -49.3458
   -49.2938 -49.2937 -49.2910 -49.2909 -49.2697 -49.2695 -49.2669 -49.2668
   -49.2365 -49.2363 -49.2356 -49.2355 -48.8158 -48.8157 -48.8156 -48.8155
   -48.8105 -48.8104 -48.8100 -48.8099 -37.2562 -37.2562 -37.2524 -37.2524
   -36.9928 -36.9928 -36.9476 -36.9476 -36.8883 -36.8883 -36.8136 -36.8136
   -27.6833 -27.6832 -27.5344 -27.5344 -27.4410 -27.4410 -27.4144 -27.4144
   -27.4058 -27.4058 -27.3497 -27.3497 -27.2650 -27.2650 -27.1755 -27.1755
   -27.0985 -27.0985 -26.9987 -26.9987 -26.8548 -26.8548 -26.7624 -26.7624
     0.9897   0.9897   2.1216   2.1216   2.8401   2.8401   2.9207   2.9207
     3.2216   3.2217   3.4610   3.4610   3.8725   3.8725   3.9540   3.9540
     4.1869   4.1869   4.2251   4.2251   4.6302   4.6302   4.7788   4.7788
     4.8889   4.8889   4.9910   4.9910   5.0928   5.0929   5.1448   5.1448
     5.1990   5.1990   5.2770   5.2770   5.3871   5.3871   5.5600   5.5600
     5.6323   5.6323   5.7062   5.7063   5.7540   5.7540   5.7948   5.7948
     5.8713   5.8713   5.8978   5.8978   6.0537   6.0537   6.1443   6.1443
     6.2286   6.2287   6.2894   6.2894   6.4012   6.4012   6.4923   6.4923
     6.5168   6.5169   6.5680   6.5681   6.6256   6.6257   6.7388   6.7389
     6.8174   6.8175   7.0058   7.0058   7.0536   7.0536   7.1197   7.1197
     7.1913   7.1913   7.3208   7.3209   7.4114   7.4114   7.5522   7.5522
     7.6366   7.6366   7.7472   7.7473   7.8261   7.8261   7.8914   7.8914
     7.9238   7.9239   8.0397   8.0398   8.0741   8.0741   8.1154   8.1154
     8.2372   8.2373   8.3299   8.3299   8.4084   8.4084   8.4745   8.4745
     8.5883   8.5883   8.6734   8.6734   8.6913   8.6913   8.8426   8.8426
     9.0639   9.0640   9.1175   9.1175   9.2427   9.2427   9.3076   9.3076
     9.4389   9.4389   9.5947   9.5947   9.8125   9.8125  10.0523  10.0523
    10.1583  10.1584  10.3036  10.3036  10.4116  10.4116  10.5390  10.5390
    10.7103  10.7103  10.9568  10.9568  11.1728  11.1728  11.4962  11.4962

          k = 0.1429 0.4949 0.0000 ( 61113 PWs)   bands (ev):

   -86.6670 -86.6670 -86.6668 -86.6668 -86.6501 -86.6501 -86.6499 -86.6499
   -86.6331 -86.6331 -86.6330 -86.6330 -86.1273 -86.1273 -86.1272 -86.1272
   -65.8715 -65.8715 -65.8713 -65.8713 -65.5209 -65.5209 -65.4822 -65.4822
   -65.4535 -65.4535 -65.4472 -65.4472 -51.2244 -51.2243 -51.2239 -51.2237
   -51.1871 -51.1869 -51.1867 -51.1866 -51.1521 -51.1520 -51.1517 -51.1516
   -50.6625 -50.6623 -50.6623 -50.6622 -49.4617 -49.4616 -49.4594 -49.4593
   -49.4006 -49.4005 -49.3991 -49.3990 -49.3507 -49.3506 -49.3495 -49.3494
   -49.2951 -49.2950 -49.2931 -49.2929 -49.2784 -49.2782 -49.2749 -49.2747
   -49.2383 -49.2381 -49.2374 -49.2373 -48.8159 -48.8157 -48.8156 -48.8155
   -48.8105 -48.8104 -48.8100 -48.8099 -37.2562 -37.2562 -37.2524 -37.2524
   -36.9930 -36.9930 -36.9362 -36.9362 -36.8783 -36.8783 -36.8357 -36.8357
   -27.6843 -27.6843 -27.5334 -27.5334 -27.4446 -27.4446 -27.4141 -27.4141
   -27.4030 -27.4030 -27.3317 -27.3317 -27.2607 -27.2607 -27.1769 -27.1769
   -27.1068 -27.1068 -27.0002 -27.0002 -26.8608 -26.8608 -26.7678 -26.7678
     1.4983   1.4983   2.4247   2.4247   2.5681   2.5681   2.8906   2.8906
     3.1293   3.1293   3.2393   3.2393   3.8918   3.8918   4.0155   4.0155
     4.1516   4.1516   4.2903   4.2903   4.7083   4.7083   4.8211   4.8211
     4.9670   4.9670   5.0511   5.0511   5.0848   5.0848   5.1520   5.1520
     5.2080   5.2080   5.2769   5.2769   5.4241   5.4241   5.5207   5.5208
     5.6083   5.6083   5.6741   5.6742   5.7110   5.7111   5.8076   5.8076
     5.8432   5.8433   5.8674   5.8675   6.0189   6.0189   6.0732   6.0733
     6.1294   6.1294   6.2704   6.2704   6.2937   6.2938   6.4112   6.4112
     6.4525   6.4525   6.5579   6.5579   6.5824   6.5824   6.6663   6.6663
     6.8414   6.8415   6.9796   6.9796   7.0598   7.0599   7.1320   7.1320
     7.2402   7.2402   7.3151   7.3151   7.4245   7.4245   7.5697   7.5697
     7.6295   7.6295   7.7030   7.7031   7.8076   7.8077   7.8403   7.8404
     7.9678   7.9678   8.0684   8.0685   8.0932   8.0933   8.1175   8.1176
     8.2587   8.2587   8.3269   8.3269   8.4057   8.4057   8.4903   8.4903
     8.6062   8.6062   8.6744   8.6744   8.7249   8.7249   8.8065   8.8065
     8.9640   8.9641   9.0561   9.0561   9.2182   9.2182   9.3280   9.3280
     9.4196   9.4196   9.6609   9.6609   9.9089   9.9089  10.0243  10.0243
    10.0697  10.0697  10.2148  10.2149  10.3499  10.3499  10.5838  10.5838
    10.6890  10.6890  11.0622  11.0622  11.3072  11.3072  11.5494  11.5495

          k = 0.1429 0.5774 0.0000 ( 61146 PWs)   bands (ev):

   -86.6653 -86.6653 -86.6652 -86.6652 -86.6518 -86.6518 -86.6516 -86.6516
   -86.6331 -86.6331 -86.6330 -86.6330 -86.1273 -86.1273 -86.1272 -86.1272
   -65.8715 -65.8715 -65.8713 -65.8713 -65.5201 -65.5201 -65.4804 -65.4804
   -65.4561 -65.4561 -65.4472 -65.4472 -51.2242 -51.2241 -51.2237 -51.2235
   -51.1831 -51.1829 -51.1827 -51.1826 -51.1556 -51.1556 -51.1554 -51.1554
   -50.6624 -50.6624 -50.6623 -50.6623 -49.4605 -49.4604 -49.4582 -49.4581
   -49.3958 -49.3957 -49.3944 -49.3943 -49.3532 -49.3530 -49.3516 -49.3515
   -49.2952 -49.2951 -49.2937 -49.2936 -49.2819 -49.2817 -49.2780 -49.2779
   -49.2388 -49.2387 -49.2380 -49.2379 -48.8159 -48.8157 -48.8156 -48.8155
   -48.8105 -48.8104 -48.8101 -48.8099 -37.2562 -37.2562 -37.2524 -37.2524
   -36.9931 -36.9931 -36.9318 -36.9318 -36.8686 -36.8686 -36.8499 -36.8499
   -27.6847 -27.6847 -27.5330 -27.5330 -27.4460 -27.4460 -27.4141 -27.4141
   -27.4025 -27.4025 -27.3234 -27.3234 -27.2572 -27.2572 -27.1767 -27.1767
   -27.1154 -27.1154 -27.0011 -27.0011 -26.8606 -26.8606 -26.7700 -26.7700
     1.9332   1.9332   2.1247   2.1247   2.6988   2.6988   2.9023   2.9023
     3.0311   3.0311   3.1222   3.1222   3.8875   3.8875   4.0344   4.0344
     4.1415   4.1415   4.3354   4.3354   4.7329   4.7329   4.8371   4.8372
     4.9863   4.9864   5.1037   5.1037   5.1305   5.1305   5.1510   5.1510
     5.1981   5.1981   5.2328   5.2329   5.3847   5.3847   5.5726   5.5726
     5.6037   5.6037   5.6394   5.6394   5.7050   5.7051   5.7710   5.7710
     5.8400   5.8401   5.9108   5.9108   5.9601   5.9601   6.0765   6.0765
     6.0877   6.0877   6.2276   6.2276   6.2848   6.2848   6.3673   6.3673
     6.4330   6.4330   6.5672   6.5672   6.5926   6.5926   6.6071   6.6072
     6.8560   6.8560   6.9676   6.9676   7.0824   7.0824   7.1300   7.1301
     7.2704   7.2704   7.3120   7.3120   7.4365   7.4365   7.5584   7.5584
     7.6554   7.6555   7.6940   7.6940   7.7628   7.7628   7.8125   7.8126
     8.0346   8.0346   8.0669   8.0669   8.1099   8.1100   8.1265   8.1266
     8.2412   8.2412   8.2804   8.2804   8.4015   8.4015   8.5417   8.5417
     8.5846   8.5846   8.6639   8.6640   8.7124   8.7124   8.8265   8.8265
     8.9126   8.9126   9.0328   9.0328   9.2529   9.2529   9.3400   9.3400
     9.3654   9.3654   9.7055   9.7055   9.9242   9.9242   9.9664   9.9665
    10.1020  10.1020  10.1702  10.1702  10.3111  10.3112  10.5277  10.5277
    10.7648  10.7648  11.0983  11.0983  11.2749  11.2749  11.7694  11.7694

          k = 0.2143 0.3712 0.0000 ( 61076 PWs)   bands (ev):

   -86.6707 -86.6707 -86.6706 -86.6706 -86.6463 -86.6463 -86.6462 -86.6462
   -86.6331 -86.6331 -86.6330 -86.6330 -86.1273 -86.1273 -86.1272 -86.1272
   -65.8715 -65.8715 -65.8713 -65.8713 -65.5237 -65.5237 -65.4855 -65.4855
   -65.4479 -65.4479 -65.4465 -65.4465 -51.2248 -51.2247 -51.2243 -51.2241
   -51.1962 -51.1960 -51.1957 -51.1956 -51.1442 -51.1441 -51.1438 -51.1436
   -50.6625 -50.6624 -50.6623 -50.6622 -49.4653 -49.4652 -49.4627 -49.4626
   -49.4130 -49.4129 -49.4112 -49.4110 -49.3457 -49.3456 -49.3452 -49.3450
   -49.2940 -49.2939 -49.2911 -49.2910 -49.2679 -49.2677 -49.2649 -49.2647
   -49.2373 -49.2372 -49.2363 -49.2361 -48.8159 -48.8157 -48.8156 -48.8155
   -48.8106 -48.8105 -48.8100 -48.8099 -37.2562 -37.2562 -37.2524 -37.2524
   -36.9928 -36.9928 -36.9475 -36.9475 -36.8906 -36.8906 -36.8113 -36.8113
   -27.6835 -27.6835 -27.5333 -27.5333 -27.4324 -27.4324 -27.4156 -27.4156
   -27.4069 -27.4069 -27.3587 -27.3587 -27.2663 -27.2663 -27.1720 -27.1720
   -27.1041 -27.1041 -26.9958 -26.9958 -26.8546 -26.8546 -26.7601 -26.7601
     0.9375   0.9375   2.0895   2.0895   2.8436   2.8436   2.9893   2.9893
     3.2222   3.2222   3.5509   3.5509   3.7957   3.7957   3.9288   3.9288
     4.1890   4.1890   4.2294   4.2294   4.6535   4.6535   4.8012   4.8012
     4.8795   4.8795   4.9597   4.9597   5.0995   5.0995   5.1162   5.1163
     5.1822   5.1822   5.2502   5.2502   5.3594   5.3594   5.5810   5.5810
     5.6663   5.6664   5.7077   5.7077   5.7452   5.7453   5.7801   5.7801
     5.8746   5.8746   5.9684   5.9684   6.0060   6.0060   6.1523   6.1524
     6.2456   6.2456   6.2856   6.2856   6.3892   6.3893   6.5144   6.5144
     6.5273   6.5273   6.5707   6.5707   6.6807   6.6807   6.7258   6.7258
     6.8847   6.8848   6.9241   6.9241   7.0448   7.0448   7.1179   7.1180
     7.1878   7.1878   7.3124   7.3124   7.4028   7.4028   7.5529   7.5529
     7.6669   7.6669   7.7806   7.7807   7.7966   7.7966   7.9236   7.9236
     7.9543   7.9544   8.0173   8.0173   8.0407   8.0407   8.1110   8.1110
     8.2504   8.2504   8.3414   8.3414   8.3983   8.3984   8.4540   8.4540
     8.5839   8.5839   8.6385   8.6386   8.6834   8.6834   8.8833   8.8833
     9.0934   9.0934   9.1968   9.1968   9.2537   9.2537   9.2791   9.2791
     9.4143   9.4143   9.5639   9.5639   9.8770   9.8770  10.0109  10.0110
    10.0941  10.0941  10.2662  10.2662  10.4230  10.4230  10.5611  10.5611
    10.7417  10.7418  10.9462  10.9462  10.9858  10.9858  11.5269  11.5269

          k = 0.2143 0.4536 0.0000 ( 61082 PWs)   bands (ev):

   -86.6670 -86.6670 -86.6668 -86.6668 -86.6501 -86.6501 -86.6499 -86.6499
   -86.6331 -86.6331 -86.6330 -86.6330 -86.1273 -86.1273 -86.1272 -86.1272
   -65.8715 -65.8715 -65.8713 -65.8713 -65.5212 -65.5212 -65.4816 -65.4816
   -65.4539 -65.4539 -65.4472 -65.4472 -51.2242 -51.2241 -51.2235 -51.2234
   -51.1876 -51.1875 -51.1872 -51.1870 -51.1519 -51.1517 -51.1515 -51.1514
   -50.6625 -50.6624 -50.6623 -50.6622 -49.4612 -49.4610 -49.4582 -49.4580
   -49.4038 -49.4037 -49.4018 -49.4017 -49.3486 -49.3485 -49.3474 -49.3473
   -49.2960 -49.2959 -49.2938 -49.2937 -49.2760 -49.2759 -49.2721 -49.2719
   -49.2402 -49.2401 -49.2391 -49.2390 -48.8159 -48.8158 -48.8156 -48.8155
   -48.8106 -48.8104 -48.8100 -48.8099 -37.2562 -37.2562 -37.2524 -37.2524
   -36.9930 -36.9930 -36.9326 -36.9326 -36.8854 -36.8854 -36.8320 -36.8320
   -27.6850 -27.6850 -27.5311 -27.5311 -27.4322 -27.4322 -27.4144 -27.4144
   -27.4021 -27.4021 -27.3461 -27.3461 -27.2638 -27.2638 -27.1725 -27.1724
   -27.1178 -27.1178 -26.9929 -26.9929 -26.8626 -26.8626 -26.7638 -26.7638
     1.4026   1.4026   2.4012   2.4012   2.7426   2.7426   2.8453   2.8453
     3.1814   3.1814   3.4011   3.4011   3.7879   3.7879   3.9942   3.9942
     4.0947   4.0947   4.2140   4.2140   4.7422   4.7422   4.8132   4.8133
     4.9748   4.9748   5.0414   5.0414   5.0988   5.0988   5.1564   5.1564
     5.2028   5.2028   5.2524   5.2524   5.3973   5.3973   5.5496   5.5496
     5.6088   5.6088   5.6744   5.6744   5.7306   5.7306   5.7948   5.7948
     5.8148   5.8148   5.8799   5.8799   5.9826   5.9826   6.0589   6.0589
     6.1443   6.1443   6.2646   6.2646   6.2941   6.2941   6.4324   6.4324
     6.5014   6.5014   6.5540   6.5540   6.6514   6.6514   6.7288   6.7288
     6.8667   6.8667   6.9703   6.9703   7.0138   7.0138   7.1124   7.1124
     7.2127   7.2127   7.3046   7.3046   7.3820   7.3820   7.5570   7.5571
     7.6469   7.6469   7.7558   7.7558   7.8204   7.8205   7.8621   7.8622
     7.9721   7.9721   8.0514   8.0514   8.0890   8.0891   8.1270   8.1270
     8.2797   8.2797   8.3258   8.3258   8.3804   8.3805   8.4760   8.4760
     8.5504   8.5504   8.6528   8.6528   8.7287   8.7287   8.8219   8.8219
     8.9757   8.9757   9.1384   9.1385   9.2490   9.2491   9.3206   9.3206
     9.4317   9.4318   9.5673   9.5673   9.8698   9.8699   9.9763   9.9763
    10.0435  10.0435  10.2111  10.2111  10.3183  10.3183  10.7026  10.7026
    10.7924  10.7924  10.9326  10.9326  11.1845  11.1845  11.3772  11.3772

          k = 0.2143 0.5361 0.0000 ( 61106 PWs)   bands (ev):

   -86.6639 -86.6638 -86.6637 -86.6637 -86.6532 -86.6532 -86.6531 -86.6531
   -86.6331 -86.6331 -86.6330 -86.6330 -86.1273 -86.1273 -86.1272 -86.1272
   -65.8715 -65.8715 -65.8713 -65.8713 -65.5199 -65.5199 -65.4776 -65.4776
   -65.4591 -65.4591 -65.4472 -65.4472 -51.2238 -51.2237 -51.2231 -51.2230
   -51.1805 -51.1804 -51.1801 -51.1799 -51.1584 -51.1583 -51.1582 -51.1580
   -50.6624 -50.6624 -50.6623 -50.6623 -49.4588 -49.4587 -49.4556 -49.4555
   -49.3974 -49.3973 -49.3956 -49.3955 -49.3512 -49.3511 -49.3493 -49.3491
   -49.2969 -49.2968 -49.2955 -49.2953 -49.2812 -49.2810 -49.2764 -49.2763
   -49.2417 -49.2415 -49.2406 -49.2404 -48.8159 -48.8158 -48.8156 -48.8155
   -48.8106 -48.8104 -48.8100 -48.8099 -37.2562 -37.2562 -37.2524 -37.2524
   -36.9932 -36.9932 -36.9222 -36.9222 -36.8788 -36.8788 -36.8495 -36.8495
   -27.6859 -27.6859 -27.5300 -27.5300 -27.4328 -27.4328 -27.4141 -27.4141
   -27.4004 -27.4003 -27.3330 -27.3330 -27.2589 -27.2589 -27.1724 -27.1724
   -27.1371 -27.1371 -26.9919 -26.9919 -26.8626 -26.8626 -26.7661 -26.7661
     1.8787   1.8787   2.3615   2.3615   2.7064   2.7064   2.8046   2.8046
     3.1825   3.1825   3.2512   3.2513   3.7639   3.7639   3.9795   3.9795
     4.0381   4.0381   4.2328   4.2328   4.7678   4.7678   4.8254   4.8254
     5.0064   5.0064   5.1046   5.1046   5.1533   5.1533   5.1946   5.1946
     5.2229   5.2229   5.3084   5.3085   5.4050   5.4050   5.5122   5.5122
     5.5898   5.5898   5.6224   5.6225   5.6717   5.6718   5.7679   5.7679
     5.8164   5.8164   5.8563   5.8563   5.9297   5.9297   6.0292   6.0293
     6.0736   6.0736   6.2052   6.2052   6.3197   6.3197   6.3581   6.3581
     6.4755   6.4755   6.5715   6.5715   6.6650   6.6650   6.7228   6.7229
     6.8592   6.8592   6.9766   6.9766   7.0626   7.0626   7.1360   7.1361
     7.2418   7.2419   7.3008   7.3008   7.3773   7.3773   7.5429   7.5429
     7.6217   7.6217   7.7209   7.7210   7.7861   7.7861   7.8504   7.8504
     8.0093   8.0093   8.0557   8.0558   8.1281   8.1281   8.1567   8.1567
     8.2279   8.2279   8.3163   8.3163   8.4083   8.4084   8.4597   8.4597
     8.5632   8.5633   8.6541   8.6541   8.6978   8.6978   8.7681   8.7681
     8.9026   8.9026   9.0736   9.0736   9.3027   9.3027   9.3714   9.3714
     9.4140   9.4140   9.6161   9.6161   9.7489   9.7489   9.9035   9.9036
    10.0030  10.0030  10.1337  10.1337  10.3456  10.3456  10.7885  10.7886
    10.8472  10.8472  10.9624  10.9624  11.2940  11.2940  11.4951  11.4951

          k = 0.2857 0.4949 0.0000 ( 61076 PWs)   bands (ev):

   -86.6632 -86.6632 -86.6631 -86.6631 -86.6538 -86.6538 -86.6537 -86.6537
   -86.6331 -86.6331 -86.6330 -86.6330 -86.1273 -86.1273 -86.1272 -86.1272
   -65.8715 -65.8715 -65.8713 -65.8713 -65.5199 -65.5199 -65.4763 -65.4763
   -65.4604 -65.4604 -65.4472 -65.4472 -51.2237 -51.2235 -51.2229 -51.2228
   -51.1795 -51.1793 -51.1790 -51.1789 -51.1596 -51.1595 -51.1592 -51.1591
   -50.6625 -50.6624 -50.6623 -50.6623 -49.4581 -49.4580 -49.4545 -49.4544
   -49.3984 -49.3983 -49.3964 -49.3963 -49.3502 -49.3501 -49.3481 -49.3480
   -49.2976 -49.2975 -49.2962 -49.2960 -49.2806 -49.2805 -49.2756 -49.2755
   -49.2429 -49.2428 -49.2417 -49.2415 -48.8159 -48.8158 -48.8156 -48.8155
   -48.8106 -48.8105 -48.8100 -48.8098 -37.2562 -37.2562 -37.2523 -37.2523
   -36.9932 -36.9932 -36.9166 -36.9166 -36.8854 -36.8854 -36.8486 -36.8486
   -27.6863 -27.6863 -27.5288 -27.5288 -27.4265 -27.4265 -27.4140 -27.4140
   -27.3981 -27.3981 -27.3393 -27.3393 -27.2594 -27.2594 -27.1706 -27.1706
   -27.1458 -27.1458 -26.9884 -26.9884 -26.8633 -26.8633 -26.7645 -26.7645
     1.8377   1.8377   2.5849   2.5849   2.6299   2.6299   2.7244   2.7244
     3.2858   3.2858   3.3399   3.3399   3.6754   3.6754   3.8943   3.8943
     4.0346   4.0346   4.1798   4.1798   4.7894   4.7894   4.8180   4.8180
     5.0276   5.0276   5.0868   5.0868   5.1808   5.1808   5.2076   5.2076
     5.2228   5.2228   5.2974   5.2974   5.4227   5.4227   5.4872   5.4873
     5.6106   5.6107   5.6471   5.6472   5.6618   5.6618   5.7516   5.7516
     5.8091   5.8091   5.8813   5.8813   5.8936   5.8936   5.9813   5.9813
     6.0473   6.0473   6.2407   6.2407   6.2914   6.2914   6.3715   6.3716
     6.4897   6.4898   6.5656   6.5657   6.7058   6.7059   6.7512   6.7512
     6.9320   6.9320   6.9516   6.9517   7.0342   7.0342   7.1542   7.1542
     7.2235   7.2236   7.3005   7.3005   7.3596   7.3596   7.5251   7.5251
     7.5901   7.5901   7.7455   7.7455   7.8101   7.8101   7.8561   7.8561
     7.9253   7.9253   8.0350   8.0350   8.1406   8.1406   8.2166   8.2166
     8.2564   8.2564   8.3411   8.3412   8.3858   8.3859   8.4294   8.4294
     8.5686   8.5686   8.6477   8.6477   8.6932   8.6932   8.7544   8.7544
     8.8974   8.8975   9.1549   9.1549   9.2999   9.2999   9.3748   9.3748
     9.4356   9.4356   9.5273   9.5273   9.6790   9.6790   9.8347   9.8347
     9.9111   9.9111  10.1306  10.1307  10.4652  10.4652  10.7887  10.7887
    10.9386  10.9386  11.0415  11.0415  11.2424  11.2424  11.3607  11.3607

          k = 0.2857 0.5774 0.0000 ( 61098 PWs)   bands (ev):

   -86.6606 -86.6606 -86.6605 -86.6605 -86.6564 -86.6564 -86.6563 -86.6563
   -86.6331 -86.6331 -86.6330 -86.6330 -86.1273 -86.1273 -86.1272 -86.1272
   -65.8715 -65.8715 -65.8713 -65.8713 -65.5194 -65.5194 -65.4723 -65.4723
   -65.4649 -65.4649 -65.4472 -65.4472 -51.2235 -51.2233 -51.2227 -51.2226
   -51.1740 -51.1738 -51.1734 -51.1733 -51.1649 -51.1648 -51.1647 -51.1646
   -50.6624 -50.6624 -50.6623 -50.6623 -49.4570 -49.4568 -49.4532 -49.4530
   -49.3964 -49.3963 -49.3945 -49.3944 -49.3508 -49.3507 -49.3483 -49.3482
   -49.2981 -49.2980 -49.2971 -49.2970 -49.2824 -49.2822 -49.2770 -49.2768
   -49.2439 -49.2438 -49.2426 -49.2425 -48.8159 -48.8158 -48.8156 -48.8154
   -48.8106 -48.8105 -48.8099 -48.8098 -37.2562 -37.2562 -37.2523 -37.2523
   -36.9932 -36.9932 -36.9068 -36.9068 -36.8881 -36.8881 -36.8558 -36.8558
   -27.6868 -27.6868 -27.5280 -27.5280 -27.4249 -27.4249 -27.4137 -27.4137
   -27.3965 -27.3965 -27.3352 -27.3352 -27.2555 -27.2555 -27.1703 -27.1702
   -27.1605 -27.1605 -26.9866 -26.9866 -26.8627 -26.8627 -26.7646 -26.7646
     2.1994   2.1994   2.3220   2.3220   2.5825   2.5825   2.8496   2.8496
     3.2713   3.2714   3.4048   3.4048   3.6140   3.6140   3.7626   3.7626
     4.0494   4.0494   4.1643   4.1643   4.7992   4.7992   4.8173   4.8173
     5.0390   5.0390   5.0821   5.0821   5.2171   5.2171   5.2359   5.2359
     5.2727   5.2727   5.3287   5.3287   5.4281   5.4281   5.5073   5.5073
     5.5802   5.5802   5.6251   5.6251   5.6802   5.6802   5.7155   5.7155
     5.7619   5.7619   5.8283   5.8283   5.8410   5.8410   5.9728   5.9728
     6.1086   6.1086   6.1950   6.1950   6.2523   6.2523   6.3923   6.3924
     6.4710   6.4711   6.5768   6.5768   6.7211   6.7211   6.7761   6.7761
     6.9127   6.9128   6.9904   6.9905   7.0750   7.0751   7.1617   7.1618
     7.2393   7.2393   7.3287   7.3287   7.3537   7.3537   7.4815   7.4815
     7.5816   7.5816   7.7115   7.7115   7.7893   7.7894   7.8375   7.8375
     7.8676   7.8676   8.0277   8.0277   8.1640   8.1641   8.2687   8.2688
     8.3108   8.3108   8.3430   8.3431   8.3984   8.3984   8.4246   8.4246
     8.5071   8.5071   8.6044   8.6044   8.6850   8.6850   8.7989   8.7989
     8.8624   8.8624   9.1262   9.1263   9.3445   9.3445   9.4074   9.4075
     9.4649   9.4649   9.5040   9.5040   9.5873   9.5873   9.7373   9.7373
     9.8427   9.8428  10.0935  10.0935  10.5771  10.5771  10.7816  10.7816
    10.9768  10.9768  11.0326  11.0326  11.3185  11.3185  11.5045  11.5046

     the Fermi energy is     8.3463 ev

!    total energy              =   -3375.24851404 Ry
     estimated scf accuracy    <       0.00000091 Ry

     The total energy is the sum of the following terms:
     one-electron contribution =  -13513.06576129 Ry
     hartree contribution      =    6809.23692396 Ry
     xc contribution           =    -649.67829409 Ry
     ewald contribution        =    3978.25861738 Ry

     convergence has been achieved in  18 iterations
 
     init_run     :     51.46s CPU     53.22s WALL (       1 calls)
     electrons    :   2718.69s CPU   2796.49s WALL (       1 calls)

     Called by init_run:
     wfcinit      :     50.49s CPU     52.13s WALL (       1 calls)
     potinit      :      0.47s CPU      0.51s WALL (       1 calls)
     hinit0       :      0.38s CPU      0.42s WALL (       1 calls)

     Called by electrons:
     c_bands      :   2182.04s CPU   2244.72s WALL (      18 calls)
     sum_band     :    501.04s CPU    514.13s WALL (      18 calls)
     v_of_rho     :      3.13s CPU      3.29s WALL (      19 calls)
     mix_rho      :     31.00s CPU     32.77s WALL (      18 calls)

     Called by c_bands:
     init_us_2    :     13.25s CPU     13.54s WALL (     222 calls)
     cegterg      :   1923.18s CPU   1978.35s WALL (     108 calls)

     Called by *egterg:
     cdiaghg      :     48.62s CPU     49.31s WALL (     343 calls)
     h_psi        :   1628.54s CPU   1674.51s WALL (     349 calls)
     g_psi        :      3.67s CPU      3.82s WALL (     235 calls)

     Called by h_psi:
     h_psi:calbec :    119.47s CPU    121.43s WALL (     349 calls)
     vloc_psi     :   1373.91s CPU   1411.15s WALL (     349 calls)
     add_vuspsi   :    127.22s CPU    128.81s WALL (     349 calls)

     General routines
     calbec       :    119.47s CPU    121.43s WALL (     349 calls)
     fft          :      2.01s CPU      2.16s WALL (     244 calls)
     ffts         :     15.09s CPU     16.26s WALL (    1727 calls)
     fftw         :   1299.87s CPU   1339.02s WALL (  302640 calls)
 
     Parallel routines
     fft_scatt_xy :    305.77s CPU    313.15s WALL (  304611 calls)
     fft_scatt_yz :    211.28s CPU    226.68s WALL (  304611 calls)
 
     PWSCF        :  46m10.44s CPU  47m30.44s WALL

 
   This run was terminated on:  11:16: 3   2May2020            

=------------------------------------------------------------------------------=
   JOB DONE.
=------------------------------------------------------------------------------=
