
     Program PWSCF v.6.5 starts on  4May2020 at 13:22:11 

     This program is part of the open-source Quantum ESPRESSO suite
     for quantum simulation of materials; please cite
         "P. Giannozzi et al., J. Phys.:Condens. Matter 21 395502 (2009);
         "P. Giannozzi et al., J. Phys.:Condens. Matter 29 465901 (2017);
          URL http://www.quantum-espresso.org", 
     in publications or presentations arising from this work. More details at
     http://www.quantum-espresso.org/quote

     Parallel version (MPI), running on    20 processors

     MPI processes distributed on    10 nodes
     K-points division:     npool     =       4
     R & G space division:  proc/nbgrp/npool/nimage =       5
     Reading input from viii_1.k12.vacuum12.in

     Current dimensions of program PWSCF are:
     Max number of different atomic species (ntypx) = 10
     Max number of k-points (npk) =  40000
     Max angular momentum in pseudopotentials (lmaxx) =  3

     Subspace diagonalization in iterative solution of the eigenvalue problem:
     a serial algorithm will be used

     [opt_tetra]  Optimized tetrahedron method is used.
 
     Parallelization info
     --------------------
     sticks:   dense  smooth     PW     G-vecs:    dense   smooth      PW
     Min         578     578    153               108350   108350   15233
     Max         579     579    154               108365   108365   15250
     Sum        2893    2893    769               541781   541781   76227
 


     bravais-lattice index     =            4
     lattice parameter (alat)  =       8.9709  a.u.
     unit-cell volume          =    2704.9006 (a.u.)^3
     number of atoms/cell      =           14
     number of atomic types    =            2
     number of electrons       =       220.00
     number of Kohn-Sham states=          264
     kinetic-energy cutoff     =     130.0000  Ry
     charge density cutoff     =     520.0000  Ry
     convergence threshold     =      1.0E-06
     mixing beta               =       0.7000
     number of iterations used =            8  local-TF  mixing
     Exchange-correlation= PBE
                           (   1   4   3   4   0   0   0)
     Non magnetic calculation with spin-orbit


     celldm(1)=   8.970926  celldm(2)=   0.000000  celldm(3)=   4.326223
     celldm(4)=   0.000000  celldm(5)=   0.000000  celldm(6)=   0.000000

     crystal axes: (cart. coord. in units of alat)
               a(1) = (   1.000000   0.000000   0.000000 )  
               a(2) = (  -0.500000   0.866025   0.000000 )  
               a(3) = (   0.000000   0.000000   4.326223 )  

     reciprocal axes: (cart. coord. in units 2 pi/alat)
               b(1) = (  1.000000  0.577350  0.000000 )  
               b(2) = (  0.000000  1.154701  0.000000 )  
               b(3) = (  0.000000  0.000000  0.231149 )  


     PseudoPot. # 1 for Co read from file:
     /nfs-share/home/1600011702/pseudo/Co.nc.fr.pbe.stringent.upf
     MD5 check sum: 5025e55def73e686899be73cabb26c16
     Pseudo is Norm-conserving + core correction, Zval = 17.0
     Generated using ONCVPSP code by D. R. Hamann
     Using radial grid of 1388 points, 10 beta functions with: 
                l(1) =   0
                l(2) =   0
                l(3) =   1
                l(4) =   1
                l(5) =   1
                l(6) =   1
                l(7) =   2
                l(8) =   2
                l(9) =   2
               l(10) =   2

     PseudoPot. # 2 for W  read from file:
     /nfs-share/home/1600011702/pseudo/W.nc.fr.pbe.stringent.upf
     MD5 check sum: 75b1d432d85d028982bb81b068264ebf
     Pseudo is Norm-conserving + core correction, Zval = 14.0
     Generated using ONCVPSP code by D. R. Hamann
     Using radial grid of 1396 points, 14 beta functions with: 
                l(1) =   0
                l(2) =   0
                l(3) =   1
                l(4) =   1
                l(5) =   1
                l(6) =   1
                l(7) =   2
                l(8) =   2
                l(9) =   2
               l(10) =   2
               l(11) =   3
               l(12) =   3
               l(13) =   3
               l(14) =   3

     atomic species   valence    mass     pseudopotential
        Co            17.00    58.93320     Co( 1.00)
        W             14.00   183.84000     W ( 1.00)

      6 Sym. Ops. (no inversion) found



   Cartesian axes

     site n.     atom                  positions (alat units)
         1           Co  tau(   1) = (  -0.0000000   0.5773503   0.0000000  )
         2           Co  tau(   2) = (   0.5000000   0.2886751   1.7984220  )
         3           Co  tau(   3) = (  -0.2499054   0.4330673   1.3848286  )
         4           Co  tau(   4) = (   0.0000000   0.8659162   1.3848286  )
         5           Co  tau(   5) = (   0.2499054   0.4330673   1.3848286  )
         6           Co  tau(   6) = (   0.7499054   0.4329581   0.4135934  )
         7           Co  tau(   7) = (   0.5000000   0.0001092   0.4135934  )
         8           Co  tau(   8) = (   0.2500946   0.4329581   0.4135934  )
         9           W   tau(   9) = (  -0.0000000   0.5773503   0.8927737  )
        10           W   tau(  10) = (   0.0000000   0.0000000   0.0719104  )
        11           W   tau(  11) = (   0.0000000   0.0000000   0.6311107  )
        12           W   tau(  12) = (   0.5000000   0.2886751   0.9056483  )
        13           W   tau(  13) = (   0.0000000   0.0000000   1.7265116  )
        14           W   tau(  14) = (   0.0000000   0.0000000   1.1673113  )

     number of k points=    19 (tetrahedron method)
                       cart. coord. in units 2pi/alat
        k(    1) = (   0.0000000   0.0000000   0.0000000), wk =   0.0069444
        k(    2) = (   0.0000000   0.0962250   0.0000000), wk =   0.0416667
        k(    3) = (   0.0000000   0.1924501   0.0000000), wk =   0.0416667
        k(    4) = (   0.0000000   0.2886751   0.0000000), wk =   0.0416667
        k(    5) = (   0.0000000   0.3849002   0.0000000), wk =   0.0416667
        k(    6) = (   0.0000000   0.4811252   0.0000000), wk =   0.0416667
        k(    7) = (   0.0000000  -0.5773503   0.0000000), wk =   0.0208333
        k(    8) = (   0.0833333   0.1443376   0.0000000), wk =   0.0416667
        k(    9) = (   0.0833333   0.2405626   0.0000000), wk =   0.0833333
        k(   10) = (   0.0833333   0.3367877   0.0000000), wk =   0.0833333
        k(   11) = (   0.0833333   0.4330127   0.0000000), wk =   0.0833333
        k(   12) = (   0.0833333   0.5292377   0.0000000), wk =   0.0833333
        k(   13) = (   0.1666667   0.2886751   0.0000000), wk =   0.0416667
        k(   14) = (   0.1666667   0.3849002   0.0000000), wk =   0.0833333
        k(   15) = (   0.1666667   0.4811252   0.0000000), wk =   0.0833333
        k(   16) = (   0.1666667   0.5773503   0.0000000), wk =   0.0416667
        k(   17) = (   0.2500000   0.4330127   0.0000000), wk =   0.0416667
        k(   18) = (   0.2500000   0.5292377   0.0000000), wk =   0.0833333
        k(   19) = (   0.3333333   0.5773503   0.0000000), wk =   0.0138889

     Dense  grid:   541781 G-vectors     FFT dimensions: (  72,  72, 288)

     Estimated max dynamical RAM per process >       1.91 GB

     Estimated total dynamical RAM >      38.20 GB

     Initial potential from superposition of free atoms

     starting charge  219.99454, renormalised to  220.00000

     negative rho (up, down):  4.151E-06 0.000E+00
     Starting wfcs are  280 randomized atomic wfcs

     total cpu time spent up to now is       56.5 secs

     Self-consistent Calculation

     iteration #  1     ecut=   130.00 Ry     beta= 0.70
     Davidson diagonalization with overlap
     ethr =  1.00E-02,  avg # of iterations =  3.2

     total cpu time spent up to now is      299.2 secs

     total energy              =   -3372.67393297 Ry
     estimated scf accuracy    <      17.26106786 Ry

     iteration #  2     ecut=   130.00 Ry     beta= 0.70
     Davidson diagonalization with overlap
     ethr =  7.85E-03,  avg # of iterations =  2.1

     total cpu time spent up to now is      460.0 secs

     total energy              =   -3372.35281480 Ry
     estimated scf accuracy    <      42.27897548 Ry

     iteration #  3     ecut=   130.00 Ry     beta= 0.70
     Davidson diagonalization with overlap
     ethr =  7.85E-03,  avg # of iterations =  2.0

     total cpu time spent up to now is      613.3 secs

     total energy              =   -3374.86574226 Ry
     estimated scf accuracy    <       4.75856316 Ry

     iteration #  4     ecut=   130.00 Ry     beta= 0.70
     Davidson diagonalization with overlap
     ethr =  2.16E-03,  avg # of iterations =  2.1

     total cpu time spent up to now is      764.6 secs

     total energy              =   -3374.87984767 Ry
     estimated scf accuracy    <       9.32630024 Ry

     iteration #  5     ecut=   130.00 Ry     beta= 0.70
     Davidson diagonalization with overlap
     ethr =  2.16E-03,  avg # of iterations =  1.0

     total cpu time spent up to now is      910.0 secs

     total energy              =   -3375.18374715 Ry
     estimated scf accuracy    <       1.64171127 Ry

     iteration #  6     ecut=   130.00 Ry     beta= 0.70
     Davidson diagonalization with overlap
     ethr =  7.46E-04,  avg # of iterations =  1.0

     total cpu time spent up to now is     1055.6 secs

     total energy              =   -3375.25244335 Ry
     estimated scf accuracy    <       0.56194612 Ry

     iteration #  7     ecut=   130.00 Ry     beta= 0.70
     Davidson diagonalization with overlap
     ethr =  2.55E-04,  avg # of iterations =  3.0

     total cpu time spent up to now is     1207.7 secs

     total energy              =   -3375.25033521 Ry
     estimated scf accuracy    <       0.27680531 Ry

     iteration #  8     ecut=   130.00 Ry     beta= 0.70
     Davidson diagonalization with overlap
     ethr =  1.26E-04,  avg # of iterations =  2.9

     total cpu time spent up to now is     1366.2 secs

     total energy              =   -3375.24830057 Ry
     estimated scf accuracy    <       0.64115386 Ry

     iteration #  9     ecut=   130.00 Ry     beta= 0.70
     Davidson diagonalization with overlap
     ethr =  1.26E-04,  avg # of iterations =  1.0

     total cpu time spent up to now is     1510.4 secs

     total energy              =   -3375.24522090 Ry
     estimated scf accuracy    <       0.08156321 Ry

     iteration # 10     ecut=   130.00 Ry     beta= 0.70
     Davidson diagonalization with overlap
     ethr =  3.71E-05,  avg # of iterations =  5.1

     total cpu time spent up to now is     1679.0 secs

     total energy              =   -3375.24825758 Ry
     estimated scf accuracy    <       0.04563146 Ry

     iteration # 11     ecut=   130.00 Ry     beta= 0.70
     Davidson diagonalization with overlap
     ethr =  2.07E-05,  avg # of iterations =  1.9

     total cpu time spent up to now is     1829.3 secs

     total energy              =   -3375.24572968 Ry
     estimated scf accuracy    <       0.10322737 Ry

     iteration # 12     ecut=   130.00 Ry     beta= 0.70
     Davidson diagonalization with overlap
     ethr =  2.07E-05,  avg # of iterations =  1.0

     total cpu time spent up to now is     1985.7 secs

     total energy              =   -3375.24749512 Ry
     estimated scf accuracy    <       0.00425048 Ry

     iteration # 13     ecut=   130.00 Ry     beta= 0.70
     Davidson diagonalization with overlap
     ethr =  1.93E-06,  avg # of iterations =  7.9

     negative rho (up, down):  9.121E-06 0.000E+00

     total cpu time spent up to now is     2176.2 secs

     total energy              =   -3375.24789019 Ry
     estimated scf accuracy    <       0.00524518 Ry

     iteration # 14     ecut=   130.00 Ry     beta= 0.70
     Davidson diagonalization with overlap
     ethr =  1.93E-06,  avg # of iterations =  1.4

     negative rho (up, down):  5.304E-06 0.000E+00

     total cpu time spent up to now is     2338.9 secs

     total energy              =   -3375.24817027 Ry
     estimated scf accuracy    <       0.00552220 Ry

     iteration # 15     ecut=   130.00 Ry     beta= 0.70
     Davidson diagonalization with overlap
     ethr =  1.93E-06,  avg # of iterations =  1.0

     total cpu time spent up to now is     2505.9 secs

     total energy              =   -3375.24831539 Ry
     estimated scf accuracy    <       0.00026510 Ry

     iteration # 16     ecut=   130.00 Ry     beta= 0.70
     Davidson diagonalization with overlap
     ethr =  1.21E-07,  avg # of iterations =  2.1

     total cpu time spent up to now is     2674.0 secs

     total energy              =   -3375.24839844 Ry
     estimated scf accuracy    <       0.00012853 Ry

     iteration # 17     ecut=   130.00 Ry     beta= 0.70
     Davidson diagonalization with overlap
     ethr =  5.84E-08,  avg # of iterations =  2.1

     total cpu time spent up to now is     2822.7 secs

     total energy              =   -3375.24840230 Ry
     estimated scf accuracy    <       0.00001266 Ry

     iteration # 18     ecut=   130.00 Ry     beta= 0.70
     Davidson diagonalization with overlap
     ethr =  5.75E-09,  avg # of iterations =  3.5

     total cpu time spent up to now is     2979.2 secs

     total energy              =   -3375.24840461 Ry
     estimated scf accuracy    <       0.00003510 Ry

     iteration # 19     ecut=   130.00 Ry     beta= 0.70
     Davidson diagonalization with overlap
     ethr =  5.75E-09,  avg # of iterations =  1.1

     total cpu time spent up to now is     3166.0 secs

     total energy              =   -3375.24840496 Ry
     estimated scf accuracy    <       0.00000546 Ry

     iteration # 20     ecut=   130.00 Ry     beta= 0.70
     Davidson diagonalization with overlap
     ethr =  2.48E-09,  avg # of iterations =  1.3

     total cpu time spent up to now is     3306.6 secs

     End of self-consistent calculation

          k = 0.0000 0.0000 0.0000 ( 67677 PWs)   bands (ev):

   -87.9261 -87.9261 -87.9258 -87.9258 -87.8753 -87.8753 -87.8753 -87.8753
   -87.8751 -87.8751 -87.8751 -87.8751 -87.3688 -87.3688 -87.3687 -87.3687
   -67.1132 -67.1132 -67.1130 -67.1130 -66.7839 -66.7839 -66.7332 -66.7332
   -66.6895 -66.6895 -66.6672 -66.6672 -52.4729 -52.4729 -52.4726 -52.4726
   -52.4673 -52.4673 -52.4671 -52.4671 -52.3608 -52.3608 -52.3605 -52.3605
   -51.9038 -51.9038 -51.9037 -51.9037 -50.7332 -50.7332 -50.7329 -50.7329
   -50.6891 -50.6891 -50.6888 -50.6888 -50.5829 -50.5829 -50.5827 -50.5827
   -50.5230 -50.5230 -50.5227 -50.5227 -50.4780 -50.4780 -50.4777 -50.4777
   -50.4527 -50.4527 -50.4524 -50.4524 -50.0571 -50.0571 -50.0571 -50.0571
   -50.0519 -50.0519 -50.0518 -50.0518 -38.4981 -38.4981 -38.4943 -38.4943
   -38.2449 -38.2449 -38.2325 -38.2325 -38.1513 -38.1513 -37.9781 -37.9781
   -28.9188 -28.9188 -28.7698 -28.7698 -28.7223 -28.7223 -28.6627 -28.6627
   -28.6515 -28.6515 -28.5683 -28.5683 -28.5071 -28.5071 -28.4366 -28.4366
   -28.3631 -28.3631 -28.3580 -28.3580 -28.0032 -28.0032 -27.9226 -27.9226
    -1.8290  -1.8290  -0.2169  -0.2169   1.2955   1.2955   2.1765   2.1765
     2.1777   2.1777   2.2074   2.2074   2.7750   2.7750   2.7929   2.7929
     2.8061   2.8061   2.9328   2.9328   2.9632   2.9632   3.1677   3.1677
     3.2133   3.2133   3.2896   3.2896   3.7934   3.7934   4.0388   4.0388
     4.1179   4.1179   4.2008   4.2008   4.3128   4.3128   4.3428   4.3428
     4.3771   4.3771   4.6148   4.6148   4.6208   4.6208   4.6450   4.6450
     4.6782   4.6782   4.9828   4.9828   5.1151   5.1151   5.2110   5.2110
     5.2297   5.2297   5.5481   5.5481   5.5578   5.5578   5.5862   5.5862
     5.6450   5.6450   5.6992   5.6992   5.8476   5.8476   5.8802   5.8802
     5.9127   5.9127   5.9844   5.9844   6.0021   6.0021   6.0439   6.0439
     6.0648   6.0648   6.1079   6.1079   6.1359   6.1359   6.2225   6.2225
     6.4006   6.4006   6.4106   6.4106   6.5569   6.5569   6.5696   6.5696
     6.5763   6.5763   6.6536   6.6536   6.6974   6.6974   6.8985   6.8985
     6.9142   6.9142   7.0340   7.0340   7.0536   7.0536   7.2426   7.2426
     7.2747   7.2747   7.5670   7.5670   7.6557   7.6557   7.7375   7.7375
     7.7463   7.7463   7.7497   7.7497   8.0449   8.0449   8.1080   8.1080
     8.1081   8.1081   8.1124   8.1124   8.2305   8.2305   8.4665   8.4665
     8.8413   8.8413   9.0444   9.0444   9.1580   9.1580   9.3732   9.3732
     9.3734   9.3734   9.4794   9.4794  10.0853  10.0853  10.3766  10.3766

          k = 0.0000 0.0962 0.0000 ( 67733 PWs)   bands (ev):

   -87.9253 -87.9253 -87.9251 -87.9251 -87.8761 -87.8761 -87.8759 -87.8759
   -87.8753 -87.8753 -87.8751 -87.8751 -87.3688 -87.3688 -87.3687 -87.3687
   -67.1132 -67.1132 -67.1130 -67.1130 -66.7825 -66.7825 -66.7332 -66.7332
   -66.6895 -66.6895 -66.6685 -66.6685 -52.4718 -52.4717 -52.4715 -52.4715
   -52.4663 -52.4662 -52.4660 -52.4660 -52.3623 -52.3622 -52.3619 -52.3618
   -51.9038 -51.9038 -51.9037 -51.9037 -50.7313 -50.7311 -50.7308 -50.7305
   -50.6876 -50.6873 -50.6872 -50.6870 -50.5830 -50.5830 -50.5827 -50.5827
   -50.5243 -50.5241 -50.5230 -50.5228 -50.4795 -50.4792 -50.4789 -50.4786
   -50.4554 -50.4554 -50.4552 -50.4552 -50.0571 -50.0571 -50.0571 -50.0571
   -50.0520 -50.0520 -50.0518 -50.0517 -38.4980 -38.4980 -38.4943 -38.4943
   -38.2421 -38.2421 -38.2323 -38.2323 -38.1502 -38.1502 -37.9826 -37.9826
   -28.9192 -28.9192 -28.7728 -28.7728 -28.7153 -28.7153 -28.6637 -28.6637
   -28.6517 -28.6517 -28.5767 -28.5767 -28.5070 -28.5070 -28.4244 -28.4244
   -28.3825 -28.3825 -28.3315 -28.3315 -28.0054 -28.0054 -27.9343 -27.9343
    -1.7436  -1.7436  -0.1568  -0.1568   1.3245   1.3245   2.1814   2.1814
     2.2111   2.2111   2.2447   2.2447   2.6109   2.6109   2.7346   2.7346
     2.8263   2.8263   2.9301   2.9301   3.0328   3.0328   3.1803   3.1803
     3.2342   3.2342   3.4546   3.4546   3.8011   3.8011   3.9555   3.9555
     4.0619   4.0619   4.2634   4.2634   4.3509   4.3509   4.3712   4.3713
     4.4197   4.4197   4.5839   4.5839   4.6236   4.6236   4.6529   4.6529
     4.6624   4.6624   4.9380   4.9381   5.0473   5.0473   5.1733   5.1733
     5.1885   5.1885   5.4863   5.4863   5.5044   5.5045   5.5447   5.5447
     5.5998   5.5998   5.6591   5.6591   5.8121   5.8122   5.8339   5.8339
     5.8749   5.8749   5.9441   5.9441   5.9731   5.9731   6.0501   6.0501
     6.0994   6.0995   6.1491   6.1491   6.1794   6.1794   6.2488   6.2489
     6.3954   6.3954   6.4340   6.4340   6.4874   6.4874   6.5946   6.5946
     6.6244   6.6244   6.6740   6.6741   6.7019   6.7020   6.9303   6.9303
     6.9441   6.9441   6.9992   6.9992   7.0533   7.0533   7.2726   7.2726
     7.3930   7.3930   7.4469   7.4469   7.6619   7.6619   7.7206   7.7207
     7.7248   7.7249   7.7678   7.7678   7.7923   7.7923   8.0666   8.0667
     8.1396   8.1397   8.1560   8.1560   8.3307   8.3307   8.5079   8.5079
     9.0033   9.0033   9.0453   9.0453   9.1134   9.1134   9.3035   9.3035
     9.4306   9.4306   9.4495   9.4495  10.1485  10.1485  10.4684  10.4684

          k = 0.0000 0.1925 0.0000 ( 67762 PWs)   bands (ev):

   -87.9231 -87.9231 -87.9228 -87.9228 -87.8784 -87.8784 -87.8781 -87.8781
   -87.8753 -87.8753 -87.8751 -87.8751 -87.3688 -87.3688 -87.3687 -87.3687
   -67.1132 -67.1132 -67.1130 -67.1130 -66.7788 -66.7788 -66.7331 -66.7331
   -66.6895 -66.6895 -66.6724 -66.6724 -52.4700 -52.4699 -52.4697 -52.4696
   -52.4619 -52.4618 -52.4616 -52.4615 -52.3665 -52.3663 -52.3661 -52.3659
   -51.9039 -51.9038 -51.9037 -51.9036 -50.7258 -50.7255 -50.7247 -50.7245
   -50.6824 -50.6821 -50.6817 -50.6815 -50.5834 -50.5833 -50.5831 -50.5831
   -50.5270 -50.5268 -50.5246 -50.5243 -50.4839 -50.4836 -50.4827 -50.4825
   -50.4624 -50.4624 -50.4622 -50.4622 -50.0571 -50.0571 -50.0571 -50.0571
   -50.0521 -50.0520 -50.0517 -50.0516 -38.4980 -38.4980 -38.4942 -38.4942
   -38.2361 -38.2361 -38.2297 -38.2297 -38.1471 -38.1471 -37.9957 -37.9957
   -28.9203 -28.9203 -28.7773 -28.7773 -28.7001 -28.7001 -28.6659 -28.6659
   -28.6523 -28.6523 -28.5917 -28.5917 -28.5073 -28.5073 -28.4075 -28.4075
   -28.3869 -28.3869 -28.2984 -28.2984 -28.0149 -28.0149 -27.9638 -27.9638
    -1.4924  -1.4924   0.0195   0.0195   1.3969   1.3969   2.1788   2.1788
     2.2799   2.2799   2.3413   2.3414   2.3866   2.3866   2.6972   2.6972
     2.8194   2.8194   2.9410   2.9410   3.0413   3.0413   3.3012   3.3012
     3.3883   3.3883   3.6270   3.6270   3.7968   3.7968   3.8892   3.8892
     4.0056   4.0056   4.2285   4.2285   4.3093   4.3093   4.4075   4.4075
     4.4615   4.4615   4.5494   4.5494   4.5986   4.5986   4.6697   4.6697
     4.7194   4.7194   4.8302   4.8302   4.9798   4.9798   5.0441   5.0441
     5.1018   5.1018   5.3572   5.3572   5.4100   5.4101   5.4476   5.4476
     5.4983   5.4983   5.5788   5.5788   5.7033   5.7034   5.7630   5.7630
     5.8248   5.8248   5.8683   5.8683   5.9240   5.9240   6.0003   6.0003
     6.1299   6.1299   6.1779   6.1779   6.2186   6.2186   6.2799   6.2799
     6.3551   6.3551   6.4593   6.4593   6.5165   6.5166   6.6003   6.6003
     6.6815   6.6815   6.6916   6.6917   6.7943   6.7944   6.8805   6.8805
     6.9971   6.9971   7.0349   7.0349   7.0909   7.0910   7.2574   7.2574
     7.3287   7.3287   7.3701   7.3701   7.5564   7.5564   7.6354   7.6354
     7.6493   7.6494   7.7634   7.7634   7.9613   7.9613   8.0523   8.0524
     8.1525   8.1526   8.2025   8.2026   8.4497   8.4497   8.6249   8.6249
     8.8686   8.8686   9.0694   9.0694   9.2633   9.2633   9.3197   9.3197
     9.3875   9.3875   9.5147   9.5147  10.2521  10.2521  10.7347  10.7347

          k = 0.0000 0.2887 0.0000 ( 67682 PWs)   bands (ev):

   -87.9196 -87.9196 -87.9194 -87.9194 -87.8818 -87.8818 -87.8816 -87.8816
   -87.8754 -87.8754 -87.8751 -87.8751 -87.3688 -87.3688 -87.3687 -87.3687
   -67.1132 -67.1132 -67.1130 -67.1130 -66.7736 -66.7736 -66.7325 -66.7325
   -66.6896 -66.6896 -66.6785 -66.6785 -52.4687 -52.4686 -52.4684 -52.4684
   -52.4537 -52.4536 -52.4535 -52.4533 -52.3732 -52.3730 -52.3727 -52.3725
   -51.9039 -51.9039 -51.9037 -51.9036 -50.7183 -50.7181 -50.7170 -50.7167
   -50.6730 -50.6727 -50.6722 -50.6720 -50.5845 -50.5843 -50.5843 -50.5841
   -50.5305 -50.5302 -50.5273 -50.5271 -50.4930 -50.4928 -50.4914 -50.4912
   -50.4697 -50.4697 -50.4695 -50.4694 -50.0571 -50.0571 -50.0571 -50.0571
   -50.0521 -50.0520 -50.0516 -50.0515 -38.4980 -38.4980 -38.4942 -38.4942
   -38.2348 -38.2348 -38.2177 -38.2177 -38.1418 -38.1418 -38.0160 -38.0160
   -28.9220 -28.9220 -28.7796 -28.7796 -28.6904 -28.6904 -28.6625 -28.6624
   -28.6527 -28.6526 -28.5990 -28.5990 -28.5074 -28.5074 -28.4161 -28.4161
   -28.3580 -28.3580 -28.2674 -28.2674 -28.0433 -28.0433 -27.9903 -27.9903
    -1.0909  -1.0909   0.2999   0.2999   1.4740   1.4740   2.1206   2.1207
     2.1529   2.1529   2.3362   2.3363   2.5319   2.5319   2.7176   2.7176
     2.7867   2.7867   2.9455   2.9455   3.0891   3.0891   3.3985   3.3985
     3.6224   3.6224   3.7093   3.7094   3.7744   3.7745   3.9226   3.9226
     3.9563   3.9563   4.0271   4.0272   4.2873   4.2873   4.4131   4.4131
     4.4588   4.4588   4.4962   4.4962   4.5593   4.5593   4.6550   4.6550
     4.6897   4.6897   4.7338   4.7338   4.8999   4.8999   4.9438   4.9438
     5.1451   5.1451   5.2281   5.2281   5.3001   5.3001   5.3582   5.3583
     5.3956   5.3956   5.4738   5.4738   5.5643   5.5644   5.6620   5.6620
     5.7595   5.7595   5.8065   5.8065   5.8515   5.8515   5.9744   5.9745
     6.1191   6.1191   6.1331   6.1331   6.1775   6.1775   6.2476   6.2477
     6.3101   6.3101   6.5267   6.5267   6.5429   6.5429   6.6053   6.6054
     6.7165   6.7165   6.7432   6.7433   6.8073   6.8074   6.8895   6.8895
     6.9602   6.9602   7.0818   7.0818   7.1120   7.1120   7.1818   7.1819
     7.1974   7.1974   7.4600   7.4600   7.5315   7.5317   7.5901   7.5902
     7.6894   7.6894   7.8777   7.8777   8.0426   8.0427   8.1222   8.1223
     8.1607   8.1607   8.2535   8.2536   8.4566   8.4566   8.5928   8.5929
     8.9943   8.9943   9.0772   9.0772   9.2925   9.2925   9.3374   9.3374
     9.4616   9.4616   9.7440   9.7440  10.2384  10.2384  10.3393  10.3393

          k = 0.0000 0.3849 0.0000 ( 67678 PWs)   bands (ev):

   -87.9154 -87.9154 -87.9151 -87.9151 -87.8861 -87.8861 -87.8858 -87.8858
   -87.8754 -87.8754 -87.8751 -87.8751 -87.3688 -87.3688 -87.3687 -87.3687
   -67.1132 -67.1132 -67.1130 -67.1130 -66.7682 -66.7682 -66.7307 -66.7307
   -66.6897 -66.6897 -66.6857 -66.6857 -52.4677 -52.4676 -52.4674 -52.4674
   -52.4434 -52.4432 -52.4432 -52.4430 -52.3816 -52.3814 -52.3812 -52.3810
   -51.9039 -51.9039 -51.9037 -51.9037 -50.7112 -50.7110 -50.7100 -50.7098
   -50.6594 -50.6591 -50.6588 -50.6586 -50.5875 -50.5873 -50.5870 -50.5868
   -50.5337 -50.5334 -50.5305 -50.5302 -50.5064 -50.5062 -50.5046 -50.5043
   -50.4743 -50.4741 -50.4740 -50.4738 -50.0571 -50.0571 -50.0571 -50.0571
   -50.0520 -50.0520 -50.0516 -50.0516 -38.4980 -38.4980 -38.4942 -38.4942
   -38.2350 -38.2350 -38.2021 -38.2021 -38.1334 -38.1334 -38.0415 -38.0415
   -28.9237 -28.9237 -28.7802 -28.7802 -28.6945 -28.6945 -28.6557 -28.6556
   -28.6496 -28.6496 -28.5887 -28.5887 -28.5057 -28.5057 -28.4239 -28.4239
   -28.3324 -28.3324 -28.2509 -28.2509 -28.0814 -28.0814 -28.0042 -28.0042
    -0.5650  -0.5650   0.6617   0.6617   1.5337   1.5337   1.8367   1.8367
     2.0491   2.0491   2.2266   2.2266   2.7283   2.7283   2.7756   2.7756
     2.8529   2.8529   2.8743   2.8743   3.2485   3.2485   3.4599   3.4599
     3.6391   3.6391   3.7844   3.7844   3.8202   3.8202   3.9106   3.9106
     3.9996   3.9996   4.0879   4.0879   4.2383   4.2383   4.3013   4.3013
     4.3745   4.3746   4.4566   4.4566   4.5585   4.5586   4.5784   4.5784
     4.6660   4.6660   4.6880   4.6880   4.7804   4.7804   4.9190   4.9190
     5.0542   5.0542   5.1737   5.1737   5.2212   5.2212   5.2689   5.2689
     5.2945   5.2946   5.3668   5.3668   5.4256   5.4256   5.5148   5.5148
     5.5776   5.5776   5.7847   5.7847   5.8743   5.8743   5.9136   5.9136
     6.0801   6.0802   6.1219   6.1219   6.1875   6.1875   6.2170   6.2170
     6.2871   6.2871   6.5296   6.5296   6.5693   6.5693   6.6281   6.6281
     6.6579   6.6580   6.7940   6.7940   6.8592   6.8592   6.8870   6.8870
     6.9152   6.9153   7.0808   7.0809   7.1516   7.1516   7.2396   7.2396
     7.3030   7.3030   7.3979   7.3979   7.5655   7.5655   7.6162   7.6162
     7.7443   7.7443   7.8700   7.8701   7.9748   7.9748   8.0776   8.0776
     8.1827   8.1827   8.3123   8.3124   8.4758   8.4758   8.7250   8.7250
     9.0778   9.0778   9.1714   9.1714   9.3052   9.3052   9.3640   9.3640
     9.4471   9.4472   9.7478   9.7478  10.1119  10.1119  10.3936  10.3942

          k = 0.0000 0.4811 0.0000 ( 67730 PWs)   bands (ev):

   -87.9112 -87.9112 -87.9110 -87.9110 -87.8903 -87.8903 -87.8900 -87.8900
   -87.8754 -87.8754 -87.8751 -87.8751 -87.3688 -87.3688 -87.3687 -87.3687
   -67.1132 -67.1132 -67.1130 -67.1130 -66.7642 -66.7642 -66.7280 -66.7280
   -66.6927 -66.6927 -66.6895 -66.6895 -52.4670 -52.4670 -52.4668 -52.4667
   -52.4333 -52.4331 -52.4330 -52.4328 -52.3903 -52.3901 -52.3899 -52.3897
   -51.9039 -51.9039 -51.9038 -51.9037 -50.7063 -50.7061 -50.7056 -50.7054
   -50.6443 -50.6442 -50.6440 -50.6439 -50.5931 -50.5929 -50.5924 -50.5922
   -50.5351 -50.5349 -50.5328 -50.5325 -50.5187 -50.5185 -50.5170 -50.5168
   -50.4765 -50.4764 -50.4762 -50.4761 -50.0571 -50.0571 -50.0571 -50.0571
   -50.0519 -50.0519 -50.0517 -50.0516 -38.4979 -38.4979 -38.4941 -38.4941
   -38.2353 -38.2353 -38.1891 -38.1891 -38.1198 -38.1198 -38.0691 -38.0691
   -28.9249 -28.9249 -28.7802 -28.7802 -28.7002 -28.7002 -28.6554 -28.6554
   -28.6460 -28.6460 -28.5674 -28.5674 -28.5001 -28.5001 -28.4270 -28.4270
   -28.3224 -28.3224 -28.2563 -28.2563 -28.0987 -28.0987 -28.0137 -28.0137
     0.0462   0.0463   1.0559   1.0559   1.3600   1.3600   1.6165   1.6165
     1.8864   1.8865   1.9773   1.9773   2.7707   2.7707   2.8158   2.8158
     2.9578   2.9578   3.0242   3.0242   3.3860   3.3860   3.5471   3.5471
     3.7229   3.7230   3.7743   3.7743   3.8072   3.8072   3.8898   3.8898
     4.0326   4.0326   4.1141   4.1141   4.1521   4.1521   4.2412   4.2413
     4.3651   4.3651   4.4545   4.4545   4.5729   4.5729   4.5988   4.5988
     4.6368   4.6368   4.6723   4.6723   4.6954   4.6954   4.9146   4.9146
     4.9735   4.9736   5.0044   5.0044   5.1388   5.1388   5.1515   5.1515
     5.1827   5.1827   5.2163   5.2163   5.3022   5.3022   5.3891   5.3891
     5.6108   5.6108   5.7827   5.7827   5.8231   5.8232   5.8973   5.8973
     6.0523   6.0523   6.1615   6.1615   6.1992   6.1992   6.3043   6.3043
     6.3649   6.3649   6.4067   6.4067   6.5595   6.5596   6.6073   6.6074
     6.6683   6.6683   6.7554   6.7554   6.8255   6.8255   6.8953   6.8953
     6.9571   6.9571   7.1206   7.1206   7.2147   7.2147   7.3153   7.3154
     7.4070   7.4070   7.4542   7.4542   7.5003   7.5003   7.6409   7.6409
     7.7293   7.7293   7.8120   7.8120   7.9019   7.9020   8.0193   8.0193
     8.2681   8.2681   8.3343   8.3343   8.5083   8.5083   8.8273   8.8273
     8.8923   8.8923   9.0982   9.0982   9.2220   9.2220   9.2879   9.2880
     9.4890   9.4890  10.0430  10.0430  10.2315  10.2316  10.4046  10.4047

          k = 0.0000-0.5774 0.0000 ( 67728 PWs)   bands (ev):

   -87.9092 -87.9092 -87.9089 -87.9089 -87.8923 -87.8923 -87.8921 -87.8921
   -87.8754 -87.8754 -87.8751 -87.8751 -87.3688 -87.3688 -87.3687 -87.3687
   -67.1132 -67.1132 -67.1130 -67.1130 -66.7628 -66.7628 -66.7263 -66.7263
   -66.6958 -66.6958 -66.6896 -66.6896 -52.4668 -52.4668 -52.4665 -52.4665
   -52.4282 -52.4282 -52.4280 -52.4280 -52.3946 -52.3946 -52.3943 -52.3943
   -51.9038 -51.9038 -51.9038 -51.9038 -50.7044 -50.7044 -50.7041 -50.7041
   -50.6363 -50.6363 -50.6361 -50.6361 -50.5970 -50.5970 -50.5967 -50.5967
   -50.5341 -50.5341 -50.5338 -50.5338 -50.5233 -50.5233 -50.5231 -50.5231
   -50.4772 -50.4772 -50.4769 -50.4769 -50.0571 -50.0571 -50.0571 -50.0571
   -50.0518 -50.0518 -50.0517 -50.0517 -38.4979 -38.4979 -38.4941 -38.4941
   -38.2354 -38.2354 -38.1842 -38.1842 -38.1046 -38.1046 -38.0897 -38.0897
   -28.9253 -28.9253 -28.7803 -28.7803 -28.7025 -28.7025 -28.6556 -28.6556
   -28.6453 -28.6453 -28.5575 -28.5575 -28.4950 -28.4950 -28.4266 -28.4266
   -28.3254 -28.3254 -28.2617 -28.2617 -28.1000 -28.1000 -28.0178 -28.0178
     0.5994   0.5994   0.8117   0.8117   1.3900   1.3900   1.6669   1.6669
     1.7456   1.7456   1.7697   1.7697   2.7854   2.7854   2.7951   2.7951
     3.0338   3.0338   3.1431   3.1431   3.4629   3.4629   3.5984   3.5984
     3.7690   3.7690   3.7705   3.7705   3.8173   3.8173   3.8663   3.8663
     3.9200   3.9200   4.0629   4.0629   4.1213   4.1213   4.2603   4.2603
     4.4243   4.4243   4.4406   4.4406   4.5909   4.5909   4.6164   4.6164
     4.6578   4.6578   4.6959   4.6959   4.7414   4.7414   4.8161   4.8161
     4.9087   4.9087   4.9565   4.9565   4.9920   4.9920   5.1267   5.1267
     5.1542   5.1542   5.1743   5.1743   5.2812   5.2812   5.3326   5.3326
     5.6808   5.6808   5.7258   5.7258   5.8307   5.8307   5.8842   5.8842
     6.0717   6.0717   6.1503   6.1503   6.2308   6.2308   6.2944   6.2944
     6.4109   6.4109   6.4377   6.4377   6.5382   6.5382   6.5399   6.5399
     6.6847   6.6847   6.7459   6.7459   6.7800   6.7800   6.8915   6.8915
     6.9911   6.9911   7.1593   7.1593   7.2884   7.2884   7.3054   7.3054
     7.3978   7.3978   7.4464   7.4464   7.5201   7.5201   7.6599   7.6599
     7.7572   7.7572   7.8452   7.8452   7.8615   7.8615   7.9116   7.9116
     8.3195   8.3195   8.3374   8.3374   8.5427   8.5427   8.7185   8.7185
     8.9027   8.9027   9.0398   9.0398   9.1521   9.1521   9.3221   9.3221
     9.4993   9.4993   9.9404   9.9404  10.4456  10.4456  10.4900  10.4901

          k = 0.0833 0.1443 0.0000 ( 67725 PWs)   bands (ev):

   -87.9238 -87.9238 -87.9236 -87.9236 -87.8776 -87.8776 -87.8774 -87.8774
   -87.8753 -87.8753 -87.8751 -87.8751 -87.3688 -87.3688 -87.3687 -87.3687
   -67.1132 -67.1132 -67.1130 -67.1130 -66.7800 -66.7800 -66.7332 -66.7332
   -66.6895 -66.6895 -66.6712 -66.6712 -52.4705 -52.4703 -52.4702 -52.4700
   -52.4635 -52.4634 -52.4633 -52.4631 -52.3651 -52.3650 -52.3647 -52.3646
   -51.9039 -51.9038 -51.9037 -51.9036 -50.7275 -50.7273 -50.7266 -50.7263
   -50.6842 -50.6839 -50.6836 -50.6833 -50.5832 -50.5832 -50.5829 -50.5829
   -50.5262 -50.5259 -50.5240 -50.5238 -50.4823 -50.4820 -50.4813 -50.4811
   -50.4604 -50.4603 -50.4601 -50.4601 -50.0571 -50.0571 -50.0571 -50.0571
   -50.0521 -50.0520 -50.0517 -50.0516 -38.4980 -38.4980 -38.4943 -38.4943
   -38.2375 -38.2375 -38.2311 -38.2311 -38.1481 -38.1481 -37.9914 -37.9914
   -28.9200 -28.9200 -28.7762 -28.7762 -28.7041 -28.7041 -28.6655 -28.6655
   -28.6521 -28.6521 -28.5881 -28.5881 -28.5073 -28.5073 -28.4070 -28.4070
   -28.3920 -28.3920 -28.3072 -28.3072 -28.0112 -28.0112 -27.9549 -27.9549
    -1.5753  -1.5753  -0.0386  -0.0386   1.3757   1.3757   2.1838   2.1838
     2.2696   2.2696   2.3087   2.3087   2.4571   2.4571   2.6025   2.6025
     2.8860   2.8860   2.9878   2.9878   3.0824   3.0824   3.1658   3.1658
     3.3567   3.3567   3.5900   3.5900   3.8081   3.8081   3.8873   3.8874
     4.0256   4.0256   4.2563   4.2563   4.3548   4.3549   4.4145   4.4146
     4.4404   4.4404   4.4796   4.4797   4.6100   4.6100   4.6729   4.6729
     4.7523   4.7523   4.8573   4.8574   4.9878   4.9878   5.0825   5.0826
     5.1231   5.1232   5.3882   5.3882   5.4288   5.4288   5.4883   5.4883
     5.5100   5.5100   5.6151   5.6152   5.7427   5.7427   5.7873   5.7873
     5.8379   5.8379   5.8841   5.8841   5.9313   5.9314   6.0119   6.0119
     6.1108   6.1109   6.1785   6.1786   6.2197   6.2197   6.3014   6.3015
     6.3774   6.3775   6.4346   6.4347   6.4929   6.4929   6.6148   6.6148
     6.6581   6.6582   6.6875   6.6876   6.7611   6.7612   6.9004   6.9004
     6.9786   6.9786   7.0252   7.0252   7.0865   7.0865   7.2857   7.2857
     7.3432   7.3432   7.4281   7.4281   7.5204   7.5204   7.6703   7.6705
     7.6846   7.6848   7.7455   7.7455   7.9017   7.9017   8.0451   8.0451
     8.1344   8.1344   8.1864   8.1865   8.4476   8.4476   8.5911   8.5911
     8.8980   8.8980   9.0713   9.0714   9.2221   9.2221   9.3022   9.3022
     9.3955   9.3955   9.4859   9.4859  10.2275  10.2275  10.6604  10.6604

          k = 0.0833 0.2406 0.0000 ( 67687 PWs)   bands (ev):

   -87.9210 -87.9210 -87.9207 -87.9207 -87.8805 -87.8805 -87.8802 -87.8802
   -87.8754 -87.8754 -87.8751 -87.8751 -87.3688 -87.3688 -87.3687 -87.3687
   -67.1132 -67.1132 -67.1130 -67.1130 -66.7756 -66.7756 -66.7328 -66.7328
   -66.6896 -66.6896 -66.6762 -66.6762 -52.4691 -52.4689 -52.4688 -52.4686
   -52.4571 -52.4568 -52.4568 -52.4565 -52.3706 -52.3704 -52.3701 -52.3699
   -51.9039 -51.9039 -51.9037 -51.9036 -50.7210 -50.7208 -50.7196 -50.7193
   -50.6770 -50.6768 -50.6761 -50.6758 -50.5839 -50.5838 -50.5836 -50.5836
   -50.5292 -50.5290 -50.5263 -50.5260 -50.4889 -50.4886 -50.4874 -50.4871
   -50.4678 -50.4676 -50.4675 -50.4673 -50.0571 -50.0571 -50.0571 -50.0570
   -50.0521 -50.0521 -50.0516 -50.0515 -38.4980 -38.4980 -38.4942 -38.4942
   -38.2349 -38.2349 -38.2226 -38.2226 -38.1441 -38.1441 -38.0081 -38.0081
   -28.9215 -28.9215 -28.7787 -28.7787 -28.6892 -28.6892 -28.6671 -28.6671
   -28.6526 -28.6526 -28.5996 -28.5996 -28.5079 -28.5079 -28.4090 -28.4090
   -28.3724 -28.3724 -28.2767 -28.2767 -28.0311 -28.0311 -27.9821 -27.9821
    -1.2492  -1.2492   0.1899   0.1899   1.4534   1.4534   2.1569   2.1569
     2.2126   2.2126   2.3542   2.3542   2.4423   2.4423   2.5837   2.5837
     2.9360   2.9360   2.9777   2.9777   3.0951   3.0952   3.3081   3.3082
     3.5198   3.5199   3.7087   3.7088   3.7932   3.7932   3.8873   3.8873
     3.9781   3.9781   4.1138   4.1138   4.2634   4.2635   4.3230   4.3230
     4.4730   4.4730   4.5142   4.5142   4.5915   4.5915   4.6883   4.6883
     4.7330   4.7331   4.8131   4.8132   4.9121   4.9121   4.9993   4.9993
     5.1034   5.1035   5.2689   5.2689   5.3103   5.3103   5.3678   5.3679
     5.4366   5.4366   5.5446   5.5446   5.6163   5.6163   5.7153   5.7153
     5.7786   5.7786   5.8257   5.8257   5.8547   5.8548   5.9746   5.9747
     6.0597   6.0598   6.1669   6.1669   6.2265   6.2265   6.2777   6.2778
     6.3606   6.3606   6.5147   6.5148   6.5287   6.5288   6.6028   6.6029
     6.6761   6.6762   6.7421   6.7422   6.8366   6.8366   6.8696   6.8696
     6.9458   6.9458   7.0874   7.0875   7.1275   7.1275   7.1728   7.1728
     7.2156   7.2156   7.3974   7.3975   7.5687   7.5688   7.6030   7.6031
     7.7029   7.7029   7.8859   7.8859   8.0157   8.0158   8.0932   8.0932
     8.1590   8.1590   8.2095   8.2095   8.4607   8.4607   8.6456   8.6456
     8.8004   8.8004   9.0883   9.0884   9.3107   9.3107   9.3585   9.3585
     9.4204   9.4204   9.5839   9.5839  10.3258  10.3258  10.5601  10.5602

          k = 0.0833 0.3368 0.0000 ( 67727 PWs)   bands (ev):

   -87.9171 -87.9171 -87.9168 -87.9168 -87.8844 -87.8844 -87.8842 -87.8842
   -87.8754 -87.8754 -87.8751 -87.8751 -87.3688 -87.3688 -87.3687 -87.3687
   -67.1132 -67.1132 -67.1130 -67.1130 -66.7702 -66.7702 -66.7314 -66.7314
   -66.6897 -66.6897 -66.6829 -66.6829 -52.4680 -52.4678 -52.4677 -52.4675
   -52.4477 -52.4474 -52.4474 -52.4472 -52.3782 -52.3780 -52.3777 -52.3775
   -51.9039 -51.9039 -51.9037 -51.9036 -50.7137 -50.7135 -50.7121 -50.7118
   -50.6657 -50.6655 -50.6646 -50.6644 -50.5858 -50.5856 -50.5855 -50.5852
   -50.5327 -50.5325 -50.5295 -50.5292 -50.5003 -50.5000 -50.4983 -50.4981
   -50.4737 -50.4735 -50.4732 -50.4730 -50.0571 -50.0571 -50.0571 -50.0570
   -50.0521 -50.0520 -50.0516 -50.0515 -38.4980 -38.4980 -38.4942 -38.4942
   -38.2349 -38.2349 -38.2077 -38.2077 -38.1378 -38.1378 -38.0310 -38.0310
   -28.9233 -28.9233 -28.7791 -28.7791 -28.6869 -28.6869 -28.6588 -28.6588
   -28.6521 -28.6521 -28.5995 -28.5995 -28.5077 -28.5077 -28.4176 -28.4176
   -28.3456 -28.3456 -28.2525 -28.2525 -28.0688 -28.0688 -27.9980 -27.9980
    -0.7863  -0.7863   0.5119   0.5119   1.5232   1.5232   1.9716   1.9716
     2.0905   2.0905   2.3255   2.3255   2.6011   2.6011   2.6608   2.6608
     2.8990   2.8990   2.9611   2.9611   3.2058   3.2059   3.4432   3.4433
     3.6440   3.6440   3.7170   3.7170   3.8331   3.8331   3.9030   3.9030
     3.9514   3.9514   4.0296   4.0296   4.1969   4.1969   4.2942   4.2942
     4.4605   4.4605   4.5101   4.5101   4.5514   4.5515   4.6174   4.6174
     4.6590   4.6590   4.7389   4.7389   4.8218   4.8218   4.9256   4.9256
     5.1237   5.1237   5.1596   5.1596   5.2373   5.2373   5.2895   5.2895
     5.3574   5.3574   5.4515   5.4515   5.4802   5.4803   5.5877   5.5878
     5.6372   5.6373   5.8021   5.8022   5.8217   5.8218   5.9453   5.9453
     5.9850   5.9850   6.1078   6.1078   6.1975   6.1975   6.2747   6.2747
     6.3072   6.3073   6.5415   6.5416   6.5810   6.5811   6.6320   6.6320
     6.6986   6.6987   6.7475   6.7475   6.8447   6.8447   6.8928   6.8928
     6.9304   6.9305   7.0449   7.0449   7.1498   7.1498   7.2356   7.2357
     7.2825   7.2825   7.4007   7.4007   7.4926   7.4927   7.5925   7.5926
     7.7932   7.7932   7.9317   7.9317   8.0171   8.0172   8.1120   8.1121
     8.1771   8.1771   8.2787   8.2787   8.4642   8.4642   8.6689   8.6689
     8.9866   8.9866   9.1022   9.1022   9.2628   9.2628   9.4262   9.4262
     9.4933   9.4933   9.7393   9.7393   9.8823   9.8824  10.4505  10.4506

          k = 0.0833 0.4330 0.0000 ( 67726 PWs)   bands (ev):

   -87.9127 -87.9127 -87.9124 -87.9124 -87.8888 -87.8888 -87.8885 -87.8885
   -87.8754 -87.8754 -87.8751 -87.8751 -87.3688 -87.3688 -87.3687 -87.3687
   -67.1132 -67.1132 -67.1130 -67.1130 -66.7656 -66.7656 -66.7288 -66.7288
   -66.6908 -66.6908 -66.6892 -66.6892 -52.4672 -52.4670 -52.4669 -52.4666
   -52.4372 -52.4369 -52.4369 -52.4366 -52.3871 -52.3869 -52.3866 -52.3864
   -51.9039 -51.9039 -51.9037 -51.9037 -50.7078 -50.7075 -50.7062 -50.7059
   -50.6515 -50.6512 -50.6505 -50.6502 -50.5899 -50.5897 -50.5892 -50.5890
   -50.5353 -50.5351 -50.5325 -50.5323 -50.5134 -50.5132 -50.5111 -50.5109
   -50.4770 -50.4768 -50.4765 -50.4762 -50.0572 -50.0571 -50.0570 -50.0570
   -50.0520 -50.0520 -50.0516 -50.0515 -38.4980 -38.4980 -38.4941 -38.4941
   -38.2352 -38.2352 -38.1922 -38.1922 -38.1280 -38.1280 -38.0576 -38.0576
   -28.9249 -28.9249 -28.7786 -28.7785 -28.6928 -28.6928 -28.6556 -28.6555
   -28.6472 -28.6471 -28.5818 -28.5818 -28.5049 -28.5049 -28.4229 -28.4229
   -28.3316 -28.3316 -28.2473 -28.2473 -28.0963 -28.0963 -28.0081 -28.0081
    -0.2193  -0.2193   0.8962   0.8962   1.5858   1.5858   1.6080   1.6080
     1.9731   1.9732   2.1323   2.1323   2.7142   2.7143   2.7579   2.7579
     2.9244   2.9244   2.9798   2.9799   3.3522   3.3523   3.5181   3.5181
     3.6649   3.6649   3.7625   3.7625   3.8537   3.8538   3.9046   3.9046
     3.9976   3.9976   4.0757   4.0757   4.1884   4.1884   4.2726   4.2726
     4.3556   4.3556   4.4610   4.4610   4.5332   4.5332   4.5806   4.5806
     4.6287   4.6288   4.6508   4.6508   4.7755   4.7755   4.9065   4.9065
     5.0025   5.0025   5.0621   5.0621   5.1741   5.1741   5.2215   5.2215
     5.2489   5.2489   5.2984   5.2984   5.3510   5.3510   5.4588   5.4588
     5.5688   5.5688   5.7886   5.7887   5.8359   5.8359   5.8840   5.8840
     6.0107   6.0108   6.0966   6.0966   6.1922   6.1922   6.2857   6.2858
     6.3590   6.3591   6.4683   6.4683   6.5817   6.5818   6.6368   6.6368
     6.6649   6.6650   6.7947   6.7947   6.8508   6.8508   6.8799   6.8799
     6.9623   6.9623   7.0836   7.0836   7.1950   7.1951   7.2579   7.2580
     7.3606   7.3606   7.4156   7.4156   7.5145   7.5145   7.5886   7.5886
     7.7694   7.7694   7.8461   7.8461   7.9597   7.9597   8.0716   8.0716
     8.2143   8.2143   8.3668   8.3668   8.4985   8.4985   8.8179   8.8179
     8.9969   8.9969   9.0823   9.0823   9.2202   9.2203   9.3058   9.3058
     9.4106   9.4106   9.8921   9.8921  10.0675  10.0675  10.2334  10.2335

          k = 0.0833 0.5292 0.0000 ( 67734 PWs)   bands (ev):

   -87.9092 -87.9092 -87.9089 -87.9089 -87.8923 -87.8923 -87.8921 -87.8920
   -87.8754 -87.8754 -87.8751 -87.8751 -87.3688 -87.3688 -87.3687 -87.3687
   -67.1132 -67.1132 -67.1130 -67.1130 -66.7630 -66.7630 -66.7259 -66.7259
   -66.6961 -66.6961 -66.6896 -66.6896 -52.4668 -52.4665 -52.4664 -52.4662
   -52.4287 -52.4285 -52.4284 -52.4282 -52.3945 -52.3943 -52.3941 -52.3940
   -51.9039 -51.9038 -51.9038 -51.9038 -50.7044 -50.7042 -50.7031 -50.7028
   -50.6393 -50.6390 -50.6384 -50.6381 -50.5954 -50.5952 -50.5945 -50.5942
   -50.5358 -50.5356 -50.5341 -50.5339 -50.5227 -50.5224 -50.5201 -50.5198
   -50.4785 -50.4782 -50.4780 -50.4777 -50.0572 -50.0571 -50.0570 -50.0570
   -50.0519 -50.0519 -50.0516 -50.0516 -38.4979 -38.4979 -38.4941 -38.4941
   -38.2354 -38.2354 -38.1822 -38.1822 -38.1126 -38.1126 -38.0836 -38.0836
   -28.9258 -28.9258 -28.7782 -28.7782 -28.6969 -28.6969 -28.6556 -28.6556
   -28.6452 -28.6452 -28.5633 -28.5633 -28.4987 -28.4987 -28.4237 -28.4237
   -28.3364 -28.3364 -28.2527 -28.2527 -28.1016 -28.1016 -28.0146 -28.0146
     0.3994   0.3994   1.0478   1.0478   1.3164   1.3164   1.6810   1.6810
     1.7872   1.7872   1.8717   1.8717   2.7323   2.7323   2.7873   2.7873
     2.9795   2.9795   3.1126   3.1126   3.4551   3.4551   3.5890   3.5891
     3.7409   3.7409   3.8085   3.8085   3.8285   3.8285   3.8792   3.8792
     3.9529   3.9529   4.0388   4.0388   4.1434   4.1434   4.2972   4.2972
     4.3799   4.3799   4.4292   4.4292   4.5294   4.5295   4.5834   4.5835
     4.6125   4.6126   4.6775   4.6775   4.7647   4.7647   4.8347   4.8347
     4.8759   4.8759   5.0108   5.0108   5.0722   5.0722   5.1042   5.1042
     5.1651   5.1651   5.2572   5.2572   5.3126   5.3126   5.3505   5.3505
     5.6322   5.6323   5.7345   5.7345   5.8388   5.8389   5.8864   5.8865
     6.0416   6.0416   6.1072   6.1072   6.2405   6.2405   6.3252   6.3252
     6.3459   6.3459   6.4600   6.4600   6.5386   6.5388   6.5686   6.5687
     6.7021   6.7021   6.8012   6.8012   6.8241   6.8241   6.8798   6.8799
     6.9999   6.9999   7.1173   7.1173   7.2048   7.2048   7.2959   7.2959
     7.3894   7.3895   7.4464   7.4464   7.4951   7.4951   7.6144   7.6145
     7.7188   7.7188   7.8066   7.8067   7.9172   7.9173   8.0393   8.0393
     8.1837   8.1837   8.4600   8.4600   8.5783   8.5783   8.7834   8.7835
     8.8714   8.8714   8.9894   8.9894   9.1988   9.1988   9.2828   9.2828
     9.4251   9.4252   9.9584   9.9584  10.1275  10.1275  10.5335  10.5336

          k = 0.1667 0.2887 0.0000 ( 67694 PWs)   bands (ev):

   -87.9176 -87.9176 -87.9174 -87.9174 -87.8838 -87.8838 -87.8836 -87.8836
   -87.8754 -87.8754 -87.8751 -87.8751 -87.3688 -87.3688 -87.3687 -87.3687
   -67.1132 -67.1132 -67.1130 -67.1130 -66.7710 -66.7710 -66.7316 -66.7316
   -66.6896 -66.6896 -66.6820 -66.6820 -52.4681 -52.4679 -52.4677 -52.4674
   -52.4493 -52.4490 -52.4489 -52.4486 -52.3770 -52.3768 -52.3766 -52.3764
   -51.9039 -51.9039 -51.9037 -51.9036 -50.7146 -50.7143 -50.7127 -50.7124
   -50.6681 -50.6679 -50.6667 -50.6665 -50.5851 -50.5850 -50.5849 -50.5848
   -50.5324 -50.5321 -50.5292 -50.5289 -50.4977 -50.4974 -50.4956 -50.4954
   -50.4739 -50.4737 -50.4732 -50.4730 -50.0572 -50.0571 -50.0570 -50.0570
   -50.0521 -50.0521 -50.0516 -50.0515 -38.4980 -38.4980 -38.4942 -38.4942
   -38.2349 -38.2349 -38.2094 -38.2094 -38.1395 -38.1395 -38.0273 -38.0273
   -28.9234 -28.9234 -28.7781 -28.7781 -28.6772 -28.6772 -28.6658 -28.6658
   -28.6526 -28.6526 -28.6053 -28.6053 -28.5088 -28.5088 -28.4122 -28.4122
   -28.3539 -28.3539 -28.2531 -28.2531 -28.0644 -28.0644 -27.9948 -27.9948
    -0.8624  -0.8624   0.4605   0.4605   1.5273   1.5273   2.0014   2.0014
     2.1051   2.1051   2.4023   2.4023   2.5071   2.5071   2.5964   2.5964
     2.9266   2.9266   3.0387   3.0387   3.2497   3.2497   3.4043   3.4043
     3.6148   3.6149   3.7013   3.7013   3.8457   3.8457   3.8701   3.8701
     3.9414   3.9414   4.0459   4.0459   4.1082   4.1083   4.2837   4.2837
     4.4841   4.4842   4.5113   4.5113   4.5662   4.5662   4.6424   4.6425
     4.7148   4.7149   4.7786   4.7787   4.7976   4.7977   4.9563   4.9563
     5.1141   5.1141   5.1673   5.1673   5.2211   5.2211   5.3027   5.3027
     5.3781   5.3781   5.4585   5.4585   5.5107   5.5107   5.6340   5.6340
     5.6960   5.6960   5.7325   5.7325   5.8103   5.8104   5.9178   5.9178
     6.0019   6.0019   6.0919   6.0919   6.2046   6.2046   6.2949   6.2950
     6.3536   6.3536   6.5358   6.5359   6.5780   6.5780   6.6506   6.6506
     6.6934   6.6935   6.7771   6.7771   6.8152   6.8152   6.8655   6.8656
     6.9363   6.9364   7.0571   7.0571   7.1126   7.1127   7.2687   7.2687
     7.3038   7.3038   7.3534   7.3534   7.4825   7.4826   7.6079   7.6079
     7.8292   7.8292   7.9676   7.9676   8.0419   8.0419   8.0687   8.0688
     8.2261   8.2261   8.2760   8.2760   8.4465   8.4465   8.6653   8.6654
     8.8236   8.8237   9.0655   9.0655   9.3255   9.3255   9.3861   9.3861
     9.5336   9.5336   9.6198   9.6198   9.9082   9.9082  10.4820  10.4821

          k = 0.1667 0.3849 0.0000 ( 67680 PWs)   bands (ev):

   -87.9135 -87.9135 -87.9132 -87.9132 -87.8880 -87.8880 -87.8878 -87.8878
   -87.8754 -87.8754 -87.8751 -87.8751 -87.3688 -87.3688 -87.3687 -87.3687
   -67.1132 -67.1132 -67.1130 -67.1130 -66.7665 -66.7665 -66.7289 -66.7289
   -66.6902 -66.6902 -66.6887 -66.6887 -52.4672 -52.4669 -52.4666 -52.4664
   -52.4395 -52.4392 -52.4391 -52.4388 -52.3854 -52.3852 -52.3849 -52.3847
   -51.9039 -51.9039 -51.9037 -51.9037 -50.7083 -50.7081 -50.7059 -50.7057
   -50.6563 -50.6561 -50.6546 -50.6543 -50.5878 -50.5876 -50.5873 -50.5871
   -50.5356 -50.5353 -50.5326 -50.5324 -50.5091 -50.5089 -50.5063 -50.5061
   -50.4785 -50.4783 -50.4776 -50.4773 -50.0572 -50.0572 -50.0570 -50.0570
   -50.0521 -50.0520 -50.0515 -50.0515 -38.4980 -38.4980 -38.4941 -38.4941
   -38.2352 -38.2352 -38.1929 -38.1929 -38.1333 -38.1333 -38.0514 -38.0514
   -28.9254 -28.9254 -28.7762 -28.7762 -28.6785 -28.6785 -28.6571 -28.6571
   -28.6493 -28.6493 -28.5991 -28.5991 -28.5083 -28.5083 -28.4157 -28.4157
   -28.3440 -28.3440 -28.2404 -28.2404 -28.0949 -28.0949 -28.0027 -28.0027
    -0.3604  -0.3604   0.8081   0.8081   1.5930   1.5930   1.7574   1.7574
     1.9972   1.9972   2.2909   2.2909   2.5849   2.5849   2.6846   2.6846
     2.9447   2.9447   2.9938   2.9938   3.3808   3.3808   3.5398   3.5398
     3.6303   3.6303   3.7257   3.7257   3.8513   3.8514   3.8897   3.8898
     3.9414   3.9414   4.0246   4.0246   4.1168   4.1169   4.3303   4.3303
     4.4236   4.4236   4.4666   4.4667   4.5087   4.5088   4.5510   4.5510
     4.6515   4.6515   4.6884   4.6885   4.8025   4.8025   4.9119   4.9119
     5.0105   5.0105   5.0509   5.0510   5.1850   5.1850   5.2666   5.2667
     5.2856   5.2856   5.3437   5.3438   5.4217   5.4218   5.5041   5.5041
     5.6056   5.6057   5.7246   5.7246   5.8151   5.8151   5.8791   5.8791
     5.9414   5.9415   6.0759   6.0759   6.1677   6.1677   6.3077   6.3077
     6.4050   6.4051   6.5281   6.5282   6.5728   6.5728   6.6696   6.6696
     6.6994   6.6994   6.7768   6.7768   6.8139   6.8139   6.8739   6.8740
     6.9938   6.9938   7.0850   7.0850   7.1513   7.1513   7.2380   7.2380
     7.3500   7.3501   7.4060   7.4060   7.4338   7.4338   7.6186   7.6186
     7.8572   7.8572   7.9120   7.9121   8.0245   8.0246   8.0530   8.0531
     8.1833   8.1834   8.3326   8.3326   8.5745   8.5745   8.8056   8.8056
     8.8703   8.8703   9.0495   9.0495   9.2064   9.2064   9.2942   9.2942
     9.5070   9.5070   9.6589   9.6590   9.8249   9.8249  10.3096  10.3096

          k = 0.1667 0.4811 0.0000 ( 67727 PWs)   bands (ev):

   -87.9092 -87.9092 -87.9089 -87.9089 -87.8923 -87.8923 -87.8920 -87.8920
   -87.8754 -87.8754 -87.8751 -87.8751 -87.3688 -87.3688 -87.3687 -87.3687
   -67.1132 -67.1132 -67.1130 -67.1130 -66.7634 -66.7634 -66.7249 -66.7249
   -66.6966 -66.6966 -66.6896 -66.6896 -52.4665 -52.4663 -52.4659 -52.4657
   -52.4295 -52.4293 -52.4291 -52.4288 -52.3942 -52.3940 -52.3938 -52.3936
   -51.9039 -51.9039 -51.9038 -51.9037 -50.7038 -50.7035 -50.7012 -50.7010
   -50.6442 -50.6440 -50.6425 -50.6423 -50.5922 -50.5919 -50.5909 -50.5907
   -50.5375 -50.5372 -50.5354 -50.5351 -50.5195 -50.5192 -50.5158 -50.5155
   -50.4811 -50.4809 -50.4802 -50.4799 -50.0572 -50.0572 -50.0570 -50.0569
   -50.0521 -50.0520 -50.0515 -50.0515 -38.4979 -38.4979 -38.4941 -38.4941
   -38.2354 -38.2354 -38.1778 -38.1778 -38.1239 -38.1239 -38.0767 -38.0767
   -28.9269 -28.9269 -28.7745 -28.7745 -28.6823 -28.6823 -28.6558 -28.6558
   -28.6448 -28.6448 -28.5795 -28.5795 -28.5044 -28.5044 -28.4177 -28.4177
   -28.3541 -28.3541 -28.2397 -28.2397 -28.1045 -28.1045 -28.0087 -28.0087
     0.2140   0.2140   1.1786   1.1786   1.3847   1.3847   1.6354   1.6354
     1.9122   1.9122   2.0560   2.0560   2.6132   2.6132   2.7655   2.7655
     2.8852   2.8852   3.0186   3.0186   3.4775   3.4775   3.5756   3.5757
     3.7244   3.7244   3.8076   3.8076   3.8416   3.8417   3.9182   3.9183
     3.9657   3.9657   4.0313   4.0313   4.1863   4.1863   4.2729   4.2729
     4.3670   4.3671   4.4283   4.4284   4.4722   4.4723   4.5628   4.5629
     4.5989   4.5990   4.6109   4.6109   4.7676   4.7676   4.8364   4.8364
     4.8890   4.8890   5.0214   5.0215   5.0539   5.0539   5.1831   5.1831
     5.2296   5.2296   5.3208   5.3208   5.3604   5.3604   5.4595   5.4595
     5.5967   5.5967   5.7411   5.7411   5.7977   5.7978   5.8896   5.8897
     5.9800   5.9800   6.0674   6.0674   6.1624   6.1624   6.3256   6.3257
     6.3991   6.3991   6.4731   6.4731   6.5762   6.5763   6.6058   6.6059
     6.7313   6.7313   6.8240   6.8241   6.8493   6.8493   6.8792   6.8792
     7.0270   7.0270   7.0775   7.0775   7.1549   7.1549   7.2368   7.2368
     7.3534   7.3534   7.4134   7.4134   7.4915   7.4915   7.5584   7.5584
     7.7235   7.7236   7.8362   7.8362   7.9935   7.9935   8.0861   8.0861
     8.1854   8.1854   8.3875   8.3875   8.6785   8.6786   8.7482   8.7482
     8.8300   8.8300   8.9715   8.9715   9.0691   9.0691   9.4039   9.4039
     9.4651   9.4651   9.7474   9.7474  10.0670  10.0670  10.2109  10.2109

          k = 0.1667 0.5774 0.0000 ( 67726 PWs)   bands (ev):

   -87.9069 -87.9069 -87.9067 -87.9067 -87.8946 -87.8946 -87.8943 -87.8943
   -87.8754 -87.8754 -87.8751 -87.8751 -87.3688 -87.3688 -87.3687 -87.3687
   -67.1132 -67.1132 -67.1130 -67.1130 -66.7623 -66.7623 -66.7224 -66.7224
   -66.7002 -66.7002 -66.6896 -66.6896 -52.4663 -52.4660 -52.4657 -52.4654
   -52.4242 -52.4239 -52.4238 -52.4235 -52.3990 -52.3989 -52.3987 -52.3986
   -51.9039 -51.9038 -51.9038 -51.9038 -50.7021 -50.7019 -50.6995 -50.6993
   -50.6384 -50.6381 -50.6368 -50.6366 -50.5950 -50.5947 -50.5932 -50.5930
   -50.5379 -50.5376 -50.5364 -50.5361 -50.5239 -50.5236 -50.5196 -50.5194
   -50.4819 -50.4817 -50.4810 -50.4808 -50.0572 -50.0572 -50.0570 -50.0569
   -50.0520 -50.0520 -50.0515 -50.0515 -38.4979 -38.4979 -38.4941 -38.4941
   -38.2355 -38.2355 -38.1714 -38.1714 -38.1141 -38.1141 -38.0932 -38.0932
   -28.9274 -28.9274 -28.7739 -28.7739 -28.6839 -28.6839 -28.6557 -28.6557
   -28.6440 -28.6439 -28.5685 -28.5685 -28.5001 -28.5001 -28.4175 -28.4175
   -28.3666 -28.3666 -28.2402 -28.2402 -28.1043 -28.1043 -28.0111 -28.0111
     0.7237   0.7237   0.9074   0.9074   1.4787   1.4787   1.6325   1.6325
     1.8221   1.8222   1.9184   1.9184   2.6060   2.6060   2.7921   2.7921
     2.8487   2.8487   3.0624   3.0624   3.5023   3.5023   3.5920   3.5920
     3.7482   3.7482   3.8777   3.8778   3.8959   3.8959   3.9212   3.9212
     3.9715   3.9715   4.0099   4.0099   4.1428   4.1428   4.3221   4.3221
     4.3565   4.3565   4.3927   4.3927   4.4319   4.4319   4.5196   4.5196
     4.5960   4.5960   4.6407   4.6407   4.7101   4.7101   4.8303   4.8303
     4.8376   4.8376   4.9706   4.9707   5.0531   5.0531   5.1260   5.1260
     5.2071   5.2071   5.3292   5.3292   5.3759   5.3759   5.4042   5.4042
     5.6063   5.6063   5.7292   5.7292   5.8417   5.8417   5.8840   5.8841
     6.0237   6.0237   6.0600   6.0600   6.1722   6.1722   6.3132   6.3132
     6.4237   6.4238   6.4431   6.4431   6.5225   6.5226   6.5864   6.5864
     6.8126   6.8126   6.8334   6.8334   6.8742   6.8743   6.9060   6.9060
     6.9478   6.9478   7.0490   7.0490   7.1562   7.1562   7.2801   7.2801
     7.3258   7.3258   7.4223   7.4224   7.4615   7.4615   7.5628   7.5629
     7.6650   7.6650   7.7927   7.7927   8.0342   8.0343   8.1121   8.1121
     8.1338   8.1338   8.4484   8.4485   8.6287   8.6288   8.7021   8.7022
     8.8605   8.8605   8.9548   8.9548   8.9884   8.9884   9.3664   9.3664
     9.5610   9.5610   9.7956   9.7956  10.0329  10.0329  10.4552  10.4555

          k = 0.2500 0.4330 0.0000 ( 67668 PWs)   bands (ev):

   -87.9092 -87.9092 -87.9089 -87.9089 -87.8923 -87.8923 -87.8920 -87.8920
   -87.8754 -87.8754 -87.8751 -87.8751 -87.3688 -87.3688 -87.3687 -87.3687
   -67.1132 -67.1132 -67.1130 -67.1130 -66.7636 -66.7636 -66.7244 -66.7244
   -66.6969 -66.6969 -66.6896 -66.6896 -52.4664 -52.4661 -52.4657 -52.4654
   -52.4299 -52.4296 -52.4294 -52.4292 -52.3940 -52.3938 -52.3936 -52.3934
   -51.9039 -51.9039 -51.9038 -51.9037 -50.7033 -50.7031 -50.7003 -50.7000
   -50.6466 -50.6463 -50.6445 -50.6442 -50.5906 -50.5904 -50.5894 -50.5892
   -50.5381 -50.5379 -50.5359 -50.5357 -50.5177 -50.5175 -50.5137 -50.5134
   -50.4826 -50.4824 -50.4814 -50.4812 -50.0572 -50.0572 -50.0570 -50.0569
   -50.0521 -50.0520 -50.0515 -50.0514 -38.4979 -38.4979 -38.4941 -38.4941
   -38.2354 -38.2354 -38.1750 -38.1750 -38.1292 -38.1292 -38.0742 -38.0742
   -28.9274 -28.9274 -28.7729 -28.7729 -28.6719 -28.6719 -28.6561 -28.6561
   -28.6442 -28.6442 -28.5912 -28.5912 -28.5064 -28.5064 -28.4142 -28.4142
   -28.3621 -28.3621 -28.2346 -28.2346 -28.1058 -28.1058 -28.0058 -28.0058
     0.1480   0.1480   1.1537   1.1537   1.5583   1.5584   1.5666   1.5666
     1.9442   1.9442   2.1906   2.1906   2.5234   2.5234   2.7488   2.7488
     2.8444   2.8445   2.9600   2.9600   3.5066   3.5066   3.5701   3.5702
     3.7386   3.7386   3.7944   3.7944   3.8753   3.8754   3.9008   3.9008
     3.9569   3.9569   3.9987   3.9988   4.1460   4.1460   4.3218   4.3218
     4.3655   4.3656   4.4376   4.4377   4.4935   4.4935   4.5456   4.5457
     4.5666   4.5666   4.6660   4.6661   4.7126   4.7126   4.8124   4.8124
     4.9060   4.9061   5.0275   5.0275   5.0501   5.0501   5.1893   5.1893
     5.2693   5.2693   5.3065   5.3065   5.4299   5.4299   5.4804   5.4804
     5.6504   5.6504   5.7053   5.7053   5.7734   5.7735   5.8612   5.8613
     5.9730   5.9730   6.0618   6.0619   6.1354   6.1354   6.3112   6.3112
     6.4041   6.4041   6.5407   6.5408   6.5585   6.5585   6.6313   6.6313
     6.7262   6.7262   6.8035   6.8035   6.8473   6.8473   6.8876   6.8876
     7.0354   7.0354   7.0967   7.0968   7.1292   7.1292   7.2376   7.2376
     7.2884   7.2884   7.4195   7.4195   7.4754   7.4754   7.5933   7.5933
     7.7377   7.7378   7.9278   7.9278   7.9965   7.9965   8.0800   8.0801
     8.1841   8.1842   8.3077   8.3078   8.6069   8.6069   8.7308   8.7308
     8.7899   8.7899   8.9728   8.9728   9.0869   9.0869   9.4641   9.4641
     9.5609   9.5609   9.7715   9.7715   9.8169   9.8169  10.1351  10.1351

          k = 0.2500 0.5292 0.0000 ( 67663 PWs)   bands (ev):

   -87.9051 -87.9051 -87.9049 -87.9049 -87.8964 -87.8964 -87.8961 -87.8961
   -87.8754 -87.8754 -87.8751 -87.8751 -87.3688 -87.3688 -87.3687 -87.3687
   -67.1132 -67.1132 -67.1130 -67.1130 -66.7621 -66.7621 -66.7190 -66.7190
   -66.7039 -66.7039 -66.6896 -66.6896 -52.4659 -52.4656 -52.4651 -52.4649
   -52.4209 -52.4206 -52.4204 -52.4201 -52.4025 -52.4023 -52.4022 -52.4020
   -51.9039 -51.9038 -51.9038 -51.9038 -50.7003 -50.7001 -50.6968 -50.6966
   -50.6398 -50.6396 -50.6379 -50.6376 -50.5931 -50.5928 -50.5909 -50.5907
   -50.5395 -50.5393 -50.5382 -50.5379 -50.5233 -50.5231 -50.5183 -50.5181
   -50.4849 -50.4846 -50.4836 -50.4834 -50.0573 -50.0572 -50.0569 -50.0569
   -50.0521 -50.0521 -50.0515 -50.0514 -38.4979 -38.4979 -38.4941 -38.4941
   -38.2356 -38.2356 -38.1596 -38.1596 -38.1260 -38.1260 -38.0934 -38.0934
   -28.9286 -28.9286 -28.7710 -28.7710 -28.6699 -28.6699 -28.6556 -28.6555
   -28.6411 -28.6411 -28.5785 -28.5785 -28.5007 -28.5007 -28.4135 -28.4135
   -28.3894 -28.3894 -28.2316 -28.2316 -28.1059 -28.1059 -28.0076 -28.0076
     0.6800   0.6800   1.1935   1.1935   1.4548   1.4548   1.5172   1.5172
     2.0064   2.0064   2.0687   2.0687   2.4543   2.4544   2.6553   2.6553
     2.7974   2.7974   2.9514   2.9514   3.5426   3.5427   3.5789   3.5789
     3.7796   3.7796   3.8521   3.8521   3.9391   3.9392   3.9721   3.9721
     3.9856   3.9856   4.0780   4.0780   4.1847   4.1847   4.2371   4.2371
     4.3531   4.3532   4.3873   4.3873   4.4272   4.4272   4.5138   4.5138
     4.5506   4.5507   4.6187   4.6187   4.6581   4.6582   4.7565   4.7565
     4.8197   4.8197   4.9722   4.9722   5.0603   5.0603   5.1236   5.1236
     5.2414   5.2414   5.3283   5.3283   5.4557   5.4557   5.5076   5.5076
     5.6496   5.6496   5.7353   5.7353   5.8105   5.8105   5.9086   5.9086
     5.9897   5.9897   6.0624   6.0625   6.1198   6.1198   6.2827   6.2827
     6.3558   6.3558   6.4894   6.4894   6.5549   6.5550   6.6144   6.6144
     6.6964   6.6964   6.7978   6.7978   6.9003   6.9004   6.9633   6.9633
     7.0143   7.0143   7.0907   7.0907   7.1589   7.1590   7.1917   7.1917
     7.3119   7.3120   7.4024   7.4024   7.4487   7.4487   7.5219   7.5219
     7.6493   7.6493   7.8702   7.8703   8.0772   8.0772   8.1428   8.1428
     8.1899   8.1899   8.3076   8.3076   8.4368   8.4369   8.6065   8.6065
     8.6729   8.6729   8.8793   8.8793   9.2023   9.2023   9.5627   9.5627
     9.6837   9.6837   9.7494   9.7494  10.0527  10.0527  10.1733  10.1733

          k = 0.3333 0.5774 0.0000 ( 67692 PWs)   bands (ev):

   -87.9009 -87.9009 -87.9007 -87.9007 -87.9006 -87.9006 -87.9003 -87.9003
   -87.8754 -87.8754 -87.8751 -87.8751 -87.3688 -87.3688 -87.3687 -87.3687
   -67.1133 -67.1133 -67.1130 -67.1130 -66.7617 -66.7617 -66.7116 -66.7116
   -66.7116 -66.7116 -66.6896 -66.6896 -52.4656 -52.4654 -52.4648 -52.4646
   -52.4131 -52.4128 -52.4115 -52.4113 -52.4110 -52.4108 -52.4101 -52.4099
   -51.9039 -51.9039 -51.9038 -51.9038 -50.6989 -50.6987 -50.6950 -50.6948
   -50.6385 -50.6383 -50.6366 -50.6364 -50.5930 -50.5928 -50.5905 -50.5902
   -50.5403 -50.5401 -50.5394 -50.5392 -50.5246 -50.5244 -50.5191 -50.5189
   -50.4864 -50.4861 -50.4851 -50.4848 -50.0573 -50.0573 -50.0569 -50.0569
   -50.0521 -50.0521 -50.0515 -50.0514 -38.4979 -38.4979 -38.4941 -38.4941
   -38.2356 -38.2356 -38.1419 -38.1419 -38.1381 -38.1381 -38.0991 -38.0991
   -28.9292 -28.9292 -28.7697 -28.7697 -28.6654 -28.6654 -28.6551 -28.6551
   -28.6382 -28.6382 -28.5778 -28.5778 -28.4967 -28.4967 -28.4128 -28.4128
   -28.4079 -28.4079 -28.2282 -28.2282 -28.1056 -28.1056 -28.0069 -28.0069
     1.0490   1.0490   1.1411   1.1411   1.1986   1.1986   1.6323   1.6323
     2.0702   2.0702   2.2095   2.2096   2.3447   2.3448   2.4362   2.4362
     2.8096   2.8096   2.9096   2.9096   3.5651   3.5652   3.5705   3.5706
     3.8143   3.8144   3.8231   3.8231   3.9831   3.9831   4.0024   4.0024
     4.0624   4.0625   4.0679   4.0680   4.1679   4.1679   4.3282   4.3283
     4.3453   4.3454   4.3654   4.3654   4.4068   4.4069   4.4832   4.4832
     4.5271   4.5271   4.5558   4.5559   4.5730   4.5730   4.7183   4.7183
     4.8945   4.8945   4.9617   4.9617   4.9700   4.9700   5.1706   5.1707
     5.2156   5.2158   5.3377   5.3377   5.4862   5.4862   5.5451   5.5452
     5.6905   5.6905   5.7444   5.7446   5.8414   5.8415   5.9243   5.9244
     6.0007   6.0008   6.0949   6.0949   6.1288   6.1289   6.2067   6.2067
     6.3327   6.3327   6.4539   6.4539   6.5408   6.5408   6.5690   6.5691
     6.6247   6.6247   6.7811   6.7811   6.9295   6.9296   7.0499   7.0500
     7.0996   7.0996   7.1018   7.1018   7.1554   7.1554   7.1857   7.1857
     7.2545   7.2545   7.3287   7.3287   7.4452   7.4452   7.5787   7.5788
     7.6039   7.6039   7.9032   7.9032   8.0887   8.0887   8.1672   8.1673
     8.2465   8.2465   8.2830   8.2830   8.2965   8.2965   8.4259   8.4260
     8.5797   8.5797   8.8446   8.8446   9.4130   9.4130   9.5233   9.5233
     9.6985   9.6985   9.8181   9.8181  10.0897  10.0897  10.3419  10.3420

     the Fermi energy is     7.1030 ev

!    total energy              =   -3375.24840445 Ry
     estimated scf accuracy    <       0.00000059 Ry

     The total energy is the sum of the following terms:
     one-electron contribution =  -17699.30788415 Ry
     hartree contribution      =    8892.33911890 Ry
     xc contribution           =    -649.67918056 Ry
     ewald contribution        =    6081.39954136 Ry

     convergence has been achieved in  20 iterations
 
     init_run     :     36.01s CPU     43.25s WALL (       1 calls)
     electrons    :   2712.62s CPU   3250.18s WALL (       1 calls)

     Called by init_run:
     wfcinit      :     34.92s CPU     41.97s WALL (       1 calls)
     potinit      :      0.54s CPU      0.58s WALL (       1 calls)
     hinit0       :      0.39s CPU      0.41s WALL (       1 calls)

     Called by electrons:
     c_bands      :   2193.66s CPU   2459.32s WALL (      20 calls)
     sum_band     :    351.43s CPU    545.19s WALL (      20 calls)
     v_of_rho     :      3.55s CPU      3.92s WALL (      21 calls)
     mix_rho      :    146.35s CPU    160.75s WALL (      20 calls)

     Called by c_bands:
     init_us_2    :      5.27s CPU      5.30s WALL (     205 calls)
     cegterg      :   1466.21s CPU   1680.08s WALL (     100 calls)

     Called by sum_band:

     Called by *egterg:
     h_psi        :   1156.59s CPU   1366.17s WALL (     305 calls)
     g_psi        :      2.00s CPU      2.01s WALL (     200 calls)
     cdiaghg      :     41.20s CPU     41.34s WALL (     300 calls)

     Called by h_psi:
     h_psi:calbec :    129.17s CPU    129.56s WALL (     305 calls)
     vloc_psi     :    895.72s CPU   1098.59s WALL (     305 calls)
     add_vuspsi   :    128.45s CPU    128.50s WALL (     305 calls)

     General routines
     calbec       :    129.16s CPU    129.56s WALL (     305 calls)
     fft          :      1.96s CPU      2.50s WALL (     270 calls)
     ffts         :     47.24s CPU     61.36s WALL (    6531 calls)
     fftw         :    932.93s CPU   1177.89s WALL (  277092 calls)
 
     Parallel routines
     fft_scatt_xy :    208.38s CPU    211.20s WALL (  283893 calls)
     fft_scatt_yz :    183.27s CPU    422.52s WALL (  283893 calls)
 
     PWSCF        :  46m 1.77s CPU  55m 6.81s WALL

 
   This run was terminated on:  14:17:18   4May2020            

=------------------------------------------------------------------------------=
   JOB DONE.
=------------------------------------------------------------------------------=
