
     Program PWSCF v.6.5 starts on  7May2020 at 19:56:53 

     This program is part of the open-source Quantum ESPRESSO suite
     for quantum simulation of materials; please cite
         "P. Giannozzi et al., J. Phys.:Condens. Matter 21 395502 (2009);
         "P. Giannozzi et al., J. Phys.:Condens. Matter 29 465901 (2017);
          URL http://www.quantum-espresso.org", 
     in publications or presentations arising from this work. More details at
     http://www.quantum-espresso.org/quote

     Parallel version (MPI), running on    64 processors

     MPI processes distributed on     2 nodes
     K-points division:     npool     =       4
     R & G space division:  proc/nbgrp/npool/nimage =      16
     Fft bands division:     nmany     =       1
     Reading input from i_2.fix2.vacuum25.forces.in

     Current dimensions of program PWSCF are:
     Max number of different atomic species (ntypx) = 10
     Max number of k-points (npk) =  40000
     Max angular momentum in pseudopotentials (lmaxx) =  3

     Subspace diagonalization in iterative solution of the eigenvalue problem:
     a serial algorithm will be used

 
     Parallelization info
     --------------------
     sticks:   dense  smooth     PW     G-vecs:    dense   smooth      PW
     Min         180     180     48                41468    41468    5808
     Max         181     181     49                41485    41485    5829
     Sum        2893    2893    769               663537   663537   93059
 


     bravais-lattice index     =            4
     lattice parameter (alat)  =       8.9709  a.u.
     unit-cell volume          =    3312.1496 (a.u.)^3
     number of atoms/cell      =           13
     number of atomic types    =            2
     number of electrons       =       203.00
     number of Kohn-Sham states=          244
     kinetic-energy cutoff     =     130.0000  Ry
     charge density cutoff     =     520.0000  Ry
     convergence threshold     =      1.0E-06
     mixing beta               =       0.7000
     number of iterations used =            8  local-TF  mixing
     Exchange-correlation= PBE
                           (   1   4   3   4   0   0   0)
     Non magnetic calculation with spin-orbit


     celldm(1)=   8.970926  celldm(2)=   0.000000  celldm(3)=   5.297458
     celldm(4)=   0.000000  celldm(5)=   0.000000  celldm(6)=   0.000000

     crystal axes: (cart. coord. in units of alat)
               a(1) = (   1.000000   0.000000   0.000000 )  
               a(2) = (  -0.500000   0.866025   0.000000 )  
               a(3) = (   0.000000   0.000000   5.297458 )  

     reciprocal axes: (cart. coord. in units 2 pi/alat)
               b(1) = (  1.000000  0.577350  0.000000 )  
               b(2) = (  0.000000  1.154701  0.000000 )  
               b(3) = (  0.000000  0.000000  0.188770 )  


     PseudoPot. # 1 for Co read from file:
     /gpfs/share/home/1600011702/pseudo/Co.nc.fr.pbe.stringent.upf
     MD5 check sum: 5025e55def73e686899be73cabb26c16
     Pseudo is Norm-conserving + core correction, Zval = 17.0
     Generated using ONCVPSP code by D. R. Hamann
     Using radial grid of 1388 points, 10 beta functions with: 
                l(1) =   0
                l(2) =   0
                l(3) =   1
                l(4) =   1
                l(5) =   1
                l(6) =   1
                l(7) =   2
                l(8) =   2
                l(9) =   2
               l(10) =   2

     PseudoPot. # 2 for W  read from file:
     /gpfs/share/home/1600011702/pseudo/W.nc.fr.pbe.stringent.upf
     MD5 check sum: 75b1d432d85d028982bb81b068264ebf
     Pseudo is Norm-conserving + core correction, Zval = 14.0
     Generated using ONCVPSP code by D. R. Hamann
     Using radial grid of 1396 points, 14 beta functions with: 
                l(1) =   0
                l(2) =   0
                l(3) =   1
                l(4) =   1
                l(5) =   1
                l(6) =   1
                l(7) =   2
                l(8) =   2
                l(9) =   2
               l(10) =   2
               l(11) =   3
               l(12) =   3
               l(13) =   3
               l(14) =   3

     atomic species   valence    mass     pseudopotential
        Co            17.00    58.93320     Co( 1.00)
        W             14.00   183.84000     W ( 1.00)

      6 Sym. Ops. (no inversion) found



   Cartesian axes

     site n.     atom                  positions (alat units)
         1           Co  tau(   1) = (   0.5000000   0.5772410   2.7696571  )
         2           Co  tau(   2) = (   0.7499054   0.1443922   2.7696571  )
         3           Co  tau(   3) = (   0.2500946   0.1443922   2.7696571  )
         4           W   tau(   4) = (  -0.0000000   0.5773503   2.5521399  )
         5           W   tau(   5) = (   0.0000000   0.0000000   2.2904769  )
         6           W   tau(   6) = (   0.5000000   0.2886751   2.2776023  )
         7           W   tau(   7) = (  -0.0000000   0.5773503   2.0159392  )
         8           Co  tau(   8) = (   0.5000000   0.5774595   1.7984220  )
         9           Co  tau(   9) = (   0.7500946   0.1442829   1.7984220  )
        10           Co  tau(  10) = (   0.2499054   0.1442829   1.7984220  )
        11           W   tau(  11) = (  -0.0000000   0.5773503   1.4567389  )
        12           Co  tau(  12) = (   0.5000000   0.2886751   1.3848286  )
        13           W   tau(  13) = (   0.0000000   0.0000000   1.3129182  )

     number of k points=    24  Methfessel-Paxton smearing, width (Ry)=  0.0200
                       cart. coord. in units 2pi/alat
        k(    1) = (   0.0000000   0.0000000   0.0000000), wk =   0.0051020
        k(    2) = (   0.0000000   0.0824786   0.0000000), wk =   0.0306122
        k(    3) = (   0.0000000   0.1649572   0.0000000), wk =   0.0306122
        k(    4) = (   0.0000000   0.2474358   0.0000000), wk =   0.0306122
        k(    5) = (   0.0000000   0.3299144   0.0000000), wk =   0.0306122
        k(    6) = (   0.0000000   0.4123930   0.0000000), wk =   0.0306122
        k(    7) = (   0.0000000   0.4948717   0.0000000), wk =   0.0306122
        k(    8) = (   0.0000000  -0.5773503   0.0000000), wk =   0.0153061
        k(    9) = (   0.0714286   0.1237179   0.0000000), wk =   0.0306122
        k(   10) = (   0.0714286   0.2061965   0.0000000), wk =   0.0612245
        k(   11) = (   0.0714286   0.2886751   0.0000000), wk =   0.0612245
        k(   12) = (   0.0714286   0.3711537   0.0000000), wk =   0.0612245
        k(   13) = (   0.0714286   0.4536324   0.0000000), wk =   0.0612245
        k(   14) = (   0.0714286   0.5361110   0.0000000), wk =   0.0612245
        k(   15) = (   0.1428571   0.2474358   0.0000000), wk =   0.0306122
        k(   16) = (   0.1428571   0.3299144   0.0000000), wk =   0.0612245
        k(   17) = (   0.1428571   0.4123930   0.0000000), wk =   0.0612245
        k(   18) = (   0.1428571   0.4948717   0.0000000), wk =   0.0612245
        k(   19) = (   0.1428571   0.5773503   0.0000000), wk =   0.0306122
        k(   20) = (   0.2142857   0.3711537   0.0000000), wk =   0.0306122
        k(   21) = (   0.2142857   0.4536324   0.0000000), wk =   0.0612245
        k(   22) = (   0.2142857   0.5361110   0.0000000), wk =   0.0612245
        k(   23) = (   0.2857143   0.4948717   0.0000000), wk =   0.0306122
        k(   24) = (   0.2857143   0.5773503   0.0000000), wk =   0.0306122

     Dense  grid:   663537 G-vectors     FFT dimensions: (  72,  72, 360)

     Estimated max dynamical RAM per process >     778.98 MB

     Estimated total dynamical RAM >      48.69 GB
     Cannot read rho : file not found

     Initial potential from superposition of free atoms

     starting charge  202.99483, renormalised to  203.00000

     negative rho (up, down):  1.329E-05 0.000E+00
     Message from routine qexsd_readschema :
     xml data file ./r2.save/data-file-schema.xml not found
     Cannot read wfcs: file not found
     Starting wfcs are  260 randomized atomic wfcs

     total cpu time spent up to now is       34.3 secs

     Self-consistent Calculation

     iteration #  1     ecut=   130.00 Ry     beta= 0.70
     Davidson diagonalization with overlap
     ethr =  1.00E-05,  avg # of iterations = 13.0

     negative rho (up, down):  1.369E-08 0.000E+00

     total cpu time spent up to now is      350.8 secs

     total energy              =   -3065.48009729 Ry
     estimated scf accuracy    <      15.11757712 Ry

     iteration #  2     ecut=   130.00 Ry     beta= 0.70
     Davidson diagonalization with overlap
     ethr =  7.45E-03,  avg # of iterations =  2.0

     total cpu time spent up to now is      443.7 secs

     total energy              =   -3065.38171379 Ry
     estimated scf accuracy    <      30.92387981 Ry

     iteration #  3     ecut=   130.00 Ry     beta= 0.70
     Davidson diagonalization with overlap
     ethr =  7.45E-03,  avg # of iterations =  1.1

     total cpu time spent up to now is      532.9 secs

     total energy              =   -3067.34753482 Ry
     estimated scf accuracy    <       2.34631166 Ry

     iteration #  4     ecut=   130.00 Ry     beta= 0.70
     Davidson diagonalization with overlap
     ethr =  1.16E-03,  avg # of iterations =  2.0

     total cpu time spent up to now is      624.6 secs

     total energy              =   -3067.36238928 Ry
     estimated scf accuracy    <       2.55841804 Ry

     iteration #  5     ecut=   130.00 Ry     beta= 0.70
     Davidson diagonalization with overlap
     ethr =  1.16E-03,  avg # of iterations =  1.0

     total cpu time spent up to now is      713.8 secs

     total energy              =   -3067.48670948 Ry
     estimated scf accuracy    <       1.28212628 Ry

     iteration #  6     ecut=   130.00 Ry     beta= 0.70
     Davidson diagonalization with overlap
     ethr =  6.32E-04,  avg # of iterations =  1.0

     total cpu time spent up to now is      801.9 secs

     total energy              =   -3067.46476909 Ry
     estimated scf accuracy    <       0.48978441 Ry

     iteration #  7     ecut=   130.00 Ry     beta= 0.70
     Davidson diagonalization with overlap
     ethr =  2.41E-04,  avg # of iterations =  1.0

     total cpu time spent up to now is      890.9 secs

     total energy              =   -3067.47912862 Ry
     estimated scf accuracy    <       0.16499611 Ry

     iteration #  8     ecut=   130.00 Ry     beta= 0.70
     Davidson diagonalization with overlap
     ethr =  8.13E-05,  avg # of iterations =  1.8

     total cpu time spent up to now is      981.9 secs

     total energy              =   -3067.47097391 Ry
     estimated scf accuracy    <       0.28994757 Ry

     iteration #  9     ecut=   130.00 Ry     beta= 0.70
     Davidson diagonalization with overlap
     ethr =  8.13E-05,  avg # of iterations =  1.0

     total cpu time spent up to now is     1070.1 secs

     total energy              =   -3067.47205689 Ry
     estimated scf accuracy    <       0.09165504 Ry

     iteration # 10     ecut=   130.00 Ry     beta= 0.70
     Davidson diagonalization with overlap
     ethr =  4.52E-05,  avg # of iterations =  3.2

     negative rho (up, down):  1.581E-04 0.000E+00

     total cpu time spent up to now is     1170.6 secs

     total energy              =   -3067.47129242 Ry
     estimated scf accuracy    <       0.01500335 Ry

     iteration # 11     ecut=   130.00 Ry     beta= 0.70
     Davidson diagonalization with overlap
     ethr =  7.39E-06,  avg # of iterations =  7.7

     negative rho (up, down):  9.122E-03 0.000E+00

     total cpu time spent up to now is     1282.8 secs

     total energy              =   -3067.47103455 Ry
     estimated scf accuracy    <       0.00994676 Ry

     iteration # 12     ecut=   130.00 Ry     beta= 0.70
     Davidson diagonalization with overlap
     ethr =  4.90E-06,  avg # of iterations =  1.8

     negative rho (up, down):  1.782E-02 0.000E+00

     total cpu time spent up to now is     1379.3 secs

     total energy              =   -3067.47040391 Ry
     estimated scf accuracy    <       0.01185208 Ry

     iteration # 13     ecut=   130.00 Ry     beta= 0.70
     Davidson diagonalization with overlap
     ethr =  4.90E-06,  avg # of iterations =  2.1

     negative rho (up, down):  1.634E-02 0.000E+00

     total cpu time spent up to now is     1474.1 secs

     total energy              =   -3067.47005886 Ry
     estimated scf accuracy    <       0.00589031 Ry

     iteration # 14     ecut=   130.00 Ry     beta= 0.70
     Davidson diagonalization with overlap
     ethr =  2.90E-06,  avg # of iterations =  2.6

     negative rho (up, down):  9.792E-03 0.000E+00

     total cpu time spent up to now is     1568.7 secs

     total energy              =   -3067.47013125 Ry
     estimated scf accuracy    <       0.00127064 Ry

     iteration # 15     ecut=   130.00 Ry     beta= 0.70
     Davidson diagonalization with overlap
     ethr =  6.26E-07,  avg # of iterations =  2.2

     negative rho (up, down):  5.209E-03 0.000E+00

     total cpu time spent up to now is     1661.6 secs

     total energy              =   -3067.47009015 Ry
     estimated scf accuracy    <       0.00103548 Ry

     iteration # 16     ecut=   130.00 Ry     beta= 0.70
     Davidson diagonalization with overlap
     ethr =  5.10E-07,  avg # of iterations =  1.0

     negative rho (up, down):  1.068E-03 0.000E+00

     total cpu time spent up to now is     1755.5 secs

     total energy              =   -3067.47008963 Ry
     estimated scf accuracy    <       0.00021281 Ry

     iteration # 17     ecut=   130.00 Ry     beta= 0.70
     Davidson diagonalization with overlap
     ethr =  1.05E-07,  avg # of iterations =  2.1

     negative rho (up, down):  4.749E-04 0.000E+00

     total cpu time spent up to now is     1850.3 secs

     total energy              =   -3067.47009884 Ry
     estimated scf accuracy    <       0.00013608 Ry

     iteration # 18     ecut=   130.00 Ry     beta= 0.70
     Davidson diagonalization with overlap
     ethr =  6.70E-08,  avg # of iterations =  1.0

     negative rho (up, down):  5.158E-05 0.000E+00

     total cpu time spent up to now is     1947.1 secs

     total energy              =   -3067.47009929 Ry
     estimated scf accuracy    <       0.00000229 Ry

     iteration # 19     ecut=   130.00 Ry     beta= 0.70
     Davidson diagonalization with overlap
     ethr =  1.13E-09,  avg # of iterations =  4.9

     negative rho (up, down):  2.963E-05 0.000E+00

     total cpu time spent up to now is     2079.4 secs

     total energy              =   -3067.47010013 Ry
     estimated scf accuracy    <       0.00000187 Ry

     iteration # 20     ecut=   130.00 Ry     beta= 0.70
     Davidson diagonalization with overlap
     ethr =  9.21E-10,  avg # of iterations =  1.1

     negative rho (up, down):  1.768E-05 0.000E+00

     total cpu time spent up to now is     2178.0 secs

     total energy              =   -3067.47010012 Ry
     estimated scf accuracy    <       0.00000227 Ry

     iteration # 21     ecut=   130.00 Ry     beta= 0.70
     Davidson diagonalization with overlap
     ethr =  9.21E-10,  avg # of iterations =  1.0

     total cpu time spent up to now is     2266.8 secs

     End of self-consistent calculation

          k = 0.0000 0.0000 0.0000 ( 82865 PWs)   bands (ev):

   -90.9303 -90.9303 -90.8796 -90.8796 -90.8796 -90.8796 -90.5270 -90.5270
   -90.5091 -90.5091 -90.4588 -90.4588 -90.4588 -90.4588 -69.7814 -69.7814
   -69.7366 -69.7366 -69.6388 -69.6388 -69.6164 -69.6164 -69.5324 -69.5324
   -69.4894 -69.4894 -55.4745 -55.4745 -55.4641 -55.4641 -55.3637 -55.3637
   -55.0539 -55.0539 -55.0488 -55.0488 -55.0487 -55.0487 -54.9469 -54.9469
   -53.7200 -53.7200 -53.6664 -53.6664 -53.5938 -53.5938 -53.5457 -53.5457
   -53.5063 -53.5063 -53.4544 -53.4544 -53.2905 -53.2905 -53.2579 -53.2579
   -53.2200 -53.2200 -53.1914 -53.1914 -53.1700 -53.1700 -53.1147 -53.1147
   -53.1127 -53.1127 -53.0231 -53.0231 -41.2157 -41.2157 -41.1919 -41.1919
   -41.0898 -41.0898 -41.0543 -41.0543 -40.9106 -40.9106 -40.8500 -40.8500
   -31.6899 -31.6899 -31.6096 -31.6096 -31.4909 -31.4909 -31.4497 -31.4497
   -31.4184 -31.4184 -31.4082 -31.4082 -31.3351 -31.3351 -31.1956 -31.1956
   -31.1562 -31.1562 -30.9172 -30.9172 -30.8645 -30.8645 -30.8153 -30.8153
    -4.6830  -4.6830  -3.1328  -3.1328  -1.4447  -1.4447  -0.8919  -0.8919
    -0.7037  -0.7037  -0.6936  -0.6936  -0.0403  -0.0403   0.0048   0.0048
     0.1013   0.1013   0.1380   0.1380   0.1500   0.1500   0.3557   0.3557
     0.4460   0.4460   1.0286   1.0286   1.1502   1.1502   1.2555   1.2555
     1.3716   1.3716   1.3844   1.3844   1.5040   1.5040   1.6392   1.6392
     1.6715   1.6715   1.6779   1.6779   1.9851   1.9851   2.0423   2.0423
     2.0562   2.0562   2.0670   2.0670   2.1275   2.1275   2.2026   2.2026
     2.5939   2.5939   2.7103   2.7103   2.7521   2.7521   2.9179   2.9179
     2.9748   2.9748   3.0758   3.0758   3.1492   3.1492   3.1855   3.1855
     3.2524   3.2524   3.3350   3.3350   3.4119   3.4119   3.4512   3.4512
     3.5219   3.5219   3.5684   3.5684   3.5701   3.5701   3.7834   3.7834
     3.8240   3.8240   3.9937   3.9937   3.9961   3.9961   4.1372   4.1372
     4.2107   4.2107   4.3343   4.3343   4.5337   4.5337   4.6254   4.6254
     4.7132   4.7132   4.7988   4.7988   4.8952   4.8952   4.9668   4.9668
     4.9754   4.9754   5.1439   5.1439   5.1577   5.1577   5.2202   5.2202
     5.2349   5.2349   5.3666   5.3666   5.3985   5.3985   5.7468   5.7468
     5.8563   5.8563   6.4736   6.4736   7.2161   7.2161   7.3944   7.3944
     7.4903   7.4903   7.5239   7.5239

          k = 0.0000 0.0825 0.0000 ( 82945 PWs)   bands (ev):

   -90.9298 -90.9298 -90.8802 -90.8802 -90.8796 -90.8796 -90.5270 -90.5270
   -90.5086 -90.5086 -90.4593 -90.4593 -90.4588 -90.4588 -69.7812 -69.7812
   -69.7355 -69.7355 -69.6397 -69.6396 -69.6166 -69.6166 -69.5324 -69.5324
   -69.4895 -69.4895 -55.4737 -55.4736 -55.4634 -55.4634 -55.3648 -55.3646
   -55.0533 -55.0530 -55.0488 -55.0487 -55.0481 -55.0481 -54.9480 -54.9478
   -53.7185 -53.7179 -53.6651 -53.6649 -53.5934 -53.5934 -53.5468 -53.5461
   -53.5074 -53.5071 -53.4569 -53.4568 -53.2888 -53.2885 -53.2566 -53.2564
   -53.2200 -53.2200 -53.1910 -53.1910 -53.1702 -53.1698 -53.1159 -53.1155
   -53.1137 -53.1136 -53.0256 -53.0256 -41.2135 -41.2134 -41.1913 -41.1908
   -41.0901 -41.0895 -41.0547 -41.0542 -40.9127 -40.9123 -40.8515 -40.8514
   -31.6876 -31.6876 -31.6108 -31.6106 -31.4958 -31.4952 -31.4653 -31.4653
   -31.4206 -31.4205 -31.3805 -31.3803 -31.3317 -31.3315 -31.1943 -31.1940
   -31.1550 -31.1544 -30.9216 -30.9215 -30.8740 -30.8734 -30.8153 -30.8148
    -4.6224  -4.6184  -3.0947  -3.0702  -1.4133  -1.4065  -0.8752  -0.8707
    -0.6941  -0.6861  -0.6734  -0.6665  -0.2320  -0.1583  -0.0636  -0.0636
     0.0350   0.0705   0.1250   0.1768   0.2599   0.3279   0.4069   0.4126
     0.4898   0.5119   1.0422   1.0451   1.1316   1.1474   1.2376   1.2400
     1.3504   1.3748   1.3825   1.3848   1.5037   1.5372   1.6135   1.6199
     1.6285   1.6481   1.6760   1.6777   1.9236   1.9345   1.9549   1.9754
     2.0325   2.0707   2.1221   2.1223   2.1718   2.1836   2.2485   2.2590
     2.5389   2.5592   2.6760   2.6825   2.7161   2.7329   2.8440   2.8504
     2.9708   2.9774   3.0474   3.0575   3.1254   3.1274   3.1775   3.1800
     3.2595   3.2761   3.3100   3.3112   3.3991   3.3993   3.4431   3.4546
     3.4831   3.5010   3.5463   3.5686   3.5862   3.5892   3.7140   3.7372
     3.7941   3.8257   4.0052   4.0186   4.0709   4.0784   4.1646   4.1652
     4.2474   4.2514   4.3521   4.3529   4.4366   4.4431   4.5586   4.5773
     4.6505   4.6573   4.7516   4.7725   4.7869   4.7961   4.9194   4.9205
     4.9606   4.9761   5.1319   5.1436   5.1673   5.1885   5.2587   5.3210
     5.3411   5.3781   5.4069   5.4069   5.4249   5.4655   5.7479   5.7703
     5.8644   5.8793   6.4610   6.4669   7.2674   7.2720   7.3557   7.3963
     7.4647   7.4682   7.6036   7.6093

          k = 0.0000 0.1650 0.0000 ( 82932 PWs)   bands (ev):

   -90.9281 -90.9281 -90.8818 -90.8818 -90.8796 -90.8796 -90.5270 -90.5270
   -90.5069 -90.5069 -90.4610 -90.4610 -90.4588 -90.4588 -69.7808 -69.7808
   -69.7323 -69.7323 -69.6423 -69.6423 -69.6172 -69.6172 -69.5326 -69.5326
   -69.4898 -69.4898 -55.4717 -55.4714 -55.4610 -55.4609 -55.3679 -55.3675
   -55.0518 -55.0515 -55.0489 -55.0487 -55.0453 -55.0450 -54.9510 -54.9507
   -53.7137 -53.7125 -53.6610 -53.6607 -53.5923 -53.5922 -53.5495 -53.5480
   -53.5106 -53.5101 -53.4637 -53.4636 -53.2835 -53.2831 -53.2523 -53.2518
   -53.2200 -53.2200 -53.1899 -53.1898 -53.1703 -53.1696 -53.1196 -53.1191
   -53.1157 -53.1157 -53.0325 -53.0325 -41.2069 -41.2067 -41.1891 -41.1883
   -41.0904 -41.0893 -41.0555 -41.0546 -40.9184 -40.9177 -40.8555 -40.8552
   -31.6811 -31.6807 -31.6140 -31.6138 -31.5070 -31.5056 -31.4891 -31.4882
   -31.4070 -31.4068 -31.3471 -31.3460 -31.3206 -31.3200 -31.1898 -31.1883
   -31.1522 -31.1492 -30.9348 -30.9342 -30.9015 -30.8976 -30.8155 -30.8133
    -4.4394  -4.4312  -2.9588  -2.9102  -1.3178  -1.3048  -0.8480  -0.8390
    -0.6769  -0.6428  -0.6015  -0.5954  -0.4402  -0.3971  -0.1858  -0.1654
     0.0064   0.0322   0.2023   0.2611   0.3441   0.4093   0.4744   0.5152
     0.5831   0.6100   1.0662   1.0803   1.1203   1.1434   1.2066   1.2151
     1.3076   1.3504   1.3807   1.3829   1.4434   1.4517   1.5477   1.5512
     1.6050   1.6107   1.6802   1.7040   1.8726   1.8809   1.9008   1.9374
     2.0515   2.0850   2.1344   2.1461   2.1959   2.2253   2.2999   2.3298
     2.4186   2.4316   2.5770   2.5908   2.6787   2.6899   2.7069   2.7420
     2.9073   2.9367   3.0293   3.0509   3.0823   3.0943   3.1416   3.1560
     3.2072   3.2350   3.2714   3.3020   3.3501   3.3853   3.4080   3.4444
     3.4525   3.4697   3.5479   3.5696   3.5872   3.5903   3.6931   3.7214
     3.7361   3.7742   4.0089   4.0410   4.1519   4.1552   4.1799   4.2106
     4.2717   4.2790   4.3130   4.3151   4.3542   4.3754   4.4143   4.4400
     4.4725   4.4744   4.6463   4.6801   4.7392   4.7552   4.8203   4.8523
     4.9211   4.9712   5.1424   5.1468   5.2179   5.2206   5.3442   5.4412
     5.4601   5.4751   5.5824   5.5964   5.6081   5.6522   5.7756   5.7759
     5.9171   5.9839   6.4803   6.4991   7.2493   7.3032   7.3434   7.3473
     7.4493   7.4537   7.8279   7.8352

          k = 0.0000 0.2474 0.0000 ( 82922 PWs)   bands (ev):

   -90.9255 -90.9255 -90.8845 -90.8845 -90.8796 -90.8796 -90.5270 -90.5270
   -90.5043 -90.5043 -90.4636 -90.4636 -90.4588 -90.4588 -69.7803 -69.7803
   -69.7273 -69.7273 -69.6464 -69.6464 -69.6181 -69.6181 -69.5329 -69.5329
   -69.4902 -69.4902 -55.4695 -55.4693 -55.4561 -55.4559 -55.3727 -55.3722
   -55.0505 -55.0504 -55.0490 -55.0487 -55.0398 -55.0390 -54.9559 -54.9553
   -53.7065 -53.7048 -53.6540 -53.6535 -53.5903 -53.5902 -53.5539 -53.5517
   -53.5161 -53.5153 -53.4738 -53.4735 -53.2761 -53.2756 -53.2445 -53.2437
   -53.2200 -53.2200 -53.1878 -53.1877 -53.1704 -53.1695 -53.1260 -53.1254
   -53.1193 -53.1191 -53.0429 -53.0428 -41.1966 -41.1963 -41.1857 -41.1847
   -41.0906 -41.0892 -41.0571 -41.0559 -40.9270 -40.9262 -40.8610 -40.8605
   -31.6718 -31.6705 -31.6195 -31.6182 -31.5199 -31.5163 -31.5044 -31.5016
   -31.3883 -31.3877 -31.3302 -31.3279 -31.2941 -31.2926 -31.1812 -31.1771
   -31.1504 -31.1422 -30.9595 -30.9587 -30.9375 -30.9294 -30.8154 -30.8114
    -4.1423  -4.1298  -2.7343  -2.6622  -1.1827  -1.1651  -0.8987  -0.8916
    -0.6298  -0.5960  -0.5589  -0.5173  -0.4894  -0.4797  -0.3413  -0.2772
     0.0306   0.0534   0.2536   0.3108   0.3753   0.4295   0.4507   0.5578
     0.7356   0.7453   1.0655   1.0860   1.1350   1.1437   1.1862   1.1933
     1.2520   1.2779   1.3442   1.3525   1.3674   1.3909   1.4705   1.4796
     1.5561   1.5580   1.6714   1.6957   1.7987   1.8066   1.9086   1.9612
     2.0521   2.0572   2.1150   2.1340   2.2106   2.2116   2.2575   2.2796
     2.3455   2.4048   2.4920   2.5003   2.5348   2.5573   2.6314   2.6587
     2.8462   2.8488   3.0094   3.0232   3.0477   3.0692   3.0856   3.0956
     3.1407   3.2058   3.2270   3.2562   3.2686   3.2967   3.4256   3.4700
     3.4754   3.5109   3.5430   3.5623   3.5722   3.5911   3.6406   3.6457
     3.7897   3.7932   3.9554   3.9664   3.9837   4.0382   4.0731   4.0978
     4.1502   4.1582   4.2091   4.2208   4.3336   4.3363   4.4175   4.4389
     4.5285   4.5330   4.6072   4.6473   4.6695   4.6845   4.8259   4.8265
     4.8988   4.9508   5.1438   5.1669   5.2982   5.2990   5.4279   5.5165
     5.5894   5.6219   5.6940   5.7161   5.8020   5.8595   5.9091   5.9207
     6.0659   6.1772   6.5832   6.6337   7.1471   7.1906   7.3187   7.3468
     7.4796   7.4840   8.0278   8.0469

          k = 0.0000 0.3299 0.0000 ( 82878 PWs)   bands (ev):

   -90.9221 -90.9221 -90.8879 -90.8879 -90.8796 -90.8796 -90.5270 -90.5270
   -90.5010 -90.5010 -90.4670 -90.4670 -90.4588 -90.4588 -69.7797 -69.7797
   -69.7211 -69.7211 -69.6517 -69.6517 -69.6191 -69.6191 -69.5332 -69.5332
   -69.4907 -69.4907 -55.4680 -55.4678 -55.4489 -55.4485 -55.3790 -55.3784
   -55.0496 -55.0496 -55.0490 -55.0487 -55.0321 -55.0311 -54.9622 -54.9615
   -53.6982 -53.6963 -53.6436 -53.6431 -53.5872 -53.5870 -53.5600 -53.5574
   -53.5244 -53.5235 -53.4845 -53.4839 -53.2684 -53.2679 -53.2325 -53.2315
   -53.2200 -53.2200 -53.1846 -53.1844 -53.1703 -53.1695 -53.1343 -53.1336
   -53.1255 -53.1252 -53.0545 -53.0543 -41.1835 -41.1832 -41.1816 -41.1806
   -41.0908 -41.0891 -41.0600 -41.0587 -40.9372 -40.9365 -40.8669 -40.8663
   -31.6627 -31.6601 -31.6265 -31.6244 -31.5272 -31.5211 -31.5094 -31.5051
   -31.3695 -31.3675 -31.3250 -31.3214 -31.2623 -31.2602 -31.1702 -31.1628
   -31.1517 -31.1362 -31.0013 -30.9972 -30.9648 -30.9569 -30.8149 -30.8101
    -3.7452  -3.7282  -2.4371  -2.3433  -1.1171  -1.1158  -0.9295  -0.9291
    -0.7366  -0.7056  -0.5477  -0.5430  -0.4228  -0.3995  -0.3373  -0.3102
     0.1106   0.1374   0.2249   0.2748   0.3850   0.4601   0.4626   0.5295
     0.9217   0.9275   0.9777   1.0111   1.0812   1.1266   1.1442   1.1753
     1.2725   1.2793   1.3005   1.3365   1.3400   1.3556   1.4456   1.4634
     1.5171   1.5193   1.6854   1.6893   1.7119   1.7145   1.7797   1.8430
     2.0060   2.0230   2.0320   2.0470   2.1216   2.1240   2.2725   2.3149
     2.3424   2.3487   2.3673   2.3798   2.4719   2.5056   2.5408   2.5465
     2.7411   2.7664   2.9104   2.9381   2.9810   3.0106   3.0623   3.1042
     3.1104   3.1297   3.2009   3.2063   3.2619   3.2772   3.3826   3.4240
     3.4499   3.4528   3.5001   3.5134   3.5249   3.5599   3.6669   3.6687
     3.7177   3.7368   3.8243   3.8254   3.9416   4.0117   4.0374   4.0905
     4.0915   4.1122   4.1422   4.1613   4.3223   4.3248   4.4474   4.4646
     4.5647   4.5809   4.6009   4.6134   4.6955   4.6988   4.8360   4.8392
     4.9268   4.9333   5.1718   5.1982   5.3329   5.3699   5.4769   5.5806
     5.6187   5.6679   5.7693   5.8214   6.0169   6.0505   6.1418   6.1724
     6.3691   6.4415   6.7029   6.7873   7.1128   7.1539   7.3041   7.3296
     7.5145   7.5205   7.6444   7.7060

          k = 0.0000 0.4124 0.0000 ( 82886 PWs)   bands (ev):

   -90.9184 -90.9184 -90.8916 -90.8916 -90.8796 -90.8796 -90.5270 -90.5270
   -90.4973 -90.4973 -90.4707 -90.4707 -90.4588 -90.4588 -69.7791 -69.7791
   -69.7145 -69.7145 -69.6574 -69.6574 -69.6199 -69.6199 -69.5335 -69.5335
   -69.4911 -69.4911 -55.4669 -55.4669 -55.4404 -55.4399 -55.3863 -55.3857
   -55.0490 -55.0489 -55.0489 -55.0488 -55.0234 -55.0224 -54.9695 -54.9687
   -53.6907 -53.6890 -53.6298 -53.6297 -53.5830 -53.5828 -53.5673 -53.5652
   -53.5364 -53.5356 -53.4927 -53.4922 -53.2621 -53.2617 -53.2200 -53.2200
   -53.2164 -53.2151 -53.1802 -53.1799 -53.1702 -53.1695 -53.1441 -53.1429
   -53.1351 -53.1351 -53.0645 -53.0644 -41.1780 -41.1772 -41.1693 -41.1689
   -41.0907 -41.0890 -41.0646 -41.0632 -40.9470 -40.9465 -40.8719 -40.8714
   -31.6564 -31.6534 -31.6333 -31.6312 -31.5297 -31.5253 -31.4981 -31.4965
   -31.3541 -31.3506 -31.3216 -31.3165 -31.2361 -31.2341 -31.1697 -31.1660
   -31.1409 -31.1344 -31.0384 -31.0330 -30.9878 -30.9801 -30.8140 -30.8097
    -3.2680  -3.2461  -2.0913  -1.9791  -1.2693  -1.2440  -1.0144  -0.9994
    -0.8871  -0.8236  -0.5863  -0.5730  -0.3912  -0.3831  -0.1790  -0.1639
     0.1088   0.1622   0.2580   0.2720   0.4126   0.5072   0.5426   0.5484
     0.9086   0.9315   1.0529   1.0706   1.0926   1.1133   1.1409   1.1659
     1.2159   1.2312   1.3095   1.3234   1.3548   1.3662   1.4499   1.4836
     1.4956   1.5029   1.5952   1.6059   1.6468   1.6884   1.7103   1.7181
     1.9117   1.9185   1.9724   1.9828   1.9895   2.0116   2.1712   2.1956
     2.2723   2.2837   2.3639   2.3710   2.4706   2.4816   2.4936   2.5164
     2.6275   2.6442   2.7946   2.8224   2.9152   2.9755   2.9874   2.9966
     3.0174   3.0492   3.1088   3.1284   3.1801   3.1961   3.2844   3.3066
     3.3685   3.3801   3.4672   3.5048   3.5420   3.5738   3.7515   3.7627
     3.7935   3.7972   3.8318   3.8689   3.9300   3.9825   3.9915   4.0309
     4.0867   4.1153   4.2048   4.2134   4.3036   4.3234   4.4851   4.5062
     4.5725   4.5730   4.5946   4.6204   4.7808   4.8017   4.8153   4.8888
     4.9193   4.9615   5.2164   5.2301   5.3470   5.3695   5.4987   5.5149
     5.7080   5.7094   5.8298   5.8408   6.0802   6.1546   6.3409   6.3846
     6.6391   6.6535   6.8203   6.8707   7.1986   7.2938   7.3252   7.3706
     7.3945   7.3952   7.5655   7.5840

          k = 0.0000 0.4949 0.0000 ( 82940 PWs)   bands (ev):

   -90.9150 -90.9150 -90.8950 -90.8950 -90.8796 -90.8796 -90.5270 -90.5270
   -90.4939 -90.4939 -90.4741 -90.4741 -90.4588 -90.4588 -69.7788 -69.7788
   -69.7090 -69.7090 -69.6624 -69.6624 -69.6206 -69.6206 -69.5337 -69.5337
   -69.4914 -69.4913 -55.4663 -55.4663 -55.4325 -55.4321 -55.3931 -55.3926
   -55.0490 -55.0489 -55.0485 -55.0485 -55.0154 -55.0146 -54.9763 -54.9756
   -53.6853 -53.6844 -53.6145 -53.6139 -53.5830 -53.5801 -53.5718 -53.5706
   -53.5505 -53.5497 -53.4972 -53.4969 -53.2581 -53.2578 -53.2200 -53.2200
   -53.1979 -53.1965 -53.1752 -53.1748 -53.1700 -53.1697 -53.1554 -53.1535
   -53.1475 -53.1467 -53.0709 -53.0708 -41.1752 -41.1747 -41.1575 -41.1572
   -41.0902 -41.0889 -41.0697 -41.0686 -40.9540 -40.9538 -40.8752 -40.8749
   -31.6533 -31.6513 -31.6376 -31.6363 -31.5310 -31.5290 -31.4800 -31.4798
   -31.3457 -31.3432 -31.3130 -31.3093 -31.2186 -31.2176 -31.1926 -31.1852
   -31.1287 -31.1271 -31.0525 -31.0522 -31.0056 -30.9993 -30.8127 -30.8102
    -2.7375  -2.7104  -1.7496  -1.6347  -1.6223  -1.6061  -1.1387  -1.1090
    -1.0478  -0.9760  -0.5359  -0.5289  -0.3894  -0.3867  -0.0444  -0.0245
     0.0392   0.0562   0.3822   0.4089   0.4533   0.5058   0.6638   0.6806
     0.9061   0.9211   0.9972   1.0293   1.0916   1.0997   1.1527   1.1565
     1.2390   1.2477   1.3518   1.3594   1.3980   1.4225   1.4302   1.4369
     1.4551   1.4681   1.5296   1.5328   1.5658   1.5936   1.6762   1.6873
     1.7865   1.7927   1.9238   1.9328   1.9410   1.9609   2.1240   2.1250
     2.1954   2.1982   2.3736   2.3951   2.4494   2.4664   2.5178   2.5181
     2.5684   2.5825   2.6068   2.6502   2.7662   2.7741   2.8703   2.9410
     2.9946   3.0053   3.0718   3.0844   3.1730   3.2039   3.2707   3.2780
     3.3858   3.3955   3.4399   3.4777   3.5478   3.5725   3.6874   3.7038
     3.7544   3.7653   3.8971   3.9380   3.9584   3.9915   3.9986   4.0597
     4.1569   4.1879   4.2797   4.2867   4.3707   4.3810   4.5477   4.5567
     4.5906   4.5996   4.6460   4.6550   4.7796   4.7942   4.8575   4.8953
     4.9723   4.9859   5.2563   5.2592   5.3501   5.3555   5.4633   5.5025
     5.6571   5.6705   5.8830   5.8880   5.9330   5.9406   6.5034   6.5376
     6.6518   6.6617   7.0143   7.0605   7.2681   7.3055   7.3813   7.4573
     7.4998   7.5367   7.6568   7.6620

          k = 0.0000-0.5774 0.0000 ( 82916 PWs)   bands (ev):

   -90.9135 -90.9135 -90.8966 -90.8966 -90.8796 -90.8796 -90.5270 -90.5270
   -90.4924 -90.4924 -90.4756 -90.4756 -90.4588 -90.4588 -69.7786 -69.7786
   -69.7067 -69.7067 -69.6645 -69.6645 -69.6208 -69.6208 -69.5338 -69.5338
   -69.4914 -69.4914 -55.4661 -55.4661 -55.4287 -55.4287 -55.3961 -55.3961
   -55.0489 -55.0489 -55.0483 -55.0483 -55.0114 -55.0114 -54.9792 -54.9792
   -53.6831 -53.6831 -53.6035 -53.6035 -53.5881 -53.5881 -53.5659 -53.5659
   -53.5605 -53.5605 -53.4985 -53.4985 -53.2566 -53.2566 -53.2200 -53.2200
   -53.1836 -53.1836 -53.1743 -53.1743 -53.1698 -53.1698 -53.1625 -53.1625
   -53.1532 -53.1532 -53.0730 -53.0730 -41.1740 -41.1740 -41.1525 -41.1525
   -41.0893 -41.0893 -41.0718 -41.0718 -40.9565 -40.9565 -40.8762 -40.8762
   -31.6519 -31.6519 -31.6385 -31.6385 -31.5309 -31.5309 -31.4711 -31.4711
   -31.3431 -31.3431 -31.3052 -31.3052 -31.2106 -31.2106 -31.2049 -31.2049
   -31.1231 -31.1231 -31.0555 -31.0555 -31.0102 -31.0102 -30.8113 -30.8113
    -2.2248  -2.2248  -2.1102  -2.1102  -1.3891  -1.3891  -1.2646  -1.2646
    -1.0985  -1.0985  -0.5115  -0.5115  -0.3961  -0.3961  -0.0088  -0.0088
     0.0575   0.0575   0.4420   0.4420   0.4965   0.4965   0.7820   0.7820
     0.8736   0.8736   0.9495   0.9495   1.1247   1.1247   1.1579   1.1579
     1.2125   1.2125   1.3722   1.3722   1.4329   1.4329   1.4605   1.4605
     1.4766   1.4766   1.5154   1.5154   1.5347   1.5347   1.5974   1.5974
     1.7450   1.7450   1.9108   1.9108   1.9458   1.9458   2.1326   2.1326
     2.1664   2.1664   2.3227   2.3227   2.4347   2.4347   2.5413   2.5413
     2.5767   2.5767   2.6241   2.6241   2.6550   2.6550   2.8810   2.8810
     3.0114   3.0114   3.0477   3.0477   3.1889   3.1889   3.2601   3.2601
     3.4127   3.4127   3.4850   3.4850   3.5402   3.5402   3.6039   3.6039
     3.7526   3.7526   3.9131   3.9131   3.9794   3.9794   4.0798   4.0798
     4.2148   4.2148   4.3128   4.3128   4.4195   4.4195   4.5765   4.5765
     4.6254   4.6254   4.6684   4.6684   4.7824   4.7824   4.8848   4.8848
     5.0356   5.0356   5.2438   5.2438   5.3532   5.3532   5.4920   5.4920
     5.5381   5.5381   5.8276   5.8276   5.9591   5.9591   6.5878   6.5878
     6.6776   6.6776   6.9998   6.9998   7.2316   7.2316   7.4659   7.4659
     7.5788   7.5788   7.7501   7.7501

          k = 0.0714 0.1237 0.0000 ( 82951 PWs)   bands (ev):

   -90.9287 -90.9287 -90.8813 -90.8813 -90.8796 -90.8796 -90.5270 -90.5270
   -90.5075 -90.5075 -90.4604 -90.4604 -90.4588 -90.4588 -69.7810 -69.7810
   -69.7333 -69.7333 -69.6414 -69.6414 -69.6170 -69.6170 -69.5326 -69.5326
   -69.4897 -69.4897 -55.4723 -55.4721 -55.4619 -55.4618 -55.3669 -55.3665
   -55.0522 -55.0519 -55.0489 -55.0487 -55.0463 -55.0461 -54.9500 -54.9497
   -53.7153 -53.7142 -53.6624 -53.6621 -53.5927 -53.5926 -53.5486 -53.5473
   -53.5096 -53.5091 -53.4615 -53.4614 -53.2852 -53.2848 -53.2538 -53.2534
   -53.2200 -53.2200 -53.1903 -53.1902 -53.1703 -53.1697 -53.1185 -53.1179
   -53.1151 -53.1148 -53.0303 -53.0303 -41.2091 -41.2089 -41.1898 -41.1891
   -41.0903 -41.0894 -41.0552 -41.0544 -40.9165 -40.9159 -40.8542 -40.8540
   -31.6833 -31.6829 -31.6131 -31.6124 -31.5058 -31.5002 -31.4836 -31.4829
   -31.4145 -31.4083 -31.3551 -31.3537 -31.3258 -31.3239 -31.1914 -31.1903
   -31.1530 -31.1508 -30.9313 -30.9289 -30.8928 -30.8899 -30.8156 -30.8136
    -4.5000  -4.4930  -3.0044  -2.9622  -1.3488  -1.3374  -0.8481  -0.8384
    -0.6864  -0.6648  -0.6222  -0.6186  -0.3850  -0.3138  -0.2268  -0.1893
     0.1001   0.1233   0.1841   0.1990   0.3330   0.4060   0.4174   0.4475
     0.5670   0.6025   1.0648   1.0681   1.1144   1.1414   1.2153   1.2227
     1.3293   1.3612   1.3803   1.3859   1.4712   1.4778   1.5638   1.5788
     1.6170   1.6358   1.6724   1.6963   1.8318   1.8384   1.9602   1.9747
     2.0447   2.0844   2.1333   2.1664   2.1954   2.2262   2.2742   2.3068
     2.4484   2.4757   2.5897   2.6133   2.6906   2.7277   2.7439   2.7728
     2.9289   2.9695   2.9996   3.0415   3.0812   3.1239   3.1548   3.1830
     3.2263   3.2428   3.2957   3.3070   3.3684   3.3798   3.4125   3.4403
     3.4582   3.4819   3.5442   3.5704   3.5818   3.6043   3.6783   3.7159
     3.7562   3.7927   4.0129   4.0330   4.1262   4.1549   4.1856   4.2418
     4.2476   4.2916   4.3098   4.3311   4.3798   4.4126   4.4603   4.4767
     4.4808   4.5235   4.6508   4.6894   4.7417   4.7742   4.8607   4.8896
     4.9704   4.9837   5.1206   5.1859   5.2150   5.2334   5.2766   5.3327
     5.4153   5.4366   5.4682   5.4866   5.6319   5.6448   5.7378   5.8205
     5.9155   5.9286   6.4588   6.4716   7.2690   7.3245   7.3508   7.3770
     7.4204   7.4537   7.7625   7.7655

          k = 0.0714 0.2062 0.0000 ( 82926 PWs)   bands (ev):

   -90.9265 -90.9265 -90.8834 -90.8834 -90.8796 -90.8796 -90.5270 -90.5270
   -90.5054 -90.5054 -90.4626 -90.4626 -90.4588 -90.4588 -69.7805 -69.7805
   -69.7293 -69.7293 -69.6448 -69.6448 -69.6178 -69.6178 -69.5328 -69.5328
   -69.4901 -69.4901 -55.4702 -55.4700 -55.4582 -55.4580 -55.3708 -55.3703
   -55.0509 -55.0508 -55.0489 -55.0487 -55.0421 -55.0414 -54.9540 -54.9535
   -53.7092 -53.7076 -53.6569 -53.6564 -53.5911 -53.5910 -53.5522 -53.5502
   -53.5137 -53.5130 -53.4701 -53.4699 -53.2788 -53.2783 -53.2478 -53.2472
   -53.2200 -53.2200 -53.1887 -53.1885 -53.1704 -53.1695 -53.1240 -53.1232
   -53.1175 -53.1170 -53.0390 -53.0389 -41.2006 -41.2003 -41.1870 -41.1860
   -41.0906 -41.0892 -41.0565 -41.0553 -40.9237 -40.9229 -40.8590 -40.8585
   -31.6756 -31.6742 -31.6172 -31.6147 -31.5193 -31.5111 -31.5017 -31.4966
   -31.4025 -31.3879 -31.3327 -31.3292 -31.3090 -31.3041 -31.1847 -31.1816
   -31.1507 -31.1446 -30.9517 -30.9449 -30.9256 -30.9182 -30.8160 -30.8113
    -4.2599  -4.2490  -2.8232  -2.7593  -1.2317  -1.2153  -0.8377  -0.8308
    -0.6875  -0.6503  -0.5675  -0.5389  -0.4942  -0.4731  -0.3397  -0.2738
     0.1050   0.1480   0.2479   0.3084   0.3656   0.4164   0.4687   0.5297
     0.6239   0.6546   1.0602   1.0918   1.1354   1.1486   1.2116   1.2234
     1.2832   1.3105   1.3514   1.3712   1.3881   1.4047   1.4858   1.4944
     1.5580   1.5766   1.6755   1.7061   1.7512   1.7693   1.9930   2.0310
     2.0630   2.0917   2.1278   2.1699   2.2100   2.2222   2.2410   2.2868
     2.3253   2.3764   2.5041   2.5662   2.5889   2.6009   2.6829   2.7453
     2.8769   2.8904   2.9924   3.0083   3.0287   3.0644   3.1227   3.1367
     3.1606   3.2185   3.2479   3.2727   3.3119   3.3446   3.3925   3.4349
     3.4592   3.4949   3.5346   3.5547   3.5616   3.6041   3.6763   3.6958
     3.7598   3.7737   3.9813   4.0188   4.0870   4.0914   4.1125   4.1413
     4.1603   4.1863   4.2345   4.2560   4.3278   4.3683   4.4202   4.4466
     4.4838   4.5093   4.5860   4.6306   4.7372   4.7541   4.8300   4.8525
     4.9515   4.9886   5.1505   5.1658   5.2258   5.2872   5.3744   5.4512
     5.4912   5.5487   5.5991   5.6375   5.7139   5.7741   5.8738   5.9514
     6.0474   6.1023   6.4867   6.5305   7.1861   7.2533   7.3552   7.3919
     7.4426   7.4549   7.9821   8.0008

          k = 0.0714 0.2887 0.0000 ( 82914 PWs)   bands (ev):

   -90.9235 -90.9235 -90.8865 -90.8865 -90.8796 -90.8796 -90.5270 -90.5270
   -90.5024 -90.5024 -90.4656 -90.4656 -90.4588 -90.4588 -69.7799 -69.7799
   -69.7236 -69.7236 -69.6495 -69.6495 -69.6187 -69.6187 -69.5331 -69.5331
   -69.4905 -69.4905 -55.4685 -55.4683 -55.4520 -55.4517 -55.3764 -55.3758
   -55.0499 -55.0498 -55.0490 -55.0487 -55.0353 -55.0344 -54.9596 -54.9589
   -53.7014 -53.6994 -53.6484 -53.6477 -53.5885 -53.5883 -53.5575 -53.5550
   -53.5202 -53.5193 -53.4808 -53.4803 -53.2711 -53.2705 -53.2381 -53.2372
   -53.2201 -53.2200 -53.1860 -53.1857 -53.1704 -53.1695 -53.1320 -53.1310
   -53.1216 -53.1208 -53.0502 -53.0500 -41.1887 -41.1884 -41.1833 -41.1822
   -41.0908 -41.0892 -41.0588 -41.0575 -40.9331 -40.9324 -40.8646 -40.8640
   -31.6676 -31.6644 -31.6215 -31.6166 -31.5303 -31.5196 -31.5121 -31.5024
   -31.3876 -31.3649 -31.3244 -31.3214 -31.2782 -31.2737 -31.1746 -31.1680
   -31.1505 -31.1373 -30.9863 -30.9789 -30.9544 -30.9474 -30.8162 -30.8091
    -3.9131  -3.8980  -2.5617  -2.4763  -1.1110  -1.0952  -0.9190  -0.9069
    -0.6832  -0.6372  -0.6297  -0.6166  -0.4228  -0.4042  -0.3715  -0.3032
     0.1310   0.1780   0.2729   0.3298   0.3743   0.4475   0.4590   0.5170
     0.7654   0.7877   1.0426   1.0776   1.1022   1.1396   1.1581   1.1816
     1.2768   1.2861   1.3226   1.3412   1.3626   1.3803   1.4383   1.4458
     1.4846   1.5000   1.6772   1.6904   1.7169   1.7314   1.8948   1.9285
     2.0095   2.0303   2.0820   2.1120   2.1247   2.1603   2.2639   2.3049
     2.3472   2.3747   2.3861   2.4139   2.5056   2.5415   2.6168   2.6707
     2.8038   2.8164   2.9275   2.9545   2.9866   3.0008   3.0604   3.0826
     3.1081   3.1741   3.1925   3.2323   3.2613   3.3110   3.4059   3.4400
     3.4684   3.4785   3.5074   3.5465   3.5656   3.5881   3.6354   3.6754
     3.7054   3.7244   3.8334   3.8408   3.9526   4.0068   4.0158   4.0338
     4.1353   4.1610   4.2085   4.2154   4.3184   4.3512   4.4514   4.4690
     4.5377   4.5444   4.6088   4.6251   4.7195   4.7544   4.8285   4.8606
     4.9406   4.9882   5.1208   5.1802   5.2853   5.3325   5.4370   5.5505
     5.5866   5.6731   5.7277   5.7892   5.8803   5.9426   5.9967   6.0479
     6.3291   6.3751   6.5914   6.6584   7.0944   7.1209   7.3148   7.3625
     7.5147   7.5406   7.8717   7.9122

          k = 0.0714 0.3712 0.0000 ( 82897 PWs)   bands (ev):

   -90.9199 -90.9199 -90.8901 -90.8901 -90.8796 -90.8796 -90.5270 -90.5270
   -90.4988 -90.4988 -90.4692 -90.4692 -90.4588 -90.4588 -69.7793 -69.7793
   -69.7172 -69.7172 -69.6551 -69.6550 -69.6197 -69.6197 -69.5334 -69.5334
   -69.4909 -69.4909 -55.4673 -55.4671 -55.4440 -55.4435 -55.3833 -55.3827
   -55.0491 -55.0491 -55.0490 -55.0487 -55.0271 -55.0260 -54.9665 -54.9657
   -53.6933 -53.6913 -53.6367 -53.6360 -53.5847 -53.5844 -53.5646 -53.5620
   -53.5297 -53.5287 -53.4908 -53.4901 -53.2639 -53.2633 -53.2245 -53.2233
   -53.2201 -53.2200 -53.1821 -53.1814 -53.1703 -53.1695 -53.1419 -53.1406
   -53.1285 -53.1275 -53.0615 -53.0612 -41.1796 -41.1785 -41.1747 -41.1743
   -41.0908 -41.0891 -41.0629 -41.0615 -40.9432 -40.9426 -40.8701 -40.8694
   -31.6628 -31.6581 -31.6247 -31.6182 -31.5371 -31.5180 -31.5096 -31.5028
   -31.3732 -31.3432 -31.3221 -31.3177 -31.2510 -31.2464 -31.1652 -31.1606
   -31.1488 -31.1317 -31.0270 -31.0192 -30.9779 -30.9711 -30.8160 -30.8074
    -3.4766  -3.4570  -2.2394  -2.1349  -1.1556  -1.1425  -0.9528  -0.9392
    -0.8259  -0.8084  -0.6113  -0.5949  -0.4081  -0.3845  -0.2575  -0.2242
     0.1707   0.2364   0.2562   0.2670   0.3896   0.4787   0.5042   0.5231
     0.9019   0.9200   1.0019   1.0369   1.0709   1.1138   1.1370   1.1776
     1.2641   1.2699   1.2993   1.3281   1.3597   1.3815   1.4100   1.4434
     1.4684   1.4929   1.6438   1.6580   1.6965   1.7090   1.7459   1.7902
     1.9047   1.9281   1.9796   2.0205   2.0466   2.0757   2.2015   2.2246
     2.2829   2.3082   2.3737   2.3939   2.4823   2.5173   2.5393   2.5533
     2.6974   2.7213   2.8545   2.8770   2.9225   2.9632   2.9895   3.0260
     3.0934   3.1162   3.1407   3.1644   3.1805   3.2061   3.2762   3.3147
     3.3541   3.3897   3.4655   3.5160   3.5701   3.5895   3.6755   3.7254
     3.7687   3.7836   3.8227   3.8743   3.9233   3.9724   3.9875   4.0049
     4.0930   4.1163   4.1880   4.2115   4.2918   4.3316   4.4548   4.4857
     4.5673   4.5981   4.6560   4.6841   4.7502   4.8047   4.8466   4.8699
     4.9261   4.9832   5.1575   5.1893   5.3275   5.3946   5.4498   5.5763
     5.6364   5.7078   5.7825   5.8960   6.0879   6.1157   6.1864   6.2316
     6.6278   6.6421   6.7213   6.7507   7.0110   7.0839   7.2478   7.3277
     7.4386   7.4951   7.6234   7.6853

          k = 0.0714 0.4536 0.0000 ( 82906 PWs)   bands (ev):

   -90.9162 -90.9162 -90.8938 -90.8938 -90.8796 -90.8796 -90.5270 -90.5270
   -90.4951 -90.4951 -90.4729 -90.4729 -90.4588 -90.4588 -69.7789 -69.7789
   -69.7109 -69.7109 -69.6605 -69.6605 -69.6204 -69.6204 -69.5337 -69.5337
   -69.4913 -69.4913 -55.4665 -55.4663 -55.4355 -55.4350 -55.3906 -55.3900
   -55.0490 -55.0488 -55.0485 -55.0485 -55.0185 -55.0175 -54.9738 -54.9730
   -53.6868 -53.6850 -53.6224 -53.6219 -53.5812 -53.5796 -53.5713 -53.5705
   -53.5424 -53.5415 -53.4973 -53.4967 -53.2585 -53.2581 -53.2201 -53.2200
   -53.2079 -53.2064 -53.1768 -53.1758 -53.1702 -53.1695 -53.1534 -53.1517
   -53.1385 -53.1373 -53.0701 -53.0697 -41.1763 -41.1754 -41.1612 -41.1607
   -41.0906 -41.0890 -41.0684 -41.0670 -40.9516 -40.9512 -40.8742 -40.8736
   -31.6618 -31.6568 -31.6264 -31.6198 -31.5419 -31.5159 -31.4937 -31.4904
   -31.3632 -31.3311 -31.3172 -31.3123 -31.2350 -31.2306 -31.1750 -31.1660
   -31.1406 -31.1233 -31.0509 -31.0468 -31.0001 -30.9904 -30.8157 -30.8064
    -2.9739  -2.9496  -1.8864  -1.7661  -1.4242  -1.3939  -1.0872  -1.0835
    -0.9654  -0.8843  -0.5714  -0.5656  -0.3833  -0.3711  -0.1627  -0.1222
     0.1017   0.1578   0.3284   0.3600   0.4499   0.5065   0.6084   0.6209
     0.9135   0.9361   1.0386   1.0689   1.0784   1.1086   1.1418   1.1562
     1.2298   1.2474   1.3297   1.3426   1.3706   1.3898   1.4176   1.4376
     1.4785   1.4949   1.5284   1.5393   1.6403   1.6591   1.7137   1.7320
     1.8317   1.8543   1.8696   1.8733   1.9756   1.9969   2.1465   2.1622
     2.2119   2.2330   2.3496   2.3884   2.4244   2.4484   2.5117   2.5235
     2.6498   2.6672   2.6924   2.7224   2.8219   2.8463   2.8766   2.9407
     2.9756   3.0028   3.0863   3.1147   3.1513   3.1863   3.2737   3.2881
     3.3572   3.3901   3.4458   3.4917   3.5686   3.6046   3.7070   3.7318
     3.7981   3.8103   3.8580   3.8661   3.9226   3.9667   4.0000   4.0203
     4.0700   4.1192   4.2289   4.2977   4.3127   4.3413   4.5174   4.5412
     4.5698   4.6338   4.6847   4.7151   4.7894   4.8190   4.8725   4.9023
     4.9566   4.9837   5.2208   5.2413   5.3324   5.3892   5.4972   5.5400
     5.6537   5.7141   5.8208   5.8888   6.0430   6.0842   6.3381   6.3880
     6.6461   6.6797   6.9614   7.0344   7.0588   7.1510   7.2458   7.2840
     7.4432   7.5016   7.6590   7.7304

          k = 0.0714 0.5361 0.0000 ( 82932 PWs)   bands (ev):

   -90.9135 -90.9135 -90.8966 -90.8966 -90.8796 -90.8796 -90.5270 -90.5270
   -90.4924 -90.4924 -90.4756 -90.4756 -90.4588 -90.4588 -69.7786 -69.7786
   -69.7068 -69.7068 -69.6643 -69.6643 -69.6209 -69.6209 -69.5338 -69.5338
   -69.4915 -69.4914 -55.4661 -55.4659 -55.4291 -55.4288 -55.3961 -55.3959
   -55.0490 -55.0489 -55.0482 -55.0482 -55.0119 -55.0114 -54.9793 -54.9788
   -53.6831 -53.6818 -53.6086 -53.6078 -53.5869 -53.5845 -53.5689 -53.5675
   -53.5556 -53.5545 -53.5002 -53.4999 -53.2557 -53.2554 -53.2201 -53.2200
   -53.1913 -53.1899 -53.1724 -53.1711 -53.1701 -53.1696 -53.1640 -53.1628
   -53.1481 -53.1471 -53.0745 -53.0741 -41.1744 -41.1737 -41.1521 -41.1516
   -41.0898 -41.0890 -41.0730 -41.0722 -40.9564 -40.9561 -40.8765 -40.8759
   -31.6622 -31.6575 -31.6274 -31.6210 -31.5445 -31.5161 -31.4781 -31.4746
   -31.3596 -31.3309 -31.3092 -31.3029 -31.2335 -31.2320 -31.1845 -31.1771
   -31.1344 -31.1143 -31.0585 -31.0540 -31.0155 -31.0030 -30.8154 -30.8061
    -2.4377  -2.4089  -1.8969  -1.8591  -1.5247  -1.4124  -1.2248  -1.1419
    -1.1035  -1.0796  -0.5345  -0.5261  -0.3750  -0.3678  -0.1429  -0.0864
     0.0955   0.1444   0.4039   0.4374   0.5079   0.5162   0.7502   0.7650
     0.8872   0.9139   0.9658   0.9934   1.0984   1.1241   1.1441   1.1676
     1.2225   1.2311   1.3606   1.3656   1.4092   1.4342   1.4453   1.4576
     1.4737   1.4817   1.4961   1.5018   1.5482   1.5638   1.6506   1.6817
     1.7360   1.7580   1.8464   1.8778   1.9495   1.9653   2.1113   2.1183
     2.1339   2.1738   2.3032   2.3694   2.4198   2.4315   2.4874   2.5129
     2.5671   2.6072   2.6496   2.6653   2.6977   2.7129   2.8575   2.9163
     2.9642   2.9972   3.0546   3.0852   3.1287   3.1810   3.2666   3.2776
     3.3690   3.4242   3.4695   3.4895   3.5508   3.6068   3.6593   3.6707
     3.7258   3.7615   3.8692   3.8856   3.9387   3.9715   4.0226   4.0477
     4.1442   4.1856   4.2572   4.3760   4.3829   4.4112   4.5207   4.5633
     4.5996   4.6387   4.6794   4.7165   4.7862   4.8270   4.9068   4.9563
     5.0230   5.0380   5.2557   5.2697   5.3399   5.3952   5.4733   5.5233
     5.5938   5.6076   5.8447   5.8786   5.9184   5.9539   6.4845   6.5026
     6.6339   6.6975   6.9307   6.9904   7.1481   7.1908   7.3588   7.3862
     7.5283   7.5437   7.6883   7.7353

          k = 0.1429 0.2474 0.0000 ( 82928 PWs)   bands (ev):

   -90.9240 -90.9240 -90.8860 -90.8860 -90.8796 -90.8796 -90.5270 -90.5270
   -90.5028 -90.5028 -90.4651 -90.4651 -90.4588 -90.4588 -69.7800 -69.7800
   -69.7245 -69.7245 -69.6487 -69.6487 -69.6186 -69.6186 -69.5331 -69.5331
   -69.4904 -69.4904 -55.4687 -55.4684 -55.4531 -55.4528 -55.3755 -55.3750
   -55.0500 -55.0499 -55.0490 -55.0487 -55.0365 -55.0356 -54.9587 -54.9581
   -53.7025 -53.7004 -53.6501 -53.6493 -53.5889 -53.5887 -53.5568 -53.5543
   -53.5185 -53.5176 -53.4797 -53.4791 -53.2719 -53.2713 -53.2402 -53.2393
   -53.2201 -53.2200 -53.1865 -53.1860 -53.1704 -53.1695 -53.1316 -53.1305
   -53.1199 -53.1190 -53.0489 -53.0486 -41.1905 -41.1902 -41.1839 -41.1827
   -41.0907 -41.0892 -41.0585 -41.0572 -40.9317 -40.9309 -40.8638 -40.8632
   -31.6698 -31.6662 -31.6182 -31.6118 -31.5323 -31.5214 -31.5144 -31.4987
   -31.3952 -31.3635 -31.3225 -31.3194 -31.2868 -31.2800 -31.1764 -31.1699
   -31.1499 -31.1376 -30.9821 -30.9711 -30.9505 -30.9440 -30.8169 -30.8082
    -3.9701  -3.9557  -2.6042  -2.5220  -1.1187  -1.0995  -0.8235  -0.8095
    -0.8032  -0.7630  -0.6361  -0.6010  -0.4097  -0.4054  -0.3923  -0.3064
     0.2077   0.2314   0.3273   0.3750   0.3783   0.4521   0.5033   0.5248
     0.6161   0.6327   1.0540   1.1030   1.1260   1.1642   1.1703   1.2167
     1.2742   1.2905   1.3043   1.3517   1.3739   1.3901   1.4204   1.4421
     1.4487   1.4950   1.6746   1.6924   1.6937   1.7291   1.9419   1.9920
     2.0133   2.0468   2.0888   2.1186   2.1439   2.1911   2.2098   2.2804
     2.3556   2.3758   2.3972   2.4246   2.5333   2.5614   2.7030   2.7592
     2.8122   2.8299   2.9166   2.9247   2.9658   3.0018   3.0480   3.0758
     3.1095   3.1773   3.2124   3.2500   3.2824   3.3008   3.4063   3.4160
     3.4668   3.4776   3.4817   3.5257   3.5975   3.6012   3.6595   3.6746
     3.7093   3.7248   3.8307   3.8444   3.9711   4.0023   4.0050   4.0336
     4.1393   4.1838   4.2330   4.2574   4.3136   4.3654   4.4456   4.4610
     4.5382   4.5804   4.5960   4.6196   4.7481   4.8089   4.8533   4.8828
     4.9596   5.0024   5.1765   5.2018   5.2639   5.3154   5.4213   5.4440
     5.4812   5.5477   5.7340   5.7650   5.8685   5.8849   6.0018   6.0528
     6.3281   6.3463   6.4845   6.5642   7.1173   7.1554   7.3061   7.3434
     7.5331   7.5632   7.9731   7.9858

          k = 0.1429 0.3299 0.0000 ( 82895 PWs)   bands (ev):

   -90.9207 -90.9207 -90.8893 -90.8893 -90.8796 -90.8796 -90.5270 -90.5270
   -90.4996 -90.4996 -90.4684 -90.4684 -90.4588 -90.4588 -69.7795 -69.7795
   -69.7186 -69.7186 -69.6537 -69.6537 -69.6195 -69.6195 -69.5334 -69.5334
   -69.4908 -69.4908 -55.4674 -55.4671 -55.4459 -55.4455 -55.3818 -55.3811
   -55.0491 -55.0490 -55.0490 -55.0487 -55.0291 -55.0280 -54.9650 -54.9642
   -53.6947 -53.6922 -53.6407 -53.6396 -53.5855 -53.5850 -53.5634 -53.5608
   -53.5252 -53.5241 -53.4904 -53.4896 -53.2643 -53.2637 -53.2294 -53.2282
   -53.2201 -53.2199 -53.1828 -53.1820 -53.1704 -53.1694 -53.1416 -53.1402
   -53.1236 -53.1225 -53.0603 -53.0598 -41.1805 -41.1792 -41.1774 -41.1769
   -41.0909 -41.0892 -41.0623 -41.0609 -40.9410 -40.9403 -40.8690 -40.8682
   -31.6673 -31.6621 -31.6132 -31.6038 -31.5425 -31.5262 -31.5199 -31.4987
   -31.3862 -31.3380 -31.3190 -31.3169 -31.2632 -31.2563 -31.1677 -31.1582
   -31.1493 -31.1292 -31.0209 -31.0100 -30.9705 -30.9676 -30.8175 -30.8051
    -3.5846  -3.5664  -2.3168  -2.2169  -1.0592  -1.0569  -0.9641  -0.9422
    -0.7989  -0.7960  -0.6661  -0.6546  -0.4147  -0.3624  -0.3010  -0.2645
     0.2334   0.3078   0.3421   0.3792   0.4168   0.4437   0.4849   0.4987
     0.7718   0.7791   1.0038   1.0575   1.0660   1.1224   1.1473   1.1939
     1.2904   1.3000   1.3154   1.3402   1.3464   1.3609   1.3998   1.4076
     1.4383   1.4584   1.6701   1.6839   1.6997   1.7084   1.8353   1.8515
     1.8789   1.9041   2.0209   2.0456   2.0724   2.1281   2.1523   2.1934
     2.2697   2.3124   2.4268   2.4587   2.5025   2.5268   2.6451   2.6596
     2.7311   2.7624   2.8656   2.8782   2.9085   2.9265   2.9834   3.0036
     3.0615   3.1157   3.1454   3.1716   3.1821   3.2461   3.2984   3.3140
     3.3565   3.3953   3.4724   3.5282   3.5550   3.6149   3.6433   3.6873
     3.7306   3.7975   3.8161   3.8484   3.9182   3.9471   3.9624   3.9879
     4.1564   4.1837   4.2171   4.2229   4.2792   4.3369   4.4223   4.4413
     4.5898   4.6263   4.6935   4.7379   4.7806   4.8350   4.8816   4.9095
     5.0088   5.0479   5.1178   5.1757   5.2845   5.3287   5.4515   5.5303
     5.5698   5.6506   5.7778   5.8603   5.9954   6.0512   6.1507   6.1899
     6.5408   6.5967   6.6242   6.6539   6.9418   7.0139   7.1865   7.2429
     7.5088   7.5640   7.6879   7.7731

          k = 0.1429 0.4124 0.0000 ( 82882 PWs)   bands (ev):

   -90.9170 -90.9170 -90.8931 -90.8930 -90.8796 -90.8796 -90.5270 -90.5270
   -90.4959 -90.4959 -90.4721 -90.4721 -90.4588 -90.4588 -69.7790 -69.7790
   -69.7123 -69.7123 -69.6592 -69.6592 -69.6204 -69.6204 -69.5336 -69.5336
   -69.4912 -69.4912 -55.4664 -55.4661 -55.4376 -55.4371 -55.3890 -55.3884
   -55.0490 -55.0488 -55.0484 -55.0483 -55.0207 -55.0195 -54.9722 -54.9713
   -53.6874 -53.6847 -53.6290 -53.6278 -53.5810 -53.5799 -53.5710 -53.5693
   -53.5345 -53.5333 -53.4995 -53.4986 -53.2576 -53.2571 -53.2201 -53.2199
   -53.2161 -53.2145 -53.1774 -53.1761 -53.1703 -53.1694 -53.1533 -53.1517
   -53.1298 -53.1285 -53.0708 -53.0703 -41.1771 -41.1758 -41.1632 -41.1625
   -41.0910 -41.0892 -41.0683 -41.0667 -40.9497 -40.9491 -40.8736 -40.8726
   -31.6681 -31.6629 -31.6063 -31.5969 -31.5498 -31.5176 -31.5112 -31.4976
   -31.3781 -31.3243 -31.3180 -31.3110 -31.2495 -31.2433 -31.1651 -31.1560
   -31.1444 -31.1186 -31.0505 -31.0422 -30.9945 -30.9846 -30.8177 -30.8026
    -3.1243  -3.1023  -1.9848  -1.8707  -1.2418  -1.2159  -1.0631  -1.0522
    -0.9068  -0.8502  -0.6162  -0.6047  -0.4260  -0.3769  -0.2233  -0.1903
     0.1852   0.2738   0.3304   0.3601   0.4526   0.4750   0.5837   0.5939
     0.9177   0.9427   0.9930   1.0105   1.0647   1.1079   1.1692   1.1972
     1.2365   1.2518   1.3082   1.3174   1.3488   1.3704   1.4078   1.4191
     1.4474   1.4649   1.6310   1.6396   1.6779   1.6988   1.7185   1.7486
     1.7907   1.8103   1.8986   1.9370   2.0169   2.0588   2.1009   2.1252
     2.2222   2.2550   2.3648   2.3901   2.4168   2.4357   2.5510   2.5654
     2.7338   2.7400   2.7722   2.7926   2.8418   2.8569   2.8713   2.9049
     2.9656   3.0004   3.0354   3.0749   3.1403   3.1559   3.2851   3.3127
     3.3540   3.3913   3.4674   3.5158   3.5882   3.6372   3.6557   3.6971
     3.7911   3.8105   3.8347   3.8527   3.8995   3.9279   3.9475   4.0150
     4.1178   4.1251   4.2149   4.2519   4.2809   4.3317   4.4617   4.4899
     4.5863   4.6154   4.7305   4.8016   4.8552   4.8846   4.9209   4.9303
     5.0256   5.0739   5.1610   5.1899   5.3256   5.3861   5.4366   5.5720
     5.6219   5.7137   5.7987   5.9472   6.0576   6.1041   6.2508   6.2915
     6.6656   6.6952   6.7527   6.8301   6.8932   6.9490   7.1259   7.1369
     7.3876   7.4851   7.7536   7.7945

          k = 0.1429 0.4949 0.0000 ( 82917 PWs)   bands (ev):

   -90.9135 -90.9135 -90.8966 -90.8966 -90.8796 -90.8796 -90.5270 -90.5270
   -90.4924 -90.4924 -90.4756 -90.4756 -90.4588 -90.4588 -69.7786 -69.7786
   -69.7070 -69.7070 -69.6638 -69.6638 -69.6211 -69.6211 -69.5338 -69.5338
   -69.4915 -69.4915 -55.4658 -55.4655 -55.4297 -55.4293 -55.3960 -55.3955
   -55.0490 -55.0489 -55.0479 -55.0478 -55.0127 -55.0117 -54.9792 -54.9783
   -53.6821 -53.6795 -53.6165 -53.6153 -53.5841 -53.5813 -53.5711 -53.5695
   -53.5461 -53.5450 -53.5047 -53.5040 -53.2531 -53.2526 -53.2202 -53.2199
   -53.2019 -53.2001 -53.1710 -53.1702 -53.1695 -53.1691 -53.1650 -53.1634
   -53.1381 -53.1368 -53.0779 -53.0773 -41.1748 -41.1734 -41.1509 -41.1499
   -41.0906 -41.0891 -41.0751 -41.0736 -40.9558 -40.9554 -40.8766 -40.8756
   -31.6698 -31.6650 -31.6034 -31.5951 -31.5546 -31.5044 -31.4945 -31.4876
   -31.3744 -31.3321 -31.3159 -31.2944 -31.2506 -31.2474 -31.1670 -31.1556
   -31.1430 -31.1070 -31.0615 -31.0568 -31.0159 -30.9974 -30.8177 -30.8011
    -2.6175  -2.5920  -1.6734  -1.5877  -1.5745  -1.5148  -1.1434  -1.1380
    -1.0615  -0.9719  -0.5804  -0.5682  -0.3870  -0.3502  -0.2203  -0.1916
     0.1652   0.2076   0.3337   0.3725   0.5363   0.5531   0.7293   0.7400
     0.9145   0.9574   1.0113   1.0552   1.0740   1.1025   1.1599   1.1761
     1.2240   1.2567   1.3160   1.3224   1.3689   1.3913   1.4371   1.4557
     1.4671   1.4847   1.5015   1.5295   1.6031   1.6132   1.7149   1.7429
     1.7617   1.7774   1.8048   1.8247   1.9885   2.0145   2.0559   2.0967
     2.1361   2.1618   2.2480   2.3040   2.4207   2.4341   2.4795   2.5025
     2.5434   2.6050   2.7149   2.7287   2.7943   2.8112   2.8310   2.8743
     2.9377   2.9791   3.0331   3.0762   3.1537   3.1764   3.2505   3.2783
     3.3660   3.4167   3.4748   3.4989   3.5441   3.6263   3.7005   3.7211
     3.7516   3.7623   3.8194   3.8485   3.8944   3.9155   4.0084   4.0391
     4.0982   4.1445   4.2292   4.2828   4.3161   4.3424   4.4931   4.5175
     4.5985   4.6194   4.6746   4.7246   4.8840   4.9104   4.9398   4.9794
     5.1079   5.1434   5.2612   5.2959   5.3410   5.4219   5.4945   5.5717
     5.6048   5.6877   5.7594   5.8312   6.0895   6.1244   6.2493   6.3025
     6.5995   6.6989   6.8324   6.8747   6.9490   7.0448   7.1820   7.3167
     7.4764   7.5447   7.5950   7.6407

          k = 0.1429 0.5774 0.0000 ( 82946 PWs)   bands (ev):

   -90.9118 -90.9118 -90.8982 -90.8982 -90.8796 -90.8796 -90.5270 -90.5270
   -90.4907 -90.4907 -90.4773 -90.4773 -90.4588 -90.4588 -69.7785 -69.7785
   -69.7048 -69.7048 -69.6658 -69.6658 -69.6213 -69.6213 -69.5339 -69.5339
   -69.4915 -69.4915 -55.4656 -55.4653 -55.4257 -55.4256 -55.3994 -55.3991
   -55.0490 -55.0489 -55.0477 -55.0477 -55.0088 -55.0081 -54.9826 -54.9819
   -53.6802 -53.6777 -53.6089 -53.6078 -53.5897 -53.5880 -53.5649 -53.5624
   -53.5554 -53.5534 -53.5063 -53.5057 -53.2515 -53.2511 -53.2202 -53.2199
   -53.1926 -53.1918 -53.1741 -53.1730 -53.1702 -53.1695 -53.1646 -53.1631
   -53.1433 -53.1425 -53.0803 -53.0797 -41.1739 -41.1725 -41.1456 -41.1445
   -41.0897 -41.0895 -41.0784 -41.0775 -40.9580 -40.9576 -40.8776 -40.8766
   -31.6706 -31.6658 -31.6029 -31.5952 -31.5562 -31.5025 -31.4843 -31.4771
   -31.3744 -31.3377 -31.3145 -31.2869 -31.2570 -31.2520 -31.1670 -31.1564
   -31.1417 -31.1023 -31.0652 -31.0554 -31.0268 -31.0024 -30.8177 -30.8006
    -2.1355  -2.1259  -2.0416  -2.0292  -1.3309  -1.3094  -1.2141  -1.1914
    -1.1632  -1.1548  -0.5745  -0.5583  -0.3259  -0.2924  -0.2866  -0.2447
     0.1635   0.1983   0.3791   0.3943   0.5617   0.5905   0.8101   0.8257
     0.9068   0.9336   0.9860   1.0174   1.0631   1.1125   1.1621   1.1954
     1.2084   1.2139   1.3528   1.3728   1.3994   1.4123   1.4362   1.4476
     1.4666   1.4770   1.5104   1.5273   1.5555   1.5643   1.6982   1.7018
     1.7390   1.7555   1.7758   1.8141   1.9756   1.9972   2.0491   2.0645
     2.0793   2.1329   2.1968   2.2677   2.3764   2.3959   2.4799   2.5057
     2.5969   2.6045   2.6215   2.6370   2.7891   2.8109   2.8337   2.8826
     2.9183   2.9571   3.0395   3.0867   3.1514   3.1862   3.2431   3.2628
     3.3658   3.4036   3.4588   3.4962   3.6235   3.6628   3.6946   3.7065
     3.7201   3.7345   3.7914   3.8363   3.8935   3.9114   3.9963   4.0196
     4.1454   4.1751   4.2313   4.3076   4.3423   4.3741   4.4364   4.4790
     4.6231   4.6394   4.6448   4.7005   4.8910   4.9135   4.9608   4.9986
     5.1564   5.2203   5.2922   5.3055   5.3697   5.4690   5.5016   5.5372
     5.5797   5.6547   5.7489   5.8124   6.0268   6.0851   6.3297   6.3417
     6.5176   6.6211   6.8666   6.8953   6.9556   7.0626   7.2031   7.3496
     7.4779   7.5217   7.6850   7.7487

          k = 0.2143 0.3712 0.0000 ( 82856 PWs)   bands (ev):

   -90.9172 -90.9172 -90.8928 -90.8928 -90.8796 -90.8796 -90.5270 -90.5270
   -90.4961 -90.4961 -90.4719 -90.4719 -90.4588 -90.4588 -69.7790 -69.7790
   -69.7128 -69.7128 -69.6587 -69.6587 -69.6205 -69.6205 -69.5336 -69.5336
   -69.4912 -69.4912 -55.4664 -55.4660 -55.4384 -55.4379 -55.3884 -55.3878
   -55.0490 -55.0488 -55.0483 -55.0482 -55.0215 -55.0203 -54.9717 -54.9707
   -53.6875 -53.6844 -53.6315 -53.6300 -53.5811 -53.5801 -53.5708 -53.5689
   -53.5309 -53.5296 -53.5010 -53.4999 -53.2569 -53.2564 -53.2202 -53.2199
   -53.2194 -53.2177 -53.1776 -53.1761 -53.1703 -53.1694 -53.1533 -53.1517
   -53.1264 -53.1251 -53.0714 -53.0707 -41.1774 -41.1759 -41.1638 -41.1631
   -41.0911 -41.0893 -41.0683 -41.0667 -40.9490 -40.9484 -40.8733 -40.8722
   -31.6702 -31.6649 -31.5950 -31.5825 -31.5528 -31.5300 -31.5217 -31.4943
   -31.3841 -31.3226 -31.3182 -31.3088 -31.2550 -31.2481 -31.1656 -31.1536
   -31.1423 -31.1161 -31.0507 -31.0404 -30.9919 -30.9828 -30.8183 -30.8012
    -3.1759  -3.1547  -2.0190  -1.9070  -1.1592  -1.1370  -1.0553  -1.0457
    -0.8904  -0.8523  -0.6430  -0.6248  -0.4630  -0.3916  -0.2280  -0.2013
     0.2107   0.3267   0.3733   0.4080   0.4354   0.4636   0.5750   0.5838
     0.8995   0.9067   0.9398   0.9859   1.0701   1.1148   1.1798   1.2041
     1.2533   1.2727   1.2892   1.3070   1.3428   1.3734   1.4085   1.4127
     1.4325   1.4361   1.6626   1.6735   1.6870   1.7193   1.7573   1.7581
     1.7718   1.7917   1.9475   1.9859   1.9873   2.0503   2.0727   2.1031
     2.2352   2.2615   2.3629   2.3906   2.4399   2.4509   2.5804   2.6047
     2.7281   2.7474   2.7635   2.8024   2.8452   2.8635   2.8828   2.9301
     2.9527   2.9739   3.0439   3.0521   3.0847   3.1272   3.3277   3.3414
     3.3676   3.4006   3.5245   3.5314   3.5659   3.6163   3.6341   3.7198
     3.7482   3.7788   3.8263   3.8549   3.8597   3.9096   3.9418   3.9663
     4.1849   4.1958   4.2182   4.2475   4.2868   4.3382   4.4325   4.4638
     4.5910   4.6083   4.7226   4.7804   4.8788   4.9133   4.9488   4.9662
     5.0798   5.1158   5.1453   5.1997   5.2692   5.3784   5.5018   5.5357
     5.6029   5.7120   5.8048   5.8868   5.9993   6.0159   6.3508   6.3955
     6.5722   6.6136   6.7525   6.7640   6.8106   6.8595   7.0735   7.0865
     7.3796   7.4836   7.7750   7.8281

          k = 0.2143 0.4536 0.0000 ( 82872 PWs)   bands (ev):

   -90.9135 -90.9135 -90.8966 -90.8966 -90.8796 -90.8796 -90.5270 -90.5270
   -90.4924 -90.4924 -90.4756 -90.4756 -90.4588 -90.4588 -69.7786 -69.7786
   -69.7072 -69.7072 -69.6635 -69.6635 -69.6212 -69.6212 -69.5338 -69.5338
   -69.4915 -69.4915 -55.4656 -55.4652 -55.4302 -55.4297 -55.3958 -55.3952
   -55.0490 -55.0488 -55.0477 -55.0476 -55.0133 -55.0121 -54.9791 -54.9780
   -53.6812 -53.6777 -53.6219 -53.6201 -53.5827 -53.5798 -53.5721 -53.5704
   -53.5381 -53.5369 -53.5097 -53.5086 -53.2505 -53.2500 -53.2202 -53.2199
   -53.2090 -53.2071 -53.1705 -53.1703 -53.1694 -53.1684 -53.1653 -53.1636
   -53.1308 -53.1295 -53.0812 -53.0805 -41.1749 -41.1732 -41.1498 -41.1485
   -41.0913 -41.0893 -41.0767 -41.0748 -40.9554 -40.9548 -40.8766 -40.8753
   -31.6734 -31.6684 -31.5805 -31.5685 -31.5590 -31.5195 -31.5090 -31.4908
   -31.3837 -31.3367 -31.3226 -31.2856 -31.2582 -31.2532 -31.1649 -31.1496
   -31.1373 -31.1007 -31.0647 -31.0606 -31.0140 -30.9945 -30.8185 -30.7981
    -2.7128  -2.6895  -1.6994  -1.5810  -1.3851  -1.3694  -1.1796  -1.1727
    -0.9697  -0.9131  -0.6003  -0.5883  -0.5159  -0.4579  -0.1586  -0.1459
     0.2016   0.2651   0.3035   0.3147   0.5268   0.5439   0.7271   0.7344
     0.9370   0.9727   1.0157   1.0608   1.0660   1.1212   1.1829   1.2072
     1.2256   1.2522   1.2727   1.2910   1.3194   1.3328   1.4286   1.4363
     1.4596   1.4909   1.5986   1.6151   1.6255   1.6596   1.6795   1.7230
     1.7456   1.7726   1.8868   1.9073   1.9657   1.9923   2.0302   2.0881
     2.1218   2.1456   2.2766   2.3004   2.3715   2.3786   2.5030   2.5136
     2.5489   2.5877   2.7521   2.7642   2.7908   2.8122   2.8928   2.9047
     2.9360   2.9705   2.9959   3.0354   3.1010   3.1121   3.3172   3.3406
     3.3978   3.4264   3.4894   3.5109   3.5574   3.6135   3.6537   3.6969
     3.7133   3.7269   3.7987   3.8485   3.8715   3.8891   3.9684   4.0709
     4.1588   4.1712   4.2134   4.2236   4.3062   4.3344   4.4516   4.5077
     4.5846   4.6087   4.7240   4.7369   4.8543   4.8873   4.9392   5.0241
     5.1288   5.1634   5.2396   5.2962   5.3757   5.4675   5.5204   5.5837
     5.6455   5.7407   5.7685   5.8881   5.9932   6.0661   6.2954   6.3548
     6.5750   6.6510   6.6864   6.7124   6.9245   6.9651   7.0707   7.1968
     7.3951   7.4614   7.6196   7.6746

          k = 0.2143 0.5361 0.0000 ( 82876 PWs)   bands (ev):

   -90.9103 -90.9103 -90.8997 -90.8997 -90.8796 -90.8796 -90.5270 -90.5270
   -90.4893 -90.4893 -90.4787 -90.4787 -90.4588 -90.4588 -69.7784 -69.7784
   -69.7035 -69.7035 -69.6668 -69.6668 -69.6217 -69.6217 -69.5339 -69.5339
   -69.4916 -69.4916 -55.4652 -55.4648 -55.4233 -55.4230 -55.4021 -55.4017
   -55.0490 -55.0489 -55.0473 -55.0472 -55.0064 -55.0054 -54.9854 -54.9844
   -53.6774 -53.6737 -53.6139 -53.6119 -53.5901 -53.5884 -53.5640 -53.5613
   -53.5473 -53.5458 -53.5141 -53.5133 -53.2467 -53.2462 -53.2202 -53.2199
   -53.1997 -53.1982 -53.1767 -53.1752 -53.1703 -53.1694 -53.1618 -53.1598
   -53.1361 -53.1350 -53.0869 -53.0862 -41.1736 -41.1717 -41.1395 -41.1376
   -41.0911 -41.0894 -41.0841 -41.0823 -40.9589 -40.9583 -40.8784 -40.8770
   -31.6753 -31.6705 -31.5757 -31.5684 -31.5603 -31.4989 -31.4926 -31.4850
   -31.3871 -31.3560 -31.3290 -31.2710 -31.2660 -31.2593 -31.1645 -31.1464
   -31.1346 -31.0910 -31.0712 -31.0612 -31.0323 -31.0013 -30.8185 -30.7964
    -2.2305  -2.2063  -1.7684  -1.7410  -1.3864  -1.2945  -1.2611  -1.2515
    -1.0968  -1.0211  -0.6406  -0.6030  -0.4800  -0.4430  -0.1660  -0.1559
     0.1874   0.2063   0.3249   0.3461   0.5520   0.5872   0.8307   0.8429
     0.9477   0.9678   1.0357   1.0647   1.0803   1.1348   1.1691   1.2019
     1.2359   1.2435   1.2825   1.2947   1.3651   1.3858   1.4334   1.4385
     1.4690   1.5082   1.5206   1.5295   1.5836   1.6059   1.6782   1.7140
     1.7339   1.7813   1.8359   1.8463   1.9483   1.9627   1.9993   2.0451
     2.0818   2.1265   2.1677   2.1907   2.3220   2.3466   2.4581   2.4857
     2.5389   2.5738   2.6544   2.6753   2.7592   2.7922   2.8982   2.9356
     2.9415   2.9811   3.0066   3.0568   3.1396   3.1640   3.2934   3.3138
     3.3753   3.4054   3.4356   3.4597   3.6150   3.6326   3.6635   3.6811
     3.7170   3.7531   3.8081   3.8296   3.8523   3.8970   3.9978   4.0466
     4.1063   4.1179   4.1841   4.2214   4.3143   4.3350   4.4232   4.4639
     4.5914   4.6219   4.6493   4.6738   4.9124   4.9770   4.9908   5.0539
     5.1578   5.2419   5.2968   5.3282   5.3894   5.4955   5.6060   5.6292
     5.6464   5.6968   5.7343   5.8351   6.1064   6.1394   6.1811   6.2195
     6.4295   6.5379   6.7317   6.7870   6.9376   7.0398   7.1417   7.2969
     7.4458   7.5208   7.5513   7.6627

          k = 0.2857 0.4949 0.0000 ( 82852 PWs)   bands (ev):

   -90.9097 -90.9097 -90.9003 -90.9003 -90.8796 -90.8796 -90.5270 -90.5270
   -90.4887 -90.4887 -90.4793 -90.4793 -90.4588 -90.4588 -69.7784 -69.7784
   -69.7030 -69.7030 -69.6671 -69.6671 -69.6218 -69.6218 -69.5339 -69.5339
   -69.4916 -69.4916 -55.4651 -55.4646 -55.4223 -55.4219 -55.4033 -55.4027
   -55.0490 -55.0489 -55.0471 -55.0471 -55.0055 -55.0043 -54.9866 -54.9853
   -53.6762 -53.6720 -53.6165 -53.6141 -53.5899 -53.5883 -53.5640 -53.5613
   -53.5418 -53.5405 -53.5189 -53.5179 -53.2443 -53.2438 -53.2202 -53.2198
   -53.2034 -53.2016 -53.1773 -53.1756 -53.1704 -53.1693 -53.1610 -53.1589
   -53.1321 -53.1310 -53.0902 -53.0895 -41.1734 -41.1714 -41.1368 -41.1344
   -41.0925 -41.0893 -41.0867 -41.0840 -40.9592 -40.9585 -40.8787 -40.8772
   -31.6769 -31.6719 -31.5683 -31.5602 -31.5430 -31.5131 -31.4951 -31.4860
   -31.3928 -31.3650 -31.3362 -31.2694 -31.2649 -31.2578 -31.1683 -31.1432
   -31.1280 -31.0836 -31.0734 -31.0681 -31.0331 -31.0009 -30.8186 -30.7949
    -2.2745  -2.2518  -1.5303  -1.5163  -1.4742  -1.4223  -1.3383  -1.2880
    -0.9808  -0.9464  -0.6983  -0.6181  -0.5633  -0.5316  -0.0865  -0.0727
     0.1868   0.2034   0.2877   0.3106   0.5316   0.5512   0.8384   0.8484
     0.9838   0.9995   1.0304   1.0600   1.1148   1.1570   1.1754   1.1977
     1.2440   1.2511   1.2770   1.2881   1.3303   1.3441   1.4198   1.4265
     1.4981   1.5325   1.5438   1.5606   1.5893   1.6256   1.6488   1.6987
     1.7419   1.7570   1.8781   1.8945   1.9239   1.9386   1.9882   2.0123
     2.0681   2.1013   2.2160   2.2460   2.2632   2.2812   2.4594   2.4861
     2.5202   2.5498   2.6861   2.7200   2.7260   2.7820   2.8691   2.9319
     3.0015   3.0150   3.0186   3.0404   3.1012   3.1198   3.3355   3.3785
     3.3841   3.3987   3.4575   3.5103   3.5529   3.5876   3.5917   3.6388
     3.6941   3.7583   3.7719   3.8185   3.8763   3.9251   3.9802   4.0430
     4.0725   4.1349   4.2046   4.2201   4.3262   4.3499   4.4109   4.4732
     4.5729   4.6004   4.6574   4.6838   4.9015   4.9263   5.0158   5.0814
     5.1459   5.1857   5.2659   5.3201   5.4135   5.5132   5.6241   5.6418
     5.6682   5.7646   5.8468   5.9157   5.9748   6.0946   6.1421   6.1551
     6.5423   6.6176   6.6323   6.6674   6.9893   7.0173   7.1148   7.2650
     7.4294   7.4978   7.5217   7.6177

          k = 0.2857 0.5774 0.0000 ( 82866 PWs)   bands (ev):

   -90.9071 -90.9071 -90.9029 -90.9029 -90.8796 -90.8796 -90.5270 -90.5270
   -90.4861 -90.4861 -90.4819 -90.4819 -90.4588 -90.4588 -69.7783 -69.7783
   -69.7013 -69.7013 -69.6686 -69.6686 -69.6221 -69.6221 -69.5340 -69.5340
   -69.4917 -69.4917 -55.4648 -55.4644 -55.4169 -55.4166 -55.4084 -55.4079
   -55.0490 -55.0489 -55.0469 -55.0469 -55.0000 -54.9992 -54.9917 -54.9905
   -53.6742 -53.6697 -53.6142 -53.6113 -53.5933 -53.5926 -53.5588 -53.5538
   -53.5462 -53.5434 -53.5227 -53.5221 -53.2417 -53.2412 -53.2202 -53.2198
   -53.2001 -53.1994 -53.1821 -53.1813 -53.1704 -53.1693 -53.1568 -53.1545
   -53.1328 -53.1322 -53.0939 -53.0934 -41.1729 -41.1708 -41.1302 -41.1268
   -41.0956 -41.0916 -41.0890 -41.0882 -40.9605 -40.9598 -40.8794 -40.8778
   -31.6780 -31.6731 -31.5702 -31.5551 -31.5381 -31.5013 -31.4848 -31.4811
   -31.4001 -31.3850 -31.3433 -31.2720 -31.2650 -31.2508 -31.1715 -31.1405
   -31.1236 -31.0781 -31.0766 -31.0644 -31.0449 -31.0031 -30.8185 -30.7937
    -1.8736  -1.8468  -1.8334  -1.8062  -1.5175  -1.5040  -1.1950  -1.1708
    -1.0014  -0.9630  -0.7928  -0.7061  -0.5570  -0.5215  -0.0384  -0.0239
     0.1182   0.1338   0.3594   0.3717   0.4765   0.5119   0.8750   0.8982
     0.9750   1.0000   1.0509   1.0773   1.1231   1.1715   1.1809   1.2150
     1.2397   1.2594   1.3124   1.3133   1.3831   1.3945   1.4050   1.4120
     1.4468   1.4543   1.4845   1.4859   1.6357   1.6647   1.6686   1.6857
     1.7120   1.7507   1.8817   1.8944   1.9112   1.9156   1.9489   1.9974
     2.0944   2.1061   2.1658   2.1893   2.2228   2.2429   2.4566   2.5108
     2.5561   2.5782   2.6224   2.6565   2.7155   2.7585   2.8587   2.9357
     3.0113   3.0290   3.0563   3.0623   3.1127   3.1369   3.3619   3.3785
     3.4069   3.4100   3.4386   3.4727   3.5208   3.5390   3.5777   3.6353
     3.7057   3.7373   3.7793   3.8173   3.8818   3.9141   3.9866   3.9917
     4.0386   4.0869   4.2040   4.2220   4.3257   4.3557   4.3981   4.4582
     4.5633   4.5829   4.6451   4.6572   4.9471   4.9923   5.0489   5.0926
     5.1587   5.1806   5.2614   5.3744   5.4607   5.5468   5.6203   5.6402
     5.6693   5.8090   5.8333   5.9180   5.9360   5.9909   6.0399   6.1409
     6.5748   6.6208   6.6598   6.7612   6.9243   6.9705   7.1312   7.2471
     7.4633   7.5105   7.5551   7.6212

     the Fermi energy is     4.2503 ev

!    total energy              =   -3067.47009961 Ry
     estimated scf accuracy    <       0.00000053 Ry
     smearing contrib. (-TS)   =      -0.00033450 Ry
     internal energy E=F+TS    =   -3067.46976512 Ry

     The total energy is F=E-TS. E is the sum of the following terms:
     one-electron contribution =  -26670.82071575 Ry
     hartree contribution      =   13351.67602701 Ry
     xc contribution           =    -593.51043094 Ry
     ewald contribution        =   10845.18535456 Ry

     convergence has been achieved in  21 iterations

     Forces acting on atoms (cartesian axes, Ry/au):

     atom    1 type  1   force =     0.00000000   -0.00040727   -0.04604856
     atom    2 type  1   force =    -0.00035271    0.00020364   -0.04604856
     atom    3 type  1   force =     0.00035271    0.00020364   -0.04604856
     atom    4 type  2   force =     0.00000000    0.00000000    0.06836445
     atom    5 type  2   force =     0.00000000    0.00000000    0.02019531
     atom    6 type  2   force =     0.00000000    0.00000000    0.03607065
     atom    7 type  2   force =     0.00000000    0.00000000    0.00978217
     atom    8 type  1   force =     0.00000000    0.00222443   -0.01976177
     atom    9 type  1   force =     0.00192642   -0.00111222   -0.01976177
     atom   10 type  1   force =    -0.00192642   -0.00111222   -0.01976177
     atom   11 type  2   force =     0.00000000    0.00000000    0.03253386
     atom   12 type  1   force =     0.00000000    0.00000000   -0.04336750
     atom   13 type  2   force =     0.00000000    0.00000000    0.07385204

     Total force =     0.149733     Total SCF correction =     0.005349


     Computing stress (Cartesian axis) and pressure

          total   stress  (Ry/bohr**3)                   (kbar)     P=      -29.19
  -0.00018580   0.00000000   0.00000000          -27.33        0.00        0.00
   0.00000000  -0.00018580   0.00000000            0.00      -27.33        0.00
   0.00000000   0.00000000  -0.00022371            0.00        0.00      -32.91


     Writing output data file ./r2.save/
 
     init_run     :     32.11s CPU     33.47s WALL (       1 calls)
     electrons    :   2155.84s CPU   2232.68s WALL (       1 calls)
     forces       :     22.03s CPU     22.65s WALL (       1 calls)
     stress       :    108.07s CPU    109.77s WALL (       1 calls)

     Called by init_run:
     wfcinit      :     31.11s CPU     32.36s WALL (       1 calls)
     potinit      :      0.46s CPU      0.48s WALL (       1 calls)
     hinit0       :      0.36s CPU      0.39s WALL (       1 calls)

     Called by electrons:
     c_bands      :   1720.04s CPU   1779.51s WALL (      21 calls)
     sum_band     :    330.81s CPU    342.76s WALL (      21 calls)
     v_of_rho     :      2.20s CPU      2.33s WALL (      22 calls)
     mix_rho      :    100.42s CPU    105.46s WALL (      21 calls)

     Called by c_bands:
     init_us_2    :      8.28s CPU      8.48s WALL (     270 calls)
     cegterg      :   1549.46s CPU   1604.79s WALL (     126 calls)

     Called by *egterg:
     cdiaghg      :     67.40s CPU     68.38s WALL (     439 calls)
     h_psi        :   1241.24s CPU   1286.91s WALL (     445 calls)
     g_psi        :      2.47s CPU      2.50s WALL (     313 calls)

     Called by h_psi:
     h_psi:calbec :     99.41s CPU    101.46s WALL (     445 calls)
     vloc_psi     :   1026.58s CPU   1064.44s WALL (     445 calls)
     add_vuspsi   :    109.66s CPU    111.58s WALL (     445 calls)

     General routines
     calbec       :    112.70s CPU    115.12s WALL (     475 calls)
     fft          :      1.69s CPU      1.82s WALL (     310 calls)
     ffts         :     51.15s CPU     54.66s WALL (   10960 calls)
     fftw         :    995.73s CPU   1036.22s WALL (  345308 calls)
 
     Parallel routines
     fft_scatt_xy :    170.05s CPU    175.70s WALL (  356578 calls)
     fft_scatt_yz :    288.67s CPU    309.56s WALL (  356578 calls)
 
     PWSCF        :  38m41.49s CPU  40m 5.62s WALL

 
   This run was terminated on:  20:36:58   7May2020            

=------------------------------------------------------------------------------=
   JOB DONE.
=------------------------------------------------------------------------------=
