
     Program PWSCF v.6.5 starts on 11Mar2020 at  3: 6:54 

     This program is part of the open-source Quantum ESPRESSO suite
     for quantum simulation of materials; please cite
         "P. Giannozzi et al., J. Phys.:Condens. Matter 21 395502 (2009);
         "P. Giannozzi et al., J. Phys.:Condens. Matter 29 465901 (2017);
          URL http://www.quantum-espresso.org", 
     in publications or presentations arising from this work. More details at
     http://www.quantum-espresso.org/quote

     Parallel version (MPI), running on    20 processors

     MPI processes distributed on    10 nodes
     K-points division:     npool     =       4
     R & G space division:  proc/nbgrp/npool/nimage =       5
     Reading input from bulk.scf.9.in

     Current dimensions of program PWSCF are:
     Max number of different atomic species (ntypx) = 10
     Max number of k-points (npk) =  40000
     Max angular momentum in pseudopotentials (lmaxx) =  3

     Subspace diagonalization in iterative solution of the eigenvalue problem:
     a serial algorithm will be used

 
     Parallelization info
     --------------------
     sticks:   dense  smooth     PW     G-vecs:    dense   smooth      PW
     Min        1022    1022    291                34939    34939    5317
     Max        1023    1023    292                34939    34939    5318
     Sum        5113    5113   1457               174695   174695   26589
 

     Title: 
     bulk                                                                       


     bravais-lattice index     =            5
     lattice parameter (alat)  =      16.9196  a.u.
     unit-cell volume          =    1121.6901 (a.u.)^3
     number of atoms/cell      =           13
     number of atomic types    =            2
     number of electrons       =       203.00
     number of Kohn-Sham states=          122
     kinetic-energy cutoff     =     110.0000  Ry
     charge density cutoff     =     440.0000  Ry
     convergence threshold     =      1.0E-07
     mixing beta               =       0.7000
     number of iterations used =            8  plain     mixing
     Exchange-correlation= PBE
                           (   1   4   3   4   0   0   0)

     celldm(1)=  16.919609  celldm(2)=   0.000000  celldm(3)=   0.000000
     celldm(4)=   0.859561  celldm(5)=   0.000000  celldm(6)=   0.000000

     crystal axes: (cart. coord. in units of alat)
               a(1) = (   0.264990  -0.152992   0.952037 )  
               a(2) = (   0.000000   0.305984   0.952037 )  
               a(3) = (  -0.264990  -0.152992   0.952037 )  

     reciprocal axes: (cart. coord. in units 2 pi/alat)
               b(1) = (  1.886867 -1.089383  0.350127 )  
               b(2) = (  0.000000  2.178766  0.350127 )  
               b(3) = ( -1.886867 -1.089383  0.350127 )  


     PseudoPot. # 1 for Co read from file:
     /nfs-share/home/1600011702/pseudo/Co.nc.fr.pbe.stringent.upf
     MD5 check sum: 5025e55def73e686899be73cabb26c16
     Pseudo is Norm-conserving + core correction, Zval = 17.0
     Generated using ONCVPSP code by D. R. Hamann
     Using radial grid of 1388 points,  6 beta functions with: 
                l(1) =   0
                l(2) =   0
                l(3) =   1
                l(4) =   1
                l(5) =   2
                l(6) =   2

     PseudoPot. # 2 for W  read from file:
     /nfs-share/home/1600011702/pseudo/W.nc.fr.pbe.stringent.upf
     MD5 check sum: 75b1d432d85d028982bb81b068264ebf
     Pseudo is Norm-conserving + core correction, Zval = 14.0
     Generated using ONCVPSP code by D. R. Hamann
     Using radial grid of 1396 points,  8 beta functions with: 
                l(1) =   0
                l(2) =   0
                l(3) =   1
                l(4) =   1
                l(5) =   2
                l(6) =   2
                l(7) =   3
                l(8) =   3

     atomic species   valence    mass     pseudopotential
        Co            17.00    58.93320     Co( 1.00)
        W             14.00   183.84000     W ( 1.00)

     Starting magnetic structure 
     atomic species   magnetization
        Co           1.000
        W            1.000

     12 Sym. Ops., with inversion, found



   Cartesian axes

     site n.     atom                  positions (alat units)
         1           Co  tau(   1) = (   0.0000000   0.0000000   0.0000000  )
         2           Co  tau(   2) = (  -0.1324463  -0.0764679   0.7327285  )
         3           Co  tau(   3) = (   0.0000000   0.1529359   0.7327285  )
         4           Co  tau(   4) = (   0.1324463  -0.0764679   0.7327285  )
         5           Co  tau(   5) = (   0.1324463   0.0764679  -0.7327285  )
         6           Co  tau(   6) = (   0.0000000  -0.1529359  -0.7327285  )
         7           Co  tau(   7) = (  -0.1324463   0.0764679  -0.7327285  )
         8           W   tau(   8) = (   0.0000000  -0.0000000   0.4714343  )
         9           W   tau(   9) = (   0.0000000  -0.0000000   0.9914373  )
        10           W   tau(  10) = (   0.0000000  -0.0000000   1.2864510  )
        11           W   tau(  11) = (   0.0000000   0.0000000  -0.4714343  )
        12           W   tau(  12) = (   0.0000000   0.0000000  -0.9914373  )
        13           W   tau(  13) = (   0.0000000   0.0000000  -1.2864510  )

     number of k points=    85  Methfessel-Paxton smearing, width (Ry)=  0.0100
                       cart. coord. in units 2pi/alat
        k(    1) = (   0.0000000   0.0000000   0.0000000), wk =   0.0013717
        k(    2) = (  -0.2096519  -0.1210426   0.0389029), wk =   0.0082305
        k(    3) = (  -0.4193037  -0.2420851   0.0778059), wk =   0.0082305
        k(    4) = (  -0.6289556  -0.3631277   0.1167088), wk =   0.0082305
        k(    5) = (  -0.8386074  -0.4841702   0.1556118), wk =   0.0082305
        k(    6) = (  -0.2096519   0.1210426   0.0778059), wk =   0.0082305
        k(    7) = (  -0.4193037   0.0000000   0.1167088), wk =   0.0164609
        k(    8) = (  -0.6289556  -0.1210426   0.1556118), wk =   0.0164609
        k(    9) = (  -0.8386074  -0.2420851   0.1945147), wk =   0.0164609
        k(   10) = (   0.8386074   0.7262553  -0.1167088), wk =   0.0164609
        k(   11) = (   0.6289556   0.6052128  -0.0778059), wk =   0.0164609
        k(   12) = (   0.4193037   0.4841702  -0.0389029), wk =   0.0164609
        k(   13) = (   0.2096519   0.3631277   0.0000000), wk =   0.0082305
        k(   14) = (  -0.4193037   0.2420851   0.1556118), wk =   0.0082305
        k(   15) = (  -0.6289556   0.1210426   0.1945147), wk =   0.0164609
        k(   16) = (  -0.8386074   0.0000000   0.2334177), wk =   0.0164609
        k(   17) = (   0.8386074   0.9683404  -0.0778059), wk =   0.0164609
        k(   18) = (   0.6289556   0.8472979  -0.0389029), wk =   0.0164609
        k(   19) = (   0.4193037   0.7262553   0.0000000), wk =   0.0082305
        k(   20) = (  -0.6289556   0.3631277   0.2334177), wk =   0.0082305
        k(   21) = (  -0.8386074   0.2420851   0.2723206), wk =   0.0164609
        k(   22) = (   0.8386074   1.2104255  -0.0389029), wk =   0.0164609
        k(   23) = (   0.6289556   1.0893830   0.0000000), wk =   0.0082305
        k(   24) = (  -0.8386074   0.4841702   0.3112236), wk =   0.0082305
        k(   25) = (   0.8386074   1.4525106   0.0000000), wk =   0.0082305
        k(   26) = (   0.0000000   0.0000000   0.1167088), wk =   0.0027435
        k(   27) = (  -0.2096519  -0.1210426   0.1556118), wk =   0.0082305
        k(   28) = (  -0.4193037  -0.2420851   0.1945147), wk =   0.0082305
        k(   29) = (  -0.6289556  -0.3631277   0.2334177), wk =   0.0082305
        k(   30) = (   1.0482593   0.6052128  -0.0778059), wk =   0.0082305
        k(   31) = (   0.8386074   0.4841702  -0.0389029), wk =   0.0082305
        k(   32) = (   0.6289556   0.3631277   0.0000000), wk =   0.0082305
        k(   33) = (   0.4193037   0.2420851   0.0389029), wk =   0.0082305
        k(   34) = (  -0.2096519   0.1210426   0.1945147), wk =   0.0082305
        k(   35) = (  -0.4193037   0.0000000   0.2334177), wk =   0.0164609
        k(   36) = (  -0.6289556  -0.1210426   0.2723206), wk =   0.0164609
        k(   37) = (   1.0482593   0.8472979  -0.0389029), wk =   0.0164609
        k(   38) = (   0.8386074   0.7262553   0.0000000), wk =   0.0164609
        k(   39) = (   0.6289556   0.6052128   0.0389029), wk =   0.0164609
        k(   40) = (   0.4193037   0.4841702   0.0778059), wk =   0.0164609
        k(   41) = (  -0.4193037   0.2420851   0.2723206), wk =   0.0082305
        k(   42) = (  -0.6289556   0.1210426   0.3112236), wk =   0.0164609
        k(   43) = (   1.0482593   1.0893830   0.0000000), wk =   0.0164609
        k(   44) = (   0.8386074   0.9683404   0.0389029), wk =   0.0164609
        k(   45) = (   0.6289556   0.8472979   0.0778059), wk =   0.0164609
        k(   46) = (   0.4193037   0.7262553   0.1167088), wk =   0.0164609
        k(   47) = (  -0.6289556   0.3631277   0.3501265), wk =   0.0082305
        k(   48) = (   1.0482593   1.3314681   0.0389029), wk =   0.0164609
        k(   49) = (   0.8386074   1.2104255   0.0778059), wk =   0.0164609
        k(   50) = (   0.6289556   1.0893830   0.1167088), wk =   0.0164609
        k(   51) = (   0.4193037   0.9683404   0.1556118), wk =   0.0164609
        k(   52) = (   1.0482593  -0.6052128  -0.2723206), wk =   0.0082305
        k(   53) = (   0.8386074  -0.7262553  -0.2334177), wk =   0.0164609
        k(   54) = (   0.6289556  -0.8472979  -0.1945147), wk =   0.0164609
        k(   55) = (   0.8386074  -0.4841702  -0.1945147), wk =   0.0082305
        k(   56) = (   0.6289556  -0.6052128  -0.1556118), wk =   0.0164609
        k(   57) = (   0.6289556  -0.3631277  -0.1167088), wk =   0.0082305
        k(   58) = (   0.0000000   0.0000000   0.2334177), wk =   0.0027435
        k(   59) = (  -0.2096519  -0.1210426   0.2723206), wk =   0.0082305
        k(   60) = (  -0.4193037  -0.2420851   0.3112236), wk =   0.0082305
        k(   61) = (   1.2579111   0.7262553   0.0000000), wk =   0.0082305
        k(   62) = (   1.0482593   0.6052128   0.0389029), wk =   0.0082305
        k(   63) = (   0.8386074   0.4841702   0.0778059), wk =   0.0082305
        k(   64) = (  -0.2096519   0.1210426   0.3112236), wk =   0.0082305
        k(   65) = (  -0.4193037   0.0000000   0.3501265), wk =   0.0164609
        k(   66) = (   1.2579111   0.9683404   0.0389029), wk =   0.0164609
        k(   67) = (   1.0482593   0.8472979   0.0778059), wk =   0.0164609
        k(   68) = (   0.8386074   0.7262553   0.1167088), wk =   0.0164609
        k(   69) = (  -0.4193037   0.2420851   0.3890295), wk =   0.0082305
        k(   70) = (   1.2579111   1.2104255   0.0778059), wk =   0.0164609
        k(   71) = (   1.0482593   1.0893830   0.1167088), wk =   0.0164609
        k(   72) = (   0.8386074   0.9683404   0.1556118), wk =   0.0164609
        k(   73) = (   1.2579111  -0.7262553  -0.2334177), wk =   0.0082305
        k(   74) = (   1.0482593  -0.8472979  -0.1945147), wk =   0.0164609
        k(   75) = (   1.0482593  -0.6052128  -0.1556118), wk =   0.0082305
        k(   76) = (   0.0000000   0.0000000   0.3501265), wk =   0.0027435
        k(   77) = (  -0.2096519  -0.1210426   0.3890295), wk =   0.0082305
        k(   78) = (   1.4675630   0.8472979   0.0778059), wk =   0.0082305
        k(   79) = (   1.2579111   0.7262553   0.1167088), wk =   0.0082305
        k(   80) = (  -0.2096519   0.1210426   0.4279324), wk =   0.0082305
        k(   81) = (   1.4675630   1.0893830   0.1167088), wk =   0.0164609
        k(   82) = (   1.2579111   0.9683404   0.1556118), wk =   0.0164609
        k(   83) = (   1.4675630  -0.8472979  -0.1945147), wk =   0.0082305
        k(   84) = (   0.0000000   0.0000000   0.4668354), wk =   0.0027435
        k(   85) = (   1.6772148   0.9683404   0.1556118), wk =   0.0082305

     Dense  grid:   174695 G-vectors     FFT dimensions: ( 120, 120, 120)

     Estimated max dynamical RAM per process >     540.63 MB

     Estimated total dynamical RAM >      10.56 GB
     Generating pointlists ...
     new r_m :   0.1093 (alat units)  1.8488 (a.u.) for type    1
     new r_m :   0.1168 (alat units)  1.9766 (a.u.) for type    2

     Initial potential from superposition of free atoms

     starting charge  202.99483, renormalised to  203.00000
     Starting wfcs are  130 randomized atomic wfcs

     total cpu time spent up to now is       95.6 secs

     Self-consistent Calculation

     iteration #  1     ecut=   110.00 Ry     beta= 0.70
     Davidson diagonalization with overlap
     ethr =  1.00E-02,  avg # of iterations =  3.5

     total cpu time spent up to now is      407.9 secs

     total energy              =   -3035.66757170 Ry
     estimated scf accuracy    <      70.86484394 Ry

     total magnetization       =    41.00 Bohr mag/cell
     absolute magnetization    =    42.19 Bohr mag/cell

     iteration #  2     ecut=   110.00 Ry     beta= 0.70
     Davidson diagonalization with overlap
     ethr =  1.00E-02,  avg # of iterations =  5.2

     total cpu time spent up to now is      788.9 secs

     total energy              =   -3044.72575044 Ry
     estimated scf accuracy    <     332.48394008 Ry

     total magnetization       =     4.94 Bohr mag/cell
     absolute magnetization    =     5.08 Bohr mag/cell

     iteration #  3     ecut=   110.00 Ry     beta= 0.70
     Davidson diagonalization with overlap
     ethr =  1.00E-02,  avg # of iterations =  5.9

     total cpu time spent up to now is     1168.7 secs

     total energy              =   -3048.76198700 Ry
     estimated scf accuracy    <      77.99865426 Ry

     total magnetization       =    14.00 Bohr mag/cell
     absolute magnetization    =    14.34 Bohr mag/cell

     iteration #  4     ecut=   110.00 Ry     beta= 0.70
     Davidson diagonalization with overlap
     ethr =  1.00E-02,  avg # of iterations =  5.0

     total cpu time spent up to now is     1529.1 secs

     total energy              =   -3052.25043638 Ry
     estimated scf accuracy    <     156.94475459 Ry

     total magnetization       =    19.29 Bohr mag/cell
     absolute magnetization    =    19.94 Bohr mag/cell

     iteration #  5     ecut=   110.00 Ry     beta= 0.70
     Davidson diagonalization with overlap
     ethr =  1.00E-02,  avg # of iterations =  5.6

     total cpu time spent up to now is     1898.2 secs

     total energy              =   -3060.82294973 Ry
     estimated scf accuracy    <     127.36750312 Ry

     total magnetization       =    15.66 Bohr mag/cell
     absolute magnetization    =    16.44 Bohr mag/cell

     iteration #  6     ecut=   110.00 Ry     beta= 0.70
     Davidson diagonalization with overlap
     ethr =  1.00E-02,  avg # of iterations =  2.7

     total cpu time spent up to now is     2154.8 secs

     total energy              =   -3063.22786884 Ry
     estimated scf accuracy    <      40.25490953 Ry

     total magnetization       =     9.15 Bohr mag/cell
     absolute magnetization    =     9.91 Bohr mag/cell

     iteration #  7     ecut=   110.00 Ry     beta= 0.70
     Davidson diagonalization with overlap
     ethr =  1.00E-02,  avg # of iterations =  3.6

     total cpu time spent up to now is     2408.4 secs

     total energy              =   -3067.02248473 Ry
     estimated scf accuracy    <       6.76258836 Ry

     total magnetization       =     6.49 Bohr mag/cell
     absolute magnetization    =     7.67 Bohr mag/cell

     iteration #  8     ecut=   110.00 Ry     beta= 0.70
     Davidson diagonalization with overlap
     ethr =  3.33E-03,  avg # of iterations =  1.7

     total cpu time spent up to now is     2642.8 secs

     total energy              =   -3067.03691468 Ry
     estimated scf accuracy    <       4.21440392 Ry

     total magnetization       =     6.39 Bohr mag/cell
     absolute magnetization    =     7.67 Bohr mag/cell

     iteration #  9     ecut=   110.00 Ry     beta= 0.70
     Davidson diagonalization with overlap
     ethr =  2.08E-03,  avg # of iterations =  1.1

     total cpu time spent up to now is     2875.2 secs

     total energy              =   -3066.81711643 Ry
     estimated scf accuracy    <       2.22258391 Ry

     total magnetization       =     6.51 Bohr mag/cell
     absolute magnetization    =     7.65 Bohr mag/cell

     iteration # 10     ecut=   110.00 Ry     beta= 0.70
     Davidson diagonalization with overlap
     ethr =  1.09E-03,  avg # of iterations =  2.9

     total cpu time spent up to now is     3116.0 secs

     total energy              =   -3067.00863551 Ry
     estimated scf accuracy    <       1.52178453 Ry

     total magnetization       =     3.73 Bohr mag/cell
     absolute magnetization    =     5.19 Bohr mag/cell

     iteration # 11     ecut=   110.00 Ry     beta= 0.70
     Davidson diagonalization with overlap
     ethr =  7.50E-04,  avg # of iterations =  1.7

     total cpu time spent up to now is     3352.2 secs

     total energy              =   -3067.07481391 Ry
     estimated scf accuracy    <       0.09688587 Ry

     total magnetization       =     3.71 Bohr mag/cell
     absolute magnetization    =     5.17 Bohr mag/cell

     iteration # 12     ecut=   110.00 Ry     beta= 0.70
     Davidson diagonalization with overlap
     ethr =  4.77E-05,  avg # of iterations =  5.8

     total cpu time spent up to now is     3639.0 secs

     total energy              =   -3067.09086197 Ry
     estimated scf accuracy    <       0.01599334 Ry

     total magnetization       =     2.87 Bohr mag/cell
     absolute magnetization    =     4.25 Bohr mag/cell

     iteration # 13     ecut=   110.00 Ry     beta= 0.70
     Davidson diagonalization with overlap
     ethr =  7.88E-06,  avg # of iterations =  3.1

     total cpu time spent up to now is     3913.9 secs

     total energy              =   -3067.07959172 Ry
     estimated scf accuracy    <       0.42082901 Ry

     total magnetization       =     2.45 Bohr mag/cell
     absolute magnetization    =     3.52 Bohr mag/cell

     iteration # 14     ecut=   110.00 Ry     beta= 0.70
     Davidson diagonalization with overlap
     ethr =  7.88E-06,  avg # of iterations =  3.0

     total cpu time spent up to now is     4192.8 secs

     total energy              =   -3067.09872754 Ry
     estimated scf accuracy    <       0.01978084 Ry

     total magnetization       =     2.00 Bohr mag/cell
     absolute magnetization    =     2.72 Bohr mag/cell

     iteration # 15     ecut=   110.00 Ry     beta= 0.70
     Davidson diagonalization with overlap
     ethr =  7.88E-06,  avg # of iterations =  2.1

     total cpu time spent up to now is     4436.9 secs

     total energy              =   -3067.10184925 Ry
     estimated scf accuracy    <       0.06609987 Ry

     total magnetization       =     1.85 Bohr mag/cell
     absolute magnetization    =     2.39 Bohr mag/cell

     iteration # 16     ecut=   110.00 Ry     beta= 0.70
     Davidson diagonalization with overlap
     ethr =  7.88E-06,  avg # of iterations =  1.5

     total cpu time spent up to now is     4671.4 secs

     total energy              =   -3067.10338294 Ry
     estimated scf accuracy    <       0.00590233 Ry

     total magnetization       =     1.87 Bohr mag/cell
     absolute magnetization    =     2.35 Bohr mag/cell

     iteration # 17     ecut=   110.00 Ry     beta= 0.70
     Davidson diagonalization with overlap
     ethr =  2.91E-06,  avg # of iterations =  1.0

     total cpu time spent up to now is     4901.7 secs

     total energy              =   -3067.10366025 Ry
     estimated scf accuracy    <       0.00200405 Ry

     total magnetization       =     1.89 Bohr mag/cell
     absolute magnetization    =     2.30 Bohr mag/cell

     iteration # 18     ecut=   110.00 Ry     beta= 0.70
     Davidson diagonalization with overlap
     ethr =  9.87E-07,  avg # of iterations =  2.7

     total cpu time spent up to now is     5160.7 secs

     total energy              =   -3067.10406130 Ry
     estimated scf accuracy    <       0.00034303 Ry

     total magnetization       =     1.87 Bohr mag/cell
     absolute magnetization    =     2.21 Bohr mag/cell

     iteration # 19     ecut=   110.00 Ry     beta= 0.70
     Davidson diagonalization with overlap
     ethr =  1.69E-07,  avg # of iterations =  3.5

     total cpu time spent up to now is     5436.8 secs

     total energy              =   -3067.10427066 Ry
     estimated scf accuracy    <       0.00014813 Ry

     total magnetization       =     1.88 Bohr mag/cell
     absolute magnetization    =     2.18 Bohr mag/cell

     iteration # 20     ecut=   110.00 Ry     beta= 0.70
     Davidson diagonalization with overlap
     ethr =  7.30E-08,  avg # of iterations =  2.4

     total cpu time spent up to now is     5696.1 secs

     total energy              =   -3067.10429083 Ry
     estimated scf accuracy    <       0.00013292 Ry

     total magnetization       =     1.89 Bohr mag/cell
     absolute magnetization    =     2.20 Bohr mag/cell

     iteration # 21     ecut=   110.00 Ry     beta= 0.70
     Davidson diagonalization with overlap
     ethr =  6.55E-08,  avg # of iterations =  2.0

     total cpu time spent up to now is     5943.7 secs

     total energy              =   -3067.10432192 Ry
     estimated scf accuracy    <       0.00001995 Ry

     total magnetization       =     1.92 Bohr mag/cell
     absolute magnetization    =     2.25 Bohr mag/cell

     iteration # 22     ecut=   110.00 Ry     beta= 0.70
     Davidson diagonalization with overlap
     ethr =  9.83E-09,  avg # of iterations =  3.2

     total cpu time spent up to now is     6230.3 secs

     total energy              =   -3067.10432079 Ry
     estimated scf accuracy    <       0.00010032 Ry

     total magnetization       =     1.92 Bohr mag/cell
     absolute magnetization    =     2.26 Bohr mag/cell

     iteration # 23     ecut=   110.00 Ry     beta= 0.70
     Davidson diagonalization with overlap
     ethr =  9.83E-09,  avg # of iterations =  1.9

     total cpu time spent up to now is     6487.1 secs

     total energy              =   -3067.10433022 Ry
     estimated scf accuracy    <       0.00000518 Ry

     total magnetization       =     1.93 Bohr mag/cell
     absolute magnetization    =     2.29 Bohr mag/cell

     iteration # 24     ecut=   110.00 Ry     beta= 0.70
     Davidson diagonalization with overlap
     ethr =  2.55E-09,  avg # of iterations =  2.9

     total cpu time spent up to now is     6744.6 secs

     total energy              =   -3067.10433326 Ry
     estimated scf accuracy    <       0.00000092 Ry

     total magnetization       =     1.95 Bohr mag/cell
     absolute magnetization    =     2.32 Bohr mag/cell

     iteration # 25     ecut=   110.00 Ry     beta= 0.70
     Davidson diagonalization with overlap
     ethr =  4.53E-10,  avg # of iterations =  2.5

     total cpu time spent up to now is     7002.7 secs

     total energy              =   -3067.10433346 Ry
     estimated scf accuracy    <       0.00000086 Ry

     total magnetization       =     1.95 Bohr mag/cell
     absolute magnetization    =     2.32 Bohr mag/cell

     iteration # 26     ecut=   110.00 Ry     beta= 0.70
     Davidson diagonalization with overlap
     ethr =  4.22E-10,  avg # of iterations =  2.4

     total cpu time spent up to now is     7248.5 secs

     total energy              =   -3067.10433382 Ry
     estimated scf accuracy    <       0.00000034 Ry

     total magnetization       =     1.96 Bohr mag/cell
     absolute magnetization    =     2.33 Bohr mag/cell

     iteration # 27     ecut=   110.00 Ry     beta= 0.70
     Davidson diagonalization with overlap
     ethr =  1.68E-10,  avg # of iterations =  2.4

     total cpu time spent up to now is     7482.3 secs

     total energy              =   -3067.10433388 Ry
     estimated scf accuracy    <       0.00000112 Ry

     total magnetization       =     1.96 Bohr mag/cell
     absolute magnetization    =     2.33 Bohr mag/cell

     iteration # 28     ecut=   110.00 Ry     beta= 0.70
     Davidson diagonalization with overlap
     ethr =  1.68E-10,  avg # of iterations =  1.5
 
     Magnetic moment per site:
     atom:    1    charge:   15.3756    magn:    1.0771    constr:    0.0000
     atom:    2    charge:   15.4495    magn:    0.1337    constr:    0.0000
     atom:    3    charge:   15.4495    magn:    0.1337    constr:    0.0000
     atom:    4    charge:   15.4495    magn:    0.1337    constr:    0.0000
     atom:    5    charge:   15.4495    magn:    0.1337    constr:    0.0000
     atom:    6    charge:   15.4495    magn:    0.1337    constr:    0.0000
     atom:    7    charge:   15.4495    magn:    0.1337    constr:    0.0000
     atom:    8    charge:   10.7650    magn:   -0.0152    constr:    0.0000
     atom:    9    charge:   10.7392    magn:    0.0758    constr:    0.0000
     atom:   10    charge:   10.8374    magn:   -0.0058    constr:    0.0000
     atom:   11    charge:   10.7650    magn:   -0.0152    constr:    0.0000
     atom:   12    charge:   10.7392    magn:    0.0758    constr:    0.0000
     atom:   13    charge:   10.8374    magn:   -0.0058    constr:    0.0000

     total cpu time spent up to now is     7702.6 secs

     End of self-consistent calculation

     Number of k-points >= 100: set verbosity='high' to print the bands.

     the Fermi energy is    21.5667 ev

!    total energy              =   -3067.10433393 Ry
     estimated scf accuracy    <       0.00000002 Ry
     smearing contrib. (-TS)   =       0.00054464 Ry
     internal energy E=F+TS    =   -3067.10487858 Ry

     The total energy is F=E-TS. E is the sum of the following terms:
     one-electron contribution =   -1177.12836978 Ry
     hartree contribution      =     733.89874127 Ry
     xc contribution           =    -594.38399372 Ry
     ewald contribution        =   -2029.49125635 Ry

     total magnetization       =     1.96 Bohr mag/cell
     absolute magnetization    =     2.33 Bohr mag/cell

     convergence has been achieved in  28 iterations

     Forces acting on atoms (cartesian axes, Ry/au):

     atom    1 type  1   force =    -0.00000000    0.00000000   -0.00000000
     atom    2 type  1   force =     0.00318951    0.00184146   -0.00002551
     atom    3 type  1   force =    -0.00000000   -0.00368293   -0.00002551
     atom    4 type  1   force =    -0.00318951    0.00184146   -0.00002551
     atom    5 type  1   force =    -0.00318951   -0.00184146    0.00002551
     atom    6 type  1   force =    -0.00000000    0.00368293    0.00002551
     atom    7 type  1   force =     0.00318951   -0.00184146    0.00002551
     atom    8 type  2   force =     0.00000000   -0.00000000    0.00701741
     atom    9 type  2   force =     0.00000000    0.00000000   -0.00313085
     atom   10 type  2   force =     0.00000000    0.00000000   -0.00337759
     atom   11 type  2   force =     0.00000000    0.00000000   -0.00701741
     atom   12 type  2   force =     0.00000000    0.00000000    0.00313085
     atom   13 type  2   force =     0.00000000    0.00000000    0.00337759

     Total force =     0.014910     Total SCF correction =     0.000413


     Computing stress (Cartesian axis) and pressure

          total   stress  (Ry/bohr**3)                   (kbar)     P=        8.13
   0.00005221  -0.00000000   0.00000000            7.68       -0.00        0.00
   0.00000000   0.00005221   0.00000000            0.00        7.68        0.00
   0.00000000   0.00000000   0.00006146            0.00        0.00        9.04


     Writing output data file ./bulk.save/
