
     Program PWSCF v.6.5 starts on 31May2020 at  2:26:43 

     This program is part of the open-source Quantum ESPRESSO suite
     for quantum simulation of materials; please cite
         "P. Giannozzi et al., J. Phys.:Condens. Matter 21 395502 (2009);
         "P. Giannozzi et al., J. Phys.:Condens. Matter 29 465901 (2017);
          URL http://www.quantum-espresso.org", 
     in publications or presentations arising from this work. More details at
     http://www.quantum-espresso.org/quote

     Parallel version (MPI), running on    64 processors

     MPI processes distributed on     2 nodes
     R & G space division:  proc/nbgrp/npool/nimage =      64
     Fft bands division:     nmany     =       1
     Reading input from nt.19.in
Warning: card  &IONS ignored
Warning: card  / ignored

     Current dimensions of program PWSCF are:
     Max number of different atomic species (ntypx) = 10
     Max number of k-points (npk) =  40000
     Max angular momentum in pseudopotentials (lmaxx) =  3

     gamma-point specific algorithms are used

     Subspace diagonalization in iterative solution of the eigenvalue problem:
     a serial algorithm will be used

 
     Parallelization info
     --------------------
     sticks:   dense  smooth     PW     G-vecs:    dense   smooth      PW
     Min         833     833    208               213414   213414   26668
     Max         836     836    210               213434   213434   26678
     Sum       53377   53377  13341             13659113 13659113 1706917
 


     bravais-lattice index     =            6
     lattice parameter (alat)  =      35.9048  a.u.
     unit-cell volume          =   68212.1651 (a.u.)^3
     number of atoms/cell      =          252
     number of atomic types    =            2
     number of electrons       =       900.00
     number of Kohn-Sham states=          450
     kinetic-energy cutoff     =     130.0000  Ry
     charge density cutoff     =     520.0000  Ry
     convergence threshold     =      1.0E-06
     mixing beta               =       0.6000
     number of iterations used =            8  plain     mixing
     Exchange-correlation= PBE
                           (   1   4   3   4   0   0   0)

     celldm(1)=  35.904796  celldm(2)=   0.000000  celldm(3)=   1.473684
     celldm(4)=   0.000000  celldm(5)=   0.000000  celldm(6)=   0.000000

     crystal axes: (cart. coord. in units of alat)
               a(1) = (   1.000000   0.000000   0.000000 )  
               a(2) = (   0.000000   1.000000   0.000000 )  
               a(3) = (   0.000000   0.000000   1.473684 )  

     reciprocal axes: (cart. coord. in units 2 pi/alat)
               b(1) = (  1.000000  0.000000  0.000000 )  
               b(2) = (  0.000000  1.000000  0.000000 )  
               b(3) = (  0.000000  0.000000  0.678571 )  


     PseudoPot. # 1 for H  read from file:
     /gpfs/share/home/1600011702/pseudo/H.nc.fr.pbe.stringent.upf
     MD5 check sum: 95156ffc763ef7c24633d2a3a64354af
     Pseudo is Norm-conserving, Zval =  1.0
     Generated using ONCVPSP code by D. R. Hamann
     Using radial grid of 1166 points,  3 beta functions with: 
                l(1) =   0
                l(2) =   0
                l(3) =   1

     PseudoPot. # 2 for C  read from file:
     /gpfs/share/home/1600011702/pseudo/C.nc.fr.pbe.stringent.upf
     MD5 check sum: d80ec9912146af6c4c1760317d1f95e9
     Pseudo is Norm-conserving + core correction, Zval =  4.0
     Generated using ONCVPSP code by D. R. Hamann
     Using radial grid of 1248 points,  4 beta functions with: 
                l(1) =   0
                l(2) =   0
                l(3) =   1
                l(4) =   1

     atomic species   valence    mass     pseudopotential
        H              1.00     1.00784     H ( 1.00)
        C              4.00    12.01070     C ( 1.00)

     No symmetry found



   Cartesian axes

     site n.     atom                  positions (alat units)
         1           H   tau(   1) = (  -0.3413737   0.0244062   0.0286253  )
         2           H   tau(   2) = (  -0.1918293  -0.2834067   0.0286297  )
         3           H   tau(   3) = (   0.3413729  -0.0244068   0.0286229  )
         4           H   tau(   4) = (   0.1495547  -0.3078014   0.0286284  )
         5           H   tau(   5) = (   0.1918402   0.2833954   0.0286268  )
         6           H   tau(   6) = (  -0.1495398   0.3078145   0.0286292  )
         7           H   tau(   7) = (   0.0294955  -0.3475346   0.0517135  )
         8           H   tau(   8) = (  -0.2862748  -0.1993200   0.0517188  )
         9           H   tau(   9) = (   0.3158087  -0.1482671   0.0517172  )
        10           H   tau(  10) = (  -0.3157220   0.1482325   0.0517188  )
        11           H   tau(  11) = (  -0.0294715   0.3475255   0.0517294  )
        12           H   tau(  12) = (   0.2863392   0.1993411   0.0517295  )
        13           H   tau(  13) = (  -0.0753291  -0.3260169   0.0699414  )
        14           H   tau(  14) = (   0.2447179  -0.2282533   0.0699391  )
        15           H   tau(  15) = (   0.3199819   0.0977656   0.0699378  )
        16           H   tau(  16) = (  -0.3200407  -0.0978000   0.0699455  )
        17           H   tau(  17) = (   0.0752872   0.3258836   0.0699423  )
        18           H   tau(  18) = (  -0.2446746   0.2281796   0.0699462  )
        19           C   tau(  19) = (   0.3333098  -0.0422534   0.0825421  )
        20           C   tau(  20) = (   0.1300694  -0.3097395   0.0825491  )
        21           C   tau(  21) = (  -0.3333100   0.0422411   0.0825481  )
        22           C   tau(  22) = (  -0.2032485  -0.2675071   0.0825528  )
        23           C   tau(  23) = (   0.2032444   0.2674664   0.0825445  )
        24           C   tau(  24) = (  -0.1300475   0.3097151   0.0825479  )
        25           C   tau(  25) = (   0.0625421  -0.3319705   0.0958323  )
        26           C   tau(  26) = (   0.3188262  -0.1118560   0.0958285  )
        27           C   tau(  27) = (  -0.2562812  -0.2201594   0.0958401  )
        28           C   tau(  28) = (  -0.3188029   0.1118370   0.0958378  )
        29           C   tau(  29) = (   0.2562944   0.2201426   0.0958351  )
        30           C   tau(  30) = (  -0.0625239   0.3319545   0.0958387  )
        31           C   tau(  31) = (  -0.0911189  -0.3197631   0.1246619  )
        32           C   tau(  32) = (   0.2314151  -0.2388042   0.1246599  )
        33           C   tau(  33) = (  -0.3225413  -0.0809943   0.1246632  )
        34           C   tau(  34) = (   0.3225210   0.0809744   0.1246572  )
        35           C   tau(  35) = (  -0.2313864   0.2387669   0.1246631  )
        36           C   tau(  36) = (   0.0911076   0.3196983   0.1246603  )
        37           C   tau(  37) = (  -0.1582403  -0.2913238   0.1377732  )
        38           C   tau(  38) = (  -0.3314578  -0.0086449   0.1377705  )
        39           C   tau(  39) = (   0.1732114  -0.2826921   0.1377728  )
        40           C   tau(  40) = (   0.3314515   0.0086290   0.1377691  )
        41           C   tau(  41) = (  -0.1731847   0.2826567   0.1377695  )
        42           C   tau(  42) = (   0.1582311   0.2912729   0.1377686  )
        43           C   tau(  43) = (   0.0336629  -0.3308265   0.1650438  )
        44           C   tau(  44) = (   0.3034048  -0.1362892   0.1650432  )
        45           C   tau(  45) = (  -0.2697410  -0.1945854   0.1650517  )
        46           C   tau(  46) = (  -0.3033948   0.1362753   0.1650518  )
        47           C   tau(  47) = (   0.2697423   0.1945673   0.1650488  )
        48           C   tau(  48) = (  -0.0336540   0.3308100   0.1650520  )
        49           C   tau(  49) = (  -0.0415822  -0.3286978   0.1786747  )
        50           C   tau(  50) = (   0.2639344  -0.2003852   0.1786751  )
        51           C   tau(  51) = (  -0.3055299  -0.1283622   0.1786803  )
        52           C   tau(  52) = (   0.3055303   0.1283457   0.1786780  )
        53           C   tau(  53) = (  -0.2639221   0.2003689   0.1786811  )
        54           C   tau(  54) = (   0.0415889   0.3286776   0.1786801  )
        55           C   tau(  55) = (  -0.1788342  -0.2762417   0.2084603  )
        56           C   tau(  56) = (   0.1498505  -0.2929800   0.2084593  )
        57           C   tau(  57) = (  -0.3286983   0.0167299   0.2084588  )
        58           C   tau(  58) = (   0.3287105  -0.0167423   0.2084568  )
        59           C   tau(  59) = (  -0.1498352   0.2929506   0.2084592  )
        60           C   tau(  60) = (   0.1788328   0.2762188   0.2084584  )
        61           C   tau(  61) = (   0.0806292  -0.3188756   0.2219624  )
        62           C   tau(  62) = (   0.3165403  -0.0896402   0.2219608  )
        63           C   tau(  63) = (  -0.2358955  -0.2292702   0.2219683  )
        64           C   tau(  64) = (  -0.3165349   0.0896277   0.2219667  )
        65           C   tau(  65) = (   0.2358961   0.2292526   0.2219643  )
        66           C   tau(  66) = (  -0.0806199   0.3188598   0.2219664  )
        67           C   tau(  67) = (  -0.0654098  -0.3223547   0.2501890  )
        68           C   tau(  68) = (   0.2465266  -0.2178463   0.2501893  )
        69           C   tau(  69) = (  -0.3119582  -0.1045572   0.2501932  )
        70           C   tau(  70) = (   0.3119700   0.1045448   0.2501902  )
        71           C   tau(  71) = (  -0.2465260   0.2178384   0.2501942  )
        72           C   tau(  72) = (   0.0654198   0.3223584   0.2501924  )
        73           C   tau(  73) = (  -0.1350752  -0.2990149   0.2647184  )
        74           C   tau(  74) = (  -0.3265663  -0.0325527   0.2647176  )
        75           C   tau(  75) = (   0.1914644  -0.2664887   0.2647187  )
        76           C   tau(  76) = (   0.3265796   0.0325403   0.2647179  )
        77           C   tau(  77) = (  -0.1914571   0.2664755   0.2647184  )
        78           C   tau(  78) = (   0.1350833   0.2990103   0.2647184  )
        79           C   tau(  79) = (   0.0564341  -0.3232797   0.2932098  )
        80           C   tau(  80) = (   0.3082612  -0.1127947   0.2932083  )
        81           C   tau(  81) = (  -0.2518148  -0.2105258   0.2932151  )
        82           C   tau(  82) = (  -0.3082596   0.1127863   0.2932145  )
        83           C   tau(  83) = (   0.2518150   0.2105080   0.2932106  )
        84           C   tau(  84) = (  -0.0564265   0.3232673   0.2932130  )
        85           C   tau(  85) = (  -0.0168936  -0.3282253   0.3071744  )
        86           C   tau(  86) = (   0.2758774  -0.1787684   0.3071732  )
        87           C   tau(  87) = (  -0.2927806  -0.1495063   0.3071786  )
        88           C   tau(  88) = (  -0.2758786   0.1787628   0.3071773  )
        89           C   tau(  89) = (   0.2927865   0.1494944   0.3071739  )
        90           C   tau(  90) = (   0.0169007   0.3282263   0.3071749  )
        91           C   tau(  91) = (  -0.1572171  -0.2879512   0.3357660  )
        92           C   tau(  92) = (  -0.3280567  -0.0078422   0.3357645  )
        93           C   tau(  93) = (   0.1708064  -0.2801216   0.3357665  )
        94           C   tau(  94) = (   0.3280690   0.0078358   0.3357653  )
        95           C   tau(  95) = (  -0.1708019   0.2801186   0.3357653  )
        96           C   tau(  96) = (   0.1572296   0.2879544   0.3357653  )
        97           C   tau(  97) = (   0.1038831  -0.3112303   0.3496715  )
        98           C   tau(  98) = (  -0.2176393  -0.2455762   0.3496749  )
        99           C   tau(  99) = (   0.3215531  -0.0656765   0.3496697  )
       100           C   tau( 100) = (  -0.3215446   0.0656682   0.3496739  )
       101           C   tau( 101) = (   0.2176428   0.2455671   0.3496713  )
       102           C   tau( 102) = (  -0.1038749   0.3112180   0.3496731  )
       103           C   tau( 103) = (  -0.0414730  -0.3260820   0.3780174  )
       104           C   tau( 104) = (  -0.3032162  -0.1271440   0.3780187  )
       105           C   tau( 105) = (   0.2617319  -0.1989784   0.3780181  )
       106           C   tau( 106) = (  -0.2617241   0.1989782   0.3780175  )
       107           C   tau( 107) = (   0.3032252   0.1271438   0.3780174  )
       108           C   tau( 108) = (   0.0414811   0.3260855   0.3780169  )
       109           C   tau( 109) = (  -0.1130486  -0.3084713   0.3922418  )
       110           C   tau( 110) = (  -0.3237551  -0.0563531   0.3922413  )
       111           C   tau( 111) = (   0.2106774  -0.2521464   0.3922416  )
       112           C   tau( 112) = (  -0.2106727   0.2521500   0.3922400  )
       113           C   tau( 113) = (   0.3237723   0.0563516   0.3922398  )
       114           C   tau( 114) = (   0.1130624   0.3084862   0.3922393  )
       115           C   tau( 115) = (   0.0802576  -0.3183876   0.4205999  )
       116           C   tau( 116) = (  -0.2356574  -0.2286988   0.4206020  )
       117           C   tau( 117) = (  -0.3159334   0.0897118   0.4206010  )
       118           C   tau( 118) = (   0.3159467  -0.0897135   0.4205998  )
       119           C   tau( 119) = (  -0.0802519   0.3183830   0.4206005  )
       120           C   tau( 120) = (   0.2356646   0.2287016   0.4206000  )
       121           C   tau( 121) = (   0.0074278  -0.3284557   0.4346525  )
       122           C   tau( 122) = (  -0.2808114  -0.1706741   0.4346542  )
       123           C   tau( 123) = (   0.2882476  -0.1578185   0.4346521  )
       124           C   tau( 124) = (  -0.2882345   0.1578177   0.4346530  )
       125           C   tau( 125) = (  -0.0074216   0.3284519   0.4346511  )
       126           C   tau( 126) = (   0.2808174   0.1706776   0.4346514  )
       127           C   tau( 127) = (  -0.1359283  -0.2991116   0.4632625  )
       128           C   tau( 128) = (  -0.3270857  -0.0318571   0.4632613  )
       129           C   tau( 129) = (   0.1911236  -0.2672710   0.4632611  )
       130           C   tau( 130) = (   0.3270971   0.0318578   0.4632600  )
       131           C   tau( 131) = (  -0.1911190   0.2672732   0.4632605  )
       132           C   tau( 132) = (   0.1359380   0.2991201   0.4632603  )
       133           C   tau( 133) = (  -0.1989469  -0.2612383   0.4773135  )
       134           C   tau( 134) = (   0.1268013  -0.3028825   0.4773122  )
       135           C   tau( 135) = (  -0.3257776   0.0416541   0.4773135  )
       136           C   tau( 136) = (   0.3257902  -0.0416528   0.4773118  )
       137           C   tau( 137) = (  -0.1267958   0.3028855   0.4773127  )
       138           C   tau( 138) = (   0.1989560   0.2612476   0.4773128  )
       139           C   tau( 139) = (  -0.0172880  -0.3280815   0.5056735  )
       140           C   tau( 140) = (  -0.2928460  -0.1490813   0.5056746  )
       141           C   tau( 141) = (   0.2755625  -0.1790339   0.5056729  )
       142           C   tau( 142) = (  -0.2755409   0.1790319   0.5056730  )
       143           C   tau( 143) = (   0.2928542   0.1490859   0.5056706  )
       144           C   tau( 144) = (   0.0172959   0.3280719   0.5056712  )
       145           C   tau( 145) = (  -0.0900279  -0.3161462   0.5198964  )
       146           C   tau( 146) = (  -0.3188897  -0.0801245   0.5198966  )
       147           C   tau( 147) = (   0.2288401  -0.2360493   0.5198952  )
       148           C   tau( 148) = (   0.3188983   0.0801279   0.5198936  )
       149           C   tau( 149) = (  -0.2288292   0.2360513   0.5198962  )
       150           C   tau( 150) = (   0.0900353   0.3161479   0.5198955  )
       151           C   tau( 151) = (  -0.2178566  -0.2453678   0.5482411  )
       152           C   tau( 152) = (   0.1036011  -0.3113106   0.5482403  )
       153           C   tau( 153) = (  -0.3214860   0.0659679   0.5482405  )
       154           C   tau( 154) = (   0.3214935  -0.0659573   0.5482419  )
       155           C   tau( 155) = (  -0.1035958   0.3113251   0.5482399  )
       156           C   tau( 156) = (   0.2178671   0.2453822   0.5482416  )
       157           C   tau( 157) = (   0.0313930  -0.3265536   0.5621475  )
       158           C   tau( 158) = (  -0.2671769  -0.1904690   0.5621495  )
       159           C   tau( 159) = (   0.2985855  -0.1361125   0.5621469  )
       160           C   tau( 160) = (  -0.2985694   0.1361184   0.5621498  )
       161           C   tau( 161) = (   0.2671840   0.1904791   0.5621457  )
       162           C   tau( 162) = (  -0.0313839   0.3265536   0.5621470  )
       163           C   tau( 163) = (  -0.1134752  -0.3084596   0.5907378  )
       164           C   tau( 164) = (  -0.3239583  -0.0559725   0.5907368  )
       165           C   tau( 165) = (   0.2104555  -0.2525000   0.5907381  )
       166           C   tau( 166) = (  -0.2104440   0.2525105   0.5907373  )
       167           C   tau( 167) = (   0.3239594   0.0559854   0.5907379  )
       168           C   tau( 168) = (   0.1134789   0.3084622   0.5907390  )
       169           C   tau( 169) = (  -0.1789590  -0.2750921   0.6047003  )
       170           C   tau( 170) = (  -0.3277965   0.0174217   0.6046997  )
       171           C   tau( 171) = (   0.1488009  -0.2925010   0.6047008  )
       172           C   tau( 172) = (  -0.1487944   0.2925218   0.6047007  )
       173           C   tau( 173) = (   0.3277964  -0.0174072   0.6047029  )
       174           C   tau( 174) = (   0.1789669   0.2751053   0.6047039  )
       175           C   tau( 175) = (   0.0066836  -0.3280200   0.6331939  )
       176           C   tau( 176) = (  -0.2808086  -0.1698063   0.6331968  )
       177           C   tau( 177) = (   0.2875012  -0.1582421   0.6331944  )
       178           C   tau( 178) = (   0.2808205   0.1698240   0.6331930  )
       179           C   tau( 179) = (  -0.2874862   0.1582538   0.6331973  )
       180           C   tau( 180) = (  -0.0066763   0.3280303   0.6331946  )
       181           C   tau( 181) = (  -0.0665515  -0.3221234   0.6477202  )
       182           C   tau( 182) = (  -0.3123287  -0.1034390   0.6477201  )
       183           C   tau( 183) = (   0.2457634  -0.2187079   0.6477211  )
       184           C   tau( 184) = (  -0.2457460   0.2187173   0.6477229  )
       185           C   tau( 185) = (   0.3123341   0.1034553   0.6477218  )
       186           C   tau( 186) = (   0.0665569   0.3221244   0.6477245  )
       187           C   tau( 187) = (  -0.1994737  -0.2615314   0.6759476  )
       188           C   tau( 188) = (   0.1267972  -0.3034826   0.6759468  )
       189           C   tau( 189) = (  -0.3263018   0.0419688   0.6759474  )
       190           C   tau( 190) = (  -0.1267905   0.3035044   0.6759476  )
       191           C   tau( 191) = (   0.3263057  -0.0419524   0.6759497  )
       192           C   tau( 192) = (   0.1994852   0.2615484   0.6759510  )
       193           C   tau( 193) = (   0.0558688  -0.3242493   0.6894538  )
       194           C   tau( 194) = (  -0.2529405  -0.2105087   0.6894554  )
       195           C   tau( 195) = (  -0.3088273   0.1137797   0.6894554  )
       196           C   tau( 196) = (   0.3088332  -0.1137634   0.6894552  )
       197           C   tau( 197) = (  -0.0558634   0.3242815   0.6894533  )
       198           C   tau( 198) = (   0.2529623   0.2105347   0.6894534  )
       199           C   tau( 199) = (  -0.0909481  -0.3185738   0.7192324  )
       200           C   tau( 200) = (  -0.3214612  -0.0805387   0.7192336  )
       201           C   tau( 201) = (   0.2304842  -0.2380597   0.7192337  )
       202           C   tau( 202) = (  -0.2304806   0.2380824   0.7192367  )
       203           C   tau( 203) = (   0.3214720   0.0805554   0.7192350  )
       204           C   tau( 204) = (   0.0909609   0.3185968   0.7192387  )
       205           C   tau( 205) = (  -0.1609776  -0.2909718   0.7328620  )
       206           C   tau( 206) = (   0.1715507  -0.2848886   0.7328616  )
       207           C   tau( 207) = (  -0.3325609  -0.0060875   0.7328622  )
       208           C   tau( 208) = (  -0.1715435   0.2849104   0.7328649  )
       209           C   tau( 209) = (   0.3325686   0.0061045   0.7328668  )
       210           C   tau( 210) = (   0.1609913   0.2909912   0.7328699  )
       211           C   tau( 211) = (   0.0310111  -0.3300035   0.7601431  )
       212           C   tau( 212) = (  -0.2703690  -0.1918672   0.7601449  )
       213           C   tau( 213) = (  -0.3013917   0.1381989   0.7601434  )
       214           C   tau( 214) = (   0.3013761  -0.1381673   0.7601438  )
       215           C   tau( 215) = (  -0.0309997   0.3300601   0.7601400  )
       216           C   tau( 216) = (   0.2703931   0.1918906   0.7601399  )
       217           C   tau( 217) = (  -0.3066417  -0.1286364   0.7732509  )
       218           C   tau( 218) = (  -0.0418832  -0.3297752   0.7732521  )
       219           C   tau( 219) = (  -0.2647499   0.2012182   0.7732520  )
       220           C   tau( 220) = (   0.2647221  -0.2011756   0.7732547  )
       221           C   tau( 221) = (   0.0418976   0.3298424   0.7732519  )
       222           C   tau( 222) = (   0.3066614   0.1286582   0.7732529  )
       223           C   tau( 223) = (  -0.1879724  -0.2806748   0.8020754  )
       224           C   tau( 224) = (   0.1491364  -0.3031215   0.8020751  )
       225           C   tau( 225) = (  -0.3371225   0.0224429   0.8020757  )
       226           C   tau( 226) = (  -0.1491173   0.3031405   0.8020766  )
       227           C   tau( 227) = (   0.3371442  -0.0224240   0.8020810  )
       228           C   tau( 228) = (   0.1879965   0.2806982   0.8020818  )
       229           C   tau( 229) = (  -0.2413290  -0.2336968   0.8153659  )
       230           C   tau( 230) = (   0.0817583  -0.3257992   0.8153664  )
       231           C   tau( 231) = (  -0.3231019   0.0921393   0.8153652  )
       232           C   tau( 232) = (  -0.0817446   0.3258409   0.8153612  )
       233           C   tau( 233) = (   0.2413523   0.2337152   0.8153650  )
       234           C   tau( 234) = (   0.3230938  -0.0921129   0.8153705  )
       235           H   tau( 235) = (  -0.0588635  -0.3292546   0.8279688  )
       236           H   tau( 236) = (  -0.3147097  -0.1136834   0.8279680  )
       237           H   tau( 237) = (  -0.2558554   0.2156915   0.8279709  )
       238           H   tau( 238) = (   0.2557760  -0.2156122   0.8279736  )
       239           H   tau( 239) = (   0.3147319   0.1137200   0.8279732  )
       240           H   tau( 240) = (   0.0588734   0.3293887   0.8279725  )
       241           H   tau( 241) = (   0.1849346  -0.2957906   0.8461809  )
       242           H   tau( 242) = (  -0.1636865  -0.3079671   0.8461884  )
       243           H   tau( 243) = (   0.3486916   0.0122439   0.8461897  )
       244           H   tau( 244) = (  -0.3485971  -0.0122313   0.8461964  )
       245           H   tau( 245) = (  -0.1848888   0.2957696   0.8461977  )
       246           H   tau( 246) = (   0.1637331   0.3080083   0.8461979  )
       247           H   tau( 247) = (   0.0650169  -0.3359700   0.8692836  )
       248           H   tau( 248) = (  -0.2584988  -0.2242844   0.8692864  )
       249           H   tau( 249) = (  -0.3234998   0.1117076   0.8692886  )
       250           H   tau( 250) = (  -0.0649927   0.3359709   0.8692840  )
       251           H   tau( 251) = (   0.2585118   0.2242786   0.8692845  )
       252           H   tau( 252) = (   0.3235000  -0.1116952   0.8692894  )

     number of k points=     1
                       cart. coord. in units 2pi/alat
        k(    1) = (   0.0000000   0.0000000   0.0000000), wk =   2.0000000

     Dense  grid:  6829557 G-vectors     FFT dimensions: ( 270, 270, 400)

     Estimated max dynamical RAM per process >       1.34 GB

     Estimated total dynamical RAM >      86.06 GB

     Initial potential from superposition of free atoms

     starting charge  899.99002, renormalised to  900.00000

     negative rho (up, down):  1.114E-04 0.000E+00
     Starting wfcs are  900 randomized atomic wfcs

     total cpu time spent up to now is       43.5 secs

     Self-consistent Calculation

     iteration #  1     ecut=   130.00 Ry     beta= 0.60
     Davidson diagonalization with overlap
     ethr =  1.00E-02,  avg # of iterations =  2.0

     total cpu time spent up to now is      110.7 secs

     total energy              =   -2639.02484338 Ry
     estimated scf accuracy    <      26.19173643 Ry

     iteration #  2     ecut=   130.00 Ry     beta= 0.60
     Davidson diagonalization with overlap
     ethr =  2.91E-03,  avg # of iterations =  2.0

     total cpu time spent up to now is      177.4 secs

     total energy              =   -2643.00531935 Ry
     estimated scf accuracy    <       1.43744030 Ry

     iteration #  3     ecut=   130.00 Ry     beta= 0.60
     Davidson diagonalization with overlap
     ethr =  1.60E-04,  avg # of iterations =  2.0

     total cpu time spent up to now is      239.7 secs

     total energy              =   -2643.25768520 Ry
     estimated scf accuracy    <       0.21909892 Ry

     iteration #  4     ecut=   130.00 Ry     beta= 0.60
     Davidson diagonalization with overlap
     ethr =  2.43E-05,  avg # of iterations =  4.0

     total cpu time spent up to now is      305.2 secs

     total energy              =   -2643.30426823 Ry
     estimated scf accuracy    <       0.02943883 Ry

     iteration #  5     ecut=   130.00 Ry     beta= 0.60
     Davidson diagonalization with overlap
     ethr =  3.27E-06,  avg # of iterations =  5.0

     total cpu time spent up to now is      373.4 secs

     total energy              =   -2643.31167227 Ry
     estimated scf accuracy    <       0.00347967 Ry

     iteration #  6     ecut=   130.00 Ry     beta= 0.60
     Davidson diagonalization with overlap
     ethr =  3.87E-07,  avg # of iterations =  9.0

     total cpu time spent up to now is      452.1 secs

     total energy              =   -2643.31204740 Ry
     estimated scf accuracy    <       0.00242283 Ry

     iteration #  7     ecut=   130.00 Ry     beta= 0.60
     Davidson diagonalization with overlap
     ethr =  2.69E-07,  avg # of iterations = 11.0

     total cpu time spent up to now is      515.2 secs

     total energy              =   -2643.31211480 Ry
     estimated scf accuracy    <       0.00645087 Ry

     iteration #  8     ecut=   130.00 Ry     beta= 0.60
     Davidson diagonalization with overlap
     ethr =  2.69E-07,  avg # of iterations = 10.0

     total cpu time spent up to now is      571.6 secs

     total energy              =   -2643.31256666 Ry
     estimated scf accuracy    <       0.00052698 Ry

     iteration #  9     ecut=   130.00 Ry     beta= 0.60
     Davidson diagonalization with overlap
     ethr =  5.86E-08,  avg # of iterations =  9.0

     total cpu time spent up to now is      630.8 secs

     total energy              =   -2643.31263858 Ry
     estimated scf accuracy    <       0.00002585 Ry

     iteration # 10     ecut=   130.00 Ry     beta= 0.60
     Davidson diagonalization with overlap
     ethr =  2.87E-09,  avg # of iterations =  6.0

     total cpu time spent up to now is      700.2 secs

     total energy              =   -2643.31264488 Ry
     estimated scf accuracy    <       0.00000388 Ry

     iteration # 11     ecut=   130.00 Ry     beta= 0.60
     Davidson diagonalization with overlap
     ethr =  4.31E-10,  avg # of iterations =  6.0

     total cpu time spent up to now is      767.9 secs

     End of self-consistent calculation

          k = 0.0000 0.0000 0.0000 (853459 PWs)   bands (ev):

   -21.2172 -21.1448 -21.1446 -20.9284 -20.9273 -20.8444 -20.7733 -20.7728
   -20.5785 -20.5611 -20.5600 -20.5595 -20.2812 -20.2438 -20.2127 -20.2122
   -20.1672 -20.0790 -20.0789 -19.9998 -19.9990 -19.7318 -19.7097 -19.7096
   -19.5597 -19.5422 -19.4922 -19.4917 -19.4242 -19.4241 -19.2833 -19.2826
   -19.1332 -19.1330 -19.0664 -19.0663 -19.0377 -18.7577 -18.7095 -18.6742
   -18.6596 -18.6591 -18.5903 -18.4422 -18.4420 -18.4049 -18.4048 -18.3413
   -18.3091 -18.2974 -18.2971 -18.1580 -17.8822 -17.8816 -17.7850 -17.7849
   -17.7820 -17.7799 -17.7538 -17.6049 -17.4943 -17.4942 -17.4826 -17.4825
   -17.3475 -17.3472 -17.2632 -17.2629 -17.1499 -17.0616 -16.9931 -16.9925
   -16.9652 -16.8927 -16.8925 -16.8155 -16.8155 -16.6761 -16.5844 -16.5087
   -16.5086 -16.4671 -16.4671 -16.3324 -16.3321 -16.2770 -16.2387 -16.2385
   -16.2166 -16.2161 -16.1435 -16.0198 -16.0189 -15.9819 -15.9743 -15.9741
   -15.9579 -15.8414 -15.7453 -15.5522 -15.5168 -15.5167 -15.4053 -15.4052
   -15.3464 -14.9762 -14.8954 -14.8952 -14.6947 -14.6583 -14.5511 -14.4618
   -14.4615 -14.4577 -14.4573 -14.4194 -14.2449 -14.2448 -14.2255 -14.2254
   -14.1958 -14.1802 -14.1796 -14.0652 -14.0651 -13.9851 -13.8833 -13.8729
   -13.8414 -13.7810 -13.7809 -13.7299 -13.7298 -13.5139 -13.5135 -13.5134
   -13.3943 -13.3940 -13.3722 -13.1767 -13.1080 -13.1079 -13.0894 -13.0894
   -13.0505 -13.0502 -12.9737 -12.9735 -12.8093 -12.7543 -12.7542 -12.7235
   -12.5125 -12.5123 -12.5031 -12.5030 -12.4148 -12.3063 -12.1164 -12.1163
   -11.9644 -11.9644 -11.9059 -11.8783 -11.8692 -11.8689 -11.8393 -11.6272
   -11.6271 -11.6097 -11.5606 -11.5604 -11.5107 -11.4842 -11.4405 -11.4403
   -11.4255 -11.2786 -11.2784 -11.2141 -11.0909 -11.0853 -11.0848 -10.9796
   -10.9084 -10.9083 -10.9071 -10.7994 -10.7992 -10.7833 -10.7649 -10.7645
   -10.7312 -10.6843 -10.5325 -10.4089 -10.3018 -10.3017 -10.2602 -10.2598
   -10.2256 -10.1904 -10.1476 -10.1474 -10.0847 -10.0844  -9.9742  -9.9736
    -9.9339  -9.8846  -9.8846  -9.8397  -9.8393  -9.8194  -9.8192  -9.6870
    -9.6869  -9.6840  -9.6316  -9.6314  -9.5406  -9.4918  -9.4125  -9.4121
    -9.4083  -9.3327  -9.3028  -9.2557  -9.2556  -9.2138  -9.2136  -9.1514
    -9.1435  -9.1295  -9.1292  -9.0798  -9.0797  -8.9956  -8.9731  -8.9729
    -8.9335  -8.9331  -8.9109  -8.8698  -8.8697  -8.8200  -8.8199  -8.7961
    -8.7919  -8.7917  -8.7607  -8.7605  -8.7435  -8.7434  -8.7376  -8.6014
    -8.6011  -8.6008  -8.5954  -8.5883  -8.5467  -8.5466  -8.5051  -8.4930
    -8.4929  -8.4392  -8.4391  -8.4019  -8.3572  -8.3375  -8.3374  -8.3260
    -8.2882  -8.2880  -8.2842  -8.2544  -8.2537  -8.2318  -8.2317  -8.2237
    -8.1630  -8.1586  -8.1586  -8.1584  -8.1298  -8.1227  -8.1010  -8.0811
    -8.0807  -8.0388  -8.0292  -8.0290  -8.0004  -7.9834  -7.9830  -7.9584
    -7.9581  -7.9346  -7.9342  -7.8748  -7.8484  -7.8483  -7.8087  -7.7696
    -7.7683  -7.6827  -7.6708  -7.6588  -7.6584  -7.6479  -7.6050  -7.6045
    -7.5990  -7.5904  -7.4922  -7.4919  -7.4772  -7.4681  -7.4677  -7.3859
    -7.3856  -7.2736  -7.2735  -7.2582  -7.1988  -7.1905  -7.1902  -7.1152
    -7.1028  -7.0919  -7.0914  -7.0154  -7.0154  -6.9839  -6.9835  -6.9563
    -6.8884  -6.8881  -6.8362  -6.8356  -6.7817  -6.7712  -6.7694  -6.7449
    -6.7243  -6.6992  -6.6986  -6.6731  -6.6729  -6.6475  -6.6331  -6.6328
    -6.4735  -6.4734  -6.4729  -6.4282  -6.4063  -6.3097  -6.3027  -6.2853
    -6.2848  -6.2736  -6.2734  -6.2377  -6.2004  -6.1750  -6.1748  -6.0897
    -6.0893  -6.0886  -6.0459  -6.0455  -6.0020  -5.9465  -5.9449  -5.8643
    -5.8545  -5.8106  -5.8103  -5.8021  -5.8014  -5.7956  -5.7505  -5.7502
    -5.6611  -5.5961  -5.5086  -5.5080  -5.4487  -5.4349  -5.4344  -5.3268
    -5.2813  -5.2810  -5.2745  -5.2679  -5.2676  -5.2141  -5.1555  -5.1541
    -5.1363  -5.1360  -5.0860  -5.0856  -5.0355  -5.0036  -4.9011  -4.8999
    -4.8952  -4.8950  -4.7966  -4.6293  -4.5584  -4.5576  -4.5165  -4.5025
    -4.4182  -4.4180  -4.3523  -4.3499  -4.3389  -4.3380  -4.2049  -4.0814
    -4.0807  -4.0414  -4.0147  -4.0127  -3.9296  -3.9292  -3.8640  -3.8293
    -3.8278  -3.7968  -3.6328  -3.6322  -3.5736  -3.5634  -3.5612  -3.5359
    -3.5012  -3.0583  -3.0568  -3.0508  -2.9267  -2.9265  -2.9231  -2.2527
    -2.2512  -1.9099

     highest occupied level (ev):    -1.9099

!    total energy              =   -2643.31264536 Ry
     estimated scf accuracy    <       0.00000088 Ry

     The total energy is the sum of the following terms:
     one-electron contribution =  -24209.90081684 Ry
     hartree contribution      =   12271.56940619 Ry
     xc contribution           =    -950.41235301 Ry
     ewald contribution        =   10245.43111830 Ry

     convergence has been achieved in  11 iterations

     Forces acting on atoms (cartesian axes, Ry/au):

     atom    1 type  1   force =     0.00000490   -0.00007856   -0.00007176
     atom    2 type  1   force =     0.00001539   -0.00004603   -0.00004390
     atom    3 type  1   force =     0.00000952    0.00004982   -0.00006742
     atom    4 type  1   force =     0.00005635    0.00000059   -0.00005499
     atom    5 type  1   force =    -0.00003063    0.00000655   -0.00003867
     atom    6 type  1   force =    -0.00005780   -0.00006516   -0.00006682
     atom    7 type  1   force =    -0.00008717    0.00006972    0.00004830
     atom    8 type  1   force =    -0.00004203    0.00005981    0.00003249
     atom    9 type  1   force =    -0.00011014   -0.00003926    0.00002133
     atom   10 type  1   force =     0.00002220    0.00006153    0.00002447
     atom   11 type  1   force =     0.00008653   -0.00003480    0.00000197
     atom   12 type  1   force =    -0.00002487   -0.00007506    0.00002647
     atom   13 type  1   force =     0.00002407    0.00002982   -0.00003603
     atom   14 type  1   force =     0.00000827    0.00005233   -0.00004093
     atom   15 type  1   force =     0.00001276    0.00003390   -0.00003338
     atom   16 type  1   force =     0.00000879   -0.00000596   -0.00004602
     atom   17 type  1   force =     0.00001058    0.00002810   -0.00005060
     atom   18 type  1   force =    -0.00000664    0.00000565   -0.00006394
     atom   19 type  2   force =     0.00004485   -0.00011071    0.00018758
     atom   20 type  2   force =     0.00002098   -0.00002937    0.00008144
     atom   21 type  2   force =    -0.00004349    0.00005012    0.00015043
     atom   22 type  2   force =    -0.00003842    0.00002260    0.00009012
     atom   23 type  2   force =     0.00004028    0.00005388    0.00013704
     atom   24 type  2   force =     0.00002083    0.00009233    0.00010347
     atom   25 type  2   force =    -0.00000235   -0.00001396    0.00011545
     atom   26 type  2   force =     0.00002919    0.00009344    0.00007560
     atom   27 type  2   force =     0.00005749   -0.00000796    0.00003825
     atom   28 type  2   force =     0.00002870   -0.00004309    0.00003195
     atom   29 type  2   force =    -0.00000659    0.00000951    0.00006728
     atom   30 type  2   force =    -0.00008040   -0.00002264    0.00012704
     atom   31 type  2   force =    -0.00005429   -0.00003979    0.00012417
     atom   32 type  2   force =     0.00001690   -0.00008797    0.00011131
     atom   33 type  2   force =    -0.00005698    0.00005074    0.00008070
     atom   34 type  2   force =     0.00005744   -0.00006231    0.00013280
     atom   35 type  2   force =    -0.00003236    0.00006517    0.00005015
     atom   36 type  2   force =     0.00001920    0.00004727    0.00010938
     atom   37 type  2   force =     0.00010434   -0.00003383   -0.00002382
     atom   38 type  2   force =     0.00000398   -0.00011248    0.00000575
     atom   39 type  2   force =     0.00003795    0.00005524   -0.00004404
     atom   40 type  2   force =    -0.00001272    0.00014342   -0.00008209
     atom   41 type  2   force =    -0.00009334   -0.00004906   -0.00000695
     atom   42 type  2   force =    -0.00009050    0.00005202   -0.00007017
     atom   43 type  2   force =    -0.00010555   -0.00002903    0.00008521
     atom   44 type  2   force =    -0.00001740   -0.00010568    0.00008252
     atom   45 type  2   force =    -0.00005335    0.00009251    0.00001945
     atom   46 type  2   force =     0.00003288    0.00005886    0.00001799
     atom   47 type  2   force =     0.00006793   -0.00009273    0.00005193
     atom   48 type  2   force =     0.00013430    0.00001393    0.00002723
     atom   49 type  2   force =     0.00000811    0.00000685   -0.00002986
     atom   50 type  2   force =     0.00001067    0.00005106   -0.00005211
     atom   51 type  2   force =     0.00003470   -0.00000120   -0.00001592
     atom   52 type  2   force =    -0.00004395    0.00000548   -0.00007516
     atom   53 type  2   force =     0.00000215   -0.00006440   -0.00002850
     atom   54 type  2   force =    -0.00002646   -0.00002815   -0.00005303
     atom   55 type  2   force =     0.00002392    0.00002465    0.00006168
     atom   56 type  2   force =    -0.00002462    0.00005047    0.00003357
     atom   57 type  2   force =    -0.00001032   -0.00001890    0.00002227
     atom   58 type  2   force =    -0.00004252   -0.00001549    0.00006042
     atom   59 type  2   force =     0.00004158    0.00003849    0.00001172
     atom   60 type  2   force =    -0.00002040    0.00000313    0.00004763
     atom   61 type  2   force =    -0.00000281   -0.00002497   -0.00001756
     atom   62 type  2   force =     0.00000471    0.00005269   -0.00001532
     atom   63 type  2   force =     0.00003140   -0.00007211   -0.00002384
     atom   64 type  2   force =    -0.00000423   -0.00003239    0.00002263
     atom   65 type  2   force =    -0.00002573    0.00001249   -0.00000028
     atom   66 type  2   force =    -0.00003237   -0.00001808    0.00001539
     atom   67 type  2   force =     0.00002630    0.00000414    0.00003604
     atom   68 type  2   force =     0.00000588    0.00002906    0.00002943
     atom   69 type  2   force =     0.00002789    0.00001778   -0.00000969
     atom   70 type  2   force =    -0.00004946   -0.00003171    0.00001916
     atom   71 type  2   force =     0.00003888   -0.00002445   -0.00001323
     atom   72 type  2   force =    -0.00002451   -0.00005417    0.00000559
     atom   73 type  2   force =     0.00003878   -0.00003711    0.00003902
     atom   74 type  2   force =    -0.00001917    0.00000108    0.00007528
     atom   75 type  2   force =     0.00002422   -0.00000678    0.00003477
     atom   76 type  2   force =     0.00001789    0.00005435   -0.00000992
     atom   77 type  2   force =    -0.00003285   -0.00000367    0.00006445
     atom   78 type  2   force =    -0.00002853    0.00003474    0.00000868
     atom   79 type  2   force =    -0.00003720    0.00001309    0.00001269
     atom   80 type  2   force =    -0.00000653    0.00001270    0.00002015
     atom   81 type  2   force =    -0.00002596    0.00007599    0.00000199
     atom   82 type  2   force =     0.00003125    0.00000977   -0.00004580
     atom   83 type  2   force =     0.00000013    0.00001018    0.00004356
     atom   84 type  2   force =     0.00006950    0.00001633   -0.00001357
     atom   85 type  2   force =     0.00001340    0.00001327   -0.00004604
     atom   86 type  2   force =     0.00001394    0.00002906    0.00000890
     atom   87 type  2   force =     0.00001516    0.00001188   -0.00005421
     atom   88 type  2   force =     0.00001713    0.00000468   -0.00001158
     atom   89 type  2   force =    -0.00000785    0.00001868   -0.00000416
     atom   90 type  2   force =     0.00000811   -0.00000816   -0.00000112
     atom   91 type  2   force =    -0.00004361    0.00002165    0.00003359
     atom   92 type  2   force =     0.00000774    0.00001487    0.00000878
     atom   93 type  2   force =    -0.00003521   -0.00002793    0.00001268
     atom   94 type  2   force =     0.00000705   -0.00005741   -0.00003124
     atom   95 type  2   force =     0.00008659    0.00001780   -0.00000617
     atom   96 type  2   force =    -0.00000080   -0.00002414   -0.00000380
     atom   97 type  2   force =    -0.00002467   -0.00000347    0.00001712
     atom   98 type  2   force =     0.00000272    0.00000283   -0.00000264
     atom   99 type  2   force =     0.00002175    0.00000534    0.00003540
     atom  100 type  2   force =    -0.00001352    0.00006826    0.00000016
     atom  101 type  2   force =     0.00004161    0.00001711   -0.00000448
     atom  102 type  2   force =     0.00000224    0.00004793   -0.00001375
     atom  103 type  2   force =    -0.00001823    0.00000499   -0.00001256
     atom  104 type  2   force =    -0.00000007   -0.00001413    0.00002079
     atom  105 type  2   force =    -0.00003666   -0.00004662   -0.00002888
     atom  106 type  2   force =    -0.00002237    0.00001168    0.00003049
     atom  107 type  2   force =     0.00003149   -0.00008179   -0.00000595
     atom  108 type  2   force =     0.00004453    0.00001263   -0.00000862
     atom  109 type  2   force =    -0.00000505   -0.00001396   -0.00001133
     atom  110 type  2   force =    -0.00001455    0.00003447   -0.00000297
     atom  111 type  2   force =    -0.00002344    0.00000682   -0.00003210
     atom  112 type  2   force =    -0.00001128   -0.00006073    0.00001581
     atom  113 type  2   force =    -0.00006291    0.00001696    0.00000686
     atom  114 type  2   force =    -0.00004537   -0.00006327    0.00001413
     atom  115 type  2   force =     0.00001872    0.00000861    0.00001264
     atom  116 type  2   force =    -0.00001376    0.00001331    0.00001035
     atom  117 type  2   force =     0.00000124   -0.00003088    0.00000316
     atom  118 type  2   force =    -0.00001275    0.00000539   -0.00002448
     atom  119 type  2   force =     0.00002348   -0.00001335   -0.00000372
     atom  120 type  2   force =    -0.00002288   -0.00000578    0.00001770
     atom  121 type  2   force =     0.00003773   -0.00001160   -0.00002764
     atom  122 type  2   force =     0.00003881   -0.00004170   -0.00003833
     atom  123 type  2   force =     0.00000754    0.00000812   -0.00003598
     atom  124 type  2   force =     0.00001429   -0.00002566   -0.00004477
     atom  125 type  2   force =     0.00000471   -0.00000735   -0.00002318
     atom  126 type  2   force =     0.00001300   -0.00003595   -0.00005951
     atom  127 type  2   force =    -0.00000767    0.00002294    0.00000468
     atom  128 type  2   force =     0.00001571    0.00002420    0.00001948
     atom  129 type  2   force =     0.00002730    0.00002735    0.00005165
     atom  130 type  2   force =     0.00000422    0.00000224    0.00002119
     atom  131 type  2   force =     0.00005743    0.00004077    0.00004138
     atom  132 type  2   force =     0.00002387   -0.00000396    0.00003592
     atom  133 type  2   force =     0.00003599   -0.00001052    0.00000448
     atom  134 type  2   force =    -0.00003077    0.00000868   -0.00001725
     atom  135 type  2   force =    -0.00000394    0.00002541   -0.00000987
     atom  136 type  2   force =    -0.00000570    0.00000780    0.00002594
     atom  137 type  2   force =    -0.00000362   -0.00000172   -0.00002612
     atom  138 type  2   force =    -0.00000300   -0.00000638   -0.00003531
     atom  139 type  2   force =    -0.00001175    0.00005987   -0.00002048
     atom  140 type  2   force =     0.00000108    0.00004188   -0.00003247
     atom  141 type  2   force =    -0.00008266    0.00000477   -0.00001647
     atom  142 type  2   force =    -0.00002777   -0.00001552    0.00001884
     atom  143 type  2   force =    -0.00003026   -0.00001808    0.00002667
     atom  144 type  2   force =    -0.00002124    0.00001382    0.00002193
     atom  145 type  2   force =     0.00003011   -0.00003704   -0.00000902
     atom  146 type  2   force =    -0.00003199    0.00001402   -0.00001950
     atom  147 type  2   force =     0.00006315    0.00003943   -0.00001906
     atom  148 type  2   force =    -0.00001429    0.00007400    0.00002287
     atom  149 type  2   force =    -0.00000945    0.00000727   -0.00003278
     atom  150 type  2   force =    -0.00002998    0.00001032   -0.00000700
     atom  151 type  2   force =    -0.00001737   -0.00004443   -0.00000127
     atom  152 type  2   force =     0.00002662   -0.00003569    0.00001782
     atom  153 type  2   force =    -0.00003029   -0.00005544   -0.00000090
     atom  154 type  2   force =     0.00003559   -0.00000753   -0.00002615
     atom  155 type  2   force =     0.00001696   -0.00000584    0.00000153
     atom  156 type  2   force =    -0.00000407    0.00001388   -0.00001649
     atom  157 type  2   force =     0.00002872    0.00002327    0.00000752
     atom  158 type  2   force =     0.00005523   -0.00004706    0.00001066
     atom  159 type  2   force =     0.00002477    0.00006603    0.00001268
     atom  160 type  2   force =    -0.00001135   -0.00003285   -0.00003260
     atom  161 type  2   force =    -0.00000474    0.00002849   -0.00001602
     atom  162 type  2   force =    -0.00004627    0.00000814   -0.00001428
     atom  163 type  2   force =     0.00001215    0.00000608    0.00002336
     atom  164 type  2   force =     0.00000510   -0.00000065    0.00002573
     atom  165 type  2   force =    -0.00001747   -0.00002557   -0.00000591
     atom  166 type  2   force =     0.00002913    0.00001257    0.00004824
     atom  167 type  2   force =     0.00001498   -0.00002655    0.00001740
     atom  168 type  2   force =     0.00000885   -0.00001269    0.00005090
     atom  169 type  2   force =     0.00007443   -0.00004449    0.00002284
     atom  170 type  2   force =     0.00001921   -0.00004202    0.00004909
     atom  171 type  2   force =     0.00000505   -0.00001398   -0.00002948
     atom  172 type  2   force =    -0.00004145   -0.00004271   -0.00000471
     atom  173 type  2   force =     0.00000621   -0.00000617   -0.00003059
     atom  174 type  2   force =    -0.00003019    0.00000373   -0.00004030
     atom  175 type  2   force =    -0.00004013   -0.00002619    0.00000476
     atom  176 type  2   force =    -0.00004573    0.00004061   -0.00008582
     atom  177 type  2   force =     0.00000103   -0.00005415    0.00001232
     atom  178 type  2   force =     0.00004423   -0.00002735   -0.00000211
     atom  179 type  2   force =    -0.00001702    0.00001689   -0.00007572
     atom  180 type  2   force =     0.00004688    0.00002875   -0.00002307
     atom  181 type  2   force =     0.00003320    0.00004990    0.00000534
     atom  182 type  2   force =     0.00004102    0.00000457    0.00004874
     atom  183 type  2   force =    -0.00004256    0.00003386   -0.00000823
     atom  184 type  2   force =     0.00001898   -0.00000008   -0.00000585
     atom  185 type  2   force =    -0.00001739   -0.00004190   -0.00002062
     atom  186 type  2   force =     0.00000491   -0.00000716   -0.00002520
     atom  187 type  2   force =    -0.00001398    0.00001427   -0.00000695
     atom  188 type  2   force =    -0.00006564   -0.00000714    0.00000547
     atom  189 type  2   force =    -0.00001492    0.00003377    0.00000258
     atom  190 type  2   force =     0.00006470    0.00005081    0.00002330
     atom  191 type  2   force =    -0.00000071   -0.00001830    0.00005785
     atom  192 type  2   force =     0.00001618    0.00001247    0.00002563
     atom  193 type  2   force =     0.00001873   -0.00000668   -0.00005361
     atom  194 type  2   force =    -0.00001053   -0.00003403   -0.00000479
     atom  195 type  2   force =     0.00000706   -0.00001091   -0.00000456
     atom  196 type  2   force =    -0.00002262    0.00003101   -0.00004765
     atom  197 type  2   force =     0.00000879   -0.00003762   -0.00004333
     atom  198 type  2   force =    -0.00002938   -0.00003254   -0.00005340
     atom  199 type  2   force =     0.00000956    0.00005189    0.00007874
     atom  200 type  2   force =     0.00003223    0.00005632    0.00003329
     atom  201 type  2   force =    -0.00006306   -0.00000094    0.00006475
     atom  202 type  2   force =     0.00004942    0.00000406    0.00002075
     atom  203 type  2   force =    -0.00001974   -0.00004926    0.00009562
     atom  204 type  2   force =    -0.00000347   -0.00002166    0.00002930
     atom  205 type  2   force =     0.00010095   -0.00003796   -0.00001498
     atom  206 type  2   force =     0.00009185    0.00004930   -0.00003206
     atom  207 type  2   force =     0.00002027   -0.00011128    0.00000544
     atom  208 type  2   force =    -0.00007298   -0.00003200   -0.00000890
     atom  209 type  2   force =     0.00000507    0.00012421   -0.00010197
     atom  210 type  2   force =    -0.00008971    0.00006314   -0.00007527
     atom  211 type  2   force =    -0.00016642   -0.00003629    0.00007207
     atom  212 type  2   force =    -0.00005341    0.00008936    0.00001973
     atom  213 type  2   force =     0.00005053    0.00008752    0.00000525
     atom  214 type  2   force =    -0.00004212   -0.00009463    0.00009271
     atom  215 type  2   force =     0.00014676    0.00000085    0.00001368
     atom  216 type  2   force =     0.00002927   -0.00009147    0.00009063
     atom  217 type  2   force =    -0.00002150   -0.00003134   -0.00007795
     atom  218 type  2   force =     0.00002358   -0.00005252   -0.00011497
     atom  219 type  2   force =    -0.00010034   -0.00001131   -0.00005800
     atom  220 type  2   force =     0.00008747   -0.00000124   -0.00009499
     atom  221 type  2   force =    -0.00006533    0.00006235   -0.00010917
     atom  222 type  2   force =     0.00001480    0.00005347   -0.00017057
     atom  223 type  2   force =     0.00001239    0.00004375   -0.00006631
     atom  224 type  2   force =    -0.00008406   -0.00002116   -0.00006750
     atom  225 type  2   force =     0.00003652    0.00004639   -0.00006421
     atom  226 type  2   force =     0.00005028   -0.00001747   -0.00006089
     atom  227 type  2   force =     0.00002202   -0.00003214   -0.00007414
     atom  228 type  2   force =     0.00000711   -0.00001570   -0.00006646
     atom  229 type  2   force =    -0.00003005   -0.00004095   -0.00009984
     atom  230 type  2   force =     0.00010317   -0.00006714   -0.00021482
     atom  231 type  2   force =    -0.00005573   -0.00004877   -0.00012598
     atom  232 type  2   force =    -0.00006687    0.00001803   -0.00013346
     atom  233 type  2   force =    -0.00000517    0.00003992   -0.00011682
     atom  234 type  2   force =     0.00008530    0.00000749   -0.00016713
     atom  235 type  1   force =    -0.00001176   -0.00002868    0.00004270
     atom  236 type  1   force =    -0.00000708   -0.00001544    0.00003012
     atom  237 type  1   force =     0.00003452   -0.00001520    0.00003032
     atom  238 type  1   force =     0.00000180   -0.00002214    0.00003415
     atom  239 type  1   force =     0.00001263   -0.00003420    0.00003141
     atom  240 type  1   force =     0.00003348   -0.00003596    0.00002094
     atom  241 type  1   force =     0.00003130    0.00007784   -0.00000423
     atom  242 type  1   force =     0.00002820   -0.00002017   -0.00003434
     atom  243 type  1   force =    -0.00008142    0.00006579   -0.00005531
     atom  244 type  1   force =    -0.00001104   -0.00008056   -0.00004775
     atom  245 type  1   force =    -0.00006010   -0.00006280   -0.00002851
     atom  246 type  1   force =    -0.00006870   -0.00003053   -0.00005807
     atom  247 type  1   force =    -0.00006348    0.00004582    0.00006156
     atom  248 type  1   force =    -0.00002161    0.00004914    0.00003892
     atom  249 type  1   force =     0.00003659    0.00006408    0.00005922
     atom  250 type  1   force =     0.00004162    0.00000616    0.00004665
     atom  251 type  1   force =     0.00004326   -0.00000074    0.00004864
     atom  252 type  1   force =    -0.00003446   -0.00003498    0.00004475

     Total force =     0.001290     Total SCF correction =     0.002094
     SCF correction compared to forces is large: reduce conv_thr to get better values

     Writing output data file ./nt.save/
 
     init_run     :     42.03s CPU     43.34s WALL (       1 calls)
     electrons    :    704.88s CPU    724.77s WALL (       1 calls)
     forces       :     11.05s CPU     11.43s WALL (       1 calls)

     Called by init_run:
     wfcinit      :     34.86s CPU     35.93s WALL (       1 calls)
     potinit      :      1.56s CPU      1.65s WALL (       1 calls)
     hinit0       :      1.37s CPU      1.40s WALL (       1 calls)

     Called by electrons:
     c_bands      :    603.49s CPU    620.13s WALL (      11 calls)
     sum_band     :     93.45s CPU     95.83s WALL (      11 calls)
     v_of_rho     :      6.61s CPU      7.17s WALL (      12 calls)
     mix_rho      :      1.55s CPU      1.67s WALL (      11 calls)

     Called by c_bands:
     init_us_2    :      6.00s CPU      6.27s WALL (      23 calls)
     regterg      :    593.24s CPU    609.74s WALL (      11 calls)

     Called by *egterg:
     rdiaghg      :     33.40s CPU     33.85s WALL (      77 calls)
     h_psi        :    507.93s CPU    520.17s WALL (      78 calls)
     g_psi        :      0.77s CPU      0.79s WALL (      66 calls)

     Called by h_psi:
     h_psi:calbec :     48.76s CPU     49.63s WALL (      78 calls)
     vloc_psi     :    408.15s CPU    418.57s WALL (      78 calls)
     add_vuspsi   :     48.11s CPU     48.97s WALL (      78 calls)

     General routines
     calbec       :     54.22s CPU     55.18s WALL (      82 calls)
     fft          :      5.93s CPU      6.39s WALL (     104 calls)
     ffts         :      0.54s CPU      0.57s WALL (      11 calls)
     fftw         :    417.89s CPU    429.04s WALL (   16891 calls)
 
     Parallel routines
     fft_scatt_xy :    120.56s CPU    122.60s WALL (   17006 calls)
     fft_scatt_yz :    113.17s CPU    119.14s WALL (   17006 calls)
 
     PWSCF        :  12m42.70s CPU  13m 7.77s WALL

 
   This run was terminated on:   2:39:51  31May2020            

=------------------------------------------------------------------------------=
   JOB DONE.
=------------------------------------------------------------------------------=
