
     Program PWSCF v.6.5 starts on 31May2020 at  2:15: 8 

     This program is part of the open-source Quantum ESPRESSO suite
     for quantum simulation of materials; please cite
         "P. Giannozzi et al., J. Phys.:Condens. Matter 21 395502 (2009);
         "P. Giannozzi et al., J. Phys.:Condens. Matter 29 465901 (2017);
          URL http://www.quantum-espresso.org", 
     in publications or presentations arising from this work. More details at
     http://www.quantum-espresso.org/quote

     Parallel version (MPI), running on    64 processors

     MPI processes distributed on     2 nodes
     R & G space division:  proc/nbgrp/npool/nimage =      64
     Fft bands division:     nmany     =       1
     Reading input from nt.18.in
Warning: card  &IONS ignored
Warning: card  / ignored

     Current dimensions of program PWSCF are:
     Max number of different atomic species (ntypx) = 10
     Max number of k-points (npk) =  40000
     Max angular momentum in pseudopotentials (lmaxx) =  3

     gamma-point specific algorithms are used

     Subspace diagonalization in iterative solution of the eigenvalue problem:
     a serial algorithm will be used

 
     Parallelization info
     --------------------
     sticks:   dense  smooth     PW     G-vecs:    dense   smooth      PW
     Min         747     747    186               191532   191532   23934
     Max         750     750    188               191560   191560   23955
     Sum       47881   47881  11977             12258977 12258977 1532257
 


     bravais-lattice index     =            6
     lattice parameter (alat)  =      34.0151  a.u.
     unit-cell volume          =   61220.8905 (a.u.)^3
     number of atoms/cell      =          252
     number of atomic types    =            2
     number of electrons       =       900.00
     number of Kohn-Sham states=          450
     kinetic-energy cutoff     =     130.0000  Ry
     charge density cutoff     =     520.0000  Ry
     convergence threshold     =      1.0E-06
     mixing beta               =       0.6000
     number of iterations used =            8  plain     mixing
     Exchange-correlation= PBE
                           (   1   4   3   4   0   0   0)

     celldm(1)=  34.015070  celldm(2)=   0.000000  celldm(3)=   1.555556
     celldm(4)=   0.000000  celldm(5)=   0.000000  celldm(6)=   0.000000

     crystal axes: (cart. coord. in units of alat)
               a(1) = (   1.000000   0.000000   0.000000 )  
               a(2) = (   0.000000   1.000000   0.000000 )  
               a(3) = (   0.000000   0.000000   1.555556 )  

     reciprocal axes: (cart. coord. in units 2 pi/alat)
               b(1) = (  1.000000  0.000000  0.000000 )  
               b(2) = (  0.000000  1.000000  0.000000 )  
               b(3) = (  0.000000  0.000000  0.642857 )  


     PseudoPot. # 1 for H  read from file:
     /gpfs/share/home/1600011702/pseudo/H.nc.fr.pbe.stringent.upf
     MD5 check sum: 95156ffc763ef7c24633d2a3a64354af
     Pseudo is Norm-conserving, Zval =  1.0
     Generated using ONCVPSP code by D. R. Hamann
     Using radial grid of 1166 points,  3 beta functions with: 
                l(1) =   0
                l(2) =   0
                l(3) =   1

     PseudoPot. # 2 for C  read from file:
     /gpfs/share/home/1600011702/pseudo/C.nc.fr.pbe.stringent.upf
     MD5 check sum: d80ec9912146af6c4c1760317d1f95e9
     Pseudo is Norm-conserving + core correction, Zval =  4.0
     Generated using ONCVPSP code by D. R. Hamann
     Using radial grid of 1248 points,  4 beta functions with: 
                l(1) =   0
                l(2) =   0
                l(3) =   1
                l(4) =   1

     atomic species   valence    mass     pseudopotential
        H              1.00     1.00784     H ( 1.00)
        C              4.00    12.01070     C ( 1.00)

     No symmetry found



   Cartesian axes

     site n.     atom                  positions (alat units)
         1           H   tau(   1) = (  -0.3603389   0.0257622   0.0302156  )
         2           H   tau(   2) = (  -0.2024864  -0.2991516   0.0302203  )
         3           H   tau(   3) = (   0.3603380  -0.0257628   0.0302130  )
         4           H   tau(   4) = (   0.1578633  -0.3249015   0.0302189  )
         5           H   tau(   5) = (   0.2024980   0.2991396   0.0302172  )
         6           H   tau(   6) = (  -0.1578476   0.3249153   0.0302198  )
         7           H   tau(   7) = (   0.0311342  -0.3668421   0.0545865  )
         8           H   tau(   8) = (  -0.3021790  -0.2103933   0.0545921  )
         9           H   tau(   9) = (   0.3333536  -0.1565042   0.0545904  )
        10           H   tau(  10) = (  -0.3332621   0.1564677   0.0545920  )
        11           H   tau(  11) = (  -0.0311088   0.3668324   0.0546033  )
        12           H   tau(  12) = (   0.3022469   0.2104156   0.0546033  )
        13           H   tau(  13) = (  -0.0795140  -0.3441289   0.0738271  )
        14           H   tau(  14) = (   0.2583133  -0.2409340   0.0738246  )
        15           H   tau(  15) = (   0.3377586   0.1031970   0.0738232  )
        16           H   tau(  16) = (  -0.3378207  -0.1032333   0.0738314  )
        17           H   tau(  17) = (   0.0794698   0.3439883   0.0738280  )
        18           H   tau(  18) = (  -0.2582676   0.2408562   0.0738321  )
        19           C   tau(  19) = (   0.3518271  -0.0446008   0.0871277  )
        20           C   tau(  20) = (   0.1372955  -0.3269472   0.0871352  )
        21           C   tau(  21) = (  -0.3518272   0.0445878   0.0871341  )
        22           C   tau(  22) = (  -0.2145401  -0.2823686   0.0871391  )
        23           C   tau(  23) = (   0.2145358   0.2823256   0.0871303  )
        24           C   tau(  24) = (  -0.1372724   0.3269215   0.0871339  )
        25           C   tau(  25) = (   0.0660166  -0.3504133   0.1011564  )
        26           C   tau(  26) = (   0.3365388  -0.1180702   0.1011523  )
        27           C   tau(  27) = (  -0.2705190  -0.2323905   0.1011645  )
        28           C   tau(  28) = (  -0.3365142   0.1180501   0.1011621  )
        29           C   tau(  29) = (   0.2705330   0.2323727   0.1011592  )
        30           C   tau(  30) = (  -0.0659975   0.3503964   0.1011631  )
        31           C   tau(  31) = (  -0.0961810  -0.3375277   0.1315875  )
        32           C   tau(  32) = (   0.2442714  -0.2520711   0.1315855  )
        33           C   tau(  33) = (  -0.3404602  -0.0854940   0.1315890  )
        34           C   tau(  34) = (   0.3404388   0.0854729   0.1315826  )
        35           C   tau(  35) = (  -0.2442412   0.2520317   0.1315888  )
        36           C   tau(  36) = (   0.0961691   0.3374593   0.1315858  )
        37           C   tau(  37) = (  -0.1670314  -0.3075085   0.1454272  )
        38           C   tau(  38) = (  -0.3498721  -0.0091252   0.1454244  )
        39           C   tau(  39) = (   0.1828343  -0.2983972   0.1454268  )
        40           C   tau(  40) = (   0.3498654   0.0091084   0.1454229  )
        41           C   tau(  41) = (  -0.1828060   0.2983599   0.1454234  )
        42           C   tau(  42) = (   0.1670217   0.3074547   0.1454224  )
        43           C   tau(  43) = (   0.0355330  -0.3492057   0.1742129  )
        44           C   tau(  44) = (   0.3202607  -0.1438608   0.1742122  )
        45           C   tau(  45) = (  -0.2847266  -0.2053957   0.1742213  )
        46           C   tau(  46) = (  -0.3202501   0.1438462   0.1742213  )
        47           C   tau(  47) = (   0.2847280   0.2053766   0.1742181  )
        48           C   tau(  48) = (  -0.0355237   0.3491883   0.1742216  )
        49           C   tau(  49) = (  -0.0438924  -0.3469587   0.1886011  )
        50           C   tau(  50) = (   0.2785975  -0.2115177   0.1886015  )
        51           C   tau(  51) = (  -0.3225038  -0.1354935   0.1886070  )
        52           C   tau(  52) = (   0.3225043   0.1354760   0.1886046  )
        53           C   tau(  53) = (  -0.2785844   0.2115006   0.1886079  )
        54           C   tau(  54) = (   0.0438994   0.3469374   0.1886068  )
        55           C   tau(  55) = (  -0.1887694  -0.2915885   0.2200414  )
        56           C   tau(  56) = (   0.1581756  -0.3092567   0.2200404  )
        57           C   tau(  57) = (  -0.3469594   0.0176594   0.2200398  )
        58           C   tau(  58) = (   0.3469722  -0.0176725   0.2200377  )
        59           C   tau(  59) = (  -0.1581594   0.3092256   0.2200403  )
        60           C   tau(  60) = (   0.1887679   0.2915643   0.2200394  )
        61           C   tau(  61) = (   0.0851086  -0.3365910   0.2342937  )
        62           C   tau(  62) = (   0.3341259  -0.0946202   0.2342919  )
        63           C   tau(  63) = (  -0.2490008  -0.2420074   0.2342999  )
        64           C   tau(  64) = (  -0.3341202   0.0946070   0.2342982  )
        65           C   tau(  65) = (   0.2490015   0.2419888   0.2342957  )
        66           C   tau(  66) = (  -0.0850988   0.3365743   0.2342978  )
        67           C   tau(  67) = (  -0.0690437  -0.3402633   0.2640884  )
        68           C   tau(  68) = (   0.2602225  -0.2299489   0.2640888  )
        69           C   tau(  69) = (  -0.3292892  -0.1103660   0.2640928  )
        70           C   tau(  70) = (   0.3293017   0.1103528   0.2640896  )
        71           C   tau(  71) = (  -0.2602219   0.2299405   0.2640939  )
        72           C   tau(  72) = (   0.0690543   0.3402672   0.2640920  )
        73           C   tau(  73) = (  -0.1425794  -0.3156268   0.2794250  )
        74           C   tau(  74) = (  -0.3447088  -0.0343612   0.2794242  )
        75           C   tau(  75) = (   0.2021013  -0.2812937   0.2794253  )
        76           C   tau(  76) = (   0.3447229   0.0343481   0.2794245  )
        77           C   tau(  77) = (  -0.2020936   0.2812797   0.2794250  )
        78           C   tau(  78) = (   0.1425879   0.3156219   0.2794250  )
        79           C   tau(  79) = (   0.0595693  -0.3412396   0.3094992  )
        80           C   tau(  80) = (   0.3253868  -0.1190611   0.3094976  )
        81           C   tau(  81) = (  -0.2658046  -0.2222217   0.3095049  )
        82           C   tau(  82) = (  -0.3253851   0.1190522   0.3095042  )
        83           C   tau(  83) = (   0.2658048   0.2222029   0.3095000  )
        84           C   tau(  84) = (  -0.0595613   0.3412266   0.3095026  )
        85           C   tau(  85) = (  -0.0178321  -0.3464600   0.3242396  )
        86           C   tau(  86) = (   0.2912039  -0.1887000   0.3242384  )
        87           C   tau(  87) = (  -0.3090462  -0.1578122   0.3242441  )
        88           C   tau(  88) = (  -0.2912051   0.1886940   0.3242427  )
        89           C   tau(  89) = (   0.3090525   0.1577996   0.3242392  )
        90           C   tau(  90) = (   0.0178396   0.3464611   0.3242401  )
        91           C   tau(  91) = (  -0.1659514  -0.3039485   0.3544197  )
        92           C   tau(  92) = (  -0.3462820  -0.0082778   0.3544181  )
        93           C   tau(  93) = (   0.1802957  -0.2956839   0.3544202  )
        94           C   tau(  94) = (   0.3462951   0.0082711   0.3544189  )
        95           C   tau(  95) = (  -0.1802909   0.2956808   0.3544189  )
        96           C   tau(  96) = (   0.1659646   0.3039519   0.3544189  )
        97           C   tau(  97) = (   0.1096544  -0.3285209   0.3690976  )
        98           C   tau(  98) = (  -0.2297304  -0.2592193   0.3691013  )
        99           C   tau(  99) = (   0.3394171  -0.0693252   0.3690958  )
       100           C   tau( 100) = (  -0.3394082   0.0693164   0.3691003  )
       101           C   tau( 101) = (   0.2297340   0.2592097   0.3690974  )
       102           C   tau( 102) = (  -0.1096457   0.3285079   0.3690994  )
       103           C   tau( 103) = (  -0.0437770  -0.3441977   0.3990184  )
       104           C   tau( 104) = (  -0.3200616  -0.1342076   0.3990198  )
       105           C   tau( 105) = (   0.2762726  -0.2100327   0.3990191  )
       106           C   tau( 106) = (  -0.2762644   0.2100326   0.3990185  )
       107           C   tau( 107) = (   0.3200711   0.1342073   0.3990184  )
       108           C   tau( 108) = (   0.0437856   0.3442013   0.3990178  )
       109           C   tau( 109) = (  -0.1193291  -0.3256086   0.4140330  )
       110           C   tau( 110) = (  -0.3417414  -0.0594839   0.4140325  )
       111           C   tau( 111) = (   0.2223817  -0.2661545   0.4140328  )
       112           C   tau( 112) = (  -0.2223767   0.2661583   0.4140311  )
       113           C   tau( 113) = (   0.3417597   0.0594823   0.4140309  )
       114           C   tau( 114) = (   0.1193437   0.3256244   0.4140304  )
       115           C   tau( 115) = (   0.0847164  -0.3360758   0.4439665  )
       116           C   tau( 116) = (  -0.2487494  -0.2414042   0.4439687  )
       117           C   tau( 117) = (  -0.3334852   0.0946958   0.4439677  )
       118           C   tau( 118) = (   0.3334993  -0.0946976   0.4439665  )
       119           C   tau( 119) = (  -0.0847104   0.3360709   0.4439672  )
       120           C   tau( 120) = (   0.2487571   0.2414072   0.4439666  )
       121           C   tau( 121) = (   0.0078405  -0.3467033   0.4587998  )
       122           C   tau( 122) = (  -0.2964120  -0.1801560   0.4588017  )
       123           C   tau( 123) = (   0.3042614  -0.1665862   0.4587994  )
       124           C   tau( 124) = (  -0.3042475   0.1665854   0.4588004  )
       125           C   tau( 125) = (  -0.0078340   0.3466993   0.4587984  )
       126           C   tau( 126) = (   0.2964184   0.1801597   0.4587987  )
       127           C   tau( 127) = (  -0.1434799  -0.3157289   0.4889994  )
       128           C   tau( 128) = (  -0.3452571  -0.0336270   0.4889981  )
       129           C   tau( 129) = (   0.2017415  -0.2821194   0.4889978  )
       130           C   tau( 130) = (   0.3452691   0.0336277   0.4889967  )
       131           C   tau( 131) = (  -0.2017367   0.2821217   0.4889971  )
       132           C   tau( 132) = (   0.1434902   0.3157379   0.4889970  )
       133           C   tau( 133) = (  -0.2099995  -0.2757515   0.5038309  )
       134           C   tau( 134) = (   0.1338458  -0.3197093   0.5038295  )
       135           C   tau( 135) = (  -0.3438764   0.0439682   0.5038310  )
       136           C   tau( 136) = (   0.3438897  -0.0439669   0.5038291  )
       137           C   tau( 137) = (  -0.1338400   0.3197125   0.5038301  )
       138           C   tau( 138) = (   0.2100091   0.2757614   0.5038302  )
       139           C   tau( 139) = (  -0.0182485  -0.3463083   0.5337664  )
       140           C   tau( 140) = (  -0.3091153  -0.1573636   0.5337676  )
       141           C   tau( 141) = (   0.2908715  -0.1889802   0.5337658  )
       142           C   tau( 142) = (  -0.2908488   0.1889781   0.5337659  )
       143           C   tau( 143) = (   0.3091239   0.1573685   0.5337634  )
       144           C   tau( 144) = (   0.0182567   0.3462981   0.5337640  )
       145           C   tau( 145) = (  -0.0950294  -0.3337099   0.5487796  )
       146           C   tau( 146) = (  -0.3366058  -0.0845758   0.5487798  )
       147           C   tau( 147) = (   0.2415534  -0.2491632   0.5487782  )
       148           C   tau( 148) = (   0.3366149   0.0845795   0.5487765  )
       149           C   tau( 149) = (  -0.2415419   0.2491653   0.5487793  )
       150           C   tau( 150) = (   0.0950373   0.3337116   0.5487786  )
       151           C   tau( 151) = (  -0.2299598  -0.2589993   0.5786989  )
       152           C   tau( 152) = (   0.1093567  -0.3286056   0.5786981  )
       153           C   tau( 153) = (  -0.3393463   0.0696328   0.5786984  )
       154           C   tau( 154) = (   0.3393542  -0.0696216   0.5786998  )
       155           C   tau( 155) = (  -0.1093512   0.3286209   0.5786976  )
       156           C   tau( 156) = (   0.2299708   0.2590145   0.5786994  )
       157           C   tau( 157) = (   0.0331371  -0.3446954   0.5933779  )
       158           C   tau( 158) = (  -0.2820201  -0.2010506   0.5933800  )
       159           C   tau( 159) = (   0.3151736  -0.1436743   0.5933773  )
       160           C   tau( 160) = (  -0.3151566   0.1436805   0.5933803  )
       161           C   tau( 161) = (   0.2820276   0.2010613   0.5933760  )
       162           C   tau( 162) = (  -0.0331274   0.3446954   0.5933774  )
       163           C   tau( 163) = (  -0.1197794  -0.3255963   0.6235565  )
       164           C   tau( 164) = (  -0.3419560  -0.0590821   0.6235555  )
       165           C   tau( 165) = (   0.2221475  -0.2665278   0.6235569  )
       166           C   tau( 166) = (  -0.2221353   0.2665389   0.6235560  )
       167           C   tau( 167) = (   0.3419572   0.0590957   0.6235567  )
       168           C   tau( 168) = (   0.1197833   0.3255990   0.6235579  )
       169           C   tau( 169) = (  -0.1889012  -0.2903750   0.6382948  )
       170           C   tau( 170) = (  -0.3460074   0.0183895   0.6382941  )
       171           C   tau( 171) = (   0.1570676  -0.3087511   0.6382953  )
       172           C   tau( 172) = (  -0.1570608   0.3087730   0.6382952  )
       173           C   tau( 173) = (   0.3460073  -0.0183742   0.6382975  )
       174           C   tau( 174) = (   0.1889095   0.2903889   0.6382985  )
       175           C   tau( 175) = (   0.0070549  -0.3462434   0.6683714  )
       176           C   tau( 176) = (  -0.2964091  -0.1792400   0.6683744  )
       177           C   tau( 177) = (   0.3034735  -0.1670334   0.6683718  )
       178           C   tau( 178) = (   0.2964216   0.1792587   0.6683704  )
       179           C   tau( 179) = (  -0.3034576   0.1670457   0.6683749  )
       180           C   tau( 180) = (  -0.0070472   0.3462543   0.6683720  )
       181           C   tau( 181) = (  -0.0702488  -0.3400192   0.6837047  )
       182           C   tau( 182) = (  -0.3296803  -0.1091857   0.6837046  )
       183           C   tau( 183) = (   0.2594169  -0.2308584   0.6837056  )
       184           C   tau( 184) = (  -0.2593986   0.2308683   0.6837075  )
       185           C   tau( 185) = (   0.3296860   0.1092029   0.6837063  )
       186           C   tau( 186) = (   0.0702545   0.3400202   0.6837092  )
       187           C   tau( 187) = (  -0.2105556  -0.2760609   0.7135002  )
       188           C   tau( 188) = (   0.1338414  -0.3203428   0.7134994  )
       189           C   tau( 189) = (  -0.3444297   0.0443004   0.7135000  )
       190           C   tau( 190) = (  -0.1338344   0.3203657   0.7135002  )
       191           C   tau( 191) = (   0.3444338  -0.0442831   0.7135025  )
       192           C   tau( 192) = (   0.2105678   0.2760789   0.7135038  )
       193           C   tau( 193) = (   0.0589726  -0.3422632   0.7277568  )
       194           C   tau( 194) = (  -0.2669928  -0.2222036   0.7277584  )
       195           C   tau( 195) = (  -0.3259843   0.1201007   0.7277584  )
       196           C   tau( 196) = (   0.3259906  -0.1200836   0.7277583  )
       197           C   tau( 197) = (  -0.0589670   0.3422972   0.7277562  )
       198           C   tau( 198) = (   0.2670157   0.2222311   0.7277563  )
       199           C   tau( 199) = (  -0.0960008  -0.3362723   0.7591898  )
       200           C   tau( 200) = (  -0.3393201  -0.0850130   0.7591911  )
       201           C   tau( 201) = (   0.2432888  -0.2512853   0.7591911  )
       202           C   tau( 202) = (  -0.2432851   0.2513092   0.7591943  )
       203           C   tau( 203) = (   0.3393316   0.0850307   0.7591926  )
       204           C   tau( 204) = (   0.0960143   0.3362966   0.7591964  )
       205           C   tau( 205) = (  -0.1699208  -0.3071369   0.7735765  )
       206           C   tau( 206) = (   0.1810813  -0.3007157   0.7735762  )
       207           C   tau( 207) = (  -0.3510365  -0.0064257   0.7735768  )
       208           C   tau( 208) = (  -0.1810737   0.3007387   0.7735796  )
       209           C   tau( 209) = (   0.3510447   0.0064436   0.7735816  )
       210           C   tau( 210) = (   0.1699353   0.3071574   0.7735849  )
       211           C   tau( 211) = (   0.0327339  -0.3483371   0.8023733  )
       212           C   tau( 212) = (  -0.2853895  -0.2025264   0.8023752  )
       213           C   tau( 213) = (  -0.3181357   0.1458766   0.8023736  )
       214           C   tau( 214) = (   0.3181192  -0.1458432   0.8023740  )
       215           C   tau( 215) = (  -0.0327219   0.3483968   0.8023700  )
       216           C   tau( 216) = (   0.2854150   0.2025512   0.8023699  )
       217           C   tau( 217) = (  -0.3236773  -0.1357829   0.8162093  )
       218           C   tau( 218) = (  -0.0442101  -0.3480961   0.8162105  )
       219           C   tau( 219) = (  -0.2794582   0.2123970   0.8162104  )
       220           C   tau( 220) = (   0.2794289  -0.2123520   0.8162133  )
       221           C   tau( 221) = (   0.0442253   0.3481670   0.8162103  )
       222           C   tau( 222) = (   0.3236982   0.1358058   0.8162114  )
       223           C   tau( 223) = (  -0.1984153  -0.2962679   0.8466351  )
       224           C   tau( 224) = (   0.1574217  -0.3199616   0.8466349  )
       225           C   tau( 225) = (  -0.3558516   0.0236897   0.8466355  )
       226           C   tau( 226) = (  -0.1574015   0.3199816   0.8466364  )
       227           C   tau( 227) = (   0.3558744  -0.0236697   0.8466411  )
       228           C   tau( 228) = (   0.1984408   0.2962925   0.8466419  )
       229           C   tau( 229) = (  -0.2547362  -0.2466799   0.8606640  )
       230           C   tau( 230) = (   0.0863004  -0.3438991   0.8606645  )
       231           C   tau( 231) = (  -0.3410520   0.0972581   0.8606633  )
       232           C   tau( 232) = (  -0.0862860   0.3439431   0.8606591  )
       233           C   tau( 233) = (   0.2547607   0.2466994   0.8606630  )
       234           C   tau( 234) = (   0.3410434  -0.0972303   0.8606688  )
       235           H   tau( 235) = (  -0.0621337  -0.3475465   0.8739671  )
       236           H   tau( 236) = (  -0.3321935  -0.1199991   0.8739663  )
       237           H   tau( 237) = (  -0.2700696   0.2276744   0.8739693  )
       238           H   tau( 238) = (   0.2699858  -0.2275907   0.8739721  )
       239           H   tau( 239) = (   0.3322170   0.1200378   0.8739717  )
       240           H   tau( 240) = (   0.0621441   0.3476881   0.8739710  )
       241           H   tau( 241) = (   0.1952087  -0.3122234   0.8931910  )
       242           H   tau( 242) = (  -0.1727802  -0.3250764   0.8931989  )
       243           H   tau( 243) = (   0.3680634   0.0129241   0.8932002  )
       244           H   tau( 244) = (  -0.3679636  -0.0129108   0.8932073  )
       245           H   tau( 245) = (  -0.1951604   0.3122012   0.8932087  )
       246           H   tau( 246) = (   0.1728294   0.3251198   0.8932089  )
       247           H   tau( 247) = (   0.0686289  -0.3546350   0.9175771  )
       248           H   tau( 248) = (  -0.2728599  -0.2367447   0.9175801  )
       249           H   tau( 249) = (  -0.3414720   0.1179136   0.9175824  )
       250           H   tau( 250) = (  -0.0686034   0.3546360   0.9175776  )
       251           H   tau( 251) = (   0.2728736   0.2367386   0.9175780  )
       252           H   tau( 252) = (   0.3414723  -0.1179005   0.9175832  )

     number of k points=     1
                       cart. coord. in units 2pi/alat
        k(    1) = (   0.0000000   0.0000000   0.0000000), wk =   2.0000000

     Dense  grid:  6129489 G-vectors     FFT dimensions: ( 250, 250, 400)

     Estimated max dynamical RAM per process >       1.21 GB

     Estimated total dynamical RAM >      77.68 GB

     Initial potential from superposition of free atoms

     starting charge  899.99002, renormalised to  900.00000

     negative rho (up, down):  8.962E-05 0.000E+00
     Starting wfcs are  900 randomized atomic wfcs

     total cpu time spent up to now is       38.4 secs

     Self-consistent Calculation

     iteration #  1     ecut=   130.00 Ry     beta= 0.60
     Davidson diagonalization with overlap
     ethr =  1.00E-02,  avg # of iterations =  2.0

     total cpu time spent up to now is       97.6 secs

     total energy              =   -2639.01361723 Ry
     estimated scf accuracy    <      26.20979613 Ry

     iteration #  2     ecut=   130.00 Ry     beta= 0.60
     Davidson diagonalization with overlap
     ethr =  2.91E-03,  avg # of iterations =  2.0

     total cpu time spent up to now is      156.1 secs

     total energy              =   -2643.00263739 Ry
     estimated scf accuracy    <       1.44639829 Ry

     iteration #  3     ecut=   130.00 Ry     beta= 0.60
     Davidson diagonalization with overlap
     ethr =  1.61E-04,  avg # of iterations =  2.0

     total cpu time spent up to now is      211.0 secs

     total energy              =   -2643.25883270 Ry
     estimated scf accuracy    <       0.21795436 Ry

     iteration #  4     ecut=   130.00 Ry     beta= 0.60
     Davidson diagonalization with overlap
     ethr =  2.42E-05,  avg # of iterations =  3.0

     total cpu time spent up to now is      267.8 secs

     total energy              =   -2643.30463819 Ry
     estimated scf accuracy    <       0.02928956 Ry

     iteration #  5     ecut=   130.00 Ry     beta= 0.60
     Davidson diagonalization with overlap
     ethr =  3.25E-06,  avg # of iterations =  5.0

     total cpu time spent up to now is      327.4 secs

     total energy              =   -2643.31189683 Ry
     estimated scf accuracy    <       0.00414573 Ry

     iteration #  6     ecut=   130.00 Ry     beta= 0.60
     Davidson diagonalization with overlap
     ethr =  4.61E-07,  avg # of iterations =  9.0

     total cpu time spent up to now is      396.7 secs

     total energy              =   -2643.31226197 Ry
     estimated scf accuracy    <       0.00390431 Ry

     iteration #  7     ecut=   130.00 Ry     beta= 0.60
     Davidson diagonalization with overlap
     ethr =  4.34E-07,  avg # of iterations = 11.0

     total cpu time spent up to now is      452.1 secs

     total energy              =   -2643.31247215 Ry
     estimated scf accuracy    <       0.00786479 Ry

     iteration #  8     ecut=   130.00 Ry     beta= 0.60
     Davidson diagonalization with overlap
     ethr =  4.34E-07,  avg # of iterations =  9.0

     total cpu time spent up to now is      500.8 secs

     total energy              =   -2643.31301379 Ry
     estimated scf accuracy    <       0.00063098 Ry

     iteration #  9     ecut=   130.00 Ry     beta= 0.60
     Davidson diagonalization with overlap
     ethr =  7.01E-08,  avg # of iterations =  9.0

     total cpu time spent up to now is      553.0 secs

     total energy              =   -2643.31309918 Ry
     estimated scf accuracy    <       0.00002073 Ry

     iteration # 10     ecut=   130.00 Ry     beta= 0.60
     Davidson diagonalization with overlap
     ethr =  2.30E-09,  avg # of iterations =  6.0

     total cpu time spent up to now is      618.3 secs

     total energy              =   -2643.31310564 Ry
     estimated scf accuracy    <       0.00000475 Ry

     iteration # 11     ecut=   130.00 Ry     beta= 0.60
     Davidson diagonalization with overlap
     ethr =  5.27E-10,  avg # of iterations =  5.0

     total cpu time spent up to now is      675.5 secs

     End of self-consistent calculation

          k = 0.0000 0.0000 0.0000 (766129 PWs)   bands (ev):

   -20.9472 -20.8746 -20.8742 -20.6582 -20.6572 -20.5750 -20.5038 -20.5031
   -20.3083 -20.2917 -20.2905 -20.2892 -20.0122 -19.9744 -19.9437 -19.9429
   -19.8974 -19.8092 -19.8090 -19.7306 -19.7296 -19.4629 -19.4404 -19.4401
   -19.2902 -19.2735 -19.2233 -19.2227 -19.1541 -19.1541 -19.0145 -19.0137
   -18.8645 -18.8638 -18.7968 -18.7965 -18.7692 -18.4884 -18.4402 -18.4041
   -18.3912 -18.3905 -18.3211 -18.1734 -18.1732 -18.1358 -18.1354 -18.0718
   -18.0396 -18.0291 -18.0285 -17.8897 -17.6138 -17.6130 -17.5148 -17.5147
   -17.5126 -17.5109 -17.4846 -17.3368 -17.2252 -17.2250 -17.2140 -17.2138
   -17.0785 -17.0779 -16.9953 -16.9947 -16.8820 -16.7928 -16.7246 -16.7237
   -16.6958 -16.6239 -16.6235 -16.5455 -16.5453 -16.4069 -16.3168 -16.2396
   -16.2393 -16.1978 -16.1977 -16.0638 -16.0631 -16.0080 -15.9697 -15.9694
   -15.9490 -15.9480 -15.8756 -15.7517 -15.7503 -15.7117 -15.7051 -15.7048
   -15.6885 -15.5718 -15.4770 -15.2828 -15.2483 -15.2480 -15.1363 -15.1362
   -15.0774 -14.7073 -14.6269 -14.6263 -14.4251 -14.3896 -14.2823 -14.1933
   -14.1929 -14.1890 -14.1883 -14.1507 -13.9751 -13.9750 -13.9559 -13.9558
   -13.9266 -13.9116 -13.9108 -13.7963 -13.7962 -13.7161 -13.6142 -13.6033
   -13.5728 -13.5121 -13.5119 -13.4608 -13.4606 -13.2462 -13.2455 -13.2454
   -13.1259 -13.1255 -13.1037 -12.9086 -12.8391 -12.8390 -12.8199 -12.8199
   -12.7819 -12.7815 -12.7057 -12.7053 -12.5409 -12.4851 -12.4850 -12.4556
   -12.2444 -12.2442 -12.2346 -12.2345 -12.1465 -12.0386 -11.8472 -11.8471
   -11.6953 -11.6952 -11.6369 -11.6088 -11.6013 -11.6009 -11.5714 -11.3579
   -11.3578 -11.3406 -11.2929 -11.2925 -11.2414 -11.2149 -11.1727 -11.1722
   -11.1563 -11.0102 -11.0100 -10.9465 -10.8229 -10.8175 -10.8166 -10.7107
   -10.6402 -10.6400 -10.6376 -10.5305 -10.5300 -10.5139 -10.4969 -10.4966
   -10.4619 -10.4160 -10.2642 -10.1409 -10.0326 -10.0324  -9.9927  -9.9918
    -9.9577  -9.9220  -9.8802  -9.8797  -9.8163  -9.8159  -9.7067  -9.7056
    -9.6668  -9.6153  -9.6153  -9.5715  -9.5709  -9.5509  -9.5506  -9.4176
    -9.4175  -9.4171  -9.3632  -9.3629  -9.2723  -9.2243  -9.1445  -9.1442
    -9.1399  -9.0646  -9.0361  -8.9867  -8.9864  -8.9405  -8.9401  -8.8825
    -8.8758  -8.8611  -8.8606  -8.8123  -8.8121  -8.7266  -8.7095  -8.7016
    -8.6660  -8.6652  -8.6449  -8.6002  -8.6000  -8.5501  -8.5500  -8.5292
    -8.5223  -8.5217  -8.4917  -8.4910  -8.4750  -8.4746  -8.4700  -8.3348
    -8.3305  -8.3289  -8.3231  -8.3196  -8.2791  -8.2772  -8.2360  -8.2248
    -8.2245  -8.1719  -8.1704  -8.1318  -8.0882  -8.0697  -8.0693  -8.0593
    -8.0193  -8.0190  -8.0130  -7.9875  -7.9858  -7.9628  -7.9626  -7.9574
    -7.8950  -7.8885  -7.8868  -7.8865  -7.8597  -7.8555  -7.8338  -7.8123
    -7.8117  -7.7723  -7.7608  -7.7604  -7.7309  -7.7159  -7.7151  -7.6906
    -7.6901  -7.6712  -7.6648  -7.6052  -7.5808  -7.5807  -7.5396  -7.5033
    -7.4968  -7.4145  -7.4035  -7.3922  -7.3917  -7.3780  -7.3375  -7.3346
    -7.3300  -7.3213  -7.2222  -7.2217  -7.2111  -7.2002  -7.1998  -7.1188
    -7.1173  -7.0044  -7.0043  -6.9881  -6.9281  -6.9238  -6.9227  -6.8453
    -6.8360  -6.8217  -6.8207  -6.7446  -6.7445  -6.7166  -6.7149  -6.6882
    -6.6239  -6.6189  -6.5691  -6.5682  -6.5130  -6.5059  -6.4988  -6.4782
    -6.4562  -6.4316  -6.4301  -6.4026  -6.4019  -6.3769  -6.3657  -6.3636
    -6.2045  -6.2037  -6.2025  -6.1611  -6.1361  -6.0427  -6.0349  -6.0149
    -6.0138  -6.0062  -6.0054  -5.9715  -5.9272  -5.9065  -5.9063  -5.8263
    -5.8200  -5.8185  -5.7751  -5.7735  -5.7335  -5.6834  -5.6746  -5.5942
    -5.5856  -5.5419  -5.5415  -5.5346  -5.5335  -5.5252  -5.4817  -5.4811
    -5.3939  -5.3273  -5.2396  -5.2392  -5.1769  -5.1653  -5.1646  -5.0617
    -5.0108  -5.0105  -5.0014  -4.9981  -4.9976  -4.9483  -4.8916  -4.8837
    -4.8671  -4.8667  -4.8148  -4.8133  -4.7658  -4.7347  -4.6376  -4.6305
    -4.6248  -4.6248  -4.5270  -4.3639  -4.2891  -4.2873  -4.2449  -4.2302
    -4.1485  -4.1480  -4.0861  -4.0752  -4.0726  -4.0677  -3.9385  -3.8107
    -3.8088  -3.7741  -3.7484  -3.7391  -3.6605  -3.6594  -3.5937  -3.5633
    -3.5591  -3.5268  -3.3645  -3.3642  -3.3030  -3.2975  -3.2877  -3.2659
    -3.2324  -2.7926  -2.7854  -2.7809  -2.6572  -2.6566  -2.6527  -1.9860
    -1.9803  -1.6414

     highest occupied level (ev):    -1.6414

!    total energy              =   -2643.31310615 Ry
     estimated scf accuracy    <       0.00000096 Ry

     The total energy is the sum of the following terms:
     one-electron contribution =  -24518.21059913 Ry
     hartree contribution      =   12434.61298821 Ry
     xc contribution           =    -950.40790998 Ry
     ewald contribution        =   10390.69241476 Ry

     convergence has been achieved in  11 iterations

     Forces acting on atoms (cartesian axes, Ry/au):

     atom    1 type  1   force =     0.00002211   -0.00011204   -0.00007193
     atom    2 type  1   force =     0.00002629   -0.00004957   -0.00003561
     atom    3 type  1   force =    -0.00000751    0.00008627   -0.00007678
     atom    4 type  1   force =     0.00007559    0.00002366   -0.00005927
     atom    5 type  1   force =    -0.00004588    0.00001371   -0.00004101
     atom    6 type  1   force =    -0.00007944   -0.00008877   -0.00007105
     atom    7 type  1   force =    -0.00014471    0.00009301    0.00004916
     atom    8 type  1   force =    -0.00005418    0.00007980    0.00004423
     atom    9 type  1   force =    -0.00013358   -0.00006921    0.00002222
     atom   10 type  1   force =     0.00004479    0.00009223    0.00002420
     atom   11 type  1   force =     0.00014441   -0.00005690   -0.00000162
     atom   12 type  1   force =    -0.00001165   -0.00009580    0.00003168
     atom   13 type  1   force =     0.00001135    0.00003378   -0.00000156
     atom   14 type  1   force =     0.00000009    0.00006420   -0.00003496
     atom   15 type  1   force =     0.00002121    0.00003969   -0.00003039
     atom   16 type  1   force =     0.00000038    0.00000026   -0.00000499
     atom   17 type  1   force =     0.00001406    0.00002922   -0.00004251
     atom   18 type  1   force =     0.00000183   -0.00000561   -0.00005113
     atom   19 type  2   force =     0.00009702   -0.00015808    0.00026401
     atom   20 type  2   force =     0.00002671   -0.00003866    0.00012686
     atom   21 type  2   force =    -0.00009019    0.00009721    0.00022819
     atom   22 type  2   force =    -0.00005009    0.00004569    0.00014441
     atom   23 type  2   force =     0.00005013    0.00003702    0.00018568
     atom   24 type  2   force =     0.00001106    0.00010401    0.00014747
     atom   25 type  2   force =     0.00004214   -0.00005224    0.00020723
     atom   26 type  2   force =     0.00003990    0.00013686    0.00009567
     atom   27 type  2   force =     0.00009980   -0.00003090    0.00006350
     atom   28 type  2   force =     0.00002251   -0.00009462    0.00006620
     atom   29 type  2   force =    -0.00003664    0.00003809    0.00006771
     atom   30 type  2   force =    -0.00013003    0.00002331    0.00021105
     atom   31 type  2   force =    -0.00007531   -0.00003305    0.00019814
     atom   32 type  2   force =    -0.00000201   -0.00012143    0.00015137
     atom   33 type  2   force =    -0.00007857    0.00014364    0.00012523
     atom   34 type  2   force =     0.00008133   -0.00015307    0.00017867
     atom   35 type  2   force =    -0.00001398    0.00009964    0.00009459
     atom   36 type  2   force =     0.00003890    0.00004195    0.00018966
     atom   37 type  2   force =     0.00017193   -0.00007254   -0.00007381
     atom   38 type  2   force =    -0.00001016   -0.00023979   -0.00003505
     atom   39 type  2   force =     0.00006944    0.00007693   -0.00007270
     atom   40 type  2   force =     0.00001556    0.00025313   -0.00011547
     atom   41 type  2   force =    -0.00012706   -0.00006920   -0.00003445
     atom   42 type  2   force =    -0.00013828    0.00009304   -0.00011105
     atom   43 type  2   force =    -0.00014034   -0.00008750    0.00008473
     atom   44 type  2   force =    -0.00000951   -0.00014359    0.00009884
     atom   45 type  2   force =    -0.00009430    0.00013988    0.00004342
     atom   46 type  2   force =     0.00002781    0.00010135    0.00003790
     atom   47 type  2   force =     0.00010809   -0.00014024    0.00008231
     atom   48 type  2   force =     0.00017766    0.00007001    0.00003505
     atom   49 type  2   force =    -0.00001690   -0.00004333   -0.00008854
     atom   50 type  2   force =     0.00002288    0.00007439   -0.00007775
     atom   51 type  2   force =     0.00004132   -0.00000445   -0.00005741
     atom   52 type  2   force =    -0.00004027    0.00001872   -0.00008720
     atom   53 type  2   force =    -0.00001020   -0.00009487   -0.00006292
     atom   54 type  2   force =    -0.00000926    0.00003179   -0.00009382
     atom   55 type  2   force =     0.00002372    0.00002901    0.00005505
     atom   56 type  2   force =    -0.00005086    0.00003946    0.00000221
     atom   57 type  2   force =    -0.00003357   -0.00000170   -0.00000097
     atom   58 type  2   force =    -0.00001314   -0.00003321    0.00004122
     atom   59 type  2   force =     0.00006761    0.00005111   -0.00001969
     atom   60 type  2   force =    -0.00002024    0.00000210    0.00004444
     atom   61 type  2   force =     0.00001646   -0.00003925   -0.00006759
     atom   62 type  2   force =     0.00002198    0.00008097   -0.00004465
     atom   63 type  2   force =     0.00003423   -0.00008694   -0.00005162
     atom   64 type  2   force =    -0.00001585   -0.00005404   -0.00001596
     atom   65 type  2   force =    -0.00003851    0.00004173   -0.00002371
     atom   66 type  2   force =    -0.00006222   -0.00000517   -0.00003815
     atom   67 type  2   force =     0.00001297   -0.00001786    0.00002408
     atom   68 type  2   force =    -0.00000587    0.00001514    0.00001846
     atom   69 type  2   force =     0.00002216    0.00002640   -0.00002137
     atom   70 type  2   force =    -0.00003823   -0.00004650    0.00000817
     atom   71 type  2   force =     0.00004934   -0.00000923   -0.00002438
     atom   72 type  2   force =    -0.00000706   -0.00003235   -0.00000873
     atom   73 type  2   force =     0.00005263   -0.00004700    0.00002002
     atom   74 type  2   force =    -0.00006027   -0.00001925    0.00004324
     atom   75 type  2   force =     0.00004621   -0.00000020    0.00001926
     atom   76 type  2   force =     0.00006064    0.00007742   -0.00004047
     atom   77 type  2   force =    -0.00005773   -0.00000856    0.00004210
     atom   78 type  2   force =    -0.00004539    0.00004842   -0.00002054
     atom   79 type  2   force =    -0.00004935   -0.00002561    0.00001368
     atom   80 type  2   force =    -0.00000356   -0.00001871    0.00000223
     atom   81 type  2   force =    -0.00004010    0.00008153    0.00001816
     atom   82 type  2   force =     0.00003097    0.00003882   -0.00006046
     atom   83 type  2   force =     0.00001367    0.00000471    0.00005891
     atom   84 type  2   force =     0.00008103    0.00005228   -0.00001058
     atom   85 type  2   force =     0.00002330   -0.00001343   -0.00007597
     atom   86 type  2   force =     0.00004061    0.00005378    0.00000353
     atom   87 type  2   force =     0.00002123   -0.00000457   -0.00007765
     atom   88 type  2   force =    -0.00001295   -0.00002012   -0.00001745
     atom   89 type  2   force =    -0.00000538    0.00002781   -0.00002683
     atom   90 type  2   force =     0.00000526    0.00002286   -0.00003211
     atom   91 type  2   force =    -0.00004426    0.00001787    0.00004357
     atom   92 type  2   force =    -0.00003278    0.00002817   -0.00000713
     atom   93 type  2   force =    -0.00005520   -0.00005019    0.00000934
     atom   94 type  2   force =     0.00004591   -0.00006684   -0.00005242
     atom   95 type  2   force =     0.00010835    0.00003952   -0.00000444
     atom   96 type  2   force =    -0.00000531   -0.00002038    0.00000561
     atom   97 type  2   force =     0.00000076   -0.00000650   -0.00000221
     atom   98 type  2   force =    -0.00000011    0.00000148   -0.00001536
     atom   99 type  2   force =     0.00005709    0.00001686    0.00002963
     atom  100 type  2   force =    -0.00004758    0.00005044   -0.00001110
     atom  101 type  2   force =     0.00005059    0.00001733   -0.00000964
     atom  102 type  2   force =    -0.00002672    0.00005509   -0.00002991
     atom  103 type  2   force =    -0.00003717   -0.00003302   -0.00000162
     atom  104 type  2   force =    -0.00000422   -0.00002636    0.00003134
     atom  105 type  2   force =    -0.00004465   -0.00007145   -0.00002810
     atom  106 type  2   force =    -0.00001298    0.00004203    0.00003410
     atom  107 type  2   force =     0.00003314   -0.00006897    0.00000943
     atom  108 type  2   force =     0.00006595    0.00004696    0.00000463
     atom  109 type  2   force =    -0.00001239   -0.00001271   -0.00002565
     atom  110 type  2   force =    -0.00004406    0.00002539   -0.00000674
     atom  111 type  2   force =    -0.00000035    0.00002351   -0.00003650
     atom  112 type  2   force =    -0.00004162   -0.00008203    0.00000693
     atom  113 type  2   force =    -0.00003061    0.00002875    0.00000971
     atom  114 type  2   force =    -0.00004066   -0.00005953   -0.00000119
     atom  115 type  2   force =     0.00001472   -0.00002204    0.00002655
     atom  116 type  2   force =    -0.00001658    0.00000585    0.00001883
     atom  117 type  2   force =    -0.00001384   -0.00001375    0.00000072
     atom  118 type  2   force =     0.00000004   -0.00001085   -0.00002977
     atom  119 type  2   force =     0.00002828    0.00001823    0.00000922
     atom  120 type  2   force =    -0.00001825   -0.00000314    0.00002426
     atom  121 type  2   force =     0.00005278   -0.00004290   -0.00003467
     atom  122 type  2   force =     0.00003304   -0.00003850   -0.00003741
     atom  123 type  2   force =     0.00000990    0.00001436   -0.00002553
     atom  124 type  2   force =     0.00001173   -0.00003091   -0.00003917
     atom  125 type  2   force =    -0.00001297    0.00002310   -0.00003587
     atom  126 type  2   force =     0.00001745   -0.00003712   -0.00005994
     atom  127 type  2   force =    -0.00001568    0.00002470    0.00001994
     atom  128 type  2   force =    -0.00001314    0.00002475    0.00002029
     atom  129 type  2   force =     0.00002225    0.00002597    0.00006988
     atom  130 type  2   force =     0.00003414   -0.00000056    0.00001593
     atom  131 type  2   force =     0.00005732    0.00003879    0.00006012
     atom  132 type  2   force =     0.00003019   -0.00000329    0.00004537
     atom  133 type  2   force =     0.00004435   -0.00001181    0.00000761
     atom  134 type  2   force =    -0.00003069    0.00000709   -0.00000655
     atom  135 type  2   force =    -0.00004038    0.00002900    0.00001250
     atom  136 type  2   force =     0.00002966    0.00000522    0.00004783
     atom  137 type  2   force =     0.00000036    0.00000121   -0.00001979
     atom  138 type  2   force =    -0.00000395   -0.00000549   -0.00003323
     atom  139 type  2   force =    -0.00002128    0.00003068   -0.00000848
     atom  140 type  2   force =    -0.00000107    0.00004674   -0.00003023
     atom  141 type  2   force =    -0.00008427    0.00000898   -0.00001339
     atom  142 type  2   force =    -0.00002320   -0.00002053    0.00002612
     atom  143 type  2   force =    -0.00002998   -0.00002219    0.00002351
     atom  144 type  2   force =    -0.00001569    0.00003984    0.00003661
     atom  145 type  2   force =     0.00003025   -0.00004543   -0.00001629
     atom  146 type  2   force =    -0.00004050   -0.00000372    0.00000039
     atom  147 type  2   force =     0.00005622    0.00003867   -0.00001098
     atom  148 type  2   force =    -0.00000379    0.00009327    0.00004353
     atom  149 type  2   force =    -0.00000628    0.00000703   -0.00002491
     atom  150 type  2   force =    -0.00003033    0.00001678   -0.00001103
     atom  151 type  2   force =    -0.00002059   -0.00003488   -0.00000556
     atom  152 type  2   force =     0.00002199   -0.00003303    0.00001998
     atom  153 type  2   force =    -0.00005339   -0.00004088   -0.00000133
     atom  154 type  2   force =     0.00005939   -0.00001770   -0.00003069
     atom  155 type  2   force =     0.00002793   -0.00000727    0.00001269
     atom  156 type  2   force =    -0.00000537    0.00000264   -0.00001576
     atom  157 type  2   force =     0.00004381    0.00000118    0.00002233
     atom  158 type  2   force =     0.00006658   -0.00004891    0.00001424
     atom  159 type  2   force =     0.00001845    0.00007434    0.00002327
     atom  160 type  2   force =    -0.00000804   -0.00004317   -0.00002677
     atom  161 type  2   force =    -0.00001435    0.00003067   -0.00000856
     atom  162 type  2   force =    -0.00006492    0.00003148    0.00000135
     atom  163 type  2   force =     0.00000869    0.00000808    0.00004058
     atom  164 type  2   force =    -0.00002651   -0.00000498    0.00003473
     atom  165 type  2   force =    -0.00001159   -0.00002044    0.00000123
     atom  166 type  2   force =     0.00003276    0.00000967    0.00005475
     atom  167 type  2   force =     0.00004402   -0.00002127    0.00002697
     atom  168 type  2   force =     0.00001980   -0.00002231    0.00006686
     atom  169 type  2   force =     0.00009519   -0.00005367    0.00001857
     atom  170 type  2   force =    -0.00001423   -0.00005189    0.00005533
     atom  171 type  2   force =     0.00000148   -0.00001098   -0.00002935
     atom  172 type  2   force =    -0.00003785   -0.00004644   -0.00000651
     atom  173 type  2   force =     0.00004032    0.00000468   -0.00001935
     atom  174 type  2   force =    -0.00005154    0.00001203   -0.00004296
     atom  175 type  2   force =    -0.00004534   -0.00005235    0.00001818
     atom  176 type  2   force =    -0.00005588    0.00006499   -0.00008925
     atom  177 type  2   force =     0.00000854   -0.00003159    0.00001895
     atom  178 type  2   force =     0.00005444   -0.00005474   -0.00001297
     atom  179 type  2   force =    -0.00002612   -0.00000954   -0.00007072
     atom  180 type  2   force =     0.00004604    0.00005120   -0.00001608
     atom  181 type  2   force =     0.00004791    0.00002584    0.00001688
     atom  182 type  2   force =     0.00004164   -0.00000958    0.00006627
     atom  183 type  2   force =    -0.00005089    0.00002469   -0.00002143
     atom  184 type  2   force =     0.00003157    0.00001166   -0.00001834
     atom  185 type  2   force =    -0.00001711   -0.00002663   -0.00000642
     atom  186 type  2   force =    -0.00000725    0.00001449   -0.00001250
     atom  187 type  2   force =    -0.00003585    0.00002988   -0.00000611
     atom  188 type  2   force =    -0.00008416   -0.00001176   -0.00000744
     atom  189 type  2   force =    -0.00004125    0.00003953    0.00002894
     atom  190 type  2   force =     0.00006916    0.00004764    0.00001700
     atom  191 type  2   force =     0.00002417   -0.00002492    0.00007633
     atom  192 type  2   force =     0.00002352    0.00000306    0.00002102
     atom  193 type  2   force =     0.00002097   -0.00003328   -0.00005500
     atom  194 type  2   force =     0.00000552   -0.00005493   -0.00001222
     atom  195 type  2   force =     0.00000535   -0.00002228   -0.00001863
     atom  196 type  2   force =    -0.00002178    0.00003982   -0.00006651
     atom  197 type  2   force =     0.00000572   -0.00001479   -0.00004371
     atom  198 type  2   force =    -0.00004629   -0.00001325   -0.00006196
     atom  199 type  2   force =    -0.00000162    0.00002475    0.00007877
     atom  200 type  2   force =     0.00000656    0.00010221    0.00005746
     atom  201 type  2   force =    -0.00007705   -0.00002759    0.00005143
     atom  202 type  2   force =     0.00006837    0.00002190    0.00003086
     atom  203 type  2   force =     0.00000471   -0.00008910    0.00011740
     atom  204 type  2   force =    -0.00000626   -0.00000266    0.00005423
     atom  205 type  2   force =     0.00014467   -0.00006060   -0.00003085
     atom  206 type  2   force =     0.00012557    0.00006003   -0.00004629
     atom  207 type  2   force =     0.00000123   -0.00020393   -0.00002824
     atom  208 type  2   force =    -0.00010965   -0.00004181   -0.00002297
     atom  209 type  2   force =     0.00002654    0.00020974   -0.00013328
     atom  210 type  2   force =    -0.00013208    0.00008657   -0.00008598
     atom  211 type  2   force =    -0.00022424   -0.00011432    0.00006420
     atom  212 type  2   force =    -0.00009693    0.00012235    0.00002525
     atom  213 type  2   force =     0.00006785    0.00018015    0.00000555
     atom  214 type  2   force =    -0.00004880   -0.00017753    0.00009016
     atom  215 type  2   force =     0.00022274    0.00006709    0.00001491
     atom  216 type  2   force =     0.00006976   -0.00012763    0.00010210
     atom  217 type  2   force =    -0.00001709   -0.00001988   -0.00013917
     atom  218 type  2   force =     0.00002332   -0.00009820   -0.00016787
     atom  219 type  2   force =    -0.00012994   -0.00003488   -0.00009669
     atom  220 type  2   force =     0.00011690    0.00002361   -0.00013105
     atom  221 type  2   force =    -0.00006741    0.00010730   -0.00015632
     atom  222 type  2   force =     0.00001251    0.00004392   -0.00022853
     atom  223 type  2   force =     0.00000782    0.00003742   -0.00005605
     atom  224 type  2   force =    -0.00006093   -0.00003535   -0.00004929
     atom  225 type  2   force =    -0.00002947    0.00004239   -0.00006458
     atom  226 type  2   force =     0.00003692   -0.00000871   -0.00006385
     atom  227 type  2   force =     0.00009071   -0.00002174   -0.00006568
     atom  228 type  2   force =     0.00000767   -0.00001760   -0.00006696
     atom  229 type  2   force =    -0.00001948   -0.00005304   -0.00013786
     atom  230 type  2   force =     0.00012955   -0.00012082   -0.00028888
     atom  231 type  2   force =    -0.00010723   -0.00006159   -0.00017103
     atom  232 type  2   force =    -0.00009975    0.00006742   -0.00021032
     atom  233 type  2   force =    -0.00001982    0.00005307   -0.00015511
     atom  234 type  2   force =     0.00013294    0.00002150   -0.00021093
     atom  235 type  1   force =    -0.00004241   -0.00003332    0.00006671
     atom  236 type  1   force =    -0.00002799   -0.00000411    0.00003934
     atom  237 type  1   force =     0.00004937   -0.00000977    0.00003745
     atom  238 type  1   force =    -0.00001700   -0.00003569    0.00007074
     atom  239 type  1   force =     0.00003164   -0.00004410    0.00003694
     atom  240 type  1   force =     0.00005263   -0.00003297    0.00001604
     atom  241 type  1   force =     0.00006561    0.00009895   -0.00000260
     atom  242 type  1   force =     0.00004981   -0.00004716   -0.00004626
     atom  243 type  1   force =    -0.00006470    0.00012952   -0.00007663
     atom  244 type  1   force =    -0.00002917   -0.00014508   -0.00006647
     atom  245 type  1   force =    -0.00009376   -0.00008389   -0.00003236
     atom  246 type  1   force =    -0.00009098   -0.00000494   -0.00007412
     atom  247 type  1   force =    -0.00010847    0.00006826    0.00011826
     atom  248 type  1   force =    -0.00003905    0.00007129    0.00007533
     atom  249 type  1   force =     0.00007781    0.00009893    0.00010519
     atom  250 type  1   force =     0.00008071   -0.00001835    0.00009214
     atom  251 type  1   force =     0.00005692   -0.00002084    0.00007931
     atom  252 type  1   force =    -0.00007614   -0.00007156    0.00009958

     Total force =     0.001819     Total SCF correction =     0.002177
     SCF correction compared to forces is large: reduce conv_thr to get better values

     Writing output data file ./nt.save/
 
     init_run     :     36.92s CPU     38.16s WALL (       1 calls)
     electrons    :    619.98s CPU    637.40s WALL (       1 calls)
     forces       :      9.99s CPU     10.33s WALL (       1 calls)

     Called by init_run:
     wfcinit      :     30.71s CPU     31.76s WALL (       1 calls)
     potinit      :      1.32s CPU      1.39s WALL (       1 calls)
     hinit0       :      1.27s CPU      1.30s WALL (       1 calls)

     Called by electrons:
     c_bands      :    532.22s CPU    546.97s WALL (      11 calls)
     sum_band     :     80.53s CPU     82.55s WALL (      11 calls)
     v_of_rho     :      5.92s CPU      6.30s WALL (      12 calls)
     mix_rho      :      1.50s CPU      1.59s WALL (      11 calls)

     Called by c_bands:
     init_us_2    :      5.35s CPU      5.55s WALL (      23 calls)
     regterg      :    522.99s CPU    537.58s WALL (      11 calls)

     Called by *egterg:
     rdiaghg      :     31.87s CPU     32.25s WALL (      74 calls)
     h_psi        :    442.37s CPU    452.92s WALL (      75 calls)
     g_psi        :      0.73s CPU      0.73s WALL (      63 calls)

     Called by h_psi:
     h_psi:calbec :     44.18s CPU     45.08s WALL (      75 calls)
     vloc_psi     :    353.71s CPU    362.49s WALL (      75 calls)
     add_vuspsi   :     41.51s CPU     42.29s WALL (      75 calls)

     General routines
     calbec       :     49.14s CPU     50.14s WALL (      79 calls)
     fft          :      5.27s CPU      5.68s WALL (     104 calls)
     ffts         :      0.42s CPU      0.47s WALL (      11 calls)
     fftw         :    355.54s CPU    364.82s WALL (   16899 calls)
 
     Parallel routines
     fft_scatt_xy :    105.55s CPU    107.31s WALL (   17014 calls)
     fft_scatt_yz :     90.49s CPU     95.60s WALL (   17014 calls)
 
     PWSCF        :  11m11.15s CPU  11m33.32s WALL

 
   This run was terminated on:   2:26:41  31May2020            

=------------------------------------------------------------------------------=
   JOB DONE.
=------------------------------------------------------------------------------=
