
     Program PWSCF v.6.5 starts on 31May2020 at  1:19:51 

     This program is part of the open-source Quantum ESPRESSO suite
     for quantum simulation of materials; please cite
         "P. Giannozzi et al., J. Phys.:Condens. Matter 21 395502 (2009);
         "P. Giannozzi et al., J. Phys.:Condens. Matter 29 465901 (2017);
          URL http://www.quantum-espresso.org", 
     in publications or presentations arising from this work. More details at
     http://www.quantum-espresso.org/quote

     Parallel version (MPI), running on    64 processors

     MPI processes distributed on     2 nodes
     R & G space division:  proc/nbgrp/npool/nimage =      64
     Fft bands division:     nmany     =       1
     Reading input from nt.16.in
Warning: card  &IONS ignored
Warning: card  / ignored

     Current dimensions of program PWSCF are:
     Max number of different atomic species (ntypx) = 10
     Max number of k-points (npk) =  40000
     Max angular momentum in pseudopotentials (lmaxx) =  3

     gamma-point specific algorithms are used

     Subspace diagonalization in iterative solution of the eigenvalue problem:
     a serial algorithm will be used

 
     Parallelization info
     --------------------
     sticks:   dense  smooth     PW     G-vecs:    dense   smooth      PW
     Min         589     589    146               151337   151337   18902
     Max         592     592    148               151368   151368   18932
     Sum       37833   37833   9449              9686649  9686649 1210985
 


     bravais-lattice index     =            6
     lattice parameter (alat)  =      30.2356  a.u.
     unit-cell volume          =   48372.0617 (a.u.)^3
     number of atoms/cell      =          252
     number of atomic types    =            2
     number of electrons       =       900.00
     number of Kohn-Sham states=          450
     kinetic-energy cutoff     =     130.0000  Ry
     charge density cutoff     =     520.0000  Ry
     convergence threshold     =      1.0E-06
     mixing beta               =       0.6000
     number of iterations used =            8  plain     mixing
     Exchange-correlation= PBE
                           (   1   4   3   4   0   0   0)

     celldm(1)=  30.235618  celldm(2)=   0.000000  celldm(3)=   1.750000
     celldm(4)=   0.000000  celldm(5)=   0.000000  celldm(6)=   0.000000

     crystal axes: (cart. coord. in units of alat)
               a(1) = (   1.000000   0.000000   0.000000 )  
               a(2) = (   0.000000   1.000000   0.000000 )  
               a(3) = (   0.000000   0.000000   1.750000 )  

     reciprocal axes: (cart. coord. in units 2 pi/alat)
               b(1) = (  1.000000  0.000000  0.000000 )  
               b(2) = (  0.000000  1.000000  0.000000 )  
               b(3) = (  0.000000  0.000000  0.571429 )  


     PseudoPot. # 1 for H  read from file:
     /gpfs/share/home/1600011702/pseudo/H.nc.fr.pbe.stringent.upf
     MD5 check sum: 95156ffc763ef7c24633d2a3a64354af
     Pseudo is Norm-conserving, Zval =  1.0
     Generated using ONCVPSP code by D. R. Hamann
     Using radial grid of 1166 points,  3 beta functions with: 
                l(1) =   0
                l(2) =   0
                l(3) =   1

     PseudoPot. # 2 for C  read from file:
     /gpfs/share/home/1600011702/pseudo/C.nc.fr.pbe.stringent.upf
     MD5 check sum: d80ec9912146af6c4c1760317d1f95e9
     Pseudo is Norm-conserving + core correction, Zval =  4.0
     Generated using ONCVPSP code by D. R. Hamann
     Using radial grid of 1248 points,  4 beta functions with: 
                l(1) =   0
                l(2) =   0
                l(3) =   1
                l(4) =   1

     atomic species   valence    mass     pseudopotential
        H              1.00     1.00784     H ( 1.00)
        C              4.00    12.01070     C ( 1.00)

     No symmetry found



   Cartesian axes

     site n.     atom                  positions (alat units)
         1           H   tau(   1) = (  -0.4053812   0.0289824   0.0339925  )
         2           H   tau(   2) = (  -0.2277972  -0.3365455   0.0339978  )
         3           H   tau(   3) = (   0.4053803  -0.0289831   0.0339897  )
         4           H   tau(   4) = (   0.1775963  -0.3655142   0.0339962  )
         5           H   tau(   5) = (   0.2278102   0.3365321   0.0339943  )
         6           H   tau(   6) = (  -0.1775785   0.3655297   0.0339972  )
         7           H   tau(   7) = (   0.0350259  -0.4126974   0.0614098  )
         8           H   tau(   8) = (  -0.3399514  -0.2366925   0.0614161  )
         9           H   tau(   9) = (   0.3750228  -0.1760672   0.0614142  )
        10           H   tau(  10) = (  -0.3749198   0.1760261   0.0614160  )
        11           H   tau(  11) = (  -0.0349974   0.4126865   0.0614287  )
        12           H   tau(  12) = (   0.3400278   0.2367175   0.0614287  )
        13           H   tau(  13) = (  -0.0894533  -0.3871450   0.0830554  )
        14           H   tau(  14) = (   0.2906025  -0.2710508   0.0830526  )
        15           H   tau(  15) = (   0.3799785   0.1160967   0.0830511  )
        16           H   tau(  16) = (  -0.3800483  -0.1161375   0.0830603  )
        17           H   tau(  17) = (   0.0894036   0.3869868   0.0830565  )
        18           H   tau(  18) = (  -0.2905511   0.2709633   0.0830611  )
        19           C   tau(  19) = (   0.3958054  -0.0501759   0.0980187  )
        20           C   tau(  20) = (   0.1544574  -0.3678156   0.0980271  )
        21           C   tau(  21) = (  -0.3958056   0.0501613   0.0980259  )
        22           C   tau(  22) = (  -0.2413576  -0.3176647   0.0980315  )
        23           C   tau(  23) = (   0.2413528   0.3176163   0.0980216  )
        24           C   tau(  24) = (  -0.1544314   0.3677867   0.0980257  )
        25           C   tau(  25) = (   0.0742687  -0.3942149   0.1138009  )
        26           C   tau(  26) = (   0.3786061  -0.1328290   0.1137963  )
        27           C   tau(  27) = (  -0.3043339  -0.2614393   0.1138101  )
        28           C   tau(  28) = (  -0.3785785   0.1328064   0.1138074  )
        29           C   tau(  29) = (   0.3043496   0.2614193   0.1138041  )
        30           C   tau(  30) = (  -0.0742472   0.3941959   0.1138085  )
        31           C   tau(  31) = (  -0.1082037  -0.3797187   0.1480360  )
        32           C   tau(  32) = (   0.2748054  -0.2835800   0.1480337  )
        33           C   tau(  33) = (  -0.3830178  -0.0961807   0.1480376  )
        34           C   tau(  34) = (   0.3829937   0.0961571   0.1480304  )
        35           C   tau(  35) = (  -0.2747713   0.2835356   0.1480374  )
        36           C   tau(  36) = (   0.1081903   0.3796417   0.1480341  )
        37           C   tau(  37) = (  -0.1879103  -0.3459470   0.1636056  )
        38           C   tau(  38) = (  -0.3936061  -0.0102658   0.1636024  )
        39           C   tau(  39) = (   0.2056886  -0.3356968   0.1636052  )
        40           C   tau(  40) = (   0.3935986   0.0102470   0.1636008  )
        41           C   tau(  41) = (  -0.2056568   0.3356548   0.1636013  )
        42           C   tau(  42) = (   0.1878994   0.3458866   0.1636002  )
        43           C   tau(  43) = (   0.0399746  -0.3928564   0.1959895  )
        44           C   tau(  44) = (   0.3602932  -0.1618434   0.1959888  )
        45           C   tau(  45) = (  -0.3203175  -0.2310701   0.1959990  )
        46           C   tau(  46) = (  -0.3602813   0.1618269   0.1959990  )
        47           C   tau(  47) = (   0.3203190   0.2310486   0.1959954  )
        48           C   tau(  48) = (  -0.0399641   0.3928368   0.1959993  )
        49           C   tau(  49) = (  -0.0493789  -0.3903286   0.2121762  )
        50           C   tau(  50) = (   0.3134221  -0.2379575   0.2121767  )
        51           C   tau(  51) = (  -0.3628168  -0.1524302   0.2121829  )
        52           C   tau(  52) = (   0.3628173   0.1524105   0.2121802  )
        53           C   tau(  53) = (  -0.3134075   0.2379381   0.2121838  )
        54           C   tau(  54) = (   0.0493868   0.3903046   0.2121826  )
        55           C   tau(  55) = (  -0.2123656  -0.3280370   0.2475466  )
        56           C   tau(  56) = (   0.1779475  -0.3479138   0.2475454  )
        57           C   tau(  57) = (  -0.3903293   0.0198668   0.2475448  )
        58           C   tau(  58) = (   0.3903437  -0.0198815   0.2475425  )
        59           C   tau(  59) = (  -0.1779293   0.3478788   0.2475453  )
        60           C   tau(  60) = (   0.2123639   0.3280098   0.2475444  )
        61           C   tau(  61) = (   0.0957472  -0.3786648   0.2635804  )
        62           C   tau(  62) = (   0.3758916  -0.1064477   0.2635784  )
        63           C   tau(  63) = (  -0.2801259  -0.2722584   0.2635874  )
        64           C   tau(  64) = (  -0.3758852   0.1064329   0.2635855  )
        65           C   tau(  65) = (   0.2801266   0.2722374   0.2635827  )
        66           C   tau(  66) = (  -0.0957361   0.3786461   0.2635851  )
        67           C   tau(  67) = (  -0.0776741  -0.3827962   0.2970994  )
        68           C   tau(  68) = (   0.2927503  -0.2586925   0.2970999  )
        69           C   tau(  69) = (  -0.3704503  -0.1241617   0.2971044  )
        70           C   tau(  70) = (   0.3704644   0.1241469   0.2971008  )
        71           C   tau(  71) = (  -0.2927496   0.2586830   0.2971057  )
        72           C   tau(  72) = (   0.0776861   0.3828006   0.2971035  )
        73           C   tau(  73) = (  -0.1604018  -0.3550802   0.3143531  )
        74           C   tau(  74) = (  -0.3877974  -0.0386563   0.3143522  )
        75           C   tau(  75) = (   0.2273640  -0.3164554   0.3143535  )
        76           C   tau(  76) = (   0.3878132   0.0386417   0.3143525  )
        77           C   tau(  77) = (  -0.2273553   0.3164396   0.3143531  )
        78           C   tau(  78) = (   0.1604114   0.3550747   0.3143531  )
        79           C   tau(  79) = (   0.0670155  -0.3838946   0.3481866  )
        80           C   tau(  80) = (   0.3660602  -0.1339437   0.3481849  )
        81           C   tau(  81) = (  -0.2990301  -0.2499994   0.3481930  )
        82           C   tau(  82) = (  -0.3660582   0.1339337   0.3481922  )
        83           C   tau(  83) = (   0.2990303   0.2499783   0.3481875  )
        84           C   tau(  84) = (  -0.0670064   0.3838799   0.3481904  )
        85           C   tau(  85) = (  -0.0200611  -0.3897675   0.3647695  )
        86           C   tau(  86) = (   0.3276044  -0.2122875   0.3647682  )
        87           C   tau(  87) = (  -0.3476770  -0.1775388   0.3647746  )
        88           C   tau(  88) = (  -0.3276058   0.2122808   0.3647730  )
        89           C   tau(  89) = (   0.3476840   0.1775246   0.3647691  )
        90           C   tau(  90) = (   0.0200695   0.3897688   0.3647702  )
        91           C   tau(  91) = (  -0.1866953  -0.3419420   0.3987222  )
        92           C   tau(  92) = (  -0.3895673  -0.0093126   0.3987204  )
        93           C   tau(  93) = (   0.2028326  -0.3326444   0.3987227  )
        94           C   tau(  94) = (   0.3895820   0.0093050   0.3987213  )
        95           C   tau(  95) = (  -0.2028272   0.3326409   0.3987213  )
        96           C   tau(  96) = (   0.1867101   0.3419459   0.3987213  )
        97           C   tau(  97) = (   0.1233612  -0.3695860   0.4152348  )
        98           C   tau(  98) = (  -0.2584467  -0.2916217   0.4152390  )
        99           C   tau(  99) = (   0.3818443  -0.0779909   0.4152327  )
       100           C   tau( 100) = (  -0.3818342   0.0779810   0.4152378  )
       101           C   tau( 101) = (   0.2584508   0.2916109   0.4152346  )
       102           C   tau( 102) = (  -0.1233514   0.3695714   0.4152368  )
       103           C   tau( 103) = (  -0.0492492  -0.3872224   0.4488957  )
       104           C   tau( 104) = (  -0.3600693  -0.1509835   0.4488973  )
       105           C   tau( 105) = (   0.3108066  -0.2362868   0.4488965  )
       106           C   tau( 106) = (  -0.3107974   0.2362867   0.4488958  )
       107           C   tau( 107) = (   0.3600799   0.1509833   0.4488957  )
       108           C   tau( 108) = (   0.0492588   0.3872265   0.4488950  )
       109           C   tau( 109) = (  -0.1342452  -0.3663097   0.4657871  )
       110           C   tau( 110) = (  -0.3844591  -0.0669194   0.4657865  )
       111           C   tau( 111) = (   0.2501794  -0.2994239   0.4657869  )
       112           C   tau( 112) = (  -0.2501738   0.2994281   0.4657850  )
       113           C   tau( 113) = (   0.3844797   0.0669176   0.4657847  )
       114           C   tau( 114) = (   0.1342616   0.3663274   0.4657842  )
       115           C   tau( 115) = (   0.0953059  -0.3780853   0.4994623  )
       116           C   tau( 116) = (  -0.2798431  -0.2715798   0.4994648  )
       117           C   tau( 117) = (  -0.3751709   0.1065328   0.4994637  )
       118           C   tau( 118) = (   0.3751867  -0.1065347   0.4994623  )
       119           C   tau( 119) = (  -0.0952992   0.3780798   0.4994631  )
       120           C   tau( 120) = (   0.2798518   0.2715831   0.4994625  )
       121           C   tau( 121) = (   0.0088205  -0.3900412   0.5161498  )
       122           C   tau( 122) = (  -0.3334635  -0.2026755   0.5161519  )
       123           C   tau( 123) = (   0.3422940  -0.1874095   0.5161494  )
       124           C   tau( 124) = (  -0.3422785   0.1874085   0.5161504  )
       125           C   tau( 125) = (  -0.0088132   0.3900367   0.5161482  )
       126           C   tau( 126) = (   0.3334707   0.2026796   0.5161485  )
       127           C   tau( 127) = (  -0.1614149  -0.3551950   0.5501243  )
       128           C   tau( 128) = (  -0.3884142  -0.0378304   0.5501228  )
       129           C   tau( 129) = (   0.2269592  -0.3173844   0.5501226  )
       130           C   tau( 130) = (   0.3884278   0.0378312   0.5501212  )
       131           C   tau( 131) = (  -0.2269538   0.3173869   0.5501218  )
       132           C   tau( 132) = (   0.1614264   0.3552051   0.5501216  )
       133           C   tau( 133) = (  -0.2362494  -0.3102204   0.5668098  )
       134           C   tau( 134) = (   0.1505766  -0.3596730   0.5668082  )
       135           C   tau( 135) = (  -0.3868609   0.0494642   0.5668098  )
       136           C   tau( 136) = (   0.3868759  -0.0494627   0.5668077  )
       137           C   tau( 137) = (  -0.1505700   0.3596765   0.5668088  )
       138           C   tau( 138) = (   0.2362603   0.3102316   0.5668090  )
       139           C   tau( 139) = (  -0.0205295  -0.3895968   0.6004872  )
       140           C   tau( 140) = (  -0.3477547  -0.1770341   0.6004886  )
       141           C   tau( 141) = (   0.3272304  -0.2126027   0.6004865  )
       142           C   tau( 142) = (  -0.3272048   0.2126004   0.6004867  )
       143           C   tau( 143) = (   0.3477643   0.1770396   0.6004838  )
       144           C   tau( 144) = (   0.0205388   0.3895854   0.6004845  )
       145           C   tau( 145) = (  -0.1069081  -0.3754237   0.6173770  )
       146           C   tau( 146) = (  -0.3786815  -0.0951478   0.6173772  )
       147           C   tau( 147) = (   0.2717476  -0.2803086   0.6173755  )
       148           C   tau( 148) = (   0.3786918   0.0951519   0.6173736  )
       149           C   tau( 149) = (  -0.2717347   0.2803110   0.6173767  )
       150           C   tau( 150) = (   0.1069169   0.3754256   0.6173759  )
       151           C   tau( 151) = (  -0.2587047  -0.2913743   0.6510363  )
       152           C   tau( 152) = (   0.1230263  -0.3696814   0.6510354  )
       153           C   tau( 153) = (  -0.3817646   0.0783369   0.6510357  )
       154           C   tau( 154) = (   0.3817735  -0.0783243   0.6510373  )
       155           C   tau( 155) = (  -0.1230201   0.3696986   0.6510349  )
       156           C   tau( 156) = (   0.2587171   0.2913914   0.6510369  )
       157           C   tau( 157) = (   0.0372792  -0.3877824   0.6675502  )
       158           C   tau( 158) = (  -0.3172726  -0.2261820   0.6675525  )
       159           C   tau( 159) = (   0.3545703  -0.1616336   0.6675494  )
       160           C   tau( 160) = (  -0.3545511   0.1616406   0.6675529  )
       161           C   tau( 161) = (   0.3172810   0.2261939   0.6675480  )
       162           C   tau( 162) = (  -0.0372683   0.3877824   0.6675496  )
       163           C   tau( 163) = (  -0.1347518  -0.3662958   0.7015011  )
       164           C   tau( 164) = (  -0.3847005  -0.0664673   0.7014999  )
       165           C   tau( 165) = (   0.2499159  -0.2998438   0.7015015  )
       166           C   tau( 166) = (  -0.2499022   0.2998562   0.7015005  )
       167           C   tau( 167) = (   0.3847018   0.0664827   0.7015013  )
       168           C   tau( 168) = (   0.1347562   0.3662989   0.7015026  )
       169           C   tau( 169) = (  -0.2125138  -0.3266719   0.7180817  )
       170           C   tau( 170) = (  -0.3892583   0.0206882   0.7180809  )
       171           C   tau( 171) = (   0.1767011  -0.3473450   0.7180822  )
       172           C   tau( 172) = (  -0.1766934   0.3473696   0.7180821  )
       173           C   tau( 173) = (   0.3892582  -0.0206710   0.7180847  )
       174           C   tau( 174) = (   0.2125232   0.3266875   0.7180859  )
       175           C   tau( 175) = (   0.0079368  -0.3895238   0.7519178  )
       176           C   tau( 176) = (  -0.3334602  -0.2016450   0.7519212  )
       177           C   tau( 177) = (   0.3414077  -0.1879125   0.7519183  )
       178           C   tau( 178) = (   0.3334744   0.2016660   0.7519167  )
       179           C   tau( 179) = (  -0.3413898   0.1879264   0.7519217  )
       180           C   tau( 180) = (  -0.0079281   0.3895360   0.7519185  )
       181           C   tau( 181) = (  -0.0790299  -0.3825216   0.7691678  )
       182           C   tau( 182) = (  -0.3708903  -0.1228339   0.7691676  )
       183           C   tau( 183) = (   0.2918440  -0.2597157   0.7691688  )
       184           C   tau( 184) = (  -0.2918234   0.2597268   0.7691710  )
       185           C   tau( 185) = (   0.3708967   0.1228532   0.7691696  )
       186           C   tau( 186) = (   0.0790363   0.3825227   0.7691729  )
       187           C   tau( 187) = (  -0.2368750  -0.3105685   0.8026877  )
       188           C   tau( 188) = (   0.1505716  -0.3603856   0.8026869  )
       189           C   tau( 189) = (  -0.3874834   0.0498380   0.8026875  )
       190           C   tau( 190) = (  -0.1505637   0.3604115   0.8026878  )
       191           C   tau( 191) = (   0.3874881  -0.0498185   0.8026903  )
       192           C   tau( 192) = (   0.2368887   0.3105888   0.8026918  )
       193           C   tau( 193) = (   0.0663442  -0.3850461   0.8187264  )
       194           C   tau( 194) = (  -0.3003669  -0.2499791   0.8187282  )
       195           C   tau( 195) = (  -0.3667324   0.1351133   0.8187282  )
       196           C   tau( 196) = (   0.3667394  -0.1350941   0.8187280  )
       197           C   tau( 197) = (  -0.0663378   0.3850843   0.8187258  )
       198           C   tau( 198) = (   0.3003927   0.2500100   0.8187259  )
       199           C   tau( 199) = (  -0.1080008  -0.3783064   0.8540885  )
       200           C   tau( 200) = (  -0.3817351  -0.0956396   0.8540899  )
       201           C   tau( 201) = (   0.2737000  -0.2826959   0.8540900  )
       202           C   tau( 202) = (  -0.2736958   0.2827228   0.8540936  )
       203           C   tau( 203) = (   0.3817480   0.0956595   0.8540916  )
       204           C   tau( 204) = (   0.1080160   0.3783337   0.8540959  )
       205           C   tau( 205) = (  -0.1911609  -0.3455290   0.8702736  )
       206           C   tau( 206) = (   0.2037165  -0.3383052   0.8702732  )
       207           C   tau( 207) = (  -0.3949161  -0.0072290   0.8702739  )
       208           C   tau( 208) = (  -0.2037079   0.3383310   0.8702771  )
       209           C   tau( 209) = (   0.3949252   0.0072491   0.8702793  )
       210           C   tau( 210) = (   0.1911772   0.3455521   0.8702830  )
       211           C   tau( 211) = (   0.0368257  -0.3918792   0.9026700  )
       212           C   tau( 212) = (  -0.3210632  -0.2278422   0.9026721  )
       213           C   tau( 213) = (  -0.3579026   0.1641111   0.9026703  )
       214           C   tau( 214) = (   0.3578841  -0.1640736   0.9026708  )
       215           C   tau( 215) = (  -0.0368122   0.3919464   0.9026663  )
       216           C   tau( 216) = (   0.3210919   0.2278701   0.9026662  )
       217           C   tau( 217) = (  -0.3641370  -0.1527557   0.9182355  )
       218           C   tau( 218) = (  -0.0497363  -0.3916081   0.9182368  )
       219           C   tau( 219) = (  -0.3143905   0.2389466   0.9182367  )
       220           C   tau( 220) = (   0.3143575  -0.2388960   0.9182399  )
       221           C   tau( 221) = (   0.0497534   0.3916878   0.9182366  )
       222           C   tau( 222) = (   0.3641605   0.1527816   0.9182378  )
       223           C   tau( 223) = (  -0.2232173  -0.3333014   0.9524645  )
       224           C   tau( 224) = (   0.1770994  -0.3599568   0.9524642  )
       225           C   tau( 225) = (  -0.4003330   0.0266510   0.9524649  )
       226           C   tau( 226) = (  -0.1770767   0.3599793   0.9524660  )
       227           C   tau( 227) = (   0.4003587  -0.0266285   0.9524712  )
       228           C   tau( 228) = (   0.2232459   0.3333291   0.9524721  )
       229           C   tau( 229) = (  -0.2865782  -0.2775149   0.9682470  )
       230           C   tau( 230) = (   0.0970879  -0.3868865   0.9682476  )
       231           C   tau( 231) = (  -0.3836836   0.1094154   0.9682462  )
       232           C   tau( 232) = (  -0.0970717   0.3869360   0.9682415  )
       233           C   tau( 233) = (   0.2866058   0.2775368   0.9682459  )
       234           C   tau( 234) = (   0.3836738  -0.1093841   0.9682524  )
       235           H   tau( 235) = (  -0.0699004  -0.3909898   0.9832130  )
       236           H   tau( 236) = (  -0.3737177  -0.1349990   0.9832120  )
       237           H   tau( 237) = (  -0.3038283   0.2561337   0.9832155  )
       238           H   tau( 238) = (   0.3037340  -0.2560395   0.9832186  )
       239           H   tau( 239) = (   0.3737442   0.1350426   0.9832182  )
       240           H   tau( 240) = (   0.0699121   0.3911491   0.9832174  )
       241           H   tau( 241) = (   0.2196098  -0.3512513   1.0048398  )
       242           H   tau( 242) = (  -0.1943778  -0.3657109   1.0048487  )
       243           H   tau( 243) = (   0.4140713   0.0145396   1.0048502  )
       244           H   tau( 244) = (  -0.4139591  -0.0145246   1.0048582  )
       245           H   tau( 245) = (  -0.2195555   0.3512264   1.0048598  )
       246           H   tau( 246) = (   0.1944331   0.3657598   1.0048600  )
       247           H   tau( 247) = (   0.0772075  -0.3989643   1.0322742  )
       248           H   tau( 248) = (  -0.3069674  -0.2663377   1.0322776  )
       249           H   tau( 249) = (  -0.3841560   0.1326528   1.0322802  )
       250           H   tau( 250) = (  -0.0771788   0.3989655   1.0322748  )
       251           H   tau( 251) = (   0.3069828   0.2663309   1.0322753  )
       252           H   tau( 252) = (   0.3841563  -0.1326380   1.0322811  )

     number of k points=     1
                       cart. coord. in units 2pi/alat
        k(    1) = (   0.0000000   0.0000000   0.0000000), wk =   2.0000000

     Dense  grid:  4843325 G-vectors     FFT dimensions: ( 225, 225, 400)

     Estimated max dynamical RAM per process >     999.80 MB

     Estimated total dynamical RAM >      62.49 GB

     Initial potential from superposition of free atoms

     starting charge  899.99002, renormalised to  900.00000

     negative rho (up, down):  6.604E-05 0.000E+00
     Starting wfcs are  900 randomized atomic wfcs

     total cpu time spent up to now is       30.6 secs

     Self-consistent Calculation

     iteration #  1     ecut=   130.00 Ry     beta= 0.60
     Davidson diagonalization with overlap
     ethr =  1.00E-02,  avg # of iterations =  2.0

     total cpu time spent up to now is       77.1 secs

     total energy              =   -2639.01988870 Ry
     estimated scf accuracy    <      26.12163369 Ry

     iteration #  2     ecut=   130.00 Ry     beta= 0.60
     Davidson diagonalization with overlap
     ethr =  2.90E-03,  avg # of iterations =  2.0

     total cpu time spent up to now is      123.2 secs

     total energy              =   -2642.97658792 Ry
     estimated scf accuracy    <       1.46943217 Ry

     iteration #  3     ecut=   130.00 Ry     beta= 0.60
     Davidson diagonalization with overlap
     ethr =  1.63E-04,  avg # of iterations =  2.0

     total cpu time spent up to now is      166.1 secs

     total energy              =   -2643.24551527 Ry
     estimated scf accuracy    <       0.21690093 Ry

     iteration #  4     ecut=   130.00 Ry     beta= 0.60
     Davidson diagonalization with overlap
     ethr =  2.41E-05,  avg # of iterations =  4.0

     total cpu time spent up to now is      211.9 secs

     total energy              =   -2643.28970836 Ry
     estimated scf accuracy    <       0.02746175 Ry

     iteration #  5     ecut=   130.00 Ry     beta= 0.60
     Davidson diagonalization with overlap
     ethr =  3.05E-06,  avg # of iterations = 10.0

     total cpu time spent up to now is      267.0 secs

     total energy              =   -2643.28867586 Ry
     estimated scf accuracy    <       0.03291035 Ry

     iteration #  6     ecut=   130.00 Ry     beta= 0.60
     Davidson diagonalization with overlap
     ethr =  3.05E-06,  avg # of iterations = 11.0

     total cpu time spent up to now is      311.2 secs

     total energy              =   -2643.28688288 Ry
     estimated scf accuracy    <       0.21182755 Ry

     iteration #  7     ecut=   130.00 Ry     beta= 0.60
     Davidson diagonalization with overlap
     ethr =  3.05E-06,  avg # of iterations = 11.0

     total cpu time spent up to now is      354.3 secs

     total energy              =   -2643.29757201 Ry
     estimated scf accuracy    <       0.00373921 Ry

     iteration #  8     ecut=   130.00 Ry     beta= 0.60
     Davidson diagonalization with overlap
     ethr =  4.15E-07,  avg # of iterations =  8.0

     total cpu time spent up to now is      398.5 secs

     total energy              =   -2643.29828249 Ry
     estimated scf accuracy    <       0.00058185 Ry

     iteration #  9     ecut=   130.00 Ry     beta= 0.60
     Davidson diagonalization with overlap
     ethr =  6.46E-08,  avg # of iterations =  7.0

     total cpu time spent up to now is      443.7 secs

     total energy              =   -2643.29838722 Ry
     estimated scf accuracy    <       0.00007333 Ry

     iteration # 10     ecut=   130.00 Ry     beta= 0.60
     Davidson diagonalization with overlap
     ethr =  8.15E-09,  avg # of iterations =  8.0

     total cpu time spent up to now is      493.5 secs

     total energy              =   -2643.29840374 Ry
     estimated scf accuracy    <       0.00001127 Ry

     iteration # 11     ecut=   130.00 Ry     beta= 0.60
     Davidson diagonalization with overlap
     ethr =  1.25E-09,  avg # of iterations =  5.0

     total cpu time spent up to now is      540.0 secs

     total energy              =   -2643.29840556 Ry
     estimated scf accuracy    <       0.00000450 Ry

     iteration # 12     ecut=   130.00 Ry     beta= 0.60
     Davidson diagonalization with overlap
     ethr =  5.00E-10,  avg # of iterations =  7.0

     total cpu time spent up to now is      585.0 secs

     total energy              =   -2643.29840639 Ry
     estimated scf accuracy    <       0.00000171 Ry

     iteration # 13     ecut=   130.00 Ry     beta= 0.60
     Davidson diagonalization with overlap
     ethr =  1.90E-10,  avg # of iterations =  7.0

     total cpu time spent up to now is      628.7 secs

     End of self-consistent calculation

          k = 0.0000 0.0000 0.0000 (605493 PWs)   bands (ev):

   -20.2548 -20.1591 -20.1583 -19.9748 -19.9515 -19.8848 -19.7898 -19.7873
   -19.6103 -19.5963 -19.5871 -19.5765 -19.3241 -19.2645 -19.2309 -19.2272
   -19.1848 -19.1213 -19.1045 -19.0442 -19.0287 -18.7571 -18.7539 -18.7301
   -18.5867 -18.5781 -18.5139 -18.5091 -18.4460 -18.4452 -18.3326 -18.3136
   -18.1845 -18.1549 -18.0909 -18.0882 -18.0611 -17.7769 -17.7407 -17.7102
   -17.6869 -17.6825 -17.6226 -17.4890 -17.4699 -17.4271 -17.4226 -17.3665
   -17.3519 -17.3434 -17.3258 -17.1836 -16.9113 -16.9092 -16.8258 -16.8097
   -16.8091 -16.7992 -16.7733 -16.6471 -16.5302 -16.5199 -16.5166 -16.5103
   -16.3718 -16.3687 -16.3167 -16.2955 -16.1788 -16.1054 -16.0247 -16.0201
   -15.9884 -15.9209 -15.9149 -15.8541 -15.8286 -15.6970 -15.6253 -15.5513
   -15.5338 -15.5032 -15.4906 -15.3589 -15.3534 -15.3181 -15.2671 -15.2644
   -15.2631 -15.2505 -15.1728 -15.0537 -15.0474 -15.0144 -15.0070 -14.9954
   -14.9853 -14.8683 -14.7790 -14.5796 -14.5601 -14.5408 -14.4334 -14.4322
   -14.3716 -14.0048 -13.9344 -13.9245 -13.7218 -13.6871 -13.5918 -13.5031
   -13.4961 -13.4829 -13.4798 -13.4448 -13.2769 -13.2742 -13.2603 -13.2436
   -13.2253 -13.2102 -13.2024 -13.0992 -13.0965 -13.0179 -12.9091 -12.8982
   -12.8740 -12.8101 -12.8058 -12.7636 -12.7560 -12.5659 -12.5535 -12.5501
   -12.4219 -12.4200 -12.4013 -12.2042 -12.1364 -12.1350 -12.1215 -12.1147
   -12.0804 -12.0774 -12.0144 -12.0081 -11.8446 -11.7835 -11.7792 -11.7586
   -11.5579 -11.5457 -11.5354 -11.5314 -11.4442 -11.3538 -11.1435 -11.1417
   -10.9991 -10.9937 -10.9402 -10.9031 -10.9003 -10.8972 -10.8666 -10.6556
   -10.6521 -10.6378 -10.6040 -10.5965 -10.5374 -10.5123 -10.4876 -10.4755
   -10.4548 -10.3106 -10.3065 -10.2452 -10.1348 -10.1276 -10.1171 -10.0116
    -9.9399  -9.9348  -9.9340  -9.8310  -9.8272  -9.8136  -9.7965  -9.7923
    -9.7610  -9.7170  -9.5618  -9.4359  -9.3310  -9.3285  -9.3136  -9.2951
    -9.2659  -9.2215  -9.1939  -9.1852  -9.1165  -9.1118  -9.0161  -9.0067
    -8.9679  -8.9135  -8.9126  -8.8780  -8.8704  -8.8502  -8.8458  -8.7326
    -8.7142  -8.7132  -8.6633  -8.6553  -8.5727  -8.5441  -8.4575  -8.4443
    -8.4403  -8.4366  -8.3658  -8.2848  -8.2831  -8.2171  -8.1834  -8.1723
    -8.1712  -8.1685  -8.1522  -8.1503  -8.1266  -8.1165  -8.0696  -8.0282
    -7.9771  -7.9679  -7.9656  -7.8896  -7.8814  -7.8678  -7.8409  -7.8370
    -7.8278  -7.7896  -7.7830  -7.7808  -7.7770  -7.7570  -7.7538  -7.7322
    -7.6216  -7.6194  -7.5995  -7.5626  -7.5605  -7.5577  -7.5328  -7.5260
    -7.5217  -7.4946  -7.4701  -7.4570  -7.4015  -7.3942  -7.3841  -7.3727
    -7.3272  -7.3137  -7.3032  -7.2951  -7.2909  -7.2632  -7.2615  -7.2477
    -7.2033  -7.1826  -7.1689  -7.1472  -7.1372  -7.1329  -7.1167  -7.1103
    -7.0986  -7.0881  -7.0860  -7.0597  -7.0522  -7.0206  -7.0141  -7.0043
    -7.0027  -6.9961  -6.9464  -6.9184  -6.8996  -6.8925  -6.8584  -6.8135
    -6.7610  -6.7302  -6.7188  -6.6985  -6.6925  -6.6770  -6.6363  -6.6249
    -6.6206  -6.5891  -6.5792  -6.5364  -6.5016  -6.4888  -6.4763  -6.4412
    -6.4195  -6.2978  -6.2941  -6.2718  -6.2708  -6.2371  -6.2045  -6.1856
    -6.1321  -6.0782  -6.0678  -6.0390  -6.0298  -6.0211  -6.0185  -6.0070
    -5.9795  -5.9202  -5.8883  -5.8692  -5.8588  -5.8054  -5.7927  -5.7773
    -5.7563  -5.7478  -5.7159  -5.6821  -5.6816  -5.6720  -5.6385  -5.6139
    -5.5409  -5.4920  -5.4899  -5.4738  -5.3927  -5.3880  -5.3832  -5.3301
    -5.3272  -5.3103  -5.2879  -5.2654  -5.2517  -5.2131  -5.2058  -5.1494
    -5.1160  -5.1155  -5.0607  -5.0325  -5.0315  -5.0162  -5.0122  -4.9228
    -4.8460  -4.8418  -4.8370  -4.8271  -4.7787  -4.7767  -4.7745  -4.7578
    -4.6964  -4.6295  -4.5421  -4.5387  -4.4824  -4.4503  -4.4420  -4.3876
    -4.3433  -4.3248  -4.3061  -4.3047  -4.2891  -4.2871  -4.1826  -4.1637
    -4.1594  -4.1561  -4.0676  -4.0596  -4.0546  -4.0442  -4.0354  -3.9173
    -3.9115  -3.9075  -3.7795  -3.7730  -3.5760  -3.5537  -3.4881  -3.4843
    -3.4753  -3.4369  -3.4289  -3.4286  -3.3543  -3.2848  -3.2831  -3.1279
    -3.1159  -3.0763  -3.0370  -2.9624  -2.9550  -2.9497  -2.9214  -2.8767
    -2.8598  -2.8009  -2.6790  -2.6580  -2.6441  -2.5889  -2.5512  -2.5357
    -2.4848  -2.1730  -2.0672  -2.0347  -1.9400  -1.9282  -1.9145  -1.3383
    -1.2591  -0.9293

     highest occupied level (ev):    -0.9293

!    total energy              =   -2643.29840646 Ry
     estimated scf accuracy    <       0.00000039 Ry

     The total energy is the sum of the following terms:
     one-electron contribution =  -27299.01348707 Ry
     hartree contribution      =   13848.23726214 Ry
     xc contribution           =    -950.50707546 Ry
     ewald contribution        =   11757.98489392 Ry

     convergence has been achieved in  13 iterations

     Forces acting on atoms (cartesian axes, Ry/au):

     atom    1 type  1   force =     0.00015759   -0.00028908   -0.00017731
     atom    2 type  1   force =     0.00009979   -0.00009740   -0.00008253
     atom    3 type  1   force =    -0.00014294    0.00026259   -0.00017934
     atom    4 type  1   force =     0.00021702    0.00011643   -0.00013927
     atom    5 type  1   force =    -0.00011725    0.00005998   -0.00008230
     atom    6 type  1   force =    -0.00021984   -0.00018107   -0.00015088
     atom    7 type  1   force =    -0.00048887    0.00049100   -0.00011132
     atom    8 type  1   force =    -0.00011092    0.00018511    0.00008218
     atom    9 type  1   force =    -0.00022288   -0.00025575   -0.00002347
     atom   10 type  1   force =     0.00013480    0.00027873   -0.00002204
     atom   11 type  1   force =     0.00048901   -0.00045593   -0.00016008
     atom   12 type  1   force =     0.00004476   -0.00020016    0.00007251
     atom   13 type  1   force =    -0.00014179   -0.00000552    0.00016031
     atom   14 type  1   force =     0.00000022    0.00012078   -0.00007283
     atom   15 type  1   force =     0.00025516    0.00004415    0.00012074
     atom   16 type  1   force =    -0.00023298   -0.00000822    0.00013211
     atom   17 type  1   force =     0.00017086    0.00006671    0.00012930
     atom   18 type  1   force =     0.00000177   -0.00006288   -0.00009173
     atom   19 type  2   force =    -0.00166461   -0.00083635    0.00080066
     atom   20 type  2   force =     0.00006106    0.00012293    0.00022341
     atom   21 type  2   force =     0.00166628    0.00077311    0.00076437
     atom   22 type  2   force =    -0.00012097    0.00013244    0.00025670
     atom   23 type  2   force =     0.00012153   -0.00005405    0.00030071
     atom   24 type  2   force =    -0.00002030   -0.00006172    0.00024356
     atom   25 type  2   force =     0.00002203    0.00072764    0.00124228
     atom   26 type  2   force =    -0.00074688    0.00091699   -0.00011286
     atom   27 type  2   force =     0.00022748   -0.00024199   -0.00018139
     atom   28 type  2   force =     0.00080630   -0.00087003   -0.00014639
     atom   29 type  2   force =    -0.00017024    0.00024851   -0.00017001
     atom   30 type  2   force =    -0.00010968   -0.00076182    0.00124998
     atom   31 type  2   force =     0.00035323    0.00121187    0.00102686
     atom   32 type  2   force =    -0.00012267   -0.00036518    0.00029942
     atom   33 type  2   force =     0.00056857    0.00187237    0.00040338
     atom   34 type  2   force =    -0.00056544   -0.00188238    0.00045534
     atom   35 type  2   force =     0.00010658    0.00034319    0.00024115
     atom   36 type  2   force =    -0.00038932   -0.00120009    0.00101714
     atom   37 type  2   force =     0.00053403   -0.00038114   -0.00020492
     atom   38 type  2   force =     0.00352011   -0.00109787   -0.00014930
     atom   39 type  2   force =     0.00020818    0.00006166   -0.00010115
     atom   40 type  2   force =    -0.00351885    0.00111455   -0.00023134
     atom   41 type  2   force =    -0.00026710   -0.00005533   -0.00006341
     atom   42 type  2   force =    -0.00050534    0.00039862   -0.00024591
     atom   43 type  2   force =     0.00007775    0.00181330   -0.00032278
     atom   44 type  2   force =    -0.00003356   -0.00072311    0.00016867
     atom   45 type  2   force =    -0.00045456    0.00086724    0.00043888
     atom   46 type  2   force =     0.00004998    0.00067944    0.00010497
     atom   47 type  2   force =     0.00046728   -0.00086930    0.00047745
     atom   48 type  2   force =    -0.00004473   -0.00183081   -0.00037481
     atom   49 type  2   force =    -0.00048524    0.00158812   -0.00024680
     atom   50 type  2   force =     0.00029700    0.00058818   -0.00015816
     atom   51 type  2   force =     0.00036854   -0.00043981    0.00014997
     atom   52 type  2   force =    -0.00037057    0.00045120    0.00011322
     atom   53 type  2   force =    -0.00028521   -0.00060443   -0.00014071
     atom   54 type  2   force =     0.00046266   -0.00160163   -0.00025861
     atom   55 type  2   force =    -0.00013317    0.00005412    0.00021548
     atom   56 type  2   force =    -0.00026633   -0.00024109   -0.00023182
     atom   57 type  2   force =     0.00169694    0.00001563   -0.00038993
     atom   58 type  2   force =    -0.00174789   -0.00005104   -0.00034797
     atom   59 type  2   force =     0.00028252    0.00033110   -0.00025448
     atom   60 type  2   force =     0.00013642   -0.00002653    0.00020311
     atom   61 type  2   force =    -0.00011429    0.00087998   -0.00051749
     atom   62 type  2   force =    -0.00010631    0.00042822   -0.00026120
     atom   63 type  2   force =     0.00020092   -0.00037138   -0.00008970
     atom   64 type  2   force =     0.00011027   -0.00040450   -0.00022965
     atom   65 type  2   force =    -0.00020227    0.00032099   -0.00006422
     atom   66 type  2   force =     0.00007268   -0.00092367   -0.00048771
     atom   67 type  2   force =     0.00032816    0.00073954   -0.00022591
     atom   68 type  2   force =    -0.00005695   -0.00002600   -0.00002949
     atom   69 type  2   force =     0.00017748    0.00012242    0.00011378
     atom   70 type  2   force =    -0.00019758   -0.00013958    0.00014287
     atom   71 type  2   force =     0.00010113    0.00003150   -0.00007165
     atom   72 type  2   force =    -0.00032312   -0.00079099   -0.00025619
     atom   73 type  2   force =    -0.00000007   -0.00006017   -0.00000888
     atom   74 type  2   force =     0.00108004    0.00016919    0.00032252
     atom   75 type  2   force =     0.00013356    0.00000130    0.00008021
     atom   76 type  2   force =    -0.00108041   -0.00011096    0.00023761
     atom   77 type  2   force =    -0.00014413   -0.00001294    0.00010864
     atom   78 type  2   force =     0.00000740    0.00005961   -0.00004690
     atom   79 type  2   force =    -0.00007437    0.00070213   -0.00007910
     atom   80 type  2   force =     0.00006457    0.00008045   -0.00017009
     atom   81 type  2   force =     0.00002414   -0.00002682    0.00016396
     atom   82 type  2   force =    -0.00003976   -0.00005891   -0.00023269
     atom   83 type  2   force =    -0.00004944    0.00011369    0.00020482
     atom   84 type  2   force =     0.00010612   -0.00067322   -0.00010334
     atom   85 type  2   force =    -0.00027896    0.00144141   -0.00005936
     atom   86 type  2   force =     0.00015863    0.00001177    0.00017361
     atom   87 type  2   force =    -0.00009296    0.00006077   -0.00022500
     atom   88 type  2   force =    -0.00012914    0.00002021    0.00015449
     atom   89 type  2   force =     0.00010579   -0.00003359   -0.00017442
     atom   90 type  2   force =     0.00030651   -0.00143247   -0.00001603
     atom   91 type  2   force =     0.00011550   -0.00010631    0.00011082
     atom   92 type  2   force =     0.00137211    0.00000956   -0.00048358
     atom   93 type  2   force =    -0.00026558   -0.00027079   -0.00013243
     atom   94 type  2   force =    -0.00135824   -0.00004998   -0.00052615
     atom   95 type  2   force =     0.00031849    0.00025872   -0.00014975
     atom   96 type  2   force =    -0.00016112    0.00010254    0.00007346
     atom   97 type  2   force =     0.00009214    0.00008269   -0.00013253
     atom   98 type  2   force =    -0.00020511    0.00017970   -0.00004914
     atom   99 type  2   force =    -0.00052527    0.00030623    0.00004096
     atom  100 type  2   force =     0.00053394   -0.00023659    0.00000232
     atom  101 type  2   force =     0.00025262   -0.00015901   -0.00004444
     atom  102 type  2   force =    -0.00011715   -0.00003520   -0.00016008
     atom  103 type  2   force =    -0.00010304    0.00085931   -0.00005073
     atom  104 type  2   force =     0.00016089   -0.00005965    0.00011960
     atom  105 type  2   force =    -0.00027669   -0.00043536   -0.00033070
     atom  106 type  2   force =     0.00021937    0.00040271   -0.00026959
     atom  107 type  2   force =    -0.00012976   -0.00003473    0.00009499
     atom  108 type  2   force =     0.00012972   -0.00084238   -0.00004537
     atom  109 type  2   force =     0.00006795    0.00011612   -0.00018946
     atom  110 type  2   force =     0.00060376    0.00028154    0.00034186
     atom  111 type  2   force =     0.00030827    0.00034084    0.00000047
     atom  112 type  2   force =    -0.00034638   -0.00039778    0.00004547
     atom  113 type  2   force =    -0.00067833   -0.00022877    0.00035593
     atom  114 type  2   force =    -0.00011989   -0.00018931   -0.00016435
     atom  115 type  2   force =    -0.00045295    0.00016288    0.00036662
     atom  116 type  2   force =     0.00012316   -0.00009571    0.00005726
     atom  117 type  2   force =     0.00037105   -0.00022037   -0.00007348
     atom  118 type  2   force =    -0.00038273    0.00019402   -0.00010243
     atom  119 type  2   force =     0.00049593   -0.00016577    0.00034924
     atom  120 type  2   force =    -0.00015747    0.00009995    0.00006300
     atom  121 type  2   force =     0.00027997    0.00157501   -0.00015005
     atom  122 type  2   force =    -0.00009039   -0.00001749   -0.00004479
     atom  123 type  2   force =     0.00015482    0.00011953    0.00021183
     atom  124 type  2   force =    -0.00013100   -0.00013578    0.00019987
     atom  125 type  2   force =    -0.00023780   -0.00159592   -0.00014974
     atom  126 type  2   force =     0.00014171   -0.00005716   -0.00006661
     atom  127 type  2   force =    -0.00013333   -0.00000321    0.00008081
     atom  128 type  2   force =     0.00133027   -0.00008235   -0.00018627
     atom  129 type  2   force =    -0.00001215    0.00001326    0.00018050
     atom  130 type  2   force =    -0.00131009    0.00010806   -0.00019128
     atom  131 type  2   force =     0.00009346    0.00005113    0.00017092
     atom  132 type  2   force =     0.00014788    0.00002390    0.00010808
     atom  133 type  2   force =     0.00012925   -0.00009143   -0.00020485
     atom  134 type  2   force =    -0.00003527   -0.00005224   -0.00000551
     atom  135 type  2   force =     0.00109864    0.00007988    0.00028537
     atom  136 type  2   force =    -0.00110758   -0.00004563    0.00032197
     atom  137 type  2   force =     0.00000462    0.00006022   -0.00001838
     atom  138 type  2   force =    -0.00009196    0.00007429   -0.00024494
     atom  139 type  2   force =    -0.00017287    0.00170360    0.00005480
     atom  140 type  2   force =    -0.00025450    0.00032516   -0.00014144
     atom  141 type  2   force =    -0.00013459   -0.00016175   -0.00028002
     atom  142 type  2   force =     0.00002702    0.00015033   -0.00024183
     atom  143 type  2   force =     0.00022389   -0.00029974   -0.00008651
     atom  144 type  2   force =     0.00013767   -0.00163226    0.00009697
     atom  145 type  2   force =     0.00046970    0.00009471   -0.00056311
     atom  146 type  2   force =     0.00074329   -0.00000813    0.00012417
     atom  147 type  2   force =     0.00009303    0.00004087   -0.00007087
     atom  148 type  2   force =    -0.00078869    0.00009685    0.00016688
     atom  149 type  2   force =    -0.00004082    0.00000438   -0.00008426
     atom  150 type  2   force =    -0.00046849   -0.00012086   -0.00055627
     atom  151 type  2   force =    -0.00018789    0.00018990    0.00001100
     atom  152 type  2   force =    -0.00032492    0.00017506    0.00017491
     atom  153 type  2   force =     0.00081630   -0.00001637   -0.00036878
     atom  154 type  2   force =    -0.00081134   -0.00004403   -0.00039553
     atom  155 type  2   force =     0.00037247   -0.00021792    0.00016445
     atom  156 type  2   force =     0.00016449   -0.00022242    0.00000016
     atom  157 type  2   force =     0.00020008    0.00115825    0.00021053
     atom  158 type  2   force =     0.00020979   -0.00030183    0.00020696
     atom  159 type  2   force =     0.00021060    0.00049788    0.00011414
     atom  160 type  2   force =    -0.00020013   -0.00046500    0.00006540
     atom  161 type  2   force =    -0.00015844    0.00028461    0.00018264
     atom  162 type  2   force =    -0.00022211   -0.00112422    0.00018826
     atom  163 type  2   force =    -0.00006885    0.00012184    0.00043999
     atom  164 type  2   force =     0.00090496   -0.00012416    0.00001234
     atom  165 type  2   force =     0.00005022    0.00003164    0.00018579
     atom  166 type  2   force =    -0.00003199   -0.00004173    0.00024036
     atom  167 type  2   force =    -0.00088543    0.00009661    0.00000517
     atom  168 type  2   force =     0.00009520   -0.00013381    0.00046689
     atom  169 type  2   force =     0.00024504   -0.00024568    0.00016448
     atom  170 type  2   force =     0.00117606   -0.00005350    0.00040197
     atom  171 type  2   force =     0.00005823   -0.00008718   -0.00002009
     atom  172 type  2   force =    -0.00009533    0.00003183    0.00000320
     atom  173 type  2   force =    -0.00115104    0.00000597    0.00032474
     atom  174 type  2   force =    -0.00020081    0.00020541    0.00010360
     atom  175 type  2   force =    -0.00004459    0.00131323   -0.00007323
     atom  176 type  2   force =    -0.00026516    0.00027789   -0.00023258
     atom  177 type  2   force =     0.00029459    0.00041523    0.00040845
     atom  178 type  2   force =     0.00026389   -0.00026576   -0.00015395
     atom  179 type  2   force =    -0.00031099   -0.00045609    0.00032011
     atom  180 type  2   force =     0.00004700   -0.00131485   -0.00010426
     atom  181 type  2   force =     0.00004419    0.00069866    0.00026159
     atom  182 type  2   force =     0.00020979   -0.00001561   -0.00005997
     atom  183 type  2   force =    -0.00034187   -0.00040976    0.00001694
     atom  184 type  2   force =     0.00032042    0.00044553    0.00001972
     atom  185 type  2   force =    -0.00018676   -0.00002157   -0.00013187
     atom  186 type  2   force =    -0.00000626   -0.00065755    0.00023175
     atom  187 type  2   force =    -0.00035185    0.00019332   -0.00011208
     atom  188 type  2   force =    -0.00011141   -0.00012188   -0.00012186
     atom  189 type  2   force =     0.00074241   -0.00016791    0.00006825
     atom  190 type  2   force =     0.00009880    0.00015716   -0.00009869
     atom  191 type  2   force =    -0.00075742    0.00018395    0.00011769
     atom  192 type  2   force =     0.00034391   -0.00016021   -0.00008222
     atom  193 type  2   force =    -0.00052300    0.00069775    0.00052369
     atom  194 type  2   force =     0.00020537   -0.00027206    0.00014096
     atom  195 type  2   force =     0.00030356    0.00035098   -0.00025477
     atom  196 type  2   force =    -0.00031943   -0.00033125   -0.00030021
     atom  197 type  2   force =     0.00055058   -0.00074367    0.00053480
     atom  198 type  2   force =    -0.00024472    0.00020620    0.00009428
     atom  199 type  2   force =     0.00038059    0.00082599    0.00012863
     atom  200 type  2   force =     0.00044909    0.00128185    0.00036373
     atom  201 type  2   force =    -0.00035537   -0.00028784   -0.00032255
     atom  202 type  2   force =     0.00034436    0.00028699   -0.00035281
     atom  203 type  2   force =    -0.00043871   -0.00126968    0.00042753
     atom  204 type  2   force =    -0.00038523   -0.00079947    0.00009746
     atom  205 type  2   force =     0.00038635   -0.00027443   -0.00002951
     atom  206 type  2   force =     0.00034534    0.00016463    0.00003794
     atom  207 type  2   force =     0.00308798   -0.00102972   -0.00040617
     atom  208 type  2   force =    -0.00032853   -0.00014649    0.00005727
     atom  209 type  2   force =    -0.00306148    0.00103579   -0.00050798
     atom  210 type  2   force =    -0.00037347    0.00029914   -0.00008849
     atom  211 type  2   force =    -0.00048130    0.00189274   -0.00009087
     atom  212 type  2   force =    -0.00021466   -0.00001632    0.00001750
     atom  213 type  2   force =     0.00043220    0.00150822   -0.00035876
     atom  214 type  2   force =    -0.00041688   -0.00150740   -0.00027181
     atom  215 type  2   force =     0.00047382   -0.00193646   -0.00014144
     atom  216 type  2   force =     0.00018880    0.00001004    0.00009164
     atom  217 type  2   force =    -0.00003021    0.00015576   -0.00013839
     atom  218 type  2   force =     0.00007896    0.00176767   -0.00054762
     atom  219 type  2   force =    -0.00063071   -0.00095035   -0.00008754
     atom  220 type  2   force =     0.00061859    0.00093877   -0.00012164
     atom  221 type  2   force =    -0.00012161   -0.00175953   -0.00054014
     atom  222 type  2   force =     0.00002316   -0.00013242   -0.00022814
     atom  223 type  2   force =     0.00005924   -0.00003046    0.00003283
     atom  224 type  2   force =     0.00022058   -0.00011009   -0.00000365
     atom  225 type  2   force =     0.00354687    0.00076626    0.00070469
     atom  226 type  2   force =    -0.00024663    0.00006670   -0.00001185
     atom  227 type  2   force =    -0.00348877   -0.00074713    0.00070467
     atom  228 type  2   force =    -0.00004235    0.00005312    0.00002266
     atom  229 type  2   force =    -0.00004409    0.00009326   -0.00039911
     atom  230 type  2   force =    -0.00026812   -0.00010445   -0.00098946
     atom  231 type  2   force =    -0.00022393   -0.00104900   -0.00035221
     atom  232 type  2   force =     0.00030082    0.00005301   -0.00091107
     atom  233 type  2   force =     0.00000767   -0.00009151   -0.00041718
     atom  234 type  2   force =     0.00025154    0.00100949   -0.00039214
     atom  235 type  1   force =    -0.00017560   -0.00008021   -0.00010577
     atom  236 type  1   force =    -0.00015335    0.00004951   -0.00006610
     atom  237 type  1   force =     0.00006366    0.00002272    0.00009588
     atom  238 type  1   force =    -0.00002950   -0.00006439    0.00011778
     atom  239 type  1   force =     0.00015777   -0.00009774   -0.00006929
     atom  240 type  1   force =     0.00018941    0.00001432   -0.00015056
     atom  241 type  1   force =     0.00019821    0.00017043   -0.00001210
     atom  242 type  1   force =     0.00012811   -0.00019327   -0.00017789
     atom  243 type  1   force =    -0.00071999    0.00018666   -0.00073959
     atom  244 type  1   force =     0.00062618   -0.00020281   -0.00072817
     atom  245 type  1   force =    -0.00022589   -0.00015512   -0.00003973
     atom  246 type  1   force =    -0.00016856    0.00014112   -0.00020500
     atom  247 type  1   force =    -0.00026207    0.00036746    0.00035555
     atom  248 type  1   force =    -0.00005331    0.00014361    0.00012717
     atom  249 type  1   force =     0.00036540    0.00024666    0.00030881
     atom  250 type  1   force =     0.00023603   -0.00031698    0.00033141
     atom  251 type  1   force =     0.00007226   -0.00009374    0.00013232
     atom  252 type  1   force =    -0.00036272   -0.00021813    0.00029940

     Total force =     0.015408     Total SCF correction =     0.001531

     Writing output data file ./nt.save/
 
     init_run     :     29.02s CPU     29.92s WALL (       1 calls)
     electrons    :    580.99s CPU    598.42s WALL (       1 calls)
     forces       :      7.72s CPU      8.00s WALL (       1 calls)

     Called by init_run:
     wfcinit      :     24.32s CPU     25.02s WALL (       1 calls)
     potinit      :      1.06s CPU      1.11s WALL (       1 calls)
     hinit0       :      0.90s CPU      0.95s WALL (       1 calls)

     Called by electrons:
     c_bands      :    499.28s CPU    514.23s WALL (      13 calls)
     sum_band     :     74.86s CPU     76.69s WALL (      13 calls)
     v_of_rho     :      5.60s CPU      6.00s WALL (      14 calls)
     mix_rho      :      1.35s CPU      1.42s WALL (      13 calls)

     Called by c_bands:
     init_us_2    :      4.69s CPU      4.89s WALL (      27 calls)
     regterg      :    490.65s CPU    505.48s WALL (      13 calls)

     Called by *egterg:
     rdiaghg      :     42.08s CPU     42.58s WALL (      97 calls)
     h_psi        :    399.44s CPU    410.10s WALL (      98 calls)
     g_psi        :      0.65s CPU      0.66s WALL (      84 calls)

     Called by h_psi:
     h_psi:calbec :     41.33s CPU     42.16s WALL (      98 calls)
     vloc_psi     :    316.78s CPU    325.84s WALL (      98 calls)
     add_vuspsi   :     38.62s CPU     39.25s WALL (      98 calls)

     General routines
     calbec       :     45.24s CPU     46.15s WALL (     102 calls)
     fft          :      4.81s CPU      5.24s WALL (     120 calls)
     ffts         :      0.43s CPU      0.46s WALL (      13 calls)
     fftw         :    324.95s CPU    334.39s WALL (   19537 calls)
 
     Parallel routines
     fft_scatt_xy :     98.68s CPU    100.32s WALL (   19670 calls)
     fft_scatt_yz :     81.01s CPU     86.47s WALL (   19670 calls)
 
     PWSCF        :  10m20.95s CPU  10m42.46s WALL

 
   This run was terminated on:   1:30:34  31May2020            

=------------------------------------------------------------------------------=
   JOB DONE.
=------------------------------------------------------------------------------=
