
     Program PWSCF v.6.5 starts on 31May2020 at  2:39:52 

     This program is part of the open-source Quantum ESPRESSO suite
     for quantum simulation of materials; please cite
         "P. Giannozzi et al., J. Phys.:Condens. Matter 21 395502 (2009);
         "P. Giannozzi et al., J. Phys.:Condens. Matter 29 465901 (2017);
          URL http://www.quantum-espresso.org", 
     in publications or presentations arising from this work. More details at
     http://www.quantum-espresso.org/quote

     Parallel version (MPI), running on    64 processors

     MPI processes distributed on     2 nodes
     R & G space division:  proc/nbgrp/npool/nimage =      64
     Fft bands division:     nmany     =       1
     Reading input from nt.20.in
Warning: card  &IONS ignored
Warning: card  / ignored

     Current dimensions of program PWSCF are:
     Max number of different atomic species (ntypx) = 10
     Max number of k-points (npk) =  40000
     Max angular momentum in pseudopotentials (lmaxx) =  3

     gamma-point specific algorithms are used

     Subspace diagonalization in iterative solution of the eigenvalue problem:
     a serial algorithm will be used

 
     Parallelization info
     --------------------
     sticks:   dense  smooth     PW     G-vecs:    dense   smooth      PW
     Min         922     922    230               236450   236450   29542
     Max         924     924    232               236472   236472   29568
     Sum       59093   59093  14761             15133645 15133645 1891497
 


     bravais-lattice index     =            6
     lattice parameter (alat)  =      37.7945  a.u.
     unit-cell volume          =   75581.3463 (a.u.)^3
     number of atoms/cell      =          252
     number of atomic types    =            2
     number of electrons       =       900.00
     number of Kohn-Sham states=          450
     kinetic-energy cutoff     =     130.0000  Ry
     charge density cutoff     =     520.0000  Ry
     convergence threshold     =      1.0E-06
     mixing beta               =       0.6000
     number of iterations used =            8  plain     mixing
     Exchange-correlation= PBE
                           (   1   4   3   4   0   0   0)

     celldm(1)=  37.794522  celldm(2)=   0.000000  celldm(3)=   1.400000
     celldm(4)=   0.000000  celldm(5)=   0.000000  celldm(6)=   0.000000

     crystal axes: (cart. coord. in units of alat)
               a(1) = (   1.000000   0.000000   0.000000 )  
               a(2) = (   0.000000   1.000000   0.000000 )  
               a(3) = (   0.000000   0.000000   1.400000 )  

     reciprocal axes: (cart. coord. in units 2 pi/alat)
               b(1) = (  1.000000  0.000000  0.000000 )  
               b(2) = (  0.000000  1.000000  0.000000 )  
               b(3) = (  0.000000  0.000000  0.714286 )  


     PseudoPot. # 1 for H  read from file:
     /gpfs/share/home/1600011702/pseudo/H.nc.fr.pbe.stringent.upf
     MD5 check sum: 95156ffc763ef7c24633d2a3a64354af
     Pseudo is Norm-conserving, Zval =  1.0
     Generated using ONCVPSP code by D. R. Hamann
     Using radial grid of 1166 points,  3 beta functions with: 
                l(1) =   0
                l(2) =   0
                l(3) =   1

     PseudoPot. # 2 for C  read from file:
     /gpfs/share/home/1600011702/pseudo/C.nc.fr.pbe.stringent.upf
     MD5 check sum: d80ec9912146af6c4c1760317d1f95e9
     Pseudo is Norm-conserving + core correction, Zval =  4.0
     Generated using ONCVPSP code by D. R. Hamann
     Using radial grid of 1248 points,  4 beta functions with: 
                l(1) =   0
                l(2) =   0
                l(3) =   1
                l(4) =   1

     atomic species   valence    mass     pseudopotential
        H              1.00     1.00784     H ( 1.00)
        C              4.00    12.01070     C ( 1.00)

     No symmetry found



   Cartesian axes

     site n.     atom                  positions (alat units)
         1           H   tau(   1) = (  -0.3243050   0.0231859   0.0271940  )
         2           H   tau(   2) = (  -0.1822378  -0.2692364   0.0271982  )
         3           H   tau(   3) = (   0.3243042  -0.0231865   0.0271917  )
         4           H   tau(   4) = (   0.1420770  -0.2924114   0.0271970  )
         5           H   tau(   5) = (   0.1822482   0.2692257   0.0271955  )
         6           H   tau(   6) = (  -0.1420628   0.2924238   0.0271978  )
         7           H   tau(   7) = (   0.0280207  -0.3301579   0.0491278  )
         8           H   tau(   8) = (  -0.2719611  -0.1893540   0.0491328  )
         9           H   tau(   9) = (   0.3000182  -0.1408538   0.0491314  )
        10           H   tau(  10) = (  -0.2999359   0.1408209   0.0491328  )
        11           H   tau(  11) = (  -0.0279979   0.3301492   0.0491430  )
        12           H   tau(  12) = (   0.2720222   0.1893740   0.0491430  )
        13           H   tau(  13) = (  -0.0715626  -0.3097160   0.0664444  )
        14           H   tau(  14) = (   0.2324820  -0.2168406   0.0664421  )
        15           H   tau(  15) = (   0.3039828   0.0928773   0.0664409  )
        16           H   tau(  16) = (  -0.3040387  -0.0929100   0.0664482  )
        17           H   tau(  17) = (   0.0715229   0.3095894   0.0664452  )
        18           H   tau(  18) = (  -0.2324409   0.2167706   0.0664489  )
        19           C   tau(  19) = (   0.3166444  -0.0401407   0.0784150  )
        20           C   tau(  20) = (   0.1235660  -0.2942525   0.0784217  )
        21           C   tau(  21) = (  -0.3166445   0.0401291   0.0784207  )
        22           C   tau(  22) = (  -0.1930861  -0.2541317   0.0784252  )
        23           C   tau(  23) = (   0.1930822   0.2540931   0.0784173  )
        24           C   tau(  24) = (  -0.1235451   0.2942293   0.0784205  )
        25           C   tau(  25) = (   0.0594150  -0.3153720   0.0910407  )
        26           C   tau(  26) = (   0.3028849  -0.1062632   0.0910370  )
        27           C   tau(  27) = (  -0.2434671  -0.2091515   0.0910481  )
        28           C   tau(  28) = (  -0.3028628   0.1062451   0.0910459  )
        29           C   tau(  29) = (   0.2434797   0.2091354   0.0910433  )
        30           C   tau(  30) = (  -0.0593977   0.3153567   0.0910468  )
        31           C   tau(  31) = (  -0.0865629  -0.3037750   0.1184288  )
        32           C   tau(  32) = (   0.2198443  -0.2268640   0.1184269  )
        33           C   tau(  33) = (  -0.3064142  -0.0769446   0.1184301  )
        34           C   tau(  34) = (   0.3063949   0.0769256   0.1184243  )
        35           C   tau(  35) = (  -0.2198171   0.2268285   0.1184299  )
        36           C   tau(  36) = (   0.0865522   0.3037134   0.1184273  )
        37           C   tau(  37) = (  -0.1503283  -0.2767576   0.1308845  )
        38           C   tau(  38) = (  -0.3148849  -0.0082127   0.1308819  )
        39           C   tau(  39) = (   0.1645508  -0.2685574   0.1308841  )
        40           C   tau(  40) = (   0.3148789   0.0081976   0.1308806  )
        41           C   tau(  41) = (  -0.1645254   0.2685239   0.1308810  )
        42           C   tau(  42) = (   0.1503195   0.2767093   0.1308802  )
        43           C   tau(  43) = (   0.0319797  -0.3142851   0.1567916  )
        44           C   tau(  44) = (   0.2882346  -0.1294747   0.1567910  )
        45           C   tau(  45) = (  -0.2562540  -0.1848561   0.1567992  )
        46           C   tau(  46) = (  -0.2882251   0.1294616   0.1567992  )
        47           C   tau(  47) = (   0.2562552   0.1848389   0.1567963  )
        48           C   tau(  48) = (  -0.0319713   0.3142695   0.1567994  )
        49           C   tau(  49) = (  -0.0395031  -0.3122629   0.1697409  )
        50           C   tau(  50) = (   0.2507377  -0.1903660   0.1697414  )
        51           C   tau(  51) = (  -0.2902534  -0.1219441   0.1697463  )
        52           C   tau(  52) = (   0.2902538   0.1219284   0.1697441  )
        53           C   tau(  53) = (  -0.2507260   0.1903505   0.1697471  )
        54           C   tau(  54) = (   0.0395095   0.3122437   0.1697461  )
        55           C   tau(  55) = (  -0.1698925  -0.2624296   0.1980373  )
        56           C   tau(  56) = (   0.1423580  -0.2783310   0.1980363  )
        57           C   tau(  57) = (  -0.3122634   0.0158935   0.1980358  )
        58           C   tau(  58) = (   0.3122750  -0.0159052   0.1980340  )
        59           C   tau(  59) = (  -0.1423434   0.2783030   0.1980363  )
        60           C   tau(  60) = (   0.1698911   0.2624079   0.1980355  )
        61           C   tau(  61) = (   0.0765977  -0.3029319   0.2108643  )
        62           C   tau(  62) = (   0.3007133  -0.0851582   0.2108627  )
        63           C   tau(  63) = (  -0.2241007  -0.2178067   0.2108699  )
        64           C   tau(  64) = (  -0.3007082   0.0851463   0.2108684  )
        65           C   tau(  65) = (   0.2241013   0.2177899   0.2108661  )
        66           C   tau(  66) = (  -0.0765889   0.3029169   0.2108681  )
        67           C   tau(  67) = (  -0.0621393  -0.3062370   0.2376795  )
        68           C   tau(  68) = (   0.2342002  -0.2069540   0.2376799  )
        69           C   tau(  69) = (  -0.2963603  -0.0993294   0.2376836  )
        70           C   tau(  70) = (   0.2963715   0.0993176   0.2376807  )
        71           C   tau(  71) = (  -0.2341997   0.2069464   0.2376845  )
        72           C   tau(  72) = (   0.0621488   0.3062405   0.2376828  )
        73           C   tau(  73) = (  -0.1283215  -0.2840642   0.2514825  )
        74           C   tau(  74) = (  -0.3102380  -0.0309251   0.2514817  )
        75           C   tau(  75) = (   0.1818912  -0.2531643   0.2514828  )
        76           C   tau(  76) = (   0.3102506   0.0309133   0.2514820  )
        77           C   tau(  77) = (  -0.1818843   0.2531517   0.2514825  )
        78           C   tau(  78) = (   0.1283291   0.2840597   0.2514825  )
        79           C   tau(  79) = (   0.0536124  -0.3071157   0.2785493  )
        80           C   tau(  80) = (   0.2928481  -0.1071550   0.2785479  )
        81           C   tau(  81) = (  -0.2392241  -0.1999995   0.2785544  )
        82           C   tau(  82) = (  -0.2928466   0.1071470   0.2785538  )
        83           C   tau(  83) = (   0.2392243   0.1999826   0.2785500  )
        84           C   tau(  84) = (  -0.0536051   0.3071039   0.2785523  )
        85           C   tau(  85) = (  -0.0160489  -0.3118140   0.2918156  )
        86           C   tau(  86) = (   0.2620835  -0.1698300   0.2918145  )
        87           C   tau(  87) = (  -0.2781416  -0.1420310   0.2918197  )
        88           C   tau(  88) = (  -0.2620846   0.1698246   0.2918184  )
        89           C   tau(  89) = (   0.2781472   0.1420197   0.2918152  )
        90           C   tau(  90) = (   0.0160556   0.3118150   0.2918161  )
        91           C   tau(  91) = (  -0.1493562  -0.2735536   0.3189777  )
        92           C   tau(  92) = (  -0.3116538  -0.0074500   0.3189763  )
        93           C   tau(  93) = (   0.1622661  -0.2661155   0.3189782  )
        94           C   tau(  94) = (   0.3116656   0.0074440   0.3189770  )
        95           C   tau(  95) = (  -0.1622618   0.2661127   0.3189770  )
        96           C   tau(  96) = (   0.1493681   0.2735567   0.3189770  )
        97           C   tau(  97) = (   0.0986890  -0.2956688   0.3321879  )
        98           C   tau(  98) = (  -0.2067573  -0.2332974   0.3321912  )
        99           C   tau(  99) = (   0.3054754  -0.0623927   0.3321862  )
       100           C   tau( 100) = (  -0.3054674   0.0623848   0.3321902  )
       101           C   tau( 101) = (   0.2067606   0.2332888   0.3321877  )
       102           C   tau( 102) = (  -0.0986811   0.2956571   0.3321894  )
       103           C   tau( 103) = (  -0.0393993  -0.3097779   0.3591166  )
       104           C   tau( 104) = (  -0.2880554  -0.1207868   0.3591178  )
       105           C   tau( 105) = (   0.2486453  -0.1890295   0.3591172  )
       106           C   tau( 106) = (  -0.2486379   0.1890293   0.3591166  )
       107           C   tau( 107) = (   0.2880639   0.1207866   0.3591165  )
       108           C   tau( 108) = (   0.0394070   0.3097812   0.3591160  )
       109           C   tau( 109) = (  -0.1073961  -0.2930478   0.3726297  )
       110           C   tau( 110) = (  -0.3075673  -0.0535355   0.3726292  )
       111           C   tau( 111) = (   0.2001435  -0.2395391   0.3726295  )
       112           C   tau( 112) = (  -0.2001390   0.2395425   0.3726280  )
       113           C   tau( 113) = (   0.3075837   0.0535341   0.3726278  )
       114           C   tau( 114) = (   0.1074093   0.2930619   0.3726274  )
       115           C   tau( 115) = (   0.0762447  -0.3024682   0.3995699  )
       116           C   tau( 116) = (  -0.2238745  -0.2172638   0.3995719  )
       117           C   tau( 117) = (  -0.3001367   0.0852262   0.3995710  )
       118           C   tau( 118) = (   0.3001494  -0.0852278   0.3995698  )
       119           C   tau( 119) = (  -0.0762393   0.3024638   0.3995705  )
       120           C   tau( 120) = (   0.2238814   0.2172665   0.3995700  )
       121           C   tau( 121) = (   0.0070564  -0.3120329   0.4129198  )
       122           C   tau( 122) = (  -0.2667708  -0.1621404   0.4129215  )
       123           C   tau( 123) = (   0.2738352  -0.1499276   0.4129195  )
       124           C   tau( 124) = (  -0.2738228   0.1499268   0.4129204  )
       125           C   tau( 125) = (  -0.0070506   0.3120293   0.4129186  )
       126           C   tau( 126) = (   0.2667765   0.1621437   0.4129188  )
       127           C   tau( 127) = (  -0.1291319  -0.2841560   0.4400994  )
       128           C   tau( 128) = (  -0.3107314  -0.0302643   0.4400983  )
       129           C   tau( 129) = (   0.1815674  -0.2539075   0.4400981  )
       130           C   tau( 130) = (   0.3107422   0.0302649   0.4400970  )
       131           C   tau( 131) = (  -0.1815630   0.2539095   0.4400974  )
       132           C   tau( 132) = (   0.1291411   0.2841641   0.4400973  )
       133           C   tau( 133) = (  -0.1889996  -0.2481764   0.4534478  )
       134           C   tau( 134) = (   0.1204612  -0.2877384   0.4534466  )
       135           C   tau( 135) = (  -0.3094887   0.0395714   0.4534479  )
       136           C   tau( 136) = (   0.3095007  -0.0395702   0.4534462  )
       137           C   tau( 137) = (  -0.1204560   0.2877412   0.4534471  )
       138           C   tau( 138) = (   0.1890082   0.2481853   0.4534472  )
       139           C   tau( 139) = (  -0.0164236  -0.3116775   0.4803898  )
       140           C   tau( 140) = (  -0.2782037  -0.1416273   0.4803909  )
       141           C   tau( 141) = (   0.2617843  -0.1700822   0.4803892  )
       142           C   tau( 142) = (  -0.2617639   0.1700803   0.4803893  )
       143           C   tau( 143) = (   0.2782115   0.1416316   0.4803871  )
       144           C   tau( 144) = (   0.0164311   0.3116683   0.4803876  )
       145           C   tau( 145) = (  -0.0855265  -0.3003389   0.4939016  )
       146           C   tau( 146) = (  -0.3029452  -0.0761182   0.4939018  )
       147           C   tau( 147) = (   0.2173981  -0.2242469   0.4939004  )
       148           C   tau( 148) = (   0.3029534   0.0761215   0.4938989  )
       149           C   tau( 149) = (  -0.2173877   0.2242488   0.4939014  )
       150           C   tau( 150) = (   0.0855335   0.3003405   0.4939007  )
       151           C   tau( 151) = (  -0.2069638  -0.2330994   0.5208290  )
       152           C   tau( 152) = (   0.0984211  -0.2957451   0.5208283  )
       153           C   tau( 153) = (  -0.3054117   0.0626695   0.5208285  )
       154           C   tau( 154) = (   0.3054188  -0.0626594   0.5208298  )
       155           C   tau( 155) = (  -0.0984161   0.2957588   0.5208279  )
       156           C   tau( 156) = (   0.2069737   0.2331131   0.5208295  )
       157           C   tau( 157) = (   0.0298234  -0.3102259   0.5340401  )
       158           C   tau( 158) = (  -0.2538181  -0.1809456   0.5340420  )
       159           C   tau( 159) = (   0.2836563  -0.1293069   0.5340395  )
       160           C   tau( 160) = (  -0.2836409   0.1293125   0.5340423  )
       161           C   tau( 161) = (   0.2538248   0.1809551   0.5340384  )
       162           C   tau( 162) = (  -0.0298147   0.3102259   0.5340397  )
       163           C   tau( 163) = (  -0.1078014  -0.2930366   0.5612009  )
       164           C   tau( 164) = (  -0.3077604  -0.0531739   0.5611999  )
       165           C   tau( 165) = (   0.1999328  -0.2398750   0.5612012  )
       166           C   tau( 166) = (  -0.1999218   0.2398850   0.5612004  )
       167           C   tau( 167) = (   0.3077615   0.0531862   0.5612010  )
       168           C   tau( 168) = (   0.1078050   0.2930391   0.5612021  )
       169           C   tau( 169) = (  -0.1700110  -0.2613375   0.5744653  )
       170           C   tau( 170) = (  -0.3114067   0.0165506   0.5744647  )
       171           C   tau( 171) = (   0.1413609  -0.2778760   0.5744657  )
       172           C   tau( 172) = (  -0.1413547   0.2778957   0.5744657  )
       173           C   tau( 173) = (   0.3114066  -0.0165368   0.5744677  )
       174           C   tau( 174) = (   0.1700186   0.2613500   0.5744687  )
       175           C   tau( 175) = (   0.0063494  -0.3116190   0.6015342  )
       176           C   tau( 176) = (  -0.2667682  -0.1613160   0.6015370  )
       177           C   tau( 177) = (   0.2731262  -0.1503300   0.6015347  )
       178           C   tau( 178) = (   0.2667795   0.1613328   0.6015333  )
       179           C   tau( 179) = (  -0.2731119   0.1503411   0.6015374  )
       180           C   tau( 180) = (  -0.0063425   0.3116288   0.6015348  )
       181           C   tau( 181) = (  -0.0632239  -0.3060173   0.6153342  )
       182           C   tau( 182) = (  -0.2967123  -0.0982671   0.6153341  )
       183           C   tau( 183) = (   0.2334752  -0.2077725   0.6153351  )
       184           C   tau( 184) = (  -0.2334587   0.2077814   0.6153368  )
       185           C   tau( 185) = (   0.2967174   0.0982826   0.6153357  )
       186           C   tau( 186) = (   0.0632291   0.3060182   0.6153383  )
       187           C   tau( 187) = (  -0.1895000  -0.2484548   0.6421502  )
       188           C   tau( 188) = (   0.1204573  -0.2883085   0.6421495  )
       189           C   tau( 189) = (  -0.3099867   0.0398704   0.6421500  )
       190           C   tau( 190) = (  -0.1204510   0.2883292   0.6421502  )
       191           C   tau( 191) = (   0.3099905  -0.0398548   0.6421522  )
       192           C   tau( 192) = (   0.1895110   0.2484710   0.6421535  )
       193           C   tau( 193) = (   0.0530754  -0.3080369   0.6549811  )
       194           C   tau( 194) = (  -0.2402935  -0.1999833   0.6549826  )
       195           C   tau( 195) = (  -0.2933859   0.1080907   0.6549826  )
       196           C   tau( 196) = (   0.2933915  -0.1080753   0.6549824  )
       197           C   tau( 197) = (  -0.0530703   0.3080674   0.6549806  )
       198           C   tau( 198) = (   0.2403142   0.2000080   0.6549807  )
       199           C   tau( 199) = (  -0.0864007  -0.3026451   0.6832708  )
       200           C   tau( 200) = (  -0.3053881  -0.0765117   0.6832720  )
       201           C   tau( 201) = (   0.2189600  -0.2261567   0.6832720  )
       202           C   tau( 202) = (  -0.2189566   0.2261783   0.6832748  )
       203           C   tau( 203) = (   0.3053984   0.0765276   0.6832733  )
       204           C   tau( 204) = (   0.0864128   0.3026669   0.6832768  )
       205           C   tau( 205) = (  -0.1529287  -0.2764232   0.6962189  )
       206           C   tau( 206) = (   0.1629732  -0.2706442   0.6962186  )
       207           C   tau( 207) = (  -0.3159328  -0.0057832   0.6962191  )
       208           C   tau( 208) = (  -0.1629663   0.2706648   0.6962217  )
       209           C   tau( 209) = (   0.3159402   0.0057993   0.6962234  )
       210           C   tau( 210) = (   0.1529417   0.2764416   0.6962264  )
       211           C   tau( 211) = (   0.0294605  -0.3135034   0.7221360  )
       212           C   tau( 212) = (  -0.2568506  -0.1822738   0.7221376  )
       213           C   tau( 213) = (  -0.2863221   0.1312889   0.7221362  )
       214           C   tau( 214) = (   0.2863073  -0.1312589   0.7221366  )
       215           C   tau( 215) = (  -0.0294497   0.3135571   0.7221330  )
       216           C   tau( 216) = (   0.2568735   0.1822961   0.7221329  )
       217           C   tau( 217) = (  -0.2913096  -0.1222046   0.7345884  )
       218           C   tau( 218) = (  -0.0397891  -0.3132865   0.7345894  )
       219           C   tau( 219) = (  -0.2515124   0.1911573   0.7345894  )
       220           C   tau( 220) = (   0.2514860  -0.1911168   0.7345919  )
       221           C   tau( 221) = (   0.0398027   0.3133503   0.7345893  )
       222           C   tau( 222) = (   0.2913284   0.1222252   0.7345902  )
       223           C   tau( 223) = (  -0.1785738  -0.2666411   0.7619716  )
       224           C   tau( 224) = (   0.1416796  -0.2879654   0.7619714  )
       225           C   tau( 225) = (  -0.3202664   0.0213208   0.7619719  )
       226           C   tau( 226) = (  -0.1416614   0.2879834   0.7619728  )
       227           C   tau( 227) = (   0.3202869  -0.0213028   0.7619769  )
       228           C   tau( 228) = (   0.1785967   0.2666632   0.7619777  )
       229           C   tau( 229) = (  -0.2292626  -0.2220119   0.7745976  )
       230           C   tau( 230) = (   0.0776704  -0.3095092   0.7745981  )
       231           C   tau( 231) = (  -0.3069468   0.0875323   0.7745970  )
       232           C   tau( 232) = (  -0.0776574   0.3095488   0.7745932  )
       233           C   tau( 233) = (   0.2292846   0.2220295   0.7745967  )
       234           C   tau( 234) = (   0.3069391  -0.0875072   0.7746019  )
       235           H   tau( 235) = (  -0.0559203  -0.3127919   0.7865704  )
       236           H   tau( 236) = (  -0.2989742  -0.1079992   0.7865696  )
       237           H   tau( 237) = (  -0.2430626   0.2049069   0.7865724  )
       238           H   tau( 238) = (   0.2429872  -0.2048316   0.7865749  )
       239           H   tau( 239) = (   0.2989953   0.1080340   0.7865745  )
       240           H   tau( 240) = (   0.0559297   0.3129193   0.7865739  )
       241           H   tau( 241) = (   0.1756879  -0.2810010   0.8038719  )
       242           H   tau( 242) = (  -0.1555022  -0.2925687   0.8038790  )
       243           H   tau( 243) = (   0.3312571   0.0116317   0.8038802  )
       244           H   tau( 244) = (  -0.3311673  -0.0116197   0.8038866  )
       245           H   tau( 245) = (  -0.1756444   0.2809811   0.8038878  )
       246           H   tau( 246) = (   0.1555465   0.2926078   0.8038880  )
       247           H   tau( 247) = (   0.0617660  -0.3191715   0.8258194  )
       248           H   tau( 248) = (  -0.2455739  -0.2130702   0.8258221  )
       249           H   tau( 249) = (  -0.3073248   0.1061222   0.8258242  )
       250           H   tau( 250) = (  -0.0617430   0.3191724   0.8258198  )
       251           H   tau( 251) = (   0.2455862   0.2130647   0.8258202  )
       252           H   tau( 252) = (   0.3073250  -0.1061104   0.8258249  )

     number of k points=     1
                       cart. coord. in units 2pi/alat
        k(    1) = (   0.0000000   0.0000000   0.0000000), wk =   2.0000000

     Dense  grid:  7566823 G-vectors     FFT dimensions: ( 288, 288, 400)

     Estimated max dynamical RAM per process >       1.48 GB

     Estimated total dynamical RAM >      94.87 GB

     Initial potential from superposition of free atoms

     starting charge  899.99002, renormalised to  900.00000

     negative rho (up, down):  1.389E-04 0.000E+00
     Starting wfcs are  900 randomized atomic wfcs

     total cpu time spent up to now is       48.0 secs

     Self-consistent Calculation

     iteration #  1     ecut=   130.00 Ry     beta= 0.60
     Davidson diagonalization with overlap
     ethr =  1.00E-02,  avg # of iterations =  2.0

     total cpu time spent up to now is      121.1 secs

     total energy              =   -2639.03408251 Ry
     estimated scf accuracy    <      26.17667918 Ry

     iteration #  2     ecut=   130.00 Ry     beta= 0.60
     Davidson diagonalization with overlap
     ethr =  2.91E-03,  avg # of iterations =  2.0

     total cpu time spent up to now is      195.0 secs

     total energy              =   -2643.00743963 Ry
     estimated scf accuracy    <       1.43298815 Ry

     iteration #  3     ecut=   130.00 Ry     beta= 0.60
     Davidson diagonalization with overlap
     ethr =  1.59E-04,  avg # of iterations =  2.0

     total cpu time spent up to now is      265.0 secs

     total energy              =   -2643.25762131 Ry
     estimated scf accuracy    <       0.22077546 Ry

     iteration #  4     ecut=   130.00 Ry     beta= 0.60
     Davidson diagonalization with overlap
     ethr =  2.45E-05,  avg # of iterations =  4.0

     total cpu time spent up to now is      337.8 secs

     total energy              =   -2643.30499766 Ry
     estimated scf accuracy    <       0.02938327 Ry

     iteration #  5     ecut=   130.00 Ry     beta= 0.60
     Davidson diagonalization with overlap
     ethr =  3.26E-06,  avg # of iterations =  5.0

     total cpu time spent up to now is      411.0 secs

     total energy              =   -2643.31241075 Ry
     estimated scf accuracy    <       0.00307904 Ry

     iteration #  6     ecut=   130.00 Ry     beta= 0.60
     Davidson diagonalization with overlap
     ethr =  3.42E-07,  avg # of iterations =  9.0

     total cpu time spent up to now is      495.7 secs

     total energy              =   -2643.31270864 Ry
     estimated scf accuracy    <       0.00192302 Ry

     iteration #  7     ecut=   130.00 Ry     beta= 0.60
     Davidson diagonalization with overlap
     ethr =  2.14E-07,  avg # of iterations = 11.0

     total cpu time spent up to now is      563.4 secs

     total energy              =   -2643.31267662 Ry
     estimated scf accuracy    <       0.00790601 Ry

     iteration #  8     ecut=   130.00 Ry     beta= 0.60
     Davidson diagonalization with overlap
     ethr =  2.14E-07,  avg # of iterations = 10.0

     total cpu time spent up to now is      624.9 secs

     total energy              =   -2643.31319060 Ry
     estimated scf accuracy    <       0.00022529 Ry

     iteration #  9     ecut=   130.00 Ry     beta= 0.60
     Davidson diagonalization with overlap
     ethr =  2.50E-08,  avg # of iterations =  9.0

     total cpu time spent up to now is      694.1 secs

     total energy              =   -2643.31323821 Ry
     estimated scf accuracy    <       0.00004106 Ry

     iteration # 10     ecut=   130.00 Ry     beta= 0.60
     Davidson diagonalization with overlap
     ethr =  4.56E-09,  avg # of iterations =  6.0

     total cpu time spent up to now is      761.2 secs

     total energy              =   -2643.31324471 Ry
     estimated scf accuracy    <       0.00000284 Ry

     iteration # 11     ecut=   130.00 Ry     beta= 0.60
     Davidson diagonalization with overlap
     ethr =  3.16E-10,  avg # of iterations =  7.0

     total cpu time spent up to now is      842.2 secs

     total energy              =   -2643.31324543 Ry
     estimated scf accuracy    <       0.00000104 Ry

     iteration # 12     ecut=   130.00 Ry     beta= 0.60
     Davidson diagonalization with overlap
     ethr =  1.16E-10,  avg # of iterations =  9.0

     total cpu time spent up to now is      916.6 secs

     End of self-consistent calculation

          k = 0.0000 0.0000 0.0000 (945749 PWs)   bands (ev):

   -21.4472 -21.3748 -21.3746 -21.1582 -21.1575 -21.0737 -21.0025 -21.0022
   -20.8084 -20.7902 -20.7896 -20.7894 -20.5102 -20.4729 -20.4417 -20.4414
   -20.3967 -20.3087 -20.3086 -20.2289 -20.2284 -19.9606 -19.9389 -19.9388
   -19.7890 -19.7710 -19.7211 -19.7207 -19.6540 -19.6540 -19.5121 -19.5116
   -19.3622 -19.3620 -19.2957 -19.2957 -19.2663 -18.9869 -18.9388 -18.9042
   -18.8882 -18.8878 -18.8196 -18.6711 -18.6710 -18.6341 -18.6340 -18.5705
   -18.5384 -18.5260 -18.5258 -18.3864 -18.1107 -18.1104 -18.0149 -18.0149
   -18.0111 -18.0090 -17.9828 -17.8332 -17.7233 -17.7232 -17.7114 -17.7113
   -17.5765 -17.5763 -17.4915 -17.4913 -17.3781 -17.2904 -17.2217 -17.2213
   -17.1944 -17.1215 -17.1214 -17.0455 -17.0455 -16.9053 -16.8123 -16.7378
   -16.7377 -16.6964 -16.6963 -16.5612 -16.5610 -16.5060 -16.4677 -16.4676
   -16.4447 -16.4444 -16.3717 -16.2482 -16.2476 -16.2119 -16.2034 -16.2034
   -16.1873 -16.0708 -15.9738 -15.7816 -15.7456 -15.7455 -15.6343 -15.6343
   -15.5754 -15.2050 -15.1242 -15.1241 -14.9242 -14.8869 -14.7800 -14.6905
   -14.6903 -14.6865 -14.6862 -14.6482 -14.4747 -14.4746 -14.4549 -14.4549
   -14.4250 -14.4089 -14.4085 -14.2941 -14.2940 -14.2141 -14.1124 -14.1024
   -14.0701 -14.0100 -14.0099 -13.9589 -13.9588 -13.7420 -13.7418 -13.7417
   -13.6228 -13.6226 -13.6009 -13.4050 -13.3370 -13.3369 -13.3188 -13.3188
   -13.2791 -13.2790 -13.2021 -13.2020 -13.0380 -12.9833 -12.9833 -12.9517
   -12.7408 -12.7407 -12.7317 -12.7316 -12.6433 -12.5344 -12.3456 -12.3455
   -12.1936 -12.1936 -12.1349 -12.1078 -12.0973 -12.0971 -12.0675 -11.8565
   -11.8564 -11.8388 -11.7888 -11.7887 -11.7400 -11.7134 -11.6687 -11.6686
   -11.6546 -11.5071 -11.5070 -11.4420 -11.3193 -11.3134 -11.3131 -11.2085
   -11.1367 -11.1366 -11.1365 -11.0284 -11.0283 -11.0126 -10.9931 -10.9928
   -10.9606 -10.9127 -10.7609 -10.6371 -10.5310 -10.5309 -10.4883 -10.4880
   -10.4539 -10.4190 -10.3756 -10.3754 -10.3132 -10.3130 -10.2022 -10.2019
   -10.1615 -10.1138 -10.1138 -10.0681 -10.0679 -10.0481 -10.0479  -9.9164
    -9.9164  -9.9117  -9.8602  -9.8600  -9.7691  -9.7198  -9.6405  -9.6403
    -9.6369  -9.5610  -9.5324  -9.4846  -9.4845  -9.4444  -9.4443  -9.3804
    -9.3714  -9.3581  -9.3579  -9.3078  -9.3078  -9.2247  -9.2032  -9.2023
    -9.1615  -9.1612  -9.1397  -9.0986  -9.0985  -9.0490  -9.0488  -9.0234
    -9.0206  -9.0204  -8.9899  -8.9898  -8.9725  -8.9723  -8.9657  -8.8321
    -8.8304  -8.8301  -8.8259  -8.8170  -8.7758  -8.7755  -8.7342  -8.7215
    -8.7213  -8.6679  -8.6677  -8.6311  -8.5862  -8.5659  -8.5658  -8.5543
    -8.5166  -8.5164  -8.5138  -8.4823  -8.4819  -8.4608  -8.4608  -8.4519
    -8.3913  -8.3885  -8.3882  -8.3879  -8.3589  -8.3505  -8.3285  -8.3098
    -8.3096  -8.2660  -8.2577  -8.2576  -8.2295  -8.2112  -8.2110  -8.1866
    -8.1865  -8.1632  -8.1627  -8.1040  -8.0765  -8.0765  -8.0373  -7.9987
    -7.9985  -7.9112  -7.8988  -7.8858  -7.8856  -7.8768  -7.8339  -7.8339
    -7.8278  -7.8188  -7.7211  -7.7209  -7.7053  -7.6965  -7.6961  -7.6141
    -7.6140  -7.5026  -7.5025  -7.4879  -7.4286  -7.4187  -7.4185  -7.3445
    -7.3311  -7.3209  -7.3206  -7.2455  -7.2455  -7.2122  -7.2121  -7.1844
    -7.1169  -7.1165  -7.0638  -7.0634  -7.0103  -6.9995  -6.9989  -6.9724
    -6.9524  -6.9276  -6.9273  -6.9029  -6.9028  -6.8766  -6.8616  -6.8616
    -6.7031  -6.7022  -6.7018  -6.6568  -6.6354  -6.5380  -6.5307  -6.5143
    -6.5138  -6.5017  -6.5016  -6.4672  -6.4311  -6.4037  -6.4036  -6.3185
    -6.3178  -6.3176  -6.2756  -6.2755  -6.2306  -6.1743  -6.1740  -6.0944
    -6.0834  -6.0394  -6.0392  -6.0298  -6.0293  -6.0245  -5.9792  -5.9790
    -5.8889  -5.8249  -5.7375  -5.7371  -5.6785  -5.6638  -5.6633  -5.5551
    -5.5116  -5.5114  -5.5047  -5.4976  -5.4973  -5.4422  -5.3835  -5.3833
    -5.3654  -5.3651  -5.3155  -5.3154  -5.2652  -5.2327  -5.1289  -5.1287
    -5.1249  -5.1248  -5.0253  -4.8576  -4.7873  -4.7868  -4.7466  -4.7328
    -4.6475  -4.6474  -4.5817  -4.5812  -4.5678  -4.5676  -4.4327  -4.3111
    -4.3107  -4.2702  -4.2436  -4.2431  -4.1589  -4.1587  -4.0940  -4.0573
    -4.0566  -4.0260  -3.8610  -3.8606  -3.8034  -3.7922  -3.7917  -3.7655
    -3.7302  -3.2865  -3.2862  -3.2804  -3.1561  -3.1559  -3.1527  -2.4813
    -2.4808  -2.1383

     highest occupied level (ev):    -2.1383

!    total energy              =   -2643.31324520 Ry
     estimated scf accuracy    <       0.00000067 Ry

     The total energy is the sum of the following terms:
     one-electron contribution =  -24376.74361365 Ry
     hartree contribution      =   12347.40663422 Ry
     xc contribution           =    -950.41485600 Ry
     ewald contribution        =   10336.43859023 Ry

     convergence has been achieved in  12 iterations

     Forces acting on atoms (cartesian axes, Ry/au):

     atom    1 type  1   force =    -0.00000085   -0.00004701   -0.00002968
     atom    2 type  1   force =    -0.00000305   -0.00003118   -0.00000392
     atom    3 type  1   force =     0.00001625    0.00002493   -0.00004417
     atom    4 type  1   force =     0.00003236   -0.00001626   -0.00002663
     atom    5 type  1   force =    -0.00001921   -0.00000171   -0.00001694
     atom    6 type  1   force =    -0.00003642   -0.00004872   -0.00003501
     atom    7 type  1   force =    -0.00004762    0.00006199    0.00005212
     atom    8 type  1   force =    -0.00002837    0.00004099    0.00002957
     atom    9 type  1   force =    -0.00009492   -0.00001112    0.00001901
     atom   10 type  1   force =     0.00000504    0.00003629    0.00002207
     atom   11 type  1   force =     0.00004848   -0.00002449   -0.00000158
     atom   12 type  1   force =    -0.00003821   -0.00005640    0.00001399
     atom   13 type  1   force =     0.00000752    0.00003392    0.00000169
     atom   14 type  1   force =     0.00000425    0.00003654   -0.00003235
     atom   15 type  1   force =     0.00001710    0.00002968   -0.00005201
     atom   16 type  1   force =     0.00000663    0.00001711   -0.00000413
     atom   17 type  1   force =     0.00001500    0.00003319   -0.00005189
     atom   18 type  1   force =    -0.00000094    0.00002252   -0.00003857
     atom   19 type  2   force =     0.00003085   -0.00007546    0.00014899
     atom   20 type  2   force =     0.00003322   -0.00001064    0.00006202
     atom   21 type  2   force =    -0.00002712    0.00001366    0.00010934
     atom   22 type  2   force =    -0.00001661    0.00001158    0.00006210
     atom   23 type  2   force =     0.00001539    0.00006903    0.00010722
     atom   24 type  2   force =     0.00000108    0.00007505    0.00008269
     atom   25 type  2   force =    -0.00002339    0.00000630    0.00009332
     atom   26 type  2   force =     0.00002985    0.00008160    0.00005450
     atom   27 type  2   force =     0.00006612    0.00000761    0.00006097
     atom   28 type  2   force =     0.00004015   -0.00004493    0.00004275
     atom   29 type  2   force =     0.00000301    0.00000641    0.00004669
     atom   30 type  2   force =    -0.00006994   -0.00003728    0.00009627
     atom   31 type  2   force =    -0.00006226   -0.00003857    0.00005851
     atom   32 type  2   force =     0.00000593   -0.00008196    0.00006077
     atom   33 type  2   force =    -0.00005625    0.00003644    0.00003155
     atom   34 type  2   force =     0.00005699   -0.00004756    0.00008197
     atom   35 type  2   force =    -0.00002366    0.00006187    0.00001046
     atom   36 type  2   force =     0.00002627    0.00004452    0.00005037
     atom   37 type  2   force =     0.00007885   -0.00000458   -0.00002060
     atom   38 type  2   force =     0.00002444   -0.00006238   -0.00000227
     atom   39 type  2   force =     0.00000017    0.00003893   -0.00004431
     atom   40 type  2   force =    -0.00000915    0.00005867   -0.00007719
     atom   41 type  2   force =    -0.00006441   -0.00003487   -0.00000652
     atom   42 type  2   force =    -0.00003391    0.00002811   -0.00005474
     atom   43 type  2   force =    -0.00006045   -0.00001420    0.00005801
     atom   44 type  2   force =    -0.00001239   -0.00006997    0.00006604
     atom   45 type  2   force =    -0.00002950    0.00006009   -0.00000521
     atom   46 type  2   force =     0.00003033    0.00003576    0.00000031
     atom   47 type  2   force =     0.00003745   -0.00006290    0.00003855
     atom   48 type  2   force =     0.00010055   -0.00000415    0.00001094
     atom   49 type  2   force =     0.00000139    0.00002962   -0.00003354
     atom   50 type  2   force =    -0.00000150    0.00002920   -0.00003353
     atom   51 type  2   force =     0.00004219    0.00001107   -0.00004019
     atom   52 type  2   force =    -0.00003254    0.00001013   -0.00004286
     atom   53 type  2   force =     0.00001424   -0.00005479   -0.00003821
     atom   54 type  2   force =    -0.00002885   -0.00003415   -0.00003122
     atom   55 type  2   force =     0.00001965    0.00002658    0.00003917
     atom   56 type  2   force =    -0.00000926    0.00005082    0.00002713
     atom   57 type  2   force =    -0.00000697   -0.00002260    0.00000225
     atom   58 type  2   force =    -0.00003867   -0.00001021    0.00005255
     atom   59 type  2   force =     0.00002929    0.00004241    0.00000089
     atom   60 type  2   force =    -0.00001269    0.00000457    0.00003361
     atom   61 type  2   force =    -0.00000674   -0.00002045   -0.00001538
     atom   62 type  2   force =     0.00001356    0.00005722   -0.00001422
     atom   63 type  2   force =     0.00002744   -0.00005812   -0.00003864
     atom   64 type  2   force =    -0.00000176   -0.00002441    0.00000252
     atom   65 type  2   force =    -0.00003674    0.00002570   -0.00000380
     atom   66 type  2   force =    -0.00004345   -0.00002174    0.00000820
     atom   67 type  2   force =     0.00002356   -0.00000155    0.00003273
     atom   68 type  2   force =     0.00001359    0.00002522    0.00002616
     atom   69 type  2   force =     0.00002340    0.00000802   -0.00000917
     atom   70 type  2   force =    -0.00003895   -0.00003021    0.00001903
     atom   71 type  2   force =     0.00003133   -0.00002043   -0.00001946
     atom   72 type  2   force =    -0.00001452   -0.00004892    0.00000103
     atom   73 type  2   force =     0.00003259   -0.00003680    0.00003619
     atom   74 type  2   force =    -0.00001659    0.00000410    0.00007109
     atom   75 type  2   force =     0.00002640   -0.00000800    0.00002778
     atom   76 type  2   force =     0.00001815    0.00006188   -0.00002203
     atom   77 type  2   force =    -0.00003506    0.00000211    0.00004676
     atom   78 type  2   force =    -0.00002467    0.00004126   -0.00001331
     atom   79 type  2   force =    -0.00002208    0.00001337    0.00000712
     atom   80 type  2   force =     0.00000210    0.00002156    0.00001254
     atom   81 type  2   force =    -0.00002276    0.00006440   -0.00000892
     atom   82 type  2   force =     0.00002243   -0.00000230   -0.00004292
     atom   83 type  2   force =    -0.00000340    0.00001960    0.00002639
     atom   84 type  2   force =     0.00005577    0.00001263   -0.00001715
     atom   85 type  2   force =     0.00001326    0.00001808   -0.00003511
     atom   86 type  2   force =     0.00000440    0.00000813    0.00000433
     atom   87 type  2   force =     0.00001583    0.00001042   -0.00005293
     atom   88 type  2   force =     0.00002429    0.00002059   -0.00001438
     atom   89 type  2   force =     0.00000704    0.00001136   -0.00000684
     atom   90 type  2   force =     0.00002039   -0.00000372    0.00000558
     atom   91 type  2   force =    -0.00004939    0.00001770    0.00003890
     atom   92 type  2   force =     0.00000777    0.00001601    0.00002743
     atom   93 type  2   force =    -0.00001976   -0.00002557    0.00001234
     atom   94 type  2   force =     0.00000358   -0.00005196   -0.00001872
     atom   95 type  2   force =     0.00007659    0.00001593    0.00000278
     atom   96 type  2   force =    -0.00000227   -0.00002340    0.00000361
     atom   97 type  2   force =    -0.00002892   -0.00000307    0.00002374
     atom   98 type  2   force =     0.00000427    0.00000356   -0.00000404
     atom   99 type  2   force =     0.00001944   -0.00000393    0.00004832
     atom  100 type  2   force =    -0.00000635    0.00006682   -0.00000043
     atom  101 type  2   force =     0.00004863    0.00002013    0.00000841
     atom  102 type  2   force =     0.00000033    0.00005219   -0.00000348
     atom  103 type  2   force =    -0.00001291    0.00000531   -0.00000509
     atom  104 type  2   force =    -0.00000765   -0.00001111    0.00002686
     atom  105 type  2   force =    -0.00002910   -0.00003717   -0.00002493
     atom  106 type  2   force =    -0.00002513    0.00001031    0.00003756
     atom  107 type  2   force =     0.00003451   -0.00008467    0.00000383
     atom  108 type  2   force =     0.00004459    0.00000771    0.00000369
     atom  109 type  2   force =    -0.00000908   -0.00000896   -0.00000192
     atom  110 type  2   force =    -0.00000604    0.00003461   -0.00000324
     atom  111 type  2   force =    -0.00003170   -0.00000122   -0.00002173
     atom  112 type  2   force =    -0.00001183   -0.00005676    0.00001471
     atom  113 type  2   force =    -0.00006678    0.00002189    0.00001858
     atom  114 type  2   force =    -0.00004959   -0.00005919    0.00002184
     atom  115 type  2   force =     0.00002207    0.00001285    0.00001337
     atom  116 type  2   force =    -0.00001115    0.00000681    0.00001280
     atom  117 type  2   force =     0.00000186   -0.00003589    0.00000597
     atom  118 type  2   force =    -0.00001528    0.00001072   -0.00002248
     atom  119 type  2   force =     0.00002555   -0.00001752   -0.00000638
     atom  120 type  2   force =    -0.00002438   -0.00000732    0.00001554
     atom  121 type  2   force =     0.00002810   -0.00000376   -0.00001840
     atom  122 type  2   force =     0.00003496   -0.00003354   -0.00003049
     atom  123 type  2   force =     0.00000190    0.00000330   -0.00002722
     atom  124 type  2   force =     0.00002137   -0.00001771   -0.00004379
     atom  125 type  2   force =     0.00001276   -0.00001518   -0.00002619
     atom  126 type  2   force =     0.00001531   -0.00004011   -0.00005745
     atom  127 type  2   force =     0.00000104    0.00002104    0.00000748
     atom  128 type  2   force =     0.00002504    0.00001560    0.00002693
     atom  129 type  2   force =     0.00002985    0.00003323    0.00004544
     atom  130 type  2   force =    -0.00000508    0.00000738    0.00001554
     atom  131 type  2   force =     0.00004997    0.00002878    0.00003944
     atom  132 type  2   force =     0.00000860   -0.00000384    0.00002860
     atom  133 type  2   force =     0.00003435   -0.00000302    0.00001342
     atom  134 type  2   force =    -0.00003338    0.00001306   -0.00001063
     atom  135 type  2   force =     0.00000646    0.00002270   -0.00000999
     atom  136 type  2   force =    -0.00001726    0.00000812    0.00002409
     atom  137 type  2   force =     0.00000291   -0.00000284   -0.00002332
     atom  138 type  2   force =     0.00000708   -0.00001852   -0.00002901
     atom  139 type  2   force =    -0.00001494    0.00006459   -0.00002844
     atom  140 type  2   force =     0.00000281    0.00003949   -0.00003211
     atom  141 type  2   force =    -0.00007817    0.00001312   -0.00002885
     atom  142 type  2   force =    -0.00002799   -0.00002319    0.00001788
     atom  143 type  2   force =    -0.00004158   -0.00000847    0.00002108
     atom  144 type  2   force =    -0.00002918    0.00000114    0.00002060
     atom  145 type  2   force =     0.00003002   -0.00003031   -0.00000675
     atom  146 type  2   force =    -0.00002654    0.00002164   -0.00001991
     atom  147 type  2   force =     0.00004904    0.00003763   -0.00001104
     atom  148 type  2   force =    -0.00001662    0.00006040    0.00002608
     atom  149 type  2   force =    -0.00000202    0.00000535   -0.00002496
     atom  150 type  2   force =    -0.00002795    0.00000315    0.00000002
     atom  151 type  2   force =    -0.00001198   -0.00004968   -0.00001417
     atom  152 type  2   force =     0.00003969   -0.00003396    0.00000175
     atom  153 type  2   force =    -0.00002288   -0.00006075   -0.00000673
     atom  154 type  2   force =     0.00002702    0.00000519   -0.00003815
     atom  155 type  2   force =     0.00001491   -0.00000977   -0.00000098
     atom  156 type  2   force =    -0.00001532    0.00001231   -0.00001931
     atom  157 type  2   force =     0.00001731    0.00003289    0.00000055
     atom  158 type  2   force =     0.00005410   -0.00003743    0.00000883
     atom  159 type  2   force =     0.00001876    0.00005913    0.00001595
     atom  160 type  2   force =    -0.00000934   -0.00002948   -0.00003746
     atom  161 type  2   force =    -0.00000054    0.00002116   -0.00001421
     atom  162 type  2   force =    -0.00004085    0.00000268   -0.00002558
     atom  163 type  2   force =     0.00003876   -0.00000716    0.00001116
     atom  164 type  2   force =     0.00001598   -0.00002295    0.00001744
     atom  165 type  2   force =     0.00000335   -0.00000424   -0.00000958
     atom  166 type  2   force =     0.00002228   -0.00000377    0.00004334
     atom  167 type  2   force =     0.00000113   -0.00000892    0.00000966
     atom  168 type  2   force =    -0.00000481   -0.00001508    0.00003594
     atom  169 type  2   force =     0.00005816   -0.00003037    0.00003335
     atom  170 type  2   force =     0.00002836   -0.00002693    0.00004903
     atom  171 type  2   force =    -0.00001152   -0.00001765   -0.00001777
     atom  172 type  2   force =    -0.00002876   -0.00003769    0.00000006
     atom  173 type  2   force =     0.00000059   -0.00002256   -0.00002345
     atom  174 type  2   force =    -0.00001134   -0.00000840   -0.00003007
     atom  175 type  2   force =    -0.00003858   -0.00002338    0.00001034
     atom  176 type  2   force =    -0.00003696    0.00002703   -0.00007470
     atom  177 type  2   force =    -0.00000097   -0.00005352    0.00001071
     atom  178 type  2   force =     0.00003201   -0.00001509   -0.00000776
     atom  179 type  2   force =    -0.00001793    0.00000920   -0.00007550
     atom  180 type  2   force =     0.00003329    0.00002011   -0.00003180
     atom  181 type  2   force =     0.00003301    0.00004524   -0.00000153
     atom  182 type  2   force =     0.00003478    0.00000766    0.00004707
     atom  183 type  2   force =    -0.00003721    0.00003316   -0.00000010
     atom  184 type  2   force =     0.00001947    0.00000398    0.00000268
     atom  185 type  2   force =    -0.00001243   -0.00004406   -0.00002598
     atom  186 type  2   force =     0.00001241   -0.00001022   -0.00003284
     atom  187 type  2   force =    -0.00002526    0.00002487   -0.00000951
     atom  188 type  2   force =    -0.00007555   -0.00001369   -0.00000650
     atom  189 type  2   force =    -0.00000534    0.00004009   -0.00000829
     atom  190 type  2   force =     0.00004938    0.00003978    0.00002959
     atom  191 type  2   force =    -0.00001118   -0.00002039    0.00003376
     atom  192 type  2   force =    -0.00000164    0.00001620    0.00002130
     atom  193 type  2   force =     0.00001993   -0.00000523   -0.00005098
     atom  194 type  2   force =    -0.00001267   -0.00003163    0.00000048
     atom  195 type  2   force =     0.00000563   -0.00000672    0.00000241
     atom  196 type  2   force =    -0.00002441    0.00001980   -0.00004528
     atom  197 type  2   force =     0.00000473   -0.00004351   -0.00003654
     atom  198 type  2   force =    -0.00002579   -0.00003809   -0.00004683
     atom  199 type  2   force =     0.00000340    0.00004051    0.00004446
     atom  200 type  2   force =     0.00002895    0.00004638    0.00000650
     atom  201 type  2   force =    -0.00004457    0.00000254    0.00003017
     atom  202 type  2   force =     0.00004227   -0.00000594    0.00002183
     atom  203 type  2   force =    -0.00002558   -0.00002585    0.00007561
     atom  204 type  2   force =    -0.00001658   -0.00002821    0.00003569
     atom  205 type  2   force =     0.00007060   -0.00001572   -0.00000641
     atom  206 type  2   force =     0.00006031    0.00004505   -0.00001614
     atom  207 type  2   force =     0.00002615   -0.00007390    0.00002082
     atom  208 type  2   force =    -0.00005188   -0.00002643   -0.00000176
     atom  209 type  2   force =     0.00000023    0.00007288   -0.00008103
     atom  210 type  2   force =    -0.00005585    0.00004492   -0.00006583
     atom  211 type  2   force =    -0.00009022   -0.00002863    0.00005261
     atom  212 type  2   force =    -0.00003007    0.00004198   -0.00000341
     atom  213 type  2   force =     0.00003857    0.00004619   -0.00000287
     atom  214 type  2   force =    -0.00001509   -0.00003602    0.00007902
     atom  215 type  2   force =     0.00010720   -0.00002707    0.00001478
     atom  216 type  2   force =     0.00000363   -0.00006314    0.00007988
     atom  217 type  2   force =    -0.00002893   -0.00003561   -0.00002636
     atom  218 type  2   force =     0.00002072   -0.00004727   -0.00007165
     atom  219 type  2   force =    -0.00009086   -0.00000026   -0.00002255
     atom  220 type  2   force =     0.00007450   -0.00000723   -0.00005091
     atom  221 type  2   force =    -0.00006030    0.00006003   -0.00006229
     atom  222 type  2   force =     0.00002483    0.00005847   -0.00011524
     atom  223 type  2   force =     0.00001749    0.00002303   -0.00003822
     atom  224 type  2   force =    -0.00006731   -0.00002484   -0.00004103
     atom  225 type  2   force =     0.00004884    0.00004137   -0.00005008
     atom  226 type  2   force =     0.00005282   -0.00002640   -0.00007235
     atom  227 type  2   force =     0.00001154   -0.00001633   -0.00004968
     atom  228 type  2   force =    -0.00000582   -0.00001137   -0.00006598
     atom  229 type  2   force =    -0.00004950   -0.00002174   -0.00006555
     atom  230 type  2   force =     0.00007258   -0.00005888   -0.00016239
     atom  231 type  2   force =    -0.00003549   -0.00002593   -0.00008615
     atom  232 type  2   force =    -0.00004315    0.00000704   -0.00008318
     atom  233 type  2   force =     0.00000944    0.00002749   -0.00008499
     atom  234 type  2   force =     0.00005988   -0.00001101   -0.00012509
     atom  235 type  1   force =    -0.00001174   -0.00003662    0.00007964
     atom  236 type  1   force =    -0.00000848   -0.00001773    0.00004433
     atom  237 type  1   force =     0.00001891   -0.00002056    0.00000865
     atom  238 type  1   force =     0.00001312   -0.00002716    0.00005720
     atom  239 type  1   force =     0.00000751   -0.00002500    0.00002487
     atom  240 type  1   force =     0.00001353   -0.00003210   -0.00000206
     atom  241 type  1   force =     0.00001255    0.00006363    0.00000397
     atom  242 type  1   force =     0.00001317   -0.00000945   -0.00001887
     atom  243 type  1   force =    -0.00008397    0.00003308   -0.00004533
     atom  244 type  1   force =    -0.00001179   -0.00004863   -0.00003332
     atom  245 type  1   force =    -0.00004029   -0.00004743   -0.00002806
     atom  246 type  1   force =    -0.00005293   -0.00004398   -0.00005272
     atom  247 type  1   force =    -0.00004793    0.00002927    0.00005288
     atom  248 type  1   force =    -0.00001970    0.00003991    0.00003431
     atom  249 type  1   force =     0.00001280    0.00004680    0.00003421
     atom  250 type  1   force =     0.00001584    0.00001902    0.00001474
     atom  251 type  1   force =     0.00003371    0.00001443    0.00002938
     atom  252 type  1   force =    -0.00001125   -0.00001790    0.00003199

     Total force =     0.001010     Total SCF correction =     0.001531
     SCF correction compared to forces is large: reduce conv_thr to get better values

     Writing output data file ./nt.save/
 
     init_run     :     46.19s CPU     47.78s WALL (       1 calls)
     electrons    :    844.50s CPU    869.05s WALL (       1 calls)
     forces       :     12.20s CPU     12.65s WALL (       1 calls)

     Called by init_run:
     wfcinit      :     38.46s CPU     39.78s WALL (       1 calls)
     potinit      :      1.54s CPU      1.63s WALL (       1 calls)
     hinit0       :      1.33s CPU      1.36s WALL (       1 calls)

     Called by electrons:
     c_bands      :    726.98s CPU    747.90s WALL (      12 calls)
     sum_band     :    108.07s CPU    110.68s WALL (      12 calls)
     v_of_rho     :      7.73s CPU      8.38s WALL (      13 calls)
     mix_rho      :      1.91s CPU      2.05s WALL (      12 calls)

     Called by c_bands:
     init_us_2    :      7.68s CPU      8.03s WALL (      25 calls)
     regterg      :    714.57s CPU    735.27s WALL (      12 calls)

     Called by *egterg:
     rdiaghg      :     39.10s CPU     39.64s WALL (      88 calls)
     h_psi        :    606.81s CPU    622.35s WALL (      89 calls)
     g_psi        :      1.01s CPU      1.04s WALL (      76 calls)

     Called by h_psi:
     h_psi:calbec :     59.58s CPU     60.90s WALL (      89 calls)
     vloc_psi     :    484.62s CPU    497.80s WALL (      89 calls)
     add_vuspsi   :     58.60s CPU     59.49s WALL (      89 calls)

     General routines
     calbec       :     65.63s CPU     67.07s WALL (      93 calls)
     fft          :      6.46s CPU      7.02s WALL (     112 calls)
     ffts         :      0.61s CPU      0.66s WALL (      12 calls)
     fftw         :    482.28s CPU    495.89s WALL (   18400 calls)
 
     Parallel routines
     fft_scatt_xy :    100.40s CPU    102.36s WALL (   18524 calls)
     fft_scatt_yz :    154.90s CPU    162.27s WALL (   18524 calls)
 
     PWSCF        :  15m 8.86s CPU  15m39.28s WALL

 
   This run was terminated on:   2:55:32  31May2020            

=------------------------------------------------------------------------------=
   JOB DONE.
=------------------------------------------------------------------------------=
