
     Program PWSCF v.6.5 starts on 29Apr2020 at  8:59:47 

     This program is part of the open-source Quantum ESPRESSO suite
     for quantum simulation of materials; please cite
         "P. Giannozzi et al., J. Phys.:Condens. Matter 21 395502 (2009);
         "P. Giannozzi et al., J. Phys.:Condens. Matter 29 465901 (2017);
          URL http://www.quantum-espresso.org", 
     in publications or presentations arising from this work. More details at
     http://www.quantum-espresso.org/quote

     Parallel version (MPI), running on    20 processors

     MPI processes distributed on    10 nodes
     K-points division:     npool     =       4
     R & G space division:  proc/nbgrp/npool/nimage =       5
     Reading input from co.mp.in

     Current dimensions of program PWSCF are:
     Max number of different atomic species (ntypx) = 10
     Max number of k-points (npk) =  40000
     Max angular momentum in pseudopotentials (lmaxx) =  3

     Subspace diagonalization in iterative solution of the eigenvalue problem:
     a serial algorithm will be used

 
     Parallelization info
     --------------------
     sticks:   dense  smooth     PW     G-vecs:    dense   smooth      PW
     Min         160     160     48                 5890     5890     938
     Max         162     162     49                 5892     5892     941
     Sum         805     805    241                29455    29455    4697
 


     bravais-lattice index     =            4
     lattice parameter (alat)  =       4.7160  a.u.
     unit-cell volume          =     146.9239 (a.u.)^3
     number of atoms/cell      =            2
     number of atomic types    =            1
     number of electrons       =        34.00
     number of Kohn-Sham states=           21
     kinetic-energy cutoff     =     130.0000  Ry
     charge density cutoff     =     520.0000  Ry
     convergence threshold     =      1.0E-07
     mixing beta               =       0.7000
     number of iterations used =            8  plain     mixing
     Exchange-correlation= PBE
                           (   1   4   3   4   0   0   0)

     celldm(1)=   4.716017  celldm(2)=   0.000000  celldm(3)=   1.617468
     celldm(4)=   0.000000  celldm(5)=   0.000000  celldm(6)=   0.000000

     crystal axes: (cart. coord. in units of alat)
               a(1) = (   1.000000   0.000000   0.000000 )  
               a(2) = (  -0.500000   0.866025   0.000000 )  
               a(3) = (   0.000000   0.000000   1.617468 )  

     reciprocal axes: (cart. coord. in units 2 pi/alat)
               b(1) = (  1.000000  0.577350  0.000000 )  
               b(2) = (  0.000000  1.154701  0.000000 )  
               b(3) = (  0.000000  0.000000  0.618250 )  


     PseudoPot. # 1 for Co read from file:
     /nfs-share/home/1600011702/pseudo/Co.nc.fr.pbe.stringent.upf
     MD5 check sum: 5025e55def73e686899be73cabb26c16
     Pseudo is Norm-conserving + core correction, Zval = 17.0
     Generated using ONCVPSP code by D. R. Hamann
     Using radial grid of 1388 points,  6 beta functions with: 
                l(1) =   0
                l(2) =   0
                l(3) =   1
                l(4) =   1
                l(5) =   2
                l(6) =   2

     atomic species   valence    mass     pseudopotential
        Co            17.00    58.93320     Co( 1.00)

     Starting magnetic structure 
     atomic species   magnetization
        Co           1.000

     24 Sym. Ops., with inversion, found (12 have fractional translation)



   Cartesian axes

     site n.     atom                  positions (alat units)
         1           Co  tau(   1) = (  -0.0000000   0.5773503   0.4043670  )
         2           Co  tau(   2) = (   0.5000000   0.2886751   1.2131010  )

     number of k points=   880  Methfessel-Paxton smearing, width (Ry)=  0.0200

     Number of k-points >= 100: set verbosity='high' to print them.

     Dense  grid:    29455 G-vectors     FFT dimensions: (  36,  36,  60)

     Estimated max dynamical RAM per process >     113.77 MB

     Estimated total dynamical RAM >       2.22 GB
     Generating pointlists ...
     new r_m :   0.4099 (alat units)  1.9330 (a.u.) for type    1

     Initial potential from superposition of free atoms

     starting charge   33.99942, renormalised to   34.00000
     Starting wfcs are   20 randomized atomic wfcs +    1 random wfcs

     total cpu time spent up to now is       25.1 secs

     Self-consistent Calculation

     iteration #  1     ecut=   130.00 Ry     beta= 0.70
     Davidson diagonalization with overlap
     ethr =  1.00E-02,  avg # of iterations =  4.2

     total cpu time spent up to now is      144.4 secs

     total energy              =    -613.85550863 Ry
     estimated scf accuracy    <      11.57288043 Ry

     total magnetization       =     8.00 Bohr mag/cell
     absolute magnetization    =     8.26 Bohr mag/cell

     iteration #  2     ecut=   130.00 Ry     beta= 0.70
     Davidson diagonalization with overlap
     ethr =  1.00E-02,  avg # of iterations =  1.6

     total cpu time spent up to now is      226.3 secs

     total energy              =    -615.46580771 Ry
     estimated scf accuracy    <       2.22654648 Ry

     total magnetization       =     4.67 Bohr mag/cell
     absolute magnetization    =     5.16 Bohr mag/cell

     iteration #  3     ecut=   130.00 Ry     beta= 0.70
     Davidson diagonalization with overlap
     ethr =  6.55E-03,  avg # of iterations =  2.0

     total cpu time spent up to now is      316.0 secs

     total energy              =    -615.46620567 Ry
     estimated scf accuracy    <       1.45659782 Ry

     total magnetization       =     4.01 Bohr mag/cell
     absolute magnetization    =     4.49 Bohr mag/cell

     iteration #  4     ecut=   130.00 Ry     beta= 0.70
     Davidson diagonalization with overlap
     ethr =  4.28E-03,  avg # of iterations =  2.0

     total cpu time spent up to now is      407.0 secs

     total energy              =    -615.81100637 Ry
     estimated scf accuracy    <       0.07383486 Ry

     total magnetization       =     3.30 Bohr mag/cell
     absolute magnetization    =     3.79 Bohr mag/cell

     iteration #  5     ecut=   130.00 Ry     beta= 0.70
     Davidson diagonalization with overlap
     ethr =  2.17E-04,  avg # of iterations =  2.0

     total cpu time spent up to now is      496.2 secs

     total energy              =    -615.82842831 Ry
     estimated scf accuracy    <       0.00176063 Ry

     total magnetization       =     3.27 Bohr mag/cell
     absolute magnetization    =     3.69 Bohr mag/cell

     iteration #  6     ecut=   130.00 Ry     beta= 0.70
     Davidson diagonalization with overlap
     ethr =  5.18E-06,  avg # of iterations =  2.1

     total cpu time spent up to now is      593.4 secs

     total energy              =    -615.82902693 Ry
     estimated scf accuracy    <       0.00025125 Ry

     total magnetization       =     3.24 Bohr mag/cell
     absolute magnetization    =     3.61 Bohr mag/cell

     iteration #  7     ecut=   130.00 Ry     beta= 0.70
     Davidson diagonalization with overlap
     ethr =  7.39E-07,  avg # of iterations =  1.5

     total cpu time spent up to now is      680.6 secs

     total energy              =    -615.82908104 Ry
     estimated scf accuracy    <       0.00000367 Ry

     total magnetization       =     3.24 Bohr mag/cell
     absolute magnetization    =     3.59 Bohr mag/cell

     iteration #  8     ecut=   130.00 Ry     beta= 0.70
     Davidson diagonalization with overlap
     ethr =  1.08E-08,  avg # of iterations =  2.4

     total cpu time spent up to now is      783.6 secs

     total energy              =    -615.82908311 Ry
     estimated scf accuracy    <       0.00000018 Ry

     total magnetization       =     3.24 Bohr mag/cell
     absolute magnetization    =     3.59 Bohr mag/cell

     iteration #  9     ecut=   130.00 Ry     beta= 0.70
     Davidson diagonalization with overlap
     ethr =  5.25E-10,  avg # of iterations =  2.4
 
     Magnetic moment per site:
     atom:    1    charge:   15.5923    magn:    1.6989    constr:    0.0000
     atom:    2    charge:   15.5923    magn:    1.6989    constr:    0.0000

     total cpu time spent up to now is      885.6 secs

     End of self-consistent calculation

     Number of k-points >= 100: set verbosity='high' to print the bands.

     the Fermi energy is    18.9905 ev

!    total energy              =    -615.82908327 Ry
     estimated scf accuracy    <          4.1E-09 Ry
     smearing contrib. (-TS)   =       0.00020454 Ry
     internal energy E=F+TS    =    -615.82928781 Ry

     The total energy is F=E-TS. E is the sum of the following terms:
     one-electron contribution =    -258.55962916 Ry
     hartree contribution      =     154.22183066 Ry
     xc contribution           =    -112.90545523 Ry
     ewald contribution        =    -398.58603407 Ry

     total magnetization       =     3.24 Bohr mag/cell
     absolute magnetization    =     3.59 Bohr mag/cell

     convergence has been achieved in   9 iterations


     Computing stress (Cartesian axis) and pressure

          total   stress  (Ry/bohr**3)                   (kbar)     P=       -0.47
  -0.00000272   0.00000000   0.00000000           -0.40        0.00        0.00
   0.00000000  -0.00000272   0.00000000            0.00       -0.40        0.00
   0.00000000   0.00000000  -0.00000421            0.00        0.00       -0.62


     Writing output data file ./cobalt.save/
 
     init_run     :     15.64s CPU     20.01s WALL (       1 calls)
     electrons    :    703.28s CPU    860.84s WALL (       1 calls)
     stress       :      2.83s CPU      2.97s WALL (       1 calls)

     Called by init_run:
     wfcinit      :     15.54s CPU     19.87s WALL (       1 calls)
     potinit      :      0.03s CPU      0.04s WALL (       1 calls)
     hinit0       :      0.02s CPU      0.02s WALL (       1 calls)

     Called by electrons:
     c_bands      :    675.82s CPU    802.15s WALL (       9 calls)
     sum_band     :     23.05s CPU     52.96s WALL (       9 calls)
     v_of_rho     :      0.82s CPU      0.99s WALL (      10 calls)
     mix_rho      :      2.45s CPU      2.48s WALL (       9 calls)

     Called by c_bands:
     init_us_2    :      1.51s CPU      1.81s WALL (    8800 calls)
     cegterg      :    244.13s CPU    349.14s WALL (    3960 calls)

     Called by sum_band:

     Called by *egterg:
     h_psi        :    115.38s CPU    179.61s WALL (   13444 calls)
     g_psi        :      0.27s CPU      0.29s WALL (    9044 calls)
     cdiaghg      :      9.74s CPU     10.35s WALL (   13004 calls)

     Called by h_psi:
     h_psi:calbec :     41.35s CPU     46.88s WALL (   13444 calls)
     vloc_psi     :     71.75s CPU    130.16s WALL (   13444 calls)
     add_vuspsi   :      1.98s CPU      2.23s WALL (   13444 calls)

     General routines
     calbec       :     41.51s CPU     47.04s WALL (   13884 calls)
     fft          :      0.15s CPU      0.41s WALL (     213 calls)
     ffts         :      0.24s CPU      0.66s WALL (      18 calls)
     fftw         :     84.96s CPU    163.69s WALL (  498716 calls)
 
     Parallel routines
     fft_scatt_xy :      5.74s CPU      9.11s WALL (  498947 calls)
     fft_scatt_yz :     49.36s CPU    108.86s WALL (  498947 calls)
 
     PWSCF        :  12m27.81s CPU  15m41.02s WALL

 
   This run was terminated on:   9:15:28  29Apr2020            

=------------------------------------------------------------------------------=
   JOB DONE.
=------------------------------------------------------------------------------=
