
     Program PWSCF v.6.5 starts on 29Apr2020 at 16:26:21 

     This program is part of the open-source Quantum ESPRESSO suite
     for quantum simulation of materials; please cite
         "P. Giannozzi et al., J. Phys.:Condens. Matter 21 395502 (2009);
         "P. Giannozzi et al., J. Phys.:Condens. Matter 29 465901 (2017);
          URL http://www.quantum-espresso.org", 
     in publications or presentations arising from this work. More details at
     http://www.quantum-espresso.org/quote

     Parallel version (MPI), running on    20 processors

     MPI processes distributed on    10 nodes
     K-points division:     npool     =       4
     R & G space division:  proc/nbgrp/npool/nimage =       5
     Reading input from co7w6.tet.nomag.in

     Current dimensions of program PWSCF are:
     Max number of different atomic species (ntypx) = 10
     Max number of k-points (npk) =  40000
     Max angular momentum in pseudopotentials (lmaxx) =  3
     Message from routine iosys:
     BEWARE: stress calculation with tetrahedra (not recommanded)

     Subspace diagonalization in iterative solution of the eigenvalue problem:
     a serial algorithm will be used

     [opt_tetra]  Optimized tetrahedron method is used.
 
     Parallelization info
     --------------------
     sticks:   dense  smooth     PW     G-vecs:    dense   smooth      PW
     Min        1215    1215    343                45059    45059    6785
     Max        1215    1215    343                45060    45060    6787
     Sum        6075    6075   1715               225297   225297   33927
 


     bravais-lattice index     =            5
     lattice parameter (alat)  =      16.9278  a.u.
     unit-cell volume          =    1124.4230 (a.u.)^3
     number of atoms/cell      =           13
     number of atomic types    =            2
     number of electrons       =       203.00
     number of Kohn-Sham states=          122
     kinetic-energy cutoff     =     130.0000  Ry
     charge density cutoff     =     520.0000  Ry
     convergence threshold     =      1.0E-07
     mixing beta               =       0.7000
     number of iterations used =            8  plain     mixing
     Exchange-correlation= PBE
                           (   1   4   3   4   0   0   0)

     celldm(1)=  16.927783  celldm(2)=   0.000000  celldm(3)=   0.000000
     celldm(4)=   0.859415  celldm(5)=   0.000000  celldm(6)=   0.000000

     crystal axes: (cart. coord. in units of alat)
               a(1) = (   0.265127  -0.153071   0.951986 )  
               a(2) = (   0.000000   0.306142   0.951986 )  
               a(3) = (  -0.265127  -0.153071   0.951986 )  

     reciprocal axes: (cart. coord. in units 2 pi/alat)
               b(1) = (  1.885888 -1.088818  0.350145 )  
               b(2) = (  0.000000  2.177635  0.350145 )  
               b(3) = ( -1.885888 -1.088818  0.350145 )  


     PseudoPot. # 1 for Co read from file:
     /nfs-share/home/1600011702/pseudo/Co.nc.fr.pbe.stringent.upf
     MD5 check sum: 5025e55def73e686899be73cabb26c16
     Pseudo is Norm-conserving + core correction, Zval = 17.0
     Generated using ONCVPSP code by D. R. Hamann
     Using radial grid of 1388 points,  6 beta functions with: 
                l(1) =   0
                l(2) =   0
                l(3) =   1
                l(4) =   1
                l(5) =   2
                l(6) =   2

     PseudoPot. # 2 for W  read from file:
     /nfs-share/home/1600011702/pseudo/W.nc.fr.pbe.stringent.upf
     MD5 check sum: 75b1d432d85d028982bb81b068264ebf
     Pseudo is Norm-conserving + core correction, Zval = 14.0
     Generated using ONCVPSP code by D. R. Hamann
     Using radial grid of 1396 points,  8 beta functions with: 
                l(1) =   0
                l(2) =   0
                l(3) =   1
                l(4) =   1
                l(5) =   2
                l(6) =   2
                l(7) =   3
                l(8) =   3

     atomic species   valence    mass     pseudopotential
        Co            17.00    58.93320     Co( 1.00)
        W             14.00   183.84000     W ( 1.00)

     12 Sym. Ops., with inversion, found



   Cartesian axes

     site n.     atom                  positions (alat units)
         1           Co  tau(   1) = (   0.0000000   0.0000000   0.0000000  )
         2           Co  tau(   2) = (  -0.1324023  -0.0764425   0.7324766  )
         3           Co  tau(   3) = (   0.0000000   0.1528850   0.7324766  )
         4           Co  tau(   4) = (   0.1324023  -0.0764425   0.7324766  )
         5           Co  tau(   5) = (   0.1324023   0.0764425  -0.7324766  )
         6           Co  tau(   6) = (   0.0000000  -0.1528850  -0.7324766  )
         7           Co  tau(   7) = (  -0.1324023   0.0764425  -0.7324766  )
         8           W   tau(   8) = (   0.0000000  -0.0000000   0.4736024  )
         9           W   tau(   9) = (   0.0000000  -0.0000000   0.9899507  )
        10           W   tau(  10) = (   0.0000000  -0.0000000   1.2857316  )
        11           W   tau(  11) = (   0.0000000   0.0000000  -0.4736024  )
        12           W   tau(  12) = (   0.0000000   0.0000000  -0.9899507  )
        13           W   tau(  13) = (   0.0000000   0.0000000  -1.2857316  )

     number of k points=   116 (tetrahedron method)

     Number of k-points >= 100: set verbosity='high' to print them.

     Dense  grid:   225297 G-vectors     FFT dimensions: ( 125, 125, 125)

     Estimated max dynamical RAM per process >     507.57 MB

     Estimated total dynamical RAM >       9.91 GB

     Initial potential from superposition of free atoms

     starting charge  202.99483, renormalised to  203.00000
     Starting wfcs are  130 randomized atomic wfcs

     total cpu time spent up to now is       94.4 secs

     Self-consistent Calculation

     iteration #  1     ecut=   130.00 Ry     beta= 0.70
     Davidson diagonalization with overlap
     ethr =  1.00E-02,  avg # of iterations =  3.4

     total cpu time spent up to now is      385.3 secs

     total energy              =   -3062.21302096 Ry
     estimated scf accuracy    <       6.32664315 Ry

     iteration #  2     ecut=   130.00 Ry     beta= 0.70
     Davidson diagonalization with overlap
     ethr =  3.12E-03,  avg # of iterations =  5.0

     total cpu time spent up to now is      769.6 secs

     total energy              =   -3047.39525578 Ry
     estimated scf accuracy    <     345.69066992 Ry

     iteration #  3     ecut=   130.00 Ry     beta= 0.70
     Davidson diagonalization with overlap
     ethr =  3.12E-03,  avg # of iterations =  6.0

     total cpu time spent up to now is     1214.8 secs

     total energy              =   -3064.59925028 Ry
     estimated scf accuracy    <      46.38322590 Ry

     iteration #  4     ecut=   130.00 Ry     beta= 0.70
     Davidson diagonalization with overlap
     ethr =  3.12E-03,  avg # of iterations =  3.2

     total cpu time spent up to now is     1464.2 secs

     total energy              =   -3066.91731363 Ry
     estimated scf accuracy    <       4.17032121 Ry

     iteration #  5     ecut=   130.00 Ry     beta= 0.70
     Davidson diagonalization with overlap
     ethr =  2.05E-03,  avg # of iterations =  1.1

     total cpu time spent up to now is     1699.6 secs

     total energy              =   -3067.05627287 Ry
     estimated scf accuracy    <       0.29644486 Ry

     iteration #  6     ecut=   130.00 Ry     beta= 0.70
     Davidson diagonalization with overlap
     ethr =  1.46E-04,  avg # of iterations =  6.7

     total cpu time spent up to now is     1992.5 secs

     total energy              =   -3067.07297306 Ry
     estimated scf accuracy    <       0.14513644 Ry

     iteration #  7     ecut=   130.00 Ry     beta= 0.70
     Davidson diagonalization with overlap
     ethr =  7.15E-05,  avg # of iterations =  4.0

     total cpu time spent up to now is     2257.9 secs

     total energy              =   -3067.09270586 Ry
     estimated scf accuracy    <       0.07270927 Ry

     iteration #  8     ecut=   130.00 Ry     beta= 0.70
     Davidson diagonalization with overlap
     ethr =  3.58E-05,  avg # of iterations =  2.0

     total cpu time spent up to now is     2495.8 secs

     total energy              =   -3067.10003094 Ry
     estimated scf accuracy    <       0.00818768 Ry

     iteration #  9     ecut=   130.00 Ry     beta= 0.70
     Davidson diagonalization with overlap
     ethr =  4.03E-06,  avg # of iterations =  4.9

     total cpu time spent up to now is     2778.7 secs

     total energy              =   -3067.10121386 Ry
     estimated scf accuracy    <       0.00071963 Ry

     iteration # 10     ecut=   130.00 Ry     beta= 0.70
     Davidson diagonalization with overlap
     ethr =  3.54E-07,  avg # of iterations =  2.4

     total cpu time spent up to now is     3034.0 secs

     total energy              =   -3067.10125623 Ry
     estimated scf accuracy    <       0.00012968 Ry

     iteration # 11     ecut=   130.00 Ry     beta= 0.70
     Davidson diagonalization with overlap
     ethr =  6.39E-08,  avg # of iterations =  2.3

     total cpu time spent up to now is     3271.3 secs

     total energy              =   -3067.10126878 Ry
     estimated scf accuracy    <       0.00000619 Ry

     iteration # 12     ecut=   130.00 Ry     beta= 0.70
     Davidson diagonalization with overlap
     ethr =  3.05E-09,  avg # of iterations =  3.9

     total cpu time spent up to now is     3573.5 secs

     total energy              =   -3067.10127054 Ry
     estimated scf accuracy    <       0.00000147 Ry

     iteration # 13     ecut=   130.00 Ry     beta= 0.70
     Davidson diagonalization with overlap
     ethr =  7.25E-10,  avg # of iterations =  1.4

     total cpu time spent up to now is     3807.3 secs

     total energy              =   -3067.10127062 Ry
     estimated scf accuracy    <       0.00000085 Ry

     iteration # 14     ecut=   130.00 Ry     beta= 0.70
     Davidson diagonalization with overlap
     ethr =  4.20E-10,  avg # of iterations =  1.1

     total cpu time spent up to now is     4039.3 secs

     total energy              =   -3067.10127062 Ry
     estimated scf accuracy    <       0.00000178 Ry

     iteration # 15     ecut=   130.00 Ry     beta= 0.70
     Davidson diagonalization with overlap
     ethr =  4.20E-10,  avg # of iterations =  1.0

     total cpu time spent up to now is     4274.7 secs

     End of self-consistent calculation

     Number of k-points >= 100: set verbosity='high' to print the bands.

     the Fermi energy is    21.5057 ev

!    total energy              =   -3067.10127066 Ry
     estimated scf accuracy    <       0.00000004 Ry

     The total energy is the sum of the following terms:
     one-electron contribution =   -1179.65407940 Ry
     hartree contribution      =     734.71479422 Ry
     xc contribution           =    -594.31300452 Ry
     ewald contribution        =   -2027.84898097 Ry

     convergence has been achieved in  15 iterations


     Computing stress (Cartesian axis) and pressure

          total   stress  (Ry/bohr**3)                   (kbar)     P=       -3.32
  -0.00003277   0.00000000  -0.00000000           -4.82        0.00       -0.00
   0.00000000  -0.00003277  -0.00000000            0.00       -4.82       -0.00
   0.00000000  -0.00000000  -0.00000210            0.00       -0.00       -0.31


     Writing output data file ./bulk.save/
 
     init_run     :     83.75s CPU     90.07s WALL (       1 calls)
     electrons    :   3867.80s CPU   4180.37s WALL (       1 calls)
     stress       :     69.63s CPU     70.58s WALL (       1 calls)

     Called by init_run:
     wfcinit      :     82.91s CPU     89.11s WALL (       1 calls)
     potinit      :      0.46s CPU      0.52s WALL (       1 calls)
     hinit0       :      0.28s CPU      0.31s WALL (       1 calls)

     Called by electrons:
     c_bands      :   3102.87s CPU   3355.36s WALL (      15 calls)
     sum_band     :    759.80s CPU    818.37s WALL (      15 calls)
     v_of_rho     :      4.31s CPU      4.98s WALL (      16 calls)
     mix_rho      :      0.51s CPU      0.56s WALL (      15 calls)

     Called by c_bands:
     init_us_2    :      8.59s CPU      8.62s WALL (     928 calls)
     cegterg      :   2943.43s CPU   3194.97s WALL (     435 calls)

     Called by sum_band:

     Called by *egterg:
     h_psi        :   2844.73s CPU   3098.14s WALL (    1896 calls)
     g_psi        :      1.47s CPU      1.50s WALL (    1432 calls)
     cdiaghg      :     54.48s CPU     54.77s WALL (    1867 calls)

     Called by h_psi:
     h_psi:calbec :     42.96s CPU     43.48s WALL (    1896 calls)
     vloc_psi     :   2755.18s CPU   3005.38s WALL (    1896 calls)
     add_vuspsi   :     43.19s CPU     43.26s WALL (    1896 calls)

     General routines
     calbec       :     47.36s CPU     47.92s WALL (    1925 calls)
     fft          :      3.00s CPU      3.62s WALL (     174 calls)
     ffts         :      0.23s CPU      0.30s WALL (      15 calls)
     fftw         :   2918.49s CPU   3212.99s WALL (  321128 calls)
 
     Parallel routines
     fft_scatt_xy :    831.35s CPU    834.26s WALL (  321317 calls)
     fft_scatt_yz :    321.75s CPU    600.69s WALL (  321317 calls)
 
     PWSCF        :      1h 7m CPU      1h13m WALL

 
   This run was terminated on:  17:39:29  29Apr2020            

=------------------------------------------------------------------------------=
   JOB DONE.
=------------------------------------------------------------------------------=
