
     Program PWSCF v.6.5 starts on 13Apr2020 at 18:37:44 

     This program is part of the open-source Quantum ESPRESSO suite
     for quantum simulation of materials; please cite
         "P. Giannozzi et al., J. Phys.:Condens. Matter 21 395502 (2009);
         "P. Giannozzi et al., J. Phys.:Condens. Matter 29 465901 (2017);
          URL http://www.quantum-espresso.org", 
     in publications or presentations arising from this work. More details at
     http://www.quantum-espresso.org/quote

     Parallel version (MPI), running on    20 processors

     MPI processes distributed on    10 nodes
     R & G space division:  proc/nbgrp/npool/nimage =      20
     Reading input from nt.scf.in

     Current dimensions of program PWSCF are:
     Max number of different atomic species (ntypx) = 10
     Max number of k-points (npk) =  40000
     Max angular momentum in pseudopotentials (lmaxx) =  3

     gamma-point specific algorithms are used

     Subspace diagonalization in iterative solution of the eigenvalue problem:
     a serial algorithm will be used

 
     Parallelization info
     --------------------
     sticks:   dense  smooth     PW     G-vecs:    dense   smooth      PW
     Min        3926    3926    979               966370   966370  120798
     Max        3930    3930    982               966380   966380  120806
     Sum       78565   78565  19625             19327541 19327541 2416001
 

     Title: 
     nt                                                                         


     bravais-lattice index     =            6
     lattice parameter (alat)  =      45.3534  a.u.
     unit-cell volume          =  108837.1387 (a.u.)^3
     number of atoms/cell      =          252
     number of atomic types    =            2
     number of electrons       =       900.00
     number of Kohn-Sham states=          540
     kinetic-energy cutoff     =     120.0000  Ry
     charge density cutoff     =     480.0000  Ry
     convergence threshold     =      1.0E-05
     mixing beta               =       0.3000
     number of iterations used =            8  plain     mixing
     Exchange-correlation= PBE
                           (   1   4   3   4   0   0   0)

     celldm(1)=  45.353427  celldm(2)=   0.000000  celldm(3)=   1.166667
     celldm(4)=   0.000000  celldm(5)=   0.000000  celldm(6)=   0.000000

     crystal axes: (cart. coord. in units of alat)
               a(1) = (   1.000000   0.000000   0.000000 )  
               a(2) = (   0.000000   1.000000   0.000000 )  
               a(3) = (   0.000000   0.000000   1.166667 )  

     reciprocal axes: (cart. coord. in units 2 pi/alat)
               b(1) = (  1.000000  0.000000  0.000000 )  
               b(2) = (  0.000000  1.000000  0.000000 )  
               b(3) = (  0.000000  0.000000  0.857143 )  


     PseudoPot. # 1 for H  read from file:
     /nfs-share/home/1600011702/pseudo/H.nc.fr.pbe.stringent.upf
     MD5 check sum: 95156ffc763ef7c24633d2a3a64354af
     Pseudo is Norm-conserving, Zval =  1.0
     Generated using ONCVPSP code by D. R. Hamann
     Using radial grid of 1166 points,  3 beta functions with: 
                l(1) =   0
                l(2) =   0
                l(3) =   1

     PseudoPot. # 2 for C  read from file:
     /nfs-share/home/1600011702/pseudo/C.nc.fr.pbe.stringent.upf
     MD5 check sum: d80ec9912146af6c4c1760317d1f95e9
     Pseudo is Norm-conserving + core correction, Zval =  4.0
     Generated using ONCVPSP code by D. R. Hamann
     Using radial grid of 1248 points,  4 beta functions with: 
                l(1) =   0
                l(2) =   0
                l(3) =   1
                l(4) =   1

     atomic species   valence    mass     pseudopotential
        H              1.00     1.00784     H ( 1.00)
        C              4.00    12.01070     C ( 1.00)

     Starting magnetic structure 
     atomic species   magnetization
        H            1.000
        C            1.000

     No symmetry found



   Cartesian axes

     site n.     atom                  positions (alat units)
         1           H   tau(   1) = (   0.0202333   0.2565583   0.6736375  )
         2           H   tau(   2) = (   0.1626333   0.0410000   0.6680500  )
         3           H   tau(   3) = (   0.0328333   0.1972833   0.0448125  )
         4           H   tau(   4) = (   0.3258500   0.0172667   0.6872750  )
         5           H   tau(   5) = (   0.4205833   0.0564917   0.6684375  )
         6           H   tau(   6) = (   0.5361250   0.2875583   0.6744375  )
         7           H   tau(   7) = (   0.5223000   0.1856750   0.6916500  )
         8           H   tau(   8) = (   0.4746333   0.4399500   0.6982375  )
         9           H   tau(   9) = (   0.3937333   0.5031167   0.6800250  )
        10           H   tau(  10) = (   0.1357833   0.4876167   0.6796250  )
        11           H   tau(  11) = (   0.2305167   0.5258167   0.7004750  )
        12           H   tau(  12) = (   0.0340667   0.3574083   0.6961125  )
        13           H   tau(  13) = (   0.0322500   0.1911500   0.6708250  )
        14           H   tau(  14) = (   0.2253333   0.0187083   0.6663500  )
        15           H   tau(  15) = (   0.4712667   0.0996417   0.6684375  )
        16           H   tau(  16) = (   0.5241167   0.3530250   0.6750125  )
        17           H   tau(  17) = (   0.3310333   0.5254667   0.6794875  )
        18           H   tau(  18) = (   0.0851000   0.4445250   0.6774000  )
        19           H   tau(  19) = (   0.0470750   0.3956083   0.0488375  )
        20           H   tau(  20) = (   0.2627583   0.5378833   0.0525250  )
        21           H   tau(  21) = (   0.1637333   0.5125667   0.0320125  )
        22           H   tau(  22) = (   0.4219667   0.4956250   0.0315625  )
        23           H   tau(  23) = (   0.4938583   0.4222917   0.0495125  )
        24           H   tau(  24) = (   0.5092667   0.1644333   0.0428250  )
        25           H   tau(  25) = (   0.5364083   0.2635833   0.0255500  )
        26           H   tau(  26) = (   0.2271583   0.0262333   0.0403625  )
        27           H   tau(  27) = (   0.2935833   0.0221583   0.0391375  )
        28           H   tau(  28) = (   0.0624833   0.1377500   0.0421500  )
        29           H   tau(  29) = (   0.1343750   0.0654500   0.0204125  )
        30           H   tau(  30) = (   0.0199417   0.2974833   0.0264375  )
        31           H   tau(  31) = (   0.0838500   0.4510333   0.0513875  )
        32           H   tau(  32) = (   0.3291833   0.5337417   0.0535250  )
        33           H   tau(  33) = (   0.5235083   0.3627000   0.0490875  )
        34           H   tau(  34) = (   0.4724917   0.1089500   0.0425125  )
        35           H   tau(  35) = (   0.3926083   0.0485000   0.0199750  )
        36           H   tau(  36) = (   0.0817333   0.1031333   0.6895125  )
        37           C   tau(  37) = (   0.3423500   0.0257583   0.1745750  )
        38           C   tau(  38) = (   0.3042417   0.0201583   0.1296875  )
        39           C   tau(  39) = (   0.2462750   0.0164667   0.2973750  )
        40           C   tau(  40) = (   0.2849250   0.0134250   0.3420375  )
        41           C   tau(  41) = (   0.3234250   0.0242750   0.0738750  )
        42           C   tau(  42) = (   0.3790167   0.0410167   0.0631125  )
        43           C   tau(  43) = (   0.4134333   0.0575500   0.1082875  )
        44           C   tau(  44) = (   0.3965583   0.0466083   0.1639250  )
        45           C   tau(  45) = (   0.4295500   0.0656583   0.2091625  )
        46           C   tau(  46) = (   0.3234250   0.0202167   0.2303625  )
        47           C   tau(  47) = (   0.3609167   0.0286417   0.2753125  )
        48           C   tau(  48) = (   0.3423500   0.0217000   0.3310625  )
        49           C   tau(  49) = (   0.5215750   0.1908750   0.0781875  )
        50           C   tau(  50) = (   0.4591667   0.0934583   0.0980375  )
        51           C   tau(  51) = (   0.4847417   0.1213333   0.1435000  )
        52           C   tau(  52) = (   0.4725000   0.1048917   0.1990000  )
        53           C   tau(  53) = (   0.4958333   0.1345917   0.2445125  )
        54           C   tau(  54) = (   0.4134333   0.0534917   0.2647750  )
        55           C   tau(  55) = (   0.4448250   0.0749500   0.3100750  )
        56           C   tau(  56) = (   0.5351167   0.2475167   0.0684750  )
        57           C   tau(  57) = (   0.5370000   0.2850000   0.1141875  )
        58           C   tau(  58) = (   0.5143000   0.1714833   0.1336125  )
        59           C   tau(  59) = (   0.5274917   0.2066917   0.1792625  )
        60           C   tau(  60) = (   0.2655583   0.0162500   0.2414375  )
        61           C   tau(  61) = (   0.5320167   0.2229000   0.2803500  )
        62           C   tau(  62) = (   0.4847417   0.1172750   0.2999875  )
        63           C   tau(  63) = (   0.5057000   0.1486333   0.3455375  )
        64           C   tau(  64) = (   0.0930333   0.0915167   0.3328750  )
        65           C   tau(  65) = (   0.5290083   0.3426917   0.1045000  )
        66           C   tau(  66) = (   0.5166417   0.3781917   0.1501625  )
        67           C   tau(  67) = (   0.5367833   0.2641917   0.1695750  )
        68           C   tau(  68) = (   0.5357750   0.3017083   0.2152875  )
        69           C   tau(  69) = (   0.5370000   0.2809417   0.2706750  )
        70           C   tau(  70) = (   0.5331083   0.3182667   0.3163875  )
        71           C   tau(  71) = (   0.5274917   0.2026333   0.3357500  )
        72           C   tau(  72) = (   0.4763250   0.4457167   0.0848000  )
        73           C   tau(  73) = (   0.4882250   0.4290000   0.1402875  )
        74           C   tau(  74) = (   0.4633167   0.4574417   0.1857750  )
        75           C   tau(  75) = (   0.5235167   0.3586417   0.2055750  )
        76           C   tau(  76) = (   0.5084417   0.3931167   0.2512125  )
        77           C   tau(  77) = (   0.5166500   0.3741333   0.3066500  )
        78           C   tau(  78) = (   0.4989500   0.4073750   0.3522500  )
        79           C   tau(  79) = (   0.1899000   0.0297083   0.3089000  )
        80           C   tau(  80) = (   0.4342750   0.4859083   0.0746625  )
        81           C   tau(  81) = (   0.4017417   0.5057000   0.1199125  )
        82           C   tau(  82) = (   0.4184000   0.4943833   0.1755500  )
        83           C   tau(  83) = (   0.3843917   0.5116833   0.2207375  )
        84           C   tau(  84) = (   0.4763250   0.4416583   0.2412875  )
        85           C   tau(  85) = (   0.4492750   0.4681583   0.2867125  )
        86           C   tau(  86) = (   0.4633167   0.4533833   0.3422625  )
        87           C   tau(  87) = (   0.2329250   0.5339667   0.0870875  )
        88           C   tau(  88) = (   0.3480167   0.5277750   0.1093000  )
        89           C   tau(  89) = (   0.3100750   0.5342333   0.1542125  )
        90           C   tau(  90) = (   0.3291917   0.5296833   0.2100125  )
        91           C   tau(  91) = (   0.2907917   0.5332917   0.2548500  )
        92           C   tau(  92) = (   0.4017417   0.5016417   0.2764000  )
        93           C   tau(  93) = (   0.3664583   0.5163500   0.3215250  )
        94           C   tau(  94) = (   0.1773333   0.5178000   0.0754875  )
        95           C   tau(  95) = (   0.1429167   0.4989500   0.1197375  )
        96           C   tau(  96) = (   0.2521000   0.5351833   0.1430500  )
        97           C   tau(  97) = (   0.2140000   0.5272667   0.1875875  )
        98           C   tau(  98) = (   0.2329250   0.5299083   0.2435750  )
        99           C   tau(  99) = (   0.1954333   0.5191583   0.2880500  )
       100           C   tau( 100) = (   0.3100833   0.5301750   0.3107000  )
       101           C   tau( 101) = (   0.2714250   0.5309000   0.3554625  )
       102           C   tau( 102) = (   0.1546083   0.0467417   0.2646000  )
       103           C   tau( 103) = (   0.0971750   0.4636250   0.1076375  )
       104           C   tau( 104) = (   0.0716083   0.4334250   0.1516000  )
       105           C   tau( 105) = (   0.1597917   0.5069917   0.1758750  )
       106           C   tau( 106) = (   0.1268000   0.4856250   0.2200625  )
       107           C   tau( 107) = (   0.1429167   0.4948917   0.2762250  )
       108           C   tau( 108) = (   0.1115250   0.4711167   0.3203500  )
       109           C   tau( 109) = (   0.2140000   0.5232000   0.3440750  )
       110           C   tau( 110) = (   0.0420500   0.3838583   0.1391250  )
       111           C   tau( 111) = (   0.0838500   0.4469750   0.2078750  )
       112           C   tau( 112) = (   0.0605167   0.4149500   0.2517875  )
       113           C   tau( 113) = (   0.0716083   0.4293667   0.3080875  )
       114           C   tau( 114) = (   0.0506500   0.3956917   0.3519500  )
       115           C   tau( 115) = (   0.1719500   0.0396000   0.2084875  )
       116           C   tau( 116) = (   0.1379500   0.0592167   0.1642625  )
       117           C   tau( 117) = (   0.2462667   0.0205250   0.1408875  )
       118           C   tau( 118) = (   0.2083333   0.0293083   0.0963750  )
       119           C   tau( 119) = (   0.5215750   0.1868167   0.2346750  )
       120           C   tau( 120) = (   0.0574000   0.1369500   0.3452375  )
       121           C   tau( 121) = (   0.0397083   0.1725167   0.3014250  )
       122           C   tau( 122) = (   0.1070750   0.0796417   0.2766500  )
       123           C   tau( 123) = (   0.0800250   0.1084667   0.2326500  )
       124           C   tau( 124) = (   0.0930333   0.0955750   0.1763875  )
       125           C   tau( 125) = (   0.0681250   0.1263417   0.1324500  )
       126           C   tau( 126) = (   0.1546000   0.0508000   0.1081125  )
       127           C   tau( 127) = (   0.0196750   0.2874333   0.6397625  )
       128           C   tau( 128) = (   0.0214750   0.3093167   0.5396625  )
       129           C   tau( 129) = (   0.1220750   0.0729167   0.0639500  )
       130           C   tau( 130) = (   0.0293750   0.3442833   0.6524250  )
       131           C   tau( 131) = (   0.0428333   0.3817167   0.6086500  )
       132           C   tau( 132) = (   0.0354250   0.3652833   0.5523000  )
       133           C   tau( 133) = (   0.0515500   0.4016083   0.5085000  )
       134           C   tau( 134) = (   0.0196667   0.2914917   0.4832750  )
       135           C   tau( 135) = (   0.0247167   0.3310083   0.4395625  )
       136           C   tau( 136) = (   0.0214750   0.3133750   0.3831750  )
       137           C   tau( 137) = (   0.1614667   0.5039917   0.6453750  )
       138           C   tau( 138) = (   0.0727500   0.4310750   0.6211250  )
       139           C   tau( 139) = (   0.0985333   0.4610833   0.5771625  )
       140           C   tau( 140) = (   0.0851000   0.4485917   0.5209125  )
       141           C   tau( 141) = (   0.1129667   0.4765917   0.4768875  )
       142           C   tau( 142) = (   0.0428333   0.3857750   0.4521625  )
       143           C   tau( 143) = (   0.0615417   0.4207917   0.4083375  )
       144           C   tau( 144) = (   0.2158250   0.5238750   0.6570750  )
       145           C   tau( 145) = (   0.2539750   0.5315167   0.6125375  )
       146           C   tau( 146) = (   0.1445250   0.4960833   0.5892500  )
       147           C   tau( 147) = (   0.1790667   0.5146750   0.5449875  )
       148           C   tau( 148) = (   0.1614667   0.5080583   0.4888875  )
       149           C   tau( 149) = (   0.1972167   0.5240250   0.4445625  )
       150           C   tau( 150) = (   0.0985250   0.4651417   0.4206750  )
       151           C   tau( 151) = (   0.1283250   0.4909833   0.3766000  )
       152           C   tau( 152) = (   0.0232417   0.2278000   0.3140500  )
       153           C   tau( 153) = (   0.3119417   0.5301583   0.6236875  )
       154           C   tau( 154) = (   0.3498250   0.5234167   0.5787750  )
       155           C   tau( 155) = (   0.2347750   0.5304417   0.5565875  )
       156           C   tau( 156) = (   0.2733000   0.5352167   0.5119625  )
       157           C   tau( 157) = (   0.2539667   0.5355833   0.4560500  )
       158           C   tau( 158) = (   0.2926583   0.5374667   0.4113625  )
       159           C   tau( 159) = (   0.1790583   0.5187417   0.3885000  )
       160           C   tau( 160) = (   0.4199833   0.4895167   0.6450000  )
       161           C   tau( 161) = (   0.4033917   0.5009583   0.5893750  )
       162           C   tau( 162) = (   0.4357667   0.4809333   0.5441125  )
       163           C   tau( 163) = (   0.3310333   0.5295250   0.5230000  )
       164           C   tau( 164) = (   0.3682167   0.5199833   0.4780125  )
       165           C   tau( 165) = (   0.3498250   0.5274750   0.4222875  )
       166           C   tau( 166) = (   0.3861000   0.5151833   0.3772250  )
       167           C   tau( 167) = (   0.0193500   0.2674417   0.2703375  )
       168           C   tau( 168) = (   0.4646333   0.4522583   0.6552125  )
       169           C   tau( 169) = (   0.4893250   0.4236333   0.6097375  )
       170           C   tau( 170) = (   0.4775333   0.4404333   0.5542500  )
       171           C   tau( 171) = (   0.4999250   0.4100500   0.5087125  )
       172           C   tau( 172) = (   0.4199750   0.4935750   0.4885125  )
       173           C   tau( 173) = (   0.4506833   0.4711917   0.4431875  )
       174           C   tau( 174) = (   0.4357667   0.4849917   0.3876250  )
       175           C   tau( 175) = (   0.5366917   0.2584750   0.6390000  )
       176           C   tau( 176) = (   0.5173750   0.3726167   0.6196000  )
       177           C   tau( 177) = (   0.5294750   0.3370333   0.5739375  )
       178           C   tau( 178) = (   0.5241083   0.3570833   0.5185250  )
       179           C   tau( 179) = (   0.5334333   0.3206917   0.4728375  )
       180           C   tau( 180) = (   0.4893167   0.4276917   0.4532500  )
       181           C   tau( 181) = (   0.5092917   0.3957167   0.4076750  )
       182           C   tau( 182) = (   0.5269917   0.2010500   0.6487000  )
       183           C   tau( 183) = (   0.5135333   0.1659333   0.6030500  )
       184           C   tau( 184) = (   0.5370500   0.2792833   0.5836125  )
       185           C   tau( 185) = (   0.5348833   0.2418167   0.5379000  )
       186           C   tau( 186) = (   0.5366917   0.2625417   0.4825125  )
       187           C   tau( 187) = (   0.5316417   0.2253417   0.4368125  )
       188           C   tau( 188) = (   0.5294750   0.3410917   0.4174500  )
       189           C   tau( 189) = (   0.5359583   0.3041167   0.3717500  )
       190           C   tau( 190) = (   0.0479083   0.1564333   0.2450750  )
       191           C   tau( 191) = (   0.4836167   0.1160000   0.6129375  )
       192           C   tau( 192) = (   0.4578333   0.0883083   0.5674750  )
       193           C   tau( 193) = (   0.5209333   0.1852667   0.5476250  )
       194           C   tau( 194) = (   0.5048083   0.1512667   0.5020000  )
       195           C   tau( 195) = (   0.5135250   0.1699917   0.4465625  )
       196           C   tau( 196) = (   0.4948167   0.1372917   0.4009750  )
       197           C   tau( 197) = (   0.5348833   0.2458750   0.3814125  )
       198           C   tau( 198) = (   0.3948917   0.0419167   0.6333875  )
       199           C   tau( 199) = (   0.4118417   0.0527333   0.5777500  )
       200           C   tau( 200) = (   0.3772917   0.0364500   0.5325875  )
       201           C   tau( 201) = (   0.4712583   0.1037000   0.5119500  )
       202           C   tau( 202) = (   0.4433917   0.0780167   0.4665500  )
       203           C   tau( 203) = (   0.4578250   0.0923667   0.4109875  )
       204           C   tau( 204) = (   0.4280333   0.0688417   0.3656375  )
       205           C   tau( 205) = (   0.0328333   0.1932167   0.2013000  )
       206           C   tau( 206) = (   0.3405417   0.0214583   0.6440500  )
       207           C   tau( 207) = (   0.3023917   0.0161333   0.5991625  )
       208           C   tau( 208) = (   0.3215833   0.0201083   0.5433375  )
       209           C   tau( 209) = (   0.2830583   0.0176500   0.4985375  )
       210           C   tau( 210) = (   0.3948917   0.0459750   0.4769000  )
       211           C   tau( 211) = (   0.3591417   0.0323250   0.4318125  )
       212           C   tau( 212) = (   0.3772917   0.0405083   0.3760875  )
       213           C   tau( 213) = (   0.1363833   0.0563917   0.6337750  )
       214           C   tau( 214) = (   0.2444250   0.0169167   0.6103750  )
       215           C   tau( 215) = (   0.2065417   0.0259750   0.5658625  )
       216           C   tau( 216) = (   0.2253333   0.0227667   0.5098625  )
       217           C   tau( 217) = (   0.1881417   0.0346333   0.4654250  )
       218           C   tau( 218) = (   0.3023833   0.0201917   0.4426750  )
       219           C   tau( 219) = (   0.2636917   0.0206250   0.3979500  )
       220           C   tau( 220) = (   0.0917333   0.0930750   0.6459125  )
       221           C   tau( 221) = (   0.0670417   0.1240167   0.6019750  )
       222           C   tau( 222) = (   0.1529667   0.0478583   0.5776250  )
       223           C   tau( 223) = (   0.1205917   0.0702000   0.5334625  )
       224           C   tau( 224) = (   0.1363833   0.0604500   0.4772875  )
       225           C   tau( 225) = (   0.1056750   0.0851583   0.4331875  )
       226           C   tau( 226) = (   0.2065333   0.0300333   0.4093750  )
       227           C   tau( 227) = (   0.1702500   0.0446417   0.3650250  )
       228           C   tau( 228) = (   0.0397000   0.1765750   0.1449375  )
       229           C   tau( 229) = (   0.0389917   0.1744500   0.6144625  )
       230           C   tau( 230) = (   0.0268833   0.2123583   0.5707125  )
       231           C   tau( 231) = (   0.0788250   0.1101167   0.5456875  )
       232           C   tau( 232) = (   0.0564333   0.1428250   0.5017875  )
       233           C   tau( 233) = (   0.0670417   0.1280833   0.4454875  )
       234           C   tau( 234) = (   0.0470583   0.1623750   0.4016250  )
       235           C   tau( 235) = (   0.1205917   0.0742583   0.3769750  )
       236           C   tau( 236) = (   0.0193083   0.2695333   0.5833750  )
       237           C   tau( 237) = (   0.0322500   0.1952083   0.5143375  )
       238           C   tau( 238) = (   0.0229250   0.2339167   0.4706000  )
       239           C   tau( 239) = (   0.0268833   0.2164167   0.4142250  )
       240           C   tau( 240) = (   0.0204000   0.2557167   0.3705000  )
       241           C   tau( 241) = (   0.0273333   0.2143917   0.1011750  )
       242           C   tau( 242) = (   0.0800167   0.1125250   0.0761625  )
       243           C   tau( 243) = (   0.0288583   0.3422667   0.3393875  )
       244           C   tau( 244) = (   0.0243333   0.3249000   0.2830125  )
       245           C   tau( 245) = (   0.0347750   0.3633083   0.2392625  )
       246           C   tau( 246) = (   0.0205750   0.2495750   0.2139375  )
       247           C   tau( 247) = (   0.0195667   0.2894083   0.1702375  )
       248           C   tau( 248) = (   0.0193417   0.2715083   0.1138500  )
       249           C   tau( 249) = (   0.0212333   0.3113000   0.0701375  )
       250           C   tau( 250) = (   0.2271583   0.0221750   0.1968500  )
       251           C   tau( 251) = (   0.0288583   0.3463333   0.1829000  )
       252           C   tau( 252) = (   0.0347750   0.3673667   0.0827750  )

     number of k points=     1  Methfessel-Paxton smearing, width (Ry)=  0.0100
                       cart. coord. in units 2pi/alat
        k(    1) = (   0.0000000   0.0000000   0.0000000), wk =   1.0000000

     Dense  grid:  9663771 G-vectors     FFT dimensions: ( 320, 320, 375)

     Estimated max dynamical RAM per process >       7.74 GB

     Estimated total dynamical RAM >     154.80 GB
     Generating pointlists ...
     new r_m :   0.0189 (alat units)  0.8573 (a.u.) for type    1
     new r_m :   0.0189 (alat units)  0.8573 (a.u.) for type    2

     Initial potential from superposition of free atoms

     starting charge  899.99002, renormalised to  900.00000
     Starting wfcs are  900 randomized atomic wfcs

     total cpu time spent up to now is      428.2 secs

     Self-consistent Calculation

     iteration #  1     ecut=   120.00 Ry     beta= 0.30
     Davidson diagonalization with overlap
     ethr =  1.00E-02,  avg # of iterations =  7.0

     total cpu time spent up to now is     1669.4 secs

     total energy              =   -2524.79614455 Ry
     estimated scf accuracy    <      83.02670309 Ry

     total magnetization       =   180.00 Bohr mag/cell
     absolute magnetization    =   232.62 Bohr mag/cell

     iteration #  2     ecut=   120.00 Ry     beta= 0.30
     Davidson diagonalization with overlap
     ethr =  9.23E-03,  avg # of iterations =  4.0

     total cpu time spent up to now is     2421.0 secs

     total energy              =   -2590.58656122 Ry
     estimated scf accuracy    <      46.43929685 Ry

     total magnetization       =    94.47 Bohr mag/cell
     absolute magnetization    =    96.65 Bohr mag/cell

     iteration #  3     ecut=   120.00 Ry     beta= 0.30
     Davidson diagonalization with overlap
     ethr =  5.16E-03,  avg # of iterations =  5.0

     total cpu time spent up to now is     3140.7 secs

     total energy              =   -2613.92546682 Ry
     estimated scf accuracy    <      43.57974857 Ry

     total magnetization       =    61.43 Bohr mag/cell
     absolute magnetization    =    65.31 Bohr mag/cell

     iteration #  4     ecut=   120.00 Ry     beta= 0.30
     Davidson diagonalization with overlap
     ethr =  4.84E-03,  avg # of iterations =  2.0

     total cpu time spent up to now is     3762.1 secs

     total energy              =   -2632.79629705 Ry
     estimated scf accuracy    <       8.97670519 Ry

     total magnetization       =    36.63 Bohr mag/cell
     absolute magnetization    =    41.20 Bohr mag/cell

     iteration #  5     ecut=   120.00 Ry     beta= 0.30
     Davidson diagonalization with overlap
     ethr =  9.97E-04,  avg # of iterations =  9.0

     total cpu time spent up to now is     4553.0 secs

     total energy              =   -2636.67173090 Ry
     estimated scf accuracy    <      11.77033870 Ry

     total magnetization       =    19.93 Bohr mag/cell
     absolute magnetization    =    24.34 Bohr mag/cell

     iteration #  6     ecut=   120.00 Ry     beta= 0.30
     Davidson diagonalization with overlap
     ethr =  9.97E-04,  avg # of iterations =  7.0

     total cpu time spent up to now is     5226.7 secs

     total energy              =   -2641.14254250 Ry
     estimated scf accuracy    <       1.86092938 Ry

     total magnetization       =     6.48 Bohr mag/cell
     absolute magnetization    =    12.62 Bohr mag/cell

     iteration #  7     ecut=   120.00 Ry     beta= 0.30
     Davidson diagonalization with overlap
     ethr =  2.07E-04,  avg # of iterations = 11.0

     total cpu time spent up to now is     6046.9 secs

     total energy              =   -2641.66763109 Ry
     estimated scf accuracy    <       0.37202313 Ry

     total magnetization       =     2.40 Bohr mag/cell
     absolute magnetization    =     7.33 Bohr mag/cell

     iteration #  8     ecut=   120.00 Ry     beta= 0.30
     Davidson diagonalization with overlap
     ethr =  4.13E-05,  avg # of iterations = 11.0

     total cpu time spent up to now is     6827.4 secs

     total energy              =   -2641.78984260 Ry
     estimated scf accuracy    <       0.11560196 Ry

     total magnetization       =     1.98 Bohr mag/cell
     absolute magnetization    =     5.38 Bohr mag/cell

     iteration #  9     ecut=   120.00 Ry     beta= 0.30
     Davidson diagonalization with overlap
     ethr =  1.28E-05,  avg # of iterations = 14.5

     total cpu time spent up to now is     7601.9 secs

     total energy              =   -2641.82489110 Ry
     estimated scf accuracy    <       0.02508089 Ry

     total magnetization       =     1.74 Bohr mag/cell
     absolute magnetization    =     4.39 Bohr mag/cell

     iteration # 10     ecut=   120.00 Ry     beta= 0.30
     Davidson diagonalization with overlap
     ethr =  2.79E-06,  avg # of iterations = 11.0

     total cpu time spent up to now is     8471.2 secs

     total energy              =   -2641.83801818 Ry
     estimated scf accuracy    <       0.00914446 Ry

     total magnetization       =     1.34 Bohr mag/cell
     absolute magnetization    =     3.56 Bohr mag/cell

     iteration # 11     ecut=   120.00 Ry     beta= 0.30
     Davidson diagonalization with overlap
     ethr =  1.02E-06,  avg # of iterations =  6.0

     total cpu time spent up to now is     9139.4 secs

     total energy              =   -2641.84382481 Ry
     estimated scf accuracy    <       0.00441552 Ry

     total magnetization       =     1.05 Bohr mag/cell
     absolute magnetization    =     3.11 Bohr mag/cell

     iteration # 12     ecut=   120.00 Ry     beta= 0.30
     Davidson diagonalization with overlap
     ethr =  4.91E-07,  avg # of iterations =  6.5

     total cpu time spent up to now is     9847.4 secs

     total energy              =   -2641.84722696 Ry
     estimated scf accuracy    <       0.00333711 Ry

     total magnetization       =     0.82 Bohr mag/cell
     absolute magnetization    =     2.68 Bohr mag/cell

     iteration # 13     ecut=   120.00 Ry     beta= 0.30
     Davidson diagonalization with overlap
     c_bands:  3 eigenvalues not converged
     ethr =  3.71E-07,  avg # of iterations = 14.5

     total cpu time spent up to now is    10567.9 secs

     total energy              =   -2641.84916334 Ry
     estimated scf accuracy    <       0.00062867 Ry

     total magnetization       =     0.64 Bohr mag/cell
     absolute magnetization    =     2.32 Bohr mag/cell

     iteration # 14     ecut=   120.00 Ry     beta= 0.30
     Davidson diagonalization with overlap
     c_bands:  2 eigenvalues not converged
     ethr =  6.99E-08,  avg # of iterations = 13.0

     total cpu time spent up to now is    11526.5 secs

     total energy              =   -2641.85010669 Ry
     estimated scf accuracy    <       0.00022531 Ry

     total magnetization       =     0.46 Bohr mag/cell
     absolute magnetization    =     1.87 Bohr mag/cell

     iteration # 15     ecut=   120.00 Ry     beta= 0.30
     Davidson diagonalization with overlap
     ethr =  2.50E-08,  avg # of iterations =  5.5

     total cpu time spent up to now is    12362.4 secs

     total energy              =   -2641.85052410 Ry
     estimated scf accuracy    <       0.00012196 Ry

     total magnetization       =     0.36 Bohr mag/cell
     absolute magnetization    =     1.58 Bohr mag/cell

     iteration # 16     ecut=   120.00 Ry     beta= 0.30
     Davidson diagonalization with overlap
     ethr =  1.36E-08,  avg # of iterations =  3.5

     total cpu time spent up to now is    13202.9 secs

     total energy              =   -2641.85081677 Ry
     estimated scf accuracy    <       0.00007786 Ry

     total magnetization       =     0.28 Bohr mag/cell
     absolute magnetization    =     1.33 Bohr mag/cell

     iteration # 17     ecut=   120.00 Ry     beta= 0.30
     Davidson diagonalization with overlap
     ethr =  8.65E-09,  avg # of iterations =  3.0

     total cpu time spent up to now is    14076.9 secs

     total energy              =   -2641.85102030 Ry
     estimated scf accuracy    <       0.00004846 Ry

     total magnetization       =     0.21 Bohr mag/cell
     absolute magnetization    =     1.08 Bohr mag/cell

     iteration # 18     ecut=   120.00 Ry     beta= 0.30
     Davidson diagonalization with overlap
     ethr =  5.38E-09,  avg # of iterations = 12.5

     total cpu time spent up to now is    15132.7 secs

     total energy              =   -2641.85125051 Ry
     estimated scf accuracy    <       0.00001786 Ry

     total magnetization       =     0.11 Bohr mag/cell
     absolute magnetization    =     0.64 Bohr mag/cell

     iteration # 19     ecut=   120.00 Ry     beta= 0.30
     Davidson diagonalization with overlap
     ethr =  1.98E-09,  avg # of iterations =  4.0
 
     Magnetic moment per site:
     atom:    1    charge:    0.5003    magn:    0.0001    constr:    0.0000
     atom:    2    charge:    0.4997    magn:    0.0001    constr:    0.0000
     atom:    3    charge:    0.3567    magn:   -0.0002    constr:    0.0000
     atom:    4    charge:    0.4961    magn:   -0.0000    constr:    0.0000
     atom:    5    charge:    0.5000    magn:    0.0001    constr:    0.0000
     atom:    6    charge:    0.4998    magn:    0.0001    constr:    0.0000
     atom:    7    charge:    0.4954    magn:   -0.0001    constr:    0.0000
     atom:    8    charge:    0.4956    magn:   -0.0001    constr:    0.0000
     atom:    9    charge:    0.4998    magn:    0.0001    constr:    0.0000
     atom:   10    charge:    0.5003    magn:    0.0001    constr:    0.0000
     atom:   11    charge:    0.4952    magn:   -0.0000    constr:    0.0000
     atom:   12    charge:    0.4958    magn:   -0.0000    constr:    0.0000
     atom:   13    charge:    0.3565    magn:   -0.0002    constr:    0.0000
     atom:   14    charge:    0.3560    magn:   -0.0002    constr:    0.0000
     atom:   15    charge:    0.3561    magn:   -0.0003    constr:    0.0000
     atom:   16    charge:    0.3561    magn:   -0.0003    constr:    0.0000
     atom:   17    charge:    0.3563    magn:   -0.0003    constr:    0.0000
     atom:   18    charge:    0.3564    magn:   -0.0002    constr:    0.0000
     atom:   19    charge:    0.4999    magn:    0.0001    constr:    0.0000
     atom:   20    charge:    0.4995    magn:    0.0001    constr:    0.0000
     atom:   21    charge:    0.4960    magn:   -0.0000    constr:    0.0000
     atom:   22    charge:    0.4956    magn:   -0.0000    constr:    0.0000
     atom:   23    charge:    0.4993    magn:    0.0001    constr:    0.0000
     atom:   24    charge:    0.4998    magn:    0.0001    constr:    0.0000
     atom:   25    charge:    0.4958    magn:   -0.0001    constr:    0.0000
     atom:   26    charge:    0.3564    magn:   -0.0002    constr:    0.0000
     atom:   27    charge:    0.4997    magn:    0.0001    constr:    0.0000
     atom:   28    charge:    0.4999    magn:    0.0001    constr:    0.0000
     atom:   29    charge:    0.4958    magn:   -0.0000    constr:    0.0000
     atom:   30    charge:    0.4959    magn:   -0.0000    constr:    0.0000
     atom:   31    charge:    0.3565    magn:   -0.0002    constr:    0.0000
     atom:   32    charge:    0.3565    magn:   -0.0002    constr:    0.0000
     atom:   33    charge:    0.3563    magn:   -0.0002    constr:    0.0000
     atom:   34    charge:    0.3563    magn:   -0.0003    constr:    0.0000
     atom:   35    charge:    0.4958    magn:   -0.0000    constr:    0.0000
     atom:   36    charge:    0.4958    magn:   -0.0000    constr:    0.0000
     atom:   37    charge:    0.8802    magn:   -0.0005    constr:    0.0000
     atom:   38    charge:    0.8788    magn:    0.0009    constr:    0.0000
     atom:   39    charge:    0.8794    magn:    0.0002    constr:    0.0000
     atom:   40    charge:    0.8740    magn:   -0.0000    constr:    0.0000
     atom:   41    charge:    0.8647    magn:   -0.0009    constr:    0.0000
     atom:   42    charge:    0.8635    magn:    0.0009    constr:    0.0000
     atom:   43    charge:    0.8756    magn:   -0.0006    constr:    0.0000
     atom:   44    charge:    0.8801    magn:    0.0005    constr:    0.0000
     atom:   45    charge:    0.8802    magn:   -0.0004    constr:    0.0000
     atom:   46    charge:    0.8819    magn:    0.0003    constr:    0.0000
     atom:   47    charge:    0.8807    magn:   -0.0002    constr:    0.0000
     atom:   48    charge:    0.8759    magn:    0.0000    constr:    0.0000
     atom:   49    charge:    0.8639    magn:   -0.0009    constr:    0.0000
     atom:   50    charge:    0.8331    magn:    0.0013    constr:    0.0000
     atom:   51    charge:    0.8768    magn:   -0.0007    constr:    0.0000
     atom:   52    charge:    0.8805    magn:    0.0004    constr:    0.0000
     atom:   53    charge:    0.8806    magn:   -0.0003    constr:    0.0000
     atom:   54    charge:    0.8798    magn:    0.0003    constr:    0.0000
     atom:   55    charge:    0.8854    magn:   -0.0001    constr:    0.0000
     atom:   56    charge:    0.8629    magn:    0.0009    constr:    0.0000
     atom:   57    charge:    0.8754    magn:   -0.0006    constr:    0.0000
     atom:   58    charge:    0.8791    magn:    0.0010    constr:    0.0000
     atom:   59    charge:    0.8800    magn:   -0.0005    constr:    0.0000
     atom:   60    charge:    0.8803    magn:   -0.0003    constr:    0.0000
     atom:   61    charge:    0.8806    magn:   -0.0002    constr:    0.0000
     atom:   62    charge:    0.8809    magn:    0.0001    constr:    0.0000
     atom:   63    charge:    0.8891    magn:   -0.0000    constr:    0.0000
     atom:   64    charge:    0.9090    magn:    0.0001    constr:    0.0000
     atom:   65    charge:    0.8330    magn:    0.0013    constr:    0.0000
     atom:   66    charge:    0.8781    magn:   -0.0007    constr:    0.0000
     atom:   67    charge:    0.8809    magn:    0.0005    constr:    0.0000
     atom:   68    charge:    0.8802    magn:   -0.0004    constr:    0.0000
     atom:   69    charge:    0.8791    magn:    0.0002    constr:    0.0000
     atom:   70    charge:    0.8922    magn:   -0.0001    constr:    0.0000
     atom:   71    charge:    0.8609    magn:   -0.0000    constr:    0.0000
     atom:   72    charge:    0.8651    magn:   -0.0009    constr:    0.0000
     atom:   73    charge:    0.8789    magn:    0.0010    constr:    0.0000
     atom:   74    charge:    0.8798    magn:   -0.0005    constr:    0.0000
     atom:   75    charge:    0.8806    magn:    0.0004    constr:    0.0000
     atom:   76    charge:    0.8801    magn:   -0.0003    constr:    0.0000
     atom:   77    charge:    0.8812    magn:    0.0001    constr:    0.0000
     atom:   78    charge:    0.8899    magn:   -0.0000    constr:    0.0000
     atom:   79    charge:    0.8689    magn:   -0.0002    constr:    0.0000
     atom:   80    charge:    0.8631    magn:    0.0008    constr:    0.0000
     atom:   81    charge:    0.8761    magn:   -0.0006    constr:    0.0000
     atom:   82    charge:    0.8805    magn:    0.0005    constr:    0.0000
     atom:   83    charge:    0.8793    magn:   -0.0004    constr:    0.0000
     atom:   84    charge:    0.8808    magn:    0.0003    constr:    0.0000
     atom:   85    charge:    0.8801    magn:   -0.0002    constr:    0.0000
     atom:   86    charge:    0.8676    magn:   -0.0000    constr:    0.0000
     atom:   87    charge:    0.8654    magn:   -0.0008    constr:    0.0000
     atom:   88    charge:    0.8331    magn:    0.0012    constr:    0.0000
     atom:   89    charge:    0.8779    magn:   -0.0007    constr:    0.0000
     atom:   90    charge:    0.8803    magn:    0.0004    constr:    0.0000
     atom:   91    charge:    0.8800    magn:   -0.0003    constr:    0.0000
     atom:   92    charge:    0.8811    magn:    0.0003    constr:    0.0000
     atom:   93    charge:    0.8812    magn:   -0.0002    constr:    0.0000
     atom:   94    charge:    0.8632    magn:    0.0008    constr:    0.0000
     atom:   95    charge:    0.8755    magn:   -0.0005    constr:    0.0000
     atom:   96    charge:    0.8794    magn:    0.0009    constr:    0.0000
     atom:   97    charge:    0.8798    magn:   -0.0005    constr:    0.0000
     atom:   98    charge:    0.8803    magn:    0.0003    constr:    0.0000
     atom:   99    charge:    0.8811    magn:   -0.0002    constr:    0.0000
     atom:  100    charge:    0.8812    magn:    0.0001    constr:    0.0000
     atom:  101    charge:    0.8757    magn:   -0.0001    constr:    0.0000
     atom:  102    charge:    0.8805    magn:    0.0003    constr:    0.0000
     atom:  103    charge:    0.8334    magn:    0.0011    constr:    0.0000
     atom:  104    charge:    0.8782    magn:   -0.0006    constr:    0.0000
     atom:  105    charge:    0.8804    magn:    0.0005    constr:    0.0000
     atom:  106    charge:    0.8806    magn:   -0.0004    constr:    0.0000
     atom:  107    charge:    0.8808    magn:    0.0003    constr:    0.0000
     atom:  108    charge:    0.8675    magn:   -0.0002    constr:    0.0000
     atom:  109    charge:    0.8955    magn:    0.0000    constr:    0.0000
     atom:  110    charge:    0.8789    magn:    0.0008    constr:    0.0000
     atom:  111    charge:    0.8793    magn:    0.0003    constr:    0.0000
     atom:  112    charge:    0.8807    magn:   -0.0003    constr:    0.0000
     atom:  113    charge:    0.8799    magn:    0.0002    constr:    0.0000
     atom:  114    charge:    0.8664    magn:   -0.0001    constr:    0.0000
     atom:  115    charge:    0.8799    magn:   -0.0004    constr:    0.0000
     atom:  116    charge:    0.8795    magn:    0.0005    constr:    0.0000
     atom:  117    charge:    0.8777    magn:   -0.0007    constr:    0.0000
     atom:  118    charge:    0.8338    magn:    0.0012    constr:    0.0000
     atom:  119    charge:    0.8811    magn:    0.0003    constr:    0.0000
     atom:  120    charge:    0.8650    magn:   -0.0001    constr:    0.0000
     atom:  121    charge:    0.8791    magn:    0.0002    constr:    0.0000
     atom:  122    charge:    0.8806    magn:   -0.0002    constr:    0.0000
     atom:  123    charge:    0.8801    magn:    0.0003    constr:    0.0000
     atom:  124    charge:    0.8798    magn:   -0.0005    constr:    0.0000
     atom:  125    charge:    0.8793    magn:    0.0009    constr:    0.0000
     atom:  126    charge:    0.8753    magn:   -0.0006    constr:    0.0000
     atom:  127    charge:    0.8655    magn:   -0.0008    constr:    0.0000
     atom:  128    charge:    0.8802    magn:   -0.0005    constr:    0.0000
     atom:  129    charge:    0.8637    magn:    0.0008    constr:    0.0000
     atom:  130    charge:    0.8632    magn:    0.0008    constr:    0.0000
     atom:  131    charge:    0.8758    magn:   -0.0005    constr:    0.0000
     atom:  132    charge:    0.8806    magn:    0.0005    constr:    0.0000
     atom:  133    charge:    0.8805    magn:   -0.0004    constr:    0.0000
     atom:  134    charge:    0.8799    magn:    0.0003    constr:    0.0000
     atom:  135    charge:    0.8799    magn:   -0.0003    constr:    0.0000
     atom:  136    charge:    0.9243    magn:    0.0001    constr:    0.0000
     atom:  137    charge:    0.8648    magn:   -0.0009    constr:    0.0000
     atom:  138    charge:    0.8333    magn:    0.0012    constr:    0.0000
     atom:  139    charge:    0.8777    magn:   -0.0007    constr:    0.0000
     atom:  140    charge:    0.8804    magn:    0.0004    constr:    0.0000
     atom:  141    charge:    0.8804    magn:   -0.0003    constr:    0.0000
     atom:  142    charge:    0.8805    magn:    0.0003    constr:    0.0000
     atom:  143    charge:    0.8636    magn:   -0.0002    constr:    0.0000
     atom:  144    charge:    0.8631    magn:    0.0009    constr:    0.0000
     atom:  145    charge:    0.8752    magn:   -0.0006    constr:    0.0000
     atom:  146    charge:    0.8789    magn:    0.0010    constr:    0.0000
     atom:  147    charge:    0.8802    magn:   -0.0005    constr:    0.0000
     atom:  148    charge:    0.8807    magn:    0.0003    constr:    0.0000
     atom:  149    charge:    0.8797    magn:   -0.0002    constr:    0.0000
     atom:  150    charge:    0.8791    magn:    0.0002    constr:    0.0000
     atom:  151    charge:    0.8659    magn:   -0.0001    constr:    0.0000
     atom:  152    charge:    0.8624    magn:   -0.0002    constr:    0.0000
     atom:  153    charge:    0.8333    magn:    0.0014    constr:    0.0000
     atom:  154    charge:    0.8776    magn:   -0.0007    constr:    0.0000
     atom:  155    charge:    0.8795    magn:    0.0005    constr:    0.0000
     atom:  156    charge:    0.8806    magn:   -0.0004    constr:    0.0000
     atom:  157    charge:    0.8804    magn:    0.0003    constr:    0.0000
     atom:  158    charge:    0.8750    magn:   -0.0002    constr:    0.0000
     atom:  159    charge:    0.8942    magn:    0.0001    constr:    0.0000
     atom:  160    charge:    0.8649    magn:   -0.0009    constr:    0.0000
     atom:  161    charge:    0.8793    magn:    0.0010    constr:    0.0000
     atom:  162    charge:    0.8801    magn:   -0.0005    constr:    0.0000
     atom:  163    charge:    0.8802    magn:    0.0004    constr:    0.0000
     atom:  164    charge:    0.8805    magn:   -0.0003    constr:    0.0000
     atom:  165    charge:    0.8794    magn:    0.0002    constr:    0.0000
     atom:  166    charge:    0.8802    magn:   -0.0000    constr:    0.0000
     atom:  167    charge:    0.8808    magn:    0.0003    constr:    0.0000
     atom:  168    charge:    0.8631    magn:    0.0009    constr:    0.0000
     atom:  169    charge:    0.8766    magn:   -0.0007    constr:    0.0000
     atom:  170    charge:    0.8795    magn:    0.0006    constr:    0.0000
     atom:  171    charge:    0.8801    magn:   -0.0004    constr:    0.0000
     atom:  172    charge:    0.8807    magn:    0.0003    constr:    0.0000
     atom:  173    charge:    0.8801    magn:   -0.0002    constr:    0.0000
     atom:  174    charge:    0.8676    magn:    0.0000    constr:    0.0000
     atom:  175    charge:    0.8650    magn:   -0.0009    constr:    0.0000
     atom:  176    charge:    0.8332    magn:    0.0015    constr:    0.0000
     atom:  177    charge:    0.8784    magn:   -0.0007    constr:    0.0000
     atom:  178    charge:    0.8803    magn:    0.0004    constr:    0.0000
     atom:  179    charge:    0.8810    magn:   -0.0003    constr:    0.0000
     atom:  180    charge:    0.8804    magn:    0.0003    constr:    0.0000
     atom:  181    charge:    0.8897    magn:   -0.0002    constr:    0.0000
     atom:  182    charge:    0.8632    magn:    0.0009    constr:    0.0000
     atom:  183    charge:    0.8753    magn:   -0.0006    constr:    0.0000
     atom:  184    charge:    0.8794    magn:    0.0011    constr:    0.0000
     atom:  185    charge:    0.8801    magn:   -0.0005    constr:    0.0000
     atom:  186    charge:    0.8801    magn:    0.0003    constr:    0.0000
     atom:  187    charge:    0.8803    magn:   -0.0002    constr:    0.0000
     atom:  188    charge:    0.8808    magn:    0.0001    constr:    0.0000
     atom:  189    charge:    0.8918    magn:   -0.0000    constr:    0.0000
     atom:  190    charge:    0.8804    magn:   -0.0003    constr:    0.0000
     atom:  191    charge:    0.8323    magn:    0.0014    constr:    0.0000
     atom:  192    charge:    0.8779    magn:   -0.0007    constr:    0.0000
     atom:  193    charge:    0.8810    magn:    0.0006    constr:    0.0000
     atom:  194    charge:    0.8797    magn:   -0.0004    constr:    0.0000
     atom:  195    charge:    0.8805    magn:    0.0003    constr:    0.0000
     atom:  196    charge:    0.8894    magn:   -0.0002    constr:    0.0000
     atom:  197    charge:    0.8621    magn:   -0.0000    constr:    0.0000
     atom:  198    charge:    0.8650    magn:   -0.0009    constr:    0.0000
     atom:  199    charge:    0.8789    magn:    0.0010    constr:    0.0000
     atom:  200    charge:    0.8801    magn:   -0.0005    constr:    0.0000
     atom:  201    charge:    0.8801    magn:    0.0004    constr:    0.0000
     atom:  202    charge:    0.8790    magn:   -0.0003    constr:    0.0000
     atom:  203    charge:    0.8822    magn:    0.0001    constr:    0.0000
     atom:  204    charge:    0.8853    magn:   -0.0000    constr:    0.0000
     atom:  205    charge:    0.8801    magn:    0.0004    constr:    0.0000
     atom:  206    charge:    0.8619    magn:    0.0008    constr:    0.0000
     atom:  207    charge:    0.8757    magn:   -0.0006    constr:    0.0000
     atom:  208    charge:    0.8806    magn:    0.0005    constr:    0.0000
     atom:  209    charge:    0.8802    magn:   -0.0004    constr:    0.0000
     atom:  210    charge:    0.8805    magn:    0.0003    constr:    0.0000
     atom:  211    charge:    0.8804    magn:   -0.0002    constr:    0.0000
     atom:  212    charge:    0.8758    magn:    0.0000    constr:    0.0000
     atom:  213    charge:    0.8656    magn:   -0.0008    constr:    0.0000
     atom:  214    charge:    0.8330    magn:    0.0012    constr:    0.0000
     atom:  215    charge:    0.8772    magn:   -0.0006    constr:    0.0000
     atom:  216    charge:    0.8795    magn:    0.0004    constr:    0.0000
     atom:  217    charge:    0.8806    magn:   -0.0003    constr:    0.0000
     atom:  218    charge:    0.8803    magn:    0.0003    constr:    0.0000
     atom:  219    charge:    0.8757    magn:   -0.0002    constr:    0.0000
     atom:  220    charge:    0.8635    magn:    0.0008    constr:    0.0000
     atom:  221    charge:    0.8758    magn:   -0.0005    constr:    0.0000
     atom:  222    charge:    0.8793    magn:    0.0009    constr:    0.0000
     atom:  223    charge:    0.8801    magn:   -0.0005    constr:    0.0000
     atom:  224    charge:    0.8801    magn:    0.0003    constr:    0.0000
     atom:  225    charge:    0.8805    magn:   -0.0002    constr:    0.0000
     atom:  226    charge:    0.8812    magn:    0.0002    constr:    0.0000
     atom:  227    charge:    0.8712    magn:   -0.0001    constr:    0.0000
     atom:  228    charge:    0.8779    magn:   -0.0006    constr:    0.0000
     atom:  229    charge:    0.8334    magn:    0.0011    constr:    0.0000
     atom:  230    charge:    0.8784    magn:   -0.0006    constr:    0.0000
     atom:  231    charge:    0.8801    magn:    0.0005    constr:    0.0000
     atom:  232    charge:    0.8811    magn:   -0.0004    constr:    0.0000
     atom:  233    charge:    0.8809    magn:    0.0003    constr:    0.0000
     atom:  234    charge:    0.8624    magn:   -0.0002    constr:    0.0000
     atom:  235    charge:    0.9095    magn:    0.0000    constr:    0.0000
     atom:  236    charge:    0.8787    magn:    0.0009    constr:    0.0000
     atom:  237    charge:    0.8799    magn:    0.0004    constr:    0.0000
     atom:  238    charge:    0.8806    magn:   -0.0003    constr:    0.0000
     atom:  239    charge:    0.8797    magn:    0.0002    constr:    0.0000
     atom:  240    charge:    0.8646    magn:   -0.0001    constr:    0.0000
     atom:  241    charge:    0.8331    magn:    0.0011    constr:    0.0000
     atom:  242    charge:    0.8658    magn:   -0.0008    constr:    0.0000
     atom:  243    charge:    0.9252    magn:    0.0001    constr:    0.0000
     atom:  244    charge:    0.8795    magn:   -0.0002    constr:    0.0000
     atom:  245    charge:    0.8795    magn:    0.0003    constr:    0.0000
     atom:  246    charge:    0.8806    magn:   -0.0004    constr:    0.0000
     atom:  247    charge:    0.8802    magn:    0.0005    constr:    0.0000
     atom:  248    charge:    0.8758    magn:   -0.0005    constr:    0.0000
     atom:  249    charge:    0.8635    magn:    0.0008    constr:    0.0000
     atom:  250    charge:    0.8807    magn:    0.0004    constr:    0.0000
     atom:  251    charge:    0.8798    magn:   -0.0004    constr:    0.0000
     atom:  252    charge:    0.8655    magn:   -0.0008    constr:    0.0000

     total cpu time spent up to now is    16089.1 secs

     End of self-consistent calculation

 ------ SPIN UP ------------


          k = 0.0000 0.0000 0.0000 (****** PWs)   bands (ev):

   -22.2727 -22.2057 -22.1808 -21.9949 -21.9754 -21.8804 -21.8073 -21.8071
   -21.6498 -21.5973 -21.5838 -21.5650 -21.3240 -21.2682 -21.2573 -21.2441
   -21.2082 -21.0814 -21.0705 -21.0304 -21.0259 -20.7419 -20.7308 -20.7169
   -20.5610 -20.5050 -20.4578 -20.4509 -20.4353 -20.4302 -20.2302 -20.2295
   -20.1419 -20.1355 -20.0808 -20.0798 -19.9738 -19.7752 -19.7364 -19.6706
   -19.6259 -19.5782 -19.4956 -19.4580 -19.4474 -19.3606 -19.3566 -19.3235
   -19.3187 -19.2829 -19.2582 -19.1003 -18.8400 -18.7984 -18.7911 -18.7789
   -18.7349 -18.7022 -18.6969 -18.5044 -18.4842 -18.4807 -18.4039 -18.3947
   -18.2927 -18.2909 -18.1883 -18.1863 -18.0560 -18.0541 -17.9336 -17.9243
   -17.8847 -17.8299 -17.7954 -17.7874 -17.7823 -17.6258 -17.5001 -17.4937
   -17.4365 -17.4036 -17.3941 -17.2748 -17.2623 -17.2449 -17.1928 -17.1725
   -17.1415 -17.0978 -17.0575 -16.9136 -16.9084 -16.8779 -16.8270 -16.8005
   -16.7909 -16.7744 -16.5914 -16.4194 -16.3705 -16.3524 -16.2763 -16.2620
   -16.2458 -15.9126 -15.7301 -15.7292 -15.5746 -15.5558 -15.5405 -15.4452
   -15.4447 -15.4288 -15.4265 -15.3629 -15.2408 -15.2349 -15.1506 -15.1482
   -15.1146 -15.1136 -15.0487 -15.0121 -15.0006 -14.8860 -14.8477 -14.7990
   -14.7369 -14.6796 -14.6750 -14.6053 -14.5881 -14.5148 -14.4569 -14.4523
   -14.2833 -14.2803 -14.2056 -14.1868 -14.0878 -14.0831 -14.0133 -13.9936
   -13.9475 -13.9399 -13.8056 -13.8017 -13.7136 -13.6190 -13.5540 -13.5349
   -13.4429 -13.4362 -13.3207 -13.3142 -13.2491 -13.2170 -13.0549 -13.0422
   -12.9394 -12.9259 -12.8091 -12.7995 -12.7907 -12.7588 -12.7437 -12.5511
   -12.5490 -12.5349 -12.4638 -12.3729 -12.3647 -12.3552 -12.3084 -12.3062
   -12.2789 -12.0601 -12.0238 -12.0223 -12.0186 -11.9726 -11.9592 -11.8563
   -11.8463 -11.8053 -11.7935 -11.7596 -11.7566 -11.6926 -11.6705 -11.6479
   -11.6343 -11.5357 -11.3865 -11.3643 -11.2161 -11.2128 -11.1471 -11.1295
   -11.0897 -11.0713 -11.0499 -11.0384 -11.0001 -10.9907 -10.8200 -10.7869
   -10.7643 -10.7477 -10.7312 -10.7018 -10.7004 -10.6829 -10.6656 -10.6256
   -10.6159 -10.5728 -10.4752 -10.4349 -10.3249 -10.3133 -10.3011 -10.2983
   -10.2481 -10.2295 -10.2260 -10.2098 -10.1890 -10.1370 -10.1052 -10.0773
   -10.0645 -10.0512 -10.0136  -9.9878  -9.9833  -9.9708  -9.9519  -9.9169
    -9.9054  -9.8223  -9.8198  -9.7807  -9.7673  -9.7586  -9.7463  -9.7340
    -9.7258  -9.7036  -9.6706  -9.6610  -9.6255  -9.6120  -9.5930  -9.5846
    -9.5667  -9.5634  -9.5356  -9.5214  -9.4706  -9.4575  -9.4136  -9.4093
    -9.3851  -9.3636  -9.3603  -9.3572  -9.2844  -9.2533  -9.2393  -9.2218
    -9.2197  -9.2066  -9.1810  -9.1665  -9.1471  -9.1405  -9.1082  -9.0801
    -9.0647  -9.0427  -9.0252  -9.0092  -9.0003  -8.9795  -8.9739  -8.9405
    -8.9114  -8.9027  -8.8978  -8.8900  -8.8453  -8.8293  -8.8005  -8.7653
    -8.7390  -8.7347  -8.7147  -8.6968  -8.6570  -8.6174  -8.5957  -8.5729
    -8.5331  -8.4968  -8.4736  -8.4679  -8.4558  -8.4270  -8.3872  -8.3670
    -8.3577  -8.3365  -8.3321  -8.3246  -8.2548  -8.2421  -8.2265  -8.1357
    -8.1312  -8.1232  -8.1145  -8.0992  -8.0586  -8.0193  -8.0077  -8.0013
    -7.9824  -7.9763  -7.9304  -7.8971  -7.8706  -7.8455  -7.8341  -7.8288
    -7.7763  -7.7592  -7.7128  -7.6985  -7.6566  -7.6561  -7.6283  -7.5690
    -7.5322  -7.5249  -7.4492  -7.4465  -7.4230  -7.3988  -7.3927  -7.3568
    -7.3481  -7.3399  -7.2798  -7.2628  -7.2378  -7.2221  -7.2039  -7.1622
    -7.1422  -7.1152  -7.0921  -7.0874  -7.0838  -7.0597  -7.0580  -6.9672
    -6.9606  -6.9299  -6.9155  -6.9075  -6.9053  -6.8816  -6.8385  -6.8137
    -6.8022  -6.7225  -6.6091  -6.6077  -6.6032  -6.6017  -6.5583  -6.5478
    -6.5327  -6.4074  -6.4061  -6.3923  -6.3484  -6.3366  -6.3280  -6.2901
    -6.2597  -6.2345  -6.1806  -6.1318  -6.1309  -6.1118  -6.0843  -6.0795
    -6.0440  -6.0370  -6.0130  -5.9764  -5.9234  -5.8559  -5.8489  -5.8122
    -5.8096  -5.7994  -5.6790  -5.5980  -5.5116  -5.4996  -5.4699  -5.4514
    -5.3128  -5.2864  -5.2843  -5.2716  -5.2643  -5.2562  -5.0690  -5.0118
    -5.0114  -4.9450  -4.9392  -4.9389  -4.8435  -4.8203  -4.8022  -4.7203
    -4.7132  -4.6678  -4.4800  -4.4596  -4.4458  -4.4384  -4.4370  -4.4207
    -4.3807  -3.9262  -3.9202  -3.9057  -3.8232  -3.8146  -3.7948  -3.1294
    -3.1275  -2.7493  -2.5425  -2.1682  -2.1648  -1.5716  -1.5702  -1.5415
    -1.4806  -1.4401  -1.3924  -1.2533  -1.1630  -1.1382  -1.1361  -1.1115
    -1.0627  -1.0110  -1.0042  -0.9511  -0.8746  -0.8554  -0.8108  -0.8082
    -0.7517  -0.7479  -0.7450  -0.7352  -0.7307  -0.5716  -0.5283  -0.5275
    -0.4629  -0.2914  -0.2745  -0.2262  -0.2202  -0.1611  -0.1094  -0.0525
    -0.0398   0.0923   0.1017   0.1540   0.1576   0.1795   0.1845   0.1851
     0.2083   0.2099   0.3416   0.3439   0.3714   0.3733   0.3755   0.3775
     0.4090   0.4116   0.4789   0.4838   0.5338   0.6001   0.6222   0.6573
     0.7916   0.8128   0.8173   0.8407   0.8942   0.9072   0.9346   0.9466
     0.9746   0.9903   1.0422   1.0835   1.1370   1.1385   1.1513   1.1677
     1.2305   1.2396   1.2979   1.3084   1.3278   1.3625   1.3684   1.3836
     1.4148   1.4218   1.4226   1.4386

 ------ SPIN DOWN ----------


          k = 0.0000 0.0000 0.0000 (****** PWs)   bands (ev):

   -22.2724 -22.2053 -22.1805 -21.9946 -21.9751 -21.8798 -21.8067 -21.8065
   -21.6494 -21.5968 -21.5833 -21.5647 -21.3233 -21.2676 -21.2567 -21.2435
   -21.2077 -21.0810 -21.0701 -21.0298 -21.0252 -20.7414 -20.7303 -20.7163
   -20.5604 -20.5042 -20.4573 -20.4504 -20.4347 -20.4296 -20.2295 -20.2288
   -20.1414 -20.1349 -20.0803 -20.0793 -19.9733 -19.7747 -19.7355 -19.6703
   -19.6254 -19.5777 -19.4950 -19.4573 -19.4467 -19.3598 -19.3558 -19.3229
   -19.3184 -19.2824 -19.2577 -19.1000 -18.8394 -18.7981 -18.7905 -18.7785
   -18.7344 -18.7018 -18.6959 -18.5042 -18.4837 -18.4802 -18.4030 -18.3939
   -18.2920 -18.2902 -18.1880 -18.1860 -18.0553 -18.0539 -17.9331 -17.9237
   -17.8842 -17.8296 -17.7950 -17.7872 -17.7819 -17.6243 -17.4994 -17.4931
   -17.4360 -17.4027 -17.3930 -17.2744 -17.2608 -17.2438 -17.1926 -17.1725
   -17.1414 -17.0979 -17.0571 -16.9134 -16.9084 -16.8780 -16.8259 -16.8002
   -16.7901 -16.7743 -16.5903 -16.4192 -16.3703 -16.3519 -16.2751 -16.2605
   -16.2462 -15.9117 -15.7276 -15.7265 -15.5728 -15.5566 -15.5376 -15.4446
   -15.4438 -15.4290 -15.4268 -15.3613 -15.2406 -15.2348 -15.1493 -15.1468
   -15.1131 -15.1121 -15.0472 -15.0123 -15.0007 -14.8842 -14.8480 -14.7993
   -14.7353 -14.6782 -14.6736 -14.6041 -14.5869 -14.5147 -14.4568 -14.4522
   -14.2830 -14.2801 -14.2052 -14.1861 -14.0873 -14.0826 -14.0125 -13.9927
   -13.9468 -13.9392 -13.8046 -13.8007 -13.7126 -13.6180 -13.5530 -13.5341
   -13.4424 -13.4358 -13.3200 -13.3135 -13.2489 -13.2165 -13.0541 -13.0414
   -12.9389 -12.9254 -12.8086 -12.7990 -12.7901 -12.7584 -12.7432 -12.5507
   -12.5486 -12.5340 -12.4629 -12.3722 -12.3642 -12.3546 -12.3079 -12.3055
   -12.2779 -12.0598 -12.0232 -12.0216 -12.0179 -11.9721 -11.9587 -11.8557
   -11.8458 -11.8048 -11.7927 -11.7587 -11.7557 -11.6923 -11.6701 -11.6474
   -11.6338 -11.5353 -11.3854 -11.3637 -11.2156 -11.2123 -11.1465 -11.1290
   -11.0893 -11.0706 -11.0492 -11.0378 -10.9995 -10.9901 -10.8196 -10.7862
   -10.7636 -10.7471 -10.7308 -10.7010 -10.6996 -10.6824 -10.6653 -10.6251
   -10.6155 -10.5723 -10.4746 -10.4343 -10.3248 -10.3128 -10.3009 -10.2978
   -10.2481 -10.2293 -10.2258 -10.2094 -10.1887 -10.1362 -10.1046 -10.0768
   -10.0641 -10.0505 -10.0131  -9.9876  -9.9832  -9.9702  -9.9514  -9.9162
    -9.9048  -9.8218  -9.8192  -9.7802  -9.7668  -9.7581  -9.7459  -9.7334
    -9.7253  -9.7031  -9.6702  -9.6606  -9.6251  -9.6117  -9.5928  -9.5842
    -9.5663  -9.5631  -9.5352  -9.5209  -9.4698  -9.4568  -9.4130  -9.4087
    -9.3845  -9.3631  -9.3597  -9.3566  -9.2839  -9.2526  -9.2384  -9.2212
    -9.2189  -9.2060  -9.1804  -9.1656  -9.1465  -9.1397  -9.1076  -9.0796
    -9.0643  -9.0422  -9.0247  -9.0087  -8.9998  -8.9790  -8.9734  -8.9401
    -8.9106  -8.9019  -8.8974  -8.8895  -8.8445  -8.8289  -8.8000  -8.7647
    -8.7383  -8.7343  -8.7142  -8.6964  -8.6564  -8.6166  -8.5948  -8.5720
    -8.5325  -8.4961  -8.4727  -8.4671  -8.4549  -8.4263  -8.3867  -8.3665
    -8.3568  -8.3359  -8.3313  -8.3241  -8.2539  -8.2413  -8.2255  -8.1350
    -8.1305  -8.1225  -8.1140  -8.0988  -8.0577  -8.0190  -8.0075  -8.0007
    -7.9817  -7.9757  -7.9295  -7.8964  -7.8699  -7.8448  -7.8335  -7.8280
    -7.7755  -7.7584  -7.7120  -7.6978  -7.6562  -7.6557  -7.6278  -7.5685
    -7.5317  -7.5243  -7.4487  -7.4461  -7.4226  -7.3977  -7.3921  -7.3562
    -7.3475  -7.3393  -7.2793  -7.2621  -7.2370  -7.2214  -7.2031  -7.1621
    -7.1419  -7.1147  -7.0915  -7.0866  -7.0826  -7.0586  -7.0577  -6.9660
    -6.9594  -6.9292  -6.9147  -6.9073  -6.9049  -6.8808  -6.8379  -6.8139
    -6.8018  -6.7223  -6.6088  -6.6074  -6.6028  -6.6014  -6.5576  -6.5470
    -6.5324  -6.4067  -6.4048  -6.3916  -6.3477  -6.3361  -6.3277  -6.2892
    -6.2595  -6.2345  -6.1807  -6.1319  -6.1305  -6.1112  -6.0824  -6.0777
    -6.0427  -6.0356  -6.0126  -5.9762  -5.9233  -5.8555  -5.8486  -5.8121
    -5.8096  -5.7991  -5.6792  -5.5970  -5.5111  -5.4987  -5.4680  -5.4514
    -5.3130  -5.2869  -5.2848  -5.2698  -5.2625  -5.2559  -5.0680  -5.0094
    -5.0089  -4.9448  -4.9395  -4.9392  -4.8445  -4.8212  -4.8032  -4.7212
    -4.7143  -4.6691  -4.4771  -4.4610  -4.4441  -4.4397  -4.4386  -4.4179
    -4.3778  -3.9263  -3.9220  -3.9054  -3.8202  -3.8103  -3.7962  -3.1211
    -3.1193  -2.7358  -2.5288  -2.1602  -2.1569  -1.5675  -1.5660  -1.5436
    -1.4806  -1.4416  -1.3947  -1.2513  -1.1597  -1.1366  -1.1343  -1.1119
    -1.0640  -1.0109  -1.0032  -0.9510  -0.8746  -0.8551  -0.8116  -0.8090
    -0.7519  -0.7478  -0.7451  -0.7332  -0.7287  -0.5711  -0.5286  -0.5277
    -0.4632  -0.2920  -0.2750  -0.2260  -0.2200  -0.1600  -0.1086  -0.0525
    -0.0398   0.0938   0.1035   0.1550   0.1585   0.1809   0.1862   0.1867
     0.2098   0.2114   0.3423   0.3446   0.3719   0.3743   0.3765   0.3790
     0.4099   0.4126   0.4804   0.4852   0.5348   0.6002   0.6227   0.6572
     0.7923   0.8137   0.8179   0.8419   0.8942   0.9073   0.9350   0.9466
     0.9750   0.9918   1.0449   1.0840   1.1384   1.1400   1.1528   1.1724
     1.2347   1.2431   1.3020   1.3123   1.3307   1.3675   1.3733   1.3884
     1.4186   1.4251   1.4266   1.4408

     the Fermi energy is    -2.6391 ev

!    total energy              =   -2641.85133110 Ry
     estimated scf accuracy    <       0.00000705 Ry
     smearing contrib. (-TS)   =       0.00047672 Ry
     internal energy E=F+TS    =   -2641.85180782 Ry

     The total energy is F=E-TS. E is the sum of the following terms:
     one-electron contribution =  -28175.08098236 Ry
     hartree contribution      =   14223.79055598 Ry
     xc contribution           =    -949.51419424 Ry
     ewald contribution        =   12258.95281280 Ry

     total magnetization       =     0.06 Bohr mag/cell
     absolute magnetization    =     0.38 Bohr mag/cell

     convergence has been achieved in  19 iterations

     Forces acting on atoms (cartesian axes, Ry/au):

     atom    1 type  1   force =    -0.01239184    0.02417426   -0.01237292
     atom    2 type  1   force =    -0.02679309    0.00146213   -0.01288193
     atom    3 type  1   force =    -0.02359044    0.06678055    0.17321575
     atom    4 type  1   force =     0.00265750   -0.00118968   -0.01505033
     atom    5 type  1   force =    -0.01445798   -0.02230829   -0.01347081
     atom    6 type  1   force =     0.01239852   -0.02370361   -0.01376109
     atom    7 type  1   force =     0.00270652    0.00201932   -0.01536622
     atom    8 type  1   force =    -0.00006545    0.00346883   -0.01519310
     atom    9 type  1   force =     0.02684638   -0.00085952   -0.01288178
     atom   10 type  1   force =     0.01443994    0.02298439   -0.01233545
     atom   11 type  1   force =    -0.00276088    0.00182573   -0.01538211
     atom   12 type  1   force =    -0.00264677   -0.00122195   -0.01535729
     atom   13 type  1   force =     0.02387576   -0.06667661   -0.17317905
     atom   14 type  1   force =     0.07351071   -0.01046291   -0.17178196
     atom   15 type  1   force =     0.04965706    0.06060796   -0.16997688
     atom   16 type  1   force =    -0.02383430    0.07552521   -0.16962322
     atom   17 type  1   force =    -0.07353904    0.01936217   -0.17105894
     atom   18 type  1   force =    -0.04968010   -0.05176044   -0.17286595
     atom   19 type  1   force =    -0.02074284   -0.01732953    0.01242704
     atom   20 type  1   force =    -0.02494799    0.00916096    0.01293995
     atom   21 type  1   force =     0.00124935    0.00248759    0.01522469
     atom   22 type  1   force =     0.00319322   -0.00008276    0.01552778
     atom   23 type  1   force =    -0.00443202    0.02623134    0.01368964
     atom   24 type  1   force =     0.02080120    0.01676299    0.01339323
     atom   25 type  1   force =     0.00182230   -0.00284609    0.01513600
     atom   26 type  1   force =    -0.07344888    0.01075734    0.17186196
     atom   27 type  1   force =     0.02529731   -0.00979045    0.01286024
     atom   28 type  1   force =     0.00433777   -0.02680633    0.01216334
     atom   29 type  1   force =    -0.00304527   -0.00066427    0.01523180
     atom   30 type  1   force =    -0.00181790    0.00205865    0.01520508
     atom   31 type  1   force =     0.04986319    0.05157093    0.17280869
     atom   32 type  1   force =     0.07347617   -0.01959927    0.17101602
     atom   33 type  1   force =     0.02360338   -0.07559319    0.16962256
     atom   34 type  1   force =    -0.04983407   -0.06046611    0.17003611
     atom   35 type  1   force =    -0.00121843   -0.00314791    0.01489458
     atom   36 type  1   force =    -0.00000937   -0.00269328   -0.01515357
     atom   37 type  2   force =    -0.00403481   -0.00040059   -0.01666809
     atom   38 type  2   force =     0.02936456   -0.00574401   -0.01929145
     atom   39 type  2   force =     0.00214721   -0.01447973    0.01224411
     atom   40 type  2   force =    -0.02737752    0.03500316    0.02042411
     atom   41 type  2   force =     0.07984083    0.02565959   -0.01488057
     atom   42 type  2   force =    -0.07659006   -0.01913717    0.00100959
     atom   43 type  2   force =     0.03168218    0.02015338   -0.04560939
     atom   44 type  2   force =     0.00219704   -0.00291747    0.01089964
     atom   45 type  2   force =     0.00547535    0.00065788   -0.00526696
     atom   46 type  2   force =    -0.00033840   -0.00446500    0.01044056
     atom   47 type  2   force =    -0.00340241   -0.01106611   -0.00298427
     atom   48 type  2   force =     0.01200486    0.03495589    0.02073343
     atom   49 type  2   force =     0.01787941    0.08157735   -0.01255092
     atom   50 type  2   force =     0.02445599    0.02184808   -0.09309205
     atom   51 type  2   force =    -0.01602777   -0.02970642   -0.05376975
     atom   52 type  2   force =    -0.00701888   -0.01014304    0.00335196
     atom   53 type  2   force =     0.00879661    0.00184114    0.00394357
     atom   54 type  2   force =     0.00401008   -0.00389425    0.01331122
     atom   55 type  2   force =     0.00830288    0.03557168   -0.02333243
     atom   56 type  2   force =    -0.02164075   -0.07535028   -0.00076665
     atom   57 type  2   force =    -0.00045451    0.03753931   -0.04449830
     atom   58 type  2   force =     0.02017752    0.02280871   -0.01979063
     atom   59 type  2   force =    -0.00106495   -0.00323705   -0.01561747
     atom   60 type  2   force =    -0.00032737   -0.00811988   -0.00187094
     atom   61 type  2   force =     0.00420051   -0.01020885    0.00082814
     atom   62 type  2   force =     0.01359611   -0.00348572   -0.00862336
     atom   63 type  2   force =     0.02520510    0.07695596   -0.02896673
     atom   64 type  2   force =    -0.11909368    0.11475482   -0.08783565
     atom   65 type  2   force =    -0.00475636    0.03398047   -0.09258481
     atom   66 type  2   force =     0.01958385   -0.02853554   -0.05424046
     atom   67 type  2   force =     0.00332234    0.00022252    0.01022749
     atom   68 type  2   force =    -0.00074403    0.00508659   -0.00207037
     atom   69 type  2   force =     0.00274442    0.00007696    0.01495874
     atom   70 type  2   force =    -0.00051168    0.07404830   -0.06287873
     atom   71 type  2   force =     0.01828202    0.10166058    0.02094812
     atom   72 type  2   force =    -0.06138767    0.05637888   -0.01319736
     atom   73 type  2   force =    -0.00946072    0.02952541   -0.01909748
     atom   74 type  2   force =     0.00286305   -0.00174160   -0.01616515
     atom   75 type  2   force =     0.00520839   -0.00907635    0.00387036
     atom   76 type  2   force =    -0.00240763    0.00606981    0.00514648
     atom   77 type  2   force =    -0.00281977    0.00614005   -0.02005697
     atom   78 type  2   force =    -0.02968808    0.07787995   -0.03838888
     atom   79 type  2   force =    -0.05271519    0.06032906    0.03231459
     atom   80 type  2   force =     0.05400699   -0.05609409   -0.00052272
     atom   81 type  2   force =    -0.03134079    0.01885589   -0.04546390
     atom   82 type  2   force =     0.00067349    0.00293073    0.01050263
     atom   83 type  2   force =    -0.00352948   -0.00062954   -0.00442866
     atom   84 type  2   force =    -0.00111401    0.00187054    0.00865468
     atom   85 type  2   force =     0.00563432   -0.00587625   -0.00238394
     atom   86 type  2   force =    -0.02753028    0.06356700    0.01300446
     atom   87 type  2   force =    -0.07977474   -0.02491427   -0.01497341
     atom   88 type  2   force =    -0.03029345    0.01408644   -0.09251468
     atom   89 type  2   force =     0.03611240    0.00369824   -0.05473469
     atom   90 type  2   force =     0.00894506    0.00046398    0.00516114
     atom   91 type  2   force =    -0.00030164   -0.00290899   -0.00003706
     atom   92 type  2   force =    -0.00579858    0.00261004    0.00805028
     atom   93 type  2   force =     0.00441845    0.03828937   -0.01355268
     atom   94 type  2   force =     0.07577342    0.01875577    0.00174340
     atom   95 type  2   force =    -0.03115130   -0.01724180   -0.04741982
     atom   96 type  2   force =    -0.03012125    0.00670768   -0.01905023
     atom   97 type  2   force =     0.00328147    0.00210122   -0.01724320
     atom   98 type  2   force =    -0.00355304   -0.00138962    0.01498468
     atom   99 type  2   force =     0.00559176   -0.00274905   -0.01168246
     atom  100 type  2   force =    -0.00434095   -0.01030103   -0.00467287
     atom  101 type  2   force =     0.03079223    0.03604781    0.00012935
     atom  102 type  2   force =     0.00465571   -0.00848543    0.00439455
     atom  103 type  2   force =    -0.02490038   -0.01780898   -0.09309522
     atom  104 type  2   force =     0.01604381    0.03370513   -0.05473856
     atom  105 type  2   force =    -0.00342065    0.00133496    0.01133946
     atom  106 type  2   force =     0.00019802   -0.00089933   -0.00979239
     atom  107 type  2   force =    -0.01112461   -0.00768876   -0.00008657
     atom  108 type  2   force =     0.05009691    0.08062821    0.03041667
     atom  109 type  2   force =     0.08748659    0.05340958   -0.04322174
     atom  110 type  2   force =    -0.02024030   -0.02252257   -0.01859768
     atom  111 type  2   force =     0.00434906    0.00747325    0.00599449
     atom  112 type  2   force =     0.00397136    0.00493914   -0.00649865
     atom  113 type  2   force =     0.00362505   -0.00554516    0.01506629
     atom  114 type  2   force =     0.04635363    0.13706457    0.00831856
     atom  115 type  2   force =     0.00036481   -0.00400247   -0.01024118
     atom  116 type  2   force =    -0.00039453   -0.00391850    0.01100401
     atom  117 type  2   force =    -0.03457892   -0.00018879   -0.05406622
     atom  118 type  2   force =     0.02857559   -0.00892135   -0.09364129
     atom  119 type  2   force =     0.00230588   -0.00123748    0.00725238
     atom  120 type  2   force =    -0.06062821    0.12004279    0.02073450
     atom  121 type  2   force =    -0.00348467   -0.00641605    0.02163685
     atom  122 type  2   force =    -0.00549276   -0.00411836   -0.01210810
     atom  123 type  2   force =    -0.00251498   -0.00270829    0.01662312
     atom  124 type  2   force =    -0.00292890    0.00311842   -0.01750496
     atom  125 type  2   force =     0.00922601   -0.02780133   -0.01935217
     atom  126 type  2   force =     0.03281287   -0.01680463   -0.04709094
     atom  127 type  2   force =     0.01557563    0.08240249    0.01757927
     atom  128 type  2   force =    -0.00104555   -0.00426741    0.01816671
     atom  129 type  2   force =    -0.05514080    0.05680286    0.00223841
     atom  130 type  2   force =    -0.00978299   -0.07805867   -0.00303421
     atom  131 type  2   force =     0.01518953    0.03252541    0.04844079
     atom  132 type  2   force =    -0.00212271    0.00363871   -0.01173217
     atom  133 type  2   force =    -0.00212630    0.00145378    0.01238787
     atom  134 type  2   force =    -0.00182537    0.00218492   -0.01861887
     atom  135 type  2   force =    -0.00269465    0.00031693    0.01543278
     atom  136 type  2   force =    -0.05537457   -0.24977502    0.17106823
     atom  137 type  2   force =     0.07971726    0.02761351    0.01619551
     atom  138 type  2   force =     0.01637283    0.02400269    0.09358811
     atom  139 type  2   force =    -0.02908127   -0.02106363    0.05397098
     atom  140 type  2   force =    -0.00787605   -0.00755321   -0.00529522
     atom  141 type  2   force =    -0.00731758    0.00219381    0.00627696
     atom  142 type  2   force =     0.00165887    0.01258201    0.00105164
     atom  143 type  2   force =    -0.04058168   -0.10839699   -0.04196233
     atom  144 type  2   force =    -0.07298660   -0.03066542   -0.00136599
     atom  145 type  2   force =     0.03699366    0.00262110    0.04652112
     atom  146 type  2   force =     0.01966812    0.02190763    0.01919843
     atom  147 type  2   force =    -0.00361700   -0.00181164    0.01740379
     atom  148 type  2   force =    -0.00220924    0.00362803   -0.01434189
     atom  149 type  2   force =    -0.00597227    0.00703506    0.00831563
     atom  150 type  2   force =    -0.00347525    0.01013805   -0.02041380
     atom  151 type  2   force =    -0.06667119   -0.07818857   -0.02603195
     atom  152 type  2   force =    -0.01120448    0.12444532    0.04146011
     atom  153 type  2   force =     0.03104389   -0.00333920    0.09336512
     atom  154 type  2   force =    -0.03150058    0.01381859    0.05350112
     atom  155 type  2   force =     0.00094567    0.00374177   -0.01141199
     atom  156 type  2   force =     0.00295774    0.00355976    0.00890427
     atom  157 type  2   force =     0.00494309    0.00611802   -0.00805322
     atom  158 type  2   force =    -0.03409715   -0.03575381   -0.01664809
     atom  159 type  2   force =    -0.07548635   -0.04635268    0.03012136
     atom  160 type  2   force =     0.06338730   -0.05484298    0.01351163
     atom  161 type  2   force =     0.02941988   -0.00623981    0.01957597
     atom  162 type  2   force =    -0.00304632    0.00158934    0.01623100
     atom  163 type  2   force =    -0.01194764    0.00349684   -0.00360360
     atom  164 type  2   force =     0.00544329    0.00669581   -0.00044890
     atom  165 type  2   force =     0.00766753    0.01343145   -0.00529935
     atom  166 type  2   force =     0.00579729   -0.03761000   -0.00511758
     atom  167 type  2   force =    -0.00203249   -0.01385253   -0.00275464
     atom  168 type  2   force =    -0.06282680    0.04765202    0.00051694
     atom  169 type  2   force =     0.02177103   -0.03123397    0.04468403
     atom  170 type  2   force =     0.00284168    0.00215980   -0.01074040
     atom  171 type  2   force =     0.00420521   -0.00371685    0.00384915
     atom  172 type  2   force =     0.00138086    0.00375425   -0.00901456
     atom  173 type  2   force =    -0.00055013    0.01237106    0.00116884
     atom  174 type  2   force =     0.03560028   -0.06292628   -0.02747304
     atom  175 type  2   force =    -0.01548913   -0.08174556    0.01267738
     atom  176 type  2   force =     0.01493492   -0.02991421    0.09285631
     atom  177 type  2   force =    -0.00249217    0.03389582    0.05344774
     atom  178 type  2   force =    -0.00197060    0.01140792   -0.00324792
     atom  179 type  2   force =     0.00553218   -0.00627917   -0.00493506
     atom  180 type  2   force =     0.00385723    0.00252074   -0.01554972
     atom  181 type  2   force =     0.01895603   -0.05543390    0.04813068
     atom  182 type  2   force =     0.00961929    0.07742616    0.00088806
     atom  183 type  2   force =    -0.01466382   -0.03428331    0.04475808
     atom  184 type  2   force =     0.00986609   -0.02932669    0.01973950
     atom  185 type  2   force =     0.00063070    0.00332423    0.01579292
     atom  186 type  2   force =     0.00154613   -0.00117680   -0.00705630
     atom  187 type  2   force =     0.00553388    0.00847332   -0.00053851
     atom  188 type  2   force =     0.01027815   -0.00408639    0.01552185
     atom  189 type  2   force =     0.00667582   -0.09650593    0.04339113
     atom  190 type  2   force =    -0.00662743    0.00298706   -0.00687650
     atom  191 type  2   force =    -0.01694423   -0.02980392    0.09245696
     atom  192 type  2   force =     0.02997754    0.01848859    0.05439567
     atom  193 type  2   force =     0.00290778   -0.00126994   -0.01046374
     atom  194 type  2   force =    -0.00363138   -0.00383423    0.00238893
     atom  195 type  2   force =     0.00058237   -0.00207577   -0.01297900
     atom  196 type  2   force =    -0.01289779   -0.06289715    0.05076716
     atom  197 type  2   force =    -0.00884992   -0.10258532   -0.01643997
     atom  198 type  2   force =    -0.07839921   -0.02772843    0.01409770
     atom  199 type  2   force =    -0.02049277   -0.02369229    0.01889277
     atom  200 type  2   force =     0.00396047    0.00050683    0.01592300
     atom  201 type  2   force =     0.00835650    0.00599038   -0.00397017
     atom  202 type  2   force =    -0.00444476   -0.00186497   -0.00402021
     atom  203 type  2   force =    -0.00778369    0.00043343    0.01675820
     atom  204 type  2   force =    -0.02431353   -0.04830565    0.02279124
     atom  205 type  2   force =    -0.00420952    0.00937808    0.00498143
     atom  206 type  2   force =     0.07170401    0.03037762   -0.00105437
     atom  207 type  2   force =    -0.03580600   -0.00514666    0.04664504
     atom  208 type  2   force =    -0.00106172   -0.00301766   -0.01067263
     atom  209 type  2   force =    -0.00198616    0.00193362    0.00622106
     atom  210 type  2   force =    -0.00298029   -0.00126605   -0.01012687
     atom  211 type  2   force =     0.00564015    0.00494028    0.00514992
     atom  212 type  2   force =    -0.00199080   -0.03526089   -0.00433133
     atom  213 type  2   force =    -0.06348739    0.05430265    0.01622828
     atom  214 type  2   force =    -0.03240849   -0.00121401    0.09259645
     atom  215 type  2   force =     0.03204544   -0.01762848    0.05504100
     atom  216 type  2   force =     0.00777354   -0.00373849   -0.00581416
     atom  217 type  2   force =     0.00387384    0.00134663    0.00291920
     atom  218 type  2   force =    -0.00970135    0.00015210   -0.00426362
     atom  219 type  2   force =     0.02991436   -0.04168037   -0.00857756
     atom  220 type  2   force =     0.06255460   -0.04731589   -0.00249431
     atom  221 type  2   force =    -0.02148703    0.02830128    0.04793432
     atom  222 type  2   force =    -0.02983282    0.00554900    0.01883277
     atom  223 type  2   force =     0.00225246   -0.00320747    0.01772997
     atom  224 type  2   force =    -0.00294689    0.00251978   -0.01693622
     atom  225 type  2   force =     0.00442692    0.00095395    0.01405942
     atom  226 type  2   force =     0.00108201    0.01075459   -0.00347350
     atom  227 type  2   force =     0.06103184   -0.06654756   -0.00672411
     atom  228 type  2   force =    -0.01904268    0.03074891   -0.05430135
     atom  229 type  2   force =    -0.01506596    0.02586046    0.09357188
     atom  230 type  2   force =     0.00227535   -0.03702519    0.05424532
     atom  231 type  2   force =    -0.00382163    0.00024409   -0.01185545
     atom  232 type  2   force =     0.00010955   -0.00053576    0.01167147
     atom  233 type  2   force =    -0.00877562    0.01195504    0.00167757
     atom  234 type  2   force =     0.03772371   -0.10929228   -0.03636198
     atom  235 type  2   force =     0.12493520   -0.12620892    0.09761883
     atom  236 type  2   force =    -0.00952932    0.02819488    0.01883574
     atom  237 type  2   force =     0.00134696   -0.00872018   -0.00586319
     atom  238 type  2   force =    -0.00006179   -0.00718367    0.00776224
     atom  239 type  2   force =     0.00102223    0.00383831   -0.01997375
     atom  240 type  2   force =     0.00148855   -0.15635389   -0.01058037
     atom  241 type  2   force =     0.00478199   -0.02868897   -0.09346569
     atom  242 type  2   force =     0.06236807   -0.05658005   -0.01665264
     atom  243 type  2   force =     0.04883866    0.25514317   -0.17315930
     atom  244 type  2   force =     0.00029826    0.00027287   -0.01660618
     atom  245 type  2   force =    -0.00176154   -0.00233408    0.01892837
     atom  246 type  2   force =    -0.00185643    0.00043648   -0.01191807
     atom  247 type  2   force =    -0.00320191   -0.00257232    0.01175513
     atom  248 type  2   force =     0.00069872   -0.03577632   -0.04858867
     atom  249 type  2   force =     0.02165755    0.07576934    0.00307814
     atom  250 type  2   force =    -0.01189473    0.00153277    0.00449596
     atom  251 type  2   force =     0.00032520    0.00409847   -0.01826695
     atom  252 type  2   force =    -0.01815555   -0.08176968   -0.01729305

     Total force =     1.174257     Total SCF correction =     0.002173


     Computing stress (Cartesian axis) and pressure

          total   stress  (Ry/bohr**3)                   (kbar)     P=        0.35
   0.00002328   0.00000002  -0.00000001            3.43        0.00       -0.00
   0.00000002   0.00002031  -0.00002301            0.00        2.99       -3.38
  -0.00000001  -0.00002301  -0.00003644           -0.00       -3.38       -5.36

 
     init_run     :    228.70s CPU    427.21s WALL (       1 calls)
     electrons    :   8500.93s CPU  15660.92s WALL (       1 calls)
     forces       :     59.92s CPU     64.49s WALL (       1 calls)
     stress       :   1334.06s CPU   1340.77s WALL (       1 calls)

     Called by init_run:
     wfcinit      :    203.05s CPU    396.06s WALL (       1 calls)
     potinit      :      5.51s CPU      9.98s WALL (       1 calls)
     hinit0       :     16.09s CPU     16.99s WALL (       1 calls)

     Called by electrons:
     c_bands      :   7391.54s CPU  13334.23s WALL (      19 calls)
     sum_band     :   1017.95s CPU   2147.17s WALL (      19 calls)
     v_of_rho     :     74.06s CPU    156.17s WALL (      20 calls)
     mix_rho      :     18.11s CPU     28.05s WALL (      19 calls)

     Called by c_bands:
     init_us_2    :     39.52s CPU     39.94s WALL (      82 calls)
     regterg      :   7257.38s CPU  13199.81s WALL (      38 calls)

     Called by sum_band:

     Called by *egterg:
     h_psi        :   6059.59s CPU  12138.46s WALL (     340 calls)
     g_psi        :      6.11s CPU      6.12s WALL (     300 calls)
     rdiaghg      :    236.60s CPU    236.92s WALL (     338 calls)

     Called by h_psi:
     h_psi:calbec :    539.56s CPU    540.31s WALL (     340 calls)
     vloc_psi     :   4999.42s CPU  11076.77s WALL (     340 calls)
     add_vuspsi   :    506.62s CPU    506.96s WALL (     340 calls)

     General routines
     calbec       :    581.88s CPU    582.64s WALL (     350 calls)
     fft          :     72.75s CPU    189.10s WALL (     329 calls)
     ffts         :      8.34s CPU     22.35s WALL (      38 calls)
     fftw         :   5502.10s CPU  12671.14s WALL (   67192 calls)
 
     Parallel routines
     fft_scatt_xy :    554.63s CPU    560.97s WALL (   67559 calls)
     fft_scatt_yz :   3580.11s CPU  10826.69s WALL (   67559 calls)
 
     PWSCF        :      2h48m CPU      4h51m WALL

 
   This run was terminated on:  23:29:18  13Apr2020            

=------------------------------------------------------------------------------=
   JOB DONE.
=------------------------------------------------------------------------------=
