
     Program PWSCF v.6.5 starts on 30Apr2020 at  2:16:50 

     This program is part of the open-source Quantum ESPRESSO suite
     for quantum simulation of materials; please cite
         "P. Giannozzi et al., J. Phys.:Condens. Matter 21 395502 (2009);
         "P. Giannozzi et al., J. Phys.:Condens. Matter 29 465901 (2017);
          URL http://www.quantum-espresso.org", 
     in publications or presentations arising from this work. More details at
     http://www.quantum-espresso.org/quote

     Parallel version (MPI), running on    32 processors

     MPI processes distributed on     1 nodes
     K-points division:     npool     =       4
     R & G space division:  proc/nbgrp/npool/nimage =       8
     Fft bands division:     nmany     =       1
     Reading input from bulk.in

     Current dimensions of program PWSCF are:
     Max number of different atomic species (ntypx) = 10
     Max number of k-points (npk) =  40000
     Max angular momentum in pseudopotentials (lmaxx) =  3

     Subspace diagonalization in iterative solution of the eigenvalue problem:
     a serial algorithm will be used

 
     Parallelization info
     --------------------
     sticks:   dense  smooth     PW     G-vecs:    dense   smooth      PW
     Min         759     759    214                28168    28168    4241
     Max         760     760    215                28169    28169    4242
     Sum        6075    6075   1715               225345   225345   33933
 

     Title: 
     bulk                                                                       


     bravais-lattice index     =            5
     lattice parameter (alat)  =      16.9286  a.u.
     unit-cell volume          =    1124.6616 (a.u.)^3
     number of atoms/cell      =           13
     number of atomic types    =            2
     number of electrons       =       203.00
     number of Kohn-Sham states=          122
     kinetic-energy cutoff     =     130.0000  Ry
     charge density cutoff     =     520.0000  Ry
     convergence threshold     =      1.0E-07
     mixing beta               =       0.7000
     number of iterations used =            8  plain     mixing
     Exchange-correlation= PBE
                           (   1   4   3   4   0   0   0)
     nstep                     =           50


     celldm(1)=  16.928570  celldm(2)=   0.000000  celldm(3)=   0.000000
     celldm(4)=   0.859404  celldm(5)=   0.000000  celldm(6)=   0.000000

     crystal axes: (cart. coord. in units of alat)
               a(1) = (   0.265137  -0.153077   0.951982 )  
               a(2) = (   0.000000   0.306154   0.951982 )  
               a(3) = (  -0.265137  -0.153077   0.951982 )  

     reciprocal axes: (cart. coord. in units 2 pi/alat)
               b(1) = (  1.885815 -1.088776  0.350147 )  
               b(2) = (  0.000000  2.177552  0.350147 )  
               b(3) = ( -1.885815 -1.088776  0.350147 )  


     PseudoPot. # 1 for Co read from file:
     /gpfs/share/home/1600011702/pseudo/Co.nc.fr.pbe.stringent.upf
     MD5 check sum: 5025e55def73e686899be73cabb26c16
     Pseudo is Norm-conserving + core correction, Zval = 17.0
     Generated using ONCVPSP code by D. R. Hamann
     Using radial grid of 1388 points,  6 beta functions with: 
                l(1) =   0
                l(2) =   0
                l(3) =   1
                l(4) =   1
                l(5) =   2
                l(6) =   2

     PseudoPot. # 2 for W  read from file:
     /gpfs/share/home/1600011702/pseudo/W.nc.fr.pbe.stringent.upf
     MD5 check sum: 75b1d432d85d028982bb81b068264ebf
     Pseudo is Norm-conserving + core correction, Zval = 14.0
     Generated using ONCVPSP code by D. R. Hamann
     Using radial grid of 1396 points,  8 beta functions with: 
                l(1) =   0
                l(2) =   0
                l(3) =   1
                l(4) =   1
                l(5) =   2
                l(6) =   2
                l(7) =   3
                l(8) =   3

     atomic species   valence    mass     pseudopotential
        Co            17.00    58.93320     Co( 1.00)
        W             14.00   183.84000     W ( 1.00)

     12 Sym. Ops., with inversion, found



   Cartesian axes

     site n.     atom                  positions (alat units)
         1           Co  tau(   1) = (   0.0000000   0.0000000   0.0000000  )
         2           Co  tau(   2) = (  -0.1323710  -0.0764244   0.7324514  )
         3           Co  tau(   3) = (   0.0000000   0.1528488   0.7324514  )
         4           Co  tau(   4) = (   0.1323710  -0.0764244   0.7324514  )
         5           Co  tau(   5) = (   0.1323710   0.0764244  -0.7324514  )
         6           Co  tau(   6) = (   0.0000000  -0.1528488  -0.7324514  )
         7           Co  tau(   7) = (  -0.1323710   0.0764244  -0.7324514  )
         8           W   tau(   8) = (   0.0000000  -0.0000000   0.4736218  )
         9           W   tau(   9) = (   0.0000000  -0.0000000   0.9899789  )
        10           W   tau(  10) = (   0.0000000  -0.0000000   1.2857070  )
        11           W   tau(  11) = (   0.0000000   0.0000000  -0.4736218  )
        12           W   tau(  12) = (   0.0000000   0.0000000  -0.9899789  )
        13           W   tau(  13) = (   0.0000000   0.0000000  -1.2857070  )

     number of k points=   116  Methfessel-Paxton smearing, width (Ry)=  0.0200

     Number of k-points >= 100: set verbosity='high' to print them.

     Dense  grid:   225345 G-vectors     FFT dimensions: ( 125, 125, 125)

     Estimated max dynamical RAM per process >     324.73 MB

     Estimated total dynamical RAM >      10.15 GB

     Initial potential from superposition of free atoms

     starting charge  202.99483, renormalised to  203.00000
     Starting wfcs are  130 randomized atomic wfcs

     total cpu time spent up to now is       87.2 secs

     Self-consistent Calculation

     iteration #  1     ecut=   130.00 Ry     beta= 0.70
     Davidson diagonalization with overlap
     ethr =  1.00E-02,  avg # of iterations =  3.4

     total cpu time spent up to now is      358.9 secs

     total energy              =   -3062.25807760 Ry
     estimated scf accuracy    <       6.27644021 Ry

     iteration #  2     ecut=   130.00 Ry     beta= 0.70
     Davidson diagonalization with overlap
     ethr =  3.09E-03,  avg # of iterations =  5.0

     total cpu time spent up to now is      713.1 secs

     total energy              =   -3047.49846531 Ry
     estimated scf accuracy    <     344.60686768 Ry

     iteration #  3     ecut=   130.00 Ry     beta= 0.70
     Davidson diagonalization with overlap
     ethr =  3.09E-03,  avg # of iterations =  6.0

     total cpu time spent up to now is     1124.1 secs

     total energy              =   -3064.63546463 Ry
     estimated scf accuracy    <      45.22161440 Ry

     iteration #  4     ecut=   130.00 Ry     beta= 0.70
     Davidson diagonalization with overlap
     ethr =  3.09E-03,  avg # of iterations =  3.2

     total cpu time spent up to now is     1358.0 secs

     total energy              =   -3066.90833423 Ry
     estimated scf accuracy    <       4.87980131 Ry

     iteration #  5     ecut=   130.00 Ry     beta= 0.70
     Davidson diagonalization with overlap
     ethr =  2.40E-03,  avg # of iterations =  1.0

     total cpu time spent up to now is     1577.6 secs

     total energy              =   -3067.06102059 Ry
     estimated scf accuracy    <       0.23518290 Ry

     iteration #  6     ecut=   130.00 Ry     beta= 0.70
     Davidson diagonalization with overlap
     ethr =  1.16E-04,  avg # of iterations =  6.2

     total cpu time spent up to now is     1861.9 secs

     total energy              =   -3067.07452904 Ry
     estimated scf accuracy    <       0.15114193 Ry

     iteration #  7     ecut=   130.00 Ry     beta= 0.70
     Davidson diagonalization with overlap
     ethr =  7.45E-05,  avg # of iterations =  3.8

     total cpu time spent up to now is     2107.0 secs

     total energy              =   -3067.09484968 Ry
     estimated scf accuracy    <       0.06927752 Ry

     iteration #  8     ecut=   130.00 Ry     beta= 0.70
     Davidson diagonalization with overlap
     ethr =  3.41E-05,  avg # of iterations =  2.1

     total cpu time spent up to now is     2330.6 secs

     total energy              =   -3067.10172723 Ry
     estimated scf accuracy    <       0.00806107 Ry

     iteration #  9     ecut=   130.00 Ry     beta= 0.70
     Davidson diagonalization with overlap
     ethr =  3.97E-06,  avg # of iterations =  4.9

     total cpu time spent up to now is     2597.6 secs

     total energy              =   -3067.10289259 Ry
     estimated scf accuracy    <       0.00058856 Ry

     iteration # 10     ecut=   130.00 Ry     beta= 0.70
     Davidson diagonalization with overlap
     ethr =  2.90E-07,  avg # of iterations =  2.5

     total cpu time spent up to now is     2837.7 secs

     total energy              =   -3067.10293075 Ry
     estimated scf accuracy    <       0.00010240 Ry

     iteration # 11     ecut=   130.00 Ry     beta= 0.70
     Davidson diagonalization with overlap
     ethr =  5.04E-08,  avg # of iterations =  2.4

     total cpu time spent up to now is     3064.4 secs

     total energy              =   -3067.10294134 Ry
     estimated scf accuracy    <       0.00000467 Ry

     iteration # 12     ecut=   130.00 Ry     beta= 0.70
     Davidson diagonalization with overlap
     ethr =  2.30E-09,  avg # of iterations =  3.9

     total cpu time spent up to now is     3342.4 secs

     total energy              =   -3067.10294267 Ry
     estimated scf accuracy    <       0.00000184 Ry

     iteration # 13     ecut=   130.00 Ry     beta= 0.70
     Davidson diagonalization with overlap
     ethr =  9.07E-10,  avg # of iterations =  1.1

     total cpu time spent up to now is     3560.3 secs

     total energy              =   -3067.10294279 Ry
     estimated scf accuracy    <       0.00000071 Ry

     iteration # 14     ecut=   130.00 Ry     beta= 0.70
     Davidson diagonalization with overlap
     ethr =  3.47E-10,  avg # of iterations =  1.4

     total cpu time spent up to now is     3778.6 secs

     total energy              =   -3067.10294277 Ry
     estimated scf accuracy    <       0.00000223 Ry

     iteration # 15     ecut=   130.00 Ry     beta= 0.70
     Davidson diagonalization with overlap
     ethr =  3.47E-10,  avg # of iterations =  1.0

     total cpu time spent up to now is     3996.5 secs

     End of self-consistent calculation

     Number of k-points >= 100: set verbosity='high' to print the bands.

     the Fermi energy is    21.4994 ev

!    total energy              =   -3067.10294280 Ry
     estimated scf accuracy    <       0.00000006 Ry
     smearing contrib. (-TS)   =       0.00066688 Ry
     internal energy E=F+TS    =   -3067.10360968 Ry

     The total energy is F=E-TS. E is the sum of the following terms:
     one-electron contribution =   -1179.77295270 Ry
     hartree contribution      =     734.73611500 Ry
     xc contribution           =    -594.30917489 Ry
     ewald contribution        =   -2027.75759710 Ry

     convergence has been achieved in  15 iterations

     Forces acting on atoms (cartesian axes, Ry/au):

     atom    1 type  1   force =     0.00000000    0.00000000    0.00000000
     atom    2 type  1   force =    -0.00226446   -0.00130738    0.00166819
     atom    3 type  1   force =     0.00000000    0.00261477    0.00166819
     atom    4 type  1   force =     0.00226446   -0.00130738    0.00166819
     atom    5 type  1   force =     0.00226446    0.00130738   -0.00166819
     atom    6 type  1   force =     0.00000000   -0.00261477   -0.00166819
     atom    7 type  1   force =    -0.00226446    0.00130738   -0.00166819
     atom    8 type  2   force =     0.00000000    0.00000000   -0.00341670
     atom    9 type  2   force =     0.00000000    0.00000000   -0.00060206
     atom   10 type  2   force =     0.00000000    0.00000000    0.00361045
     atom   11 type  2   force =     0.00000000    0.00000000    0.00341670
     atom   12 type  2   force =     0.00000000    0.00000000    0.00060206
     atom   13 type  2   force =     0.00000000    0.00000000   -0.00361045

     Total force =     0.010386     Total SCF correction =     0.000461


     Computing stress (Cartesian axis) and pressure

          total   stress  (Ry/bohr**3)                   (kbar)     P=       -4.25
  -0.00004101   0.00000000   0.00000000           -6.03        0.00        0.00
   0.00000000  -0.00004101  -0.00000000            0.00       -6.03       -0.00
   0.00000000  -0.00000000  -0.00000467            0.00       -0.00       -0.69


     BFGS Geometry Optimization

     number of scf cycles    =   1
     number of bfgs steps    =   0

     enthalpy new            =   -3067.1029428034 Ry

     new trust radius        =       0.0068762912 bohr
     new conv_thr            =       0.0000001000 Ry

     new unit-cell volume =   1122.22568 a.u.^3 (   166.29669 Ang^3 )
     density =     15.13360 g/cm^3

CELL_PARAMETERS (alat= 16.92857042)
   0.264865484  -0.152920159   0.951870772
   0.000000000   0.305840317   0.951870772
  -0.264865484  -0.152920159   0.951870772

ATOMIC_POSITIONS (crystal)
Co            0.0000000000        0.0000000000       -0.0000000000
Co            0.0899136090        0.0899136090        0.5896725831
Co            0.0899136090        0.5896725831        0.0899136090
Co            0.5896725831        0.0899136090        0.0899136090
Co           -0.0899136090       -0.0899136090       -0.5896725831
Co           -0.0899136090       -0.5896725831       -0.0899136090
Co           -0.5896725831       -0.0899136090       -0.0899136090
W             0.1657664545        0.1657664545        0.1657664545
W             0.3466253853        0.3466253853        0.3466253853
W             0.4502607402        0.4502607402        0.4502607402
W            -0.1657664545       -0.1657664545       -0.1657664545
W            -0.3466253853       -0.3466253853       -0.3466253853
W            -0.4502607402       -0.4502607402       -0.4502607402


     NEW-OLD atomic charge density approx. for the potential
     extrapolated charge  202.55938, renormalised to  203.00000

     total cpu time spent up to now is     4076.6 secs

     Self-consistent Calculation

     iteration #  1     ecut=   130.00 Ry     beta= 0.70
     Davidson diagonalization with overlap
     ethr =  1.00E-06,  avg # of iterations =  5.4

     total cpu time spent up to now is     4494.8 secs

     total energy              =   -3066.61888138 Ry
     estimated scf accuracy    <       0.51624141 Ry

     iteration #  2     ecut=   130.00 Ry     beta= 0.70
     Davidson diagonalization with overlap
     ethr =  2.54E-04,  avg # of iterations =  5.2

     total cpu time spent up to now is     4865.5 secs

     total energy              =   -3063.50443404 Ry
     estimated scf accuracy    <     101.24962346 Ry

     iteration #  3     ecut=   130.00 Ry     beta= 0.70
     Davidson diagonalization with overlap
     ethr =  2.54E-04,  avg # of iterations =  5.2

     total cpu time spent up to now is     5245.4 secs

     total energy              =   -3066.87738003 Ry
     estimated scf accuracy    <       5.50670721 Ry

     iteration #  4     ecut=   130.00 Ry     beta= 0.70
     Davidson diagonalization with overlap
     ethr =  2.54E-04,  avg # of iterations =  2.9

     total cpu time spent up to now is     5485.4 secs

     total energy              =   -3067.09150906 Ry
     estimated scf accuracy    <       1.44735170 Ry

     iteration #  5     ecut=   130.00 Ry     beta= 0.70
     Davidson diagonalization with overlap
     ethr =  2.54E-04,  avg # of iterations =  1.0

     total cpu time spent up to now is     5706.3 secs

     total energy              =   -3067.10892733 Ry
     estimated scf accuracy    <       0.41059619 Ry

     iteration #  6     ecut=   130.00 Ry     beta= 0.70
     Davidson diagonalization with overlap
     ethr =  2.02E-04,  avg # of iterations =  1.0

     total cpu time spent up to now is     5926.6 secs

     total energy              =   -3067.10756956 Ry
     estimated scf accuracy    <       0.20233060 Ry

     iteration #  7     ecut=   130.00 Ry     beta= 0.70
     Davidson diagonalization with overlap
     ethr =  9.97E-05,  avg # of iterations =  1.0

     total cpu time spent up to now is     6147.7 secs

     total energy              =   -3067.10590477 Ry
     estimated scf accuracy    <       0.12036557 Ry

     iteration #  8     ecut=   130.00 Ry     beta= 0.70
     Davidson diagonalization with overlap
     ethr =  5.93E-05,  avg # of iterations =  1.0

     total cpu time spent up to now is     6370.4 secs

     total energy              =   -3067.10445258 Ry
     estimated scf accuracy    <       0.07592711 Ry

     iteration #  9     ecut=   130.00 Ry     beta= 0.70
     Davidson diagonalization with overlap
     ethr =  3.74E-05,  avg # of iterations =  1.1

     total cpu time spent up to now is     6588.9 secs

     total energy              =   -3067.10271832 Ry
     estimated scf accuracy    <       0.04285596 Ry

     iteration # 10     ecut=   130.00 Ry     beta= 0.70
     Davidson diagonalization with overlap
     ethr =  2.11E-05,  avg # of iterations =  1.7

     total cpu time spent up to now is     6810.1 secs

     total energy              =   -3067.10210086 Ry
     estimated scf accuracy    <       0.01162722 Ry

     iteration # 11     ecut=   130.00 Ry     beta= 0.70
     Davidson diagonalization with overlap
     ethr =  5.73E-06,  avg # of iterations =  4.7

     total cpu time spent up to now is     7043.2 secs

     total energy              =   -3067.10291984 Ry
     estimated scf accuracy    <       0.00010460 Ry

     iteration # 12     ecut=   130.00 Ry     beta= 0.70
     Davidson diagonalization with overlap
     ethr =  5.15E-08,  avg # of iterations =  4.8

     total cpu time spent up to now is     7358.3 secs

     total energy              =   -3067.10305861 Ry
     estimated scf accuracy    <       0.00016694 Ry

     iteration # 13     ecut=   130.00 Ry     beta= 0.70
     Davidson diagonalization with overlap
     ethr =  5.15E-08,  avg # of iterations =  2.0

     total cpu time spent up to now is     7588.9 secs

     total energy              =   -3067.10306327 Ry
     estimated scf accuracy    <       0.00004501 Ry

     iteration # 14     ecut=   130.00 Ry     beta= 0.70
     Davidson diagonalization with overlap
     ethr =  2.22E-08,  avg # of iterations =  1.0

     total cpu time spent up to now is     7808.1 secs

     total energy              =   -3067.10306093 Ry
     estimated scf accuracy    <       0.00002821 Ry

     iteration # 15     ecut=   130.00 Ry     beta= 0.70
     Davidson diagonalization with overlap
     ethr =  1.39E-08,  avg # of iterations =  1.0

     total cpu time spent up to now is     8027.2 secs

     total energy              =   -3067.10305719 Ry
     estimated scf accuracy    <       0.00003981 Ry

     iteration # 16     ecut=   130.00 Ry     beta= 0.70
     Davidson diagonalization with overlap
     ethr =  1.39E-08,  avg # of iterations =  1.0

     total cpu time spent up to now is     8245.7 secs

     total energy              =   -3067.10305810 Ry
     estimated scf accuracy    <       0.00000414 Ry

     iteration # 17     ecut=   130.00 Ry     beta= 0.70
     Davidson diagonalization with overlap
     ethr =  2.04E-09,  avg # of iterations =  3.1

     total cpu time spent up to now is     8510.5 secs

     End of self-consistent calculation

     Number of k-points >= 100: set verbosity='high' to print the bands.

     the Fermi energy is    21.5540 ev

!    total energy              =   -3067.10305871 Ry
     estimated scf accuracy    <       0.00000006 Ry
     smearing contrib. (-TS)   =       0.00064990 Ry
     internal energy E=F+TS    =   -3067.10370862 Ry

     The total energy is F=E-TS. E is the sum of the following terms:
     one-electron contribution =   -1177.94220752 Ry
     hartree contribution      =     734.22744561 Ry
     xc contribution           =    -594.34107576 Ry
     ewald contribution        =   -2029.04787095 Ry

     convergence has been achieved in  17 iterations

     Forces acting on atoms (cartesian axes, Ry/au):

     atom    1 type  1   force =    -0.00000000   -0.00000000   -0.00000000
     atom    2 type  1   force =    -0.00069035   -0.00039857    0.00142118
     atom    3 type  1   force =     0.00000000    0.00079715    0.00142118
     atom    4 type  1   force =     0.00069035   -0.00039857    0.00142118
     atom    5 type  1   force =     0.00069035    0.00039857   -0.00142118
     atom    6 type  1   force =     0.00000000   -0.00079715   -0.00142118
     atom    7 type  1   force =    -0.00069035    0.00039857   -0.00142118
     atom    8 type  2   force =     0.00000000    0.00000000   -0.00230220
     atom    9 type  2   force =     0.00000000    0.00000000    0.00030572
     atom   10 type  2   force =     0.00000000    0.00000000    0.00148977
     atom   11 type  2   force =     0.00000000    0.00000000    0.00230220
     atom   12 type  2   force =     0.00000000    0.00000000   -0.00030572
     atom   13 type  2   force =     0.00000000    0.00000000   -0.00148977

     Total force =     0.005582     Total SCF correction =     0.000570
     SCF correction compared to forces is large: reduce conv_thr to get better values


     Computing stress (Cartesian axis) and pressure

          total   stress  (Ry/bohr**3)                   (kbar)     P=        2.51
   0.00001321   0.00000000   0.00000000            1.94        0.00        0.00
  -0.00000000   0.00001321   0.00000000           -0.00        1.94        0.00
   0.00000000   0.00000000   0.00002475            0.00        0.00        3.64


     number of scf cycles    =   2
     number of bfgs steps    =   1

     enthalpy old            =   -3067.1029428034 Ry
     enthalpy new            =   -3067.1030587149 Ry

     CASE: enthalpy_new < enthalpy_old

     new trust radius        =       0.0043043894 bohr
     new conv_thr            =       0.0000000116 Ry

     new unit-cell volume =   1122.98674 a.u.^3 (   166.40947 Ang^3 )
     density =     15.12334 g/cm^3

CELL_PARAMETERS (alat= 16.92857042)
   0.264870211  -0.152922888   0.952482305
  -0.000000000   0.305845776   0.952482305
  -0.264870211  -0.152922888   0.952482305

ATOMIC_POSITIONS (crystal)
Co            0.0000000000       -0.0000000000       -0.0000000000
Co            0.0898443352        0.0898443352        0.5899434761
Co            0.0898443352        0.5899434761        0.0898443352
Co            0.5899434761        0.0898443352        0.0898443352
Co           -0.0898443352       -0.0898443352       -0.5899434761
Co           -0.0898443352       -0.5899434761       -0.0898443352
Co           -0.5899434761       -0.0898443352       -0.0898443352
W             0.1656899975        0.1656899975        0.1656899975
W             0.3466281581        0.3466281581        0.3466281581
W             0.4503199990        0.4503199990        0.4503199990
W            -0.1656899975       -0.1656899975       -0.1656899975
W            -0.3466281581       -0.3466281581       -0.3466281581
W            -0.4503199990       -0.4503199990       -0.4503199990


     NEW-OLD atomic charge density approx. for the potential
     extrapolated charge  203.13757, renormalised to  203.00000

     total cpu time spent up to now is     8590.5 secs

     Self-consistent Calculation

     iteration #  1     ecut=   130.00 Ry     beta= 0.70
     Davidson diagonalization with overlap
     ethr =  1.00E-06,  avg # of iterations =  4.3

     total cpu time spent up to now is     8972.7 secs

     total energy              =   -3067.05476666 Ry
     estimated scf accuracy    <       0.05162152 Ry

     iteration #  2     ecut=   130.00 Ry     beta= 0.70
     Davidson diagonalization with overlap
     ethr =  2.54E-05,  avg # of iterations =  5.0

     total cpu time spent up to now is     9325.6 secs

     total energy              =   -3066.73646432 Ry
     estimated scf accuracy    <       9.74580793 Ry

     iteration #  3     ecut=   130.00 Ry     beta= 0.70
     Davidson diagonalization with overlap
     ethr =  2.54E-05,  avg # of iterations =  5.5

     total cpu time spent up to now is     9656.3 secs

     total energy              =   -3067.07474965 Ry
     estimated scf accuracy    <       0.69016317 Ry

     iteration #  4     ecut=   130.00 Ry     beta= 0.70
     Davidson diagonalization with overlap
     ethr =  2.54E-05,  avg # of iterations =  4.4

     total cpu time spent up to now is     9909.7 secs

     total energy              =   -3067.10357657 Ry
     estimated scf accuracy    <       0.10648803 Ry

     iteration #  5     ecut=   130.00 Ry     beta= 0.70
     Davidson diagonalization with overlap
     ethr =  2.54E-05,  avg # of iterations =  1.0

     total cpu time spent up to now is    10130.2 secs

     total energy              =   -3067.10345937 Ry
     estimated scf accuracy    <       0.04200366 Ry

     iteration #  6     ecut=   130.00 Ry     beta= 0.70
     Davidson diagonalization with overlap
     ethr =  2.07E-05,  avg # of iterations =  1.0

     total cpu time spent up to now is    10351.6 secs

     total energy              =   -3067.10316256 Ry
     estimated scf accuracy    <       0.01509290 Ry

     iteration #  7     ecut=   130.00 Ry     beta= 0.70
     Davidson diagonalization with overlap
     ethr =  7.43E-06,  avg # of iterations =  1.0

     total cpu time spent up to now is    10572.8 secs

     total energy              =   -3067.10309826 Ry
     estimated scf accuracy    <       0.00516666 Ry

     iteration #  8     ecut=   130.00 Ry     beta= 0.70
     Davidson diagonalization with overlap
     ethr =  2.55E-06,  avg # of iterations =  1.3

     total cpu time spent up to now is    10797.9 secs

     total energy              =   -3067.10304342 Ry
     estimated scf accuracy    <       0.00191615 Ry

     iteration #  9     ecut=   130.00 Ry     beta= 0.70
     Davidson diagonalization with overlap
     ethr =  9.44E-07,  avg # of iterations =  1.0

     total cpu time spent up to now is    11018.1 secs

     total energy              =   -3067.10306811 Ry
     estimated scf accuracy    <       0.00033538 Ry

     iteration # 10     ecut=   130.00 Ry     beta= 0.70
     Davidson diagonalization with overlap
     ethr =  1.65E-07,  avg # of iterations =  3.7

     total cpu time spent up to now is    11258.7 secs

     total energy              =   -3067.10309466 Ry
     estimated scf accuracy    <       0.00002386 Ry

     iteration # 11     ecut=   130.00 Ry     beta= 0.70
     Davidson diagonalization with overlap
     ethr =  1.18E-08,  avg # of iterations =  3.1

     total cpu time spent up to now is    11514.1 secs

     total energy              =   -3067.10309926 Ry
     estimated scf accuracy    <       0.00000594 Ry

     iteration # 12     ecut=   130.00 Ry     beta= 0.70
     Davidson diagonalization with overlap
     ethr =  2.93E-09,  avg # of iterations =  1.0

     total cpu time spent up to now is    11734.6 secs

     total energy              =   -3067.10309926 Ry
     estimated scf accuracy    <       0.00000494 Ry

     iteration # 13     ecut=   130.00 Ry     beta= 0.70
     Davidson diagonalization with overlap
     ethr =  2.43E-09,  avg # of iterations =  1.0

     total cpu time spent up to now is    11955.0 secs

     total energy              =   -3067.10309908 Ry
     estimated scf accuracy    <       0.00000486 Ry

     iteration # 14     ecut=   130.00 Ry     beta= 0.70
     Davidson diagonalization with overlap
     ethr =  2.39E-09,  avg # of iterations =  1.0

     total cpu time spent up to now is    12175.1 secs

     total energy              =   -3067.10309920 Ry
     estimated scf accuracy    <       0.00000294 Ry

     iteration # 15     ecut=   130.00 Ry     beta= 0.70
     Davidson diagonalization with overlap
     ethr =  1.45E-09,  avg # of iterations =  1.0

     total cpu time spent up to now is    12396.2 secs

     total energy              =   -3067.10309891 Ry
     estimated scf accuracy    <       0.00000419 Ry

     iteration # 16     ecut=   130.00 Ry     beta= 0.70
     Davidson diagonalization with overlap
     ethr =  1.45E-09,  avg # of iterations =  1.0

     total cpu time spent up to now is    12616.9 secs

     total energy              =   -3067.10309885 Ry
     estimated scf accuracy    <       0.00000131 Ry

     iteration # 17     ecut=   130.00 Ry     beta= 0.70
     Davidson diagonalization with overlap
     ethr =  6.48E-10,  avg # of iterations =  1.0

     total cpu time spent up to now is    12837.3 secs

     total energy              =   -3067.10309884 Ry
     estimated scf accuracy    <       0.00000030 Ry

     iteration # 18     ecut=   130.00 Ry     beta= 0.70
     Davidson diagonalization with overlap
     ethr =  1.50E-10,  avg # of iterations =  2.3

     total cpu time spent up to now is    13061.4 secs

     End of self-consistent calculation

     Number of k-points >= 100: set verbosity='high' to print the bands.

     the Fermi energy is    21.5370 ev

!    total energy              =   -3067.10309886 Ry
     estimated scf accuracy    <          1.1E-09 Ry
     smearing contrib. (-TS)   =       0.00067795 Ry
     internal energy E=F+TS    =   -3067.10377681 Ry

     The total energy is F=E-TS. E is the sum of the following terms:
     one-electron contribution =   -1179.03202857 Ry
     hartree contribution      =     734.64039265 Ry
     xc contribution           =    -594.32930069 Ry
     ewald contribution        =   -2028.38284020 Ry

     convergence has been achieved in  18 iterations

     Forces acting on atoms (cartesian axes, Ry/au):

     atom    1 type  1   force =     0.00000000    0.00000000    0.00000000
     atom    2 type  1   force =     0.00038412    0.00022177    0.00092083
     atom    3 type  1   force =     0.00000000   -0.00044355    0.00092083
     atom    4 type  1   force =    -0.00038412    0.00022177    0.00092083
     atom    5 type  1   force =    -0.00038412   -0.00022177   -0.00092083
     atom    6 type  1   force =     0.00000000    0.00044355   -0.00092083
     atom    7 type  1   force =     0.00038412   -0.00022177   -0.00092083
     atom    8 type  2   force =     0.00000000    0.00000000   -0.00137381
     atom    9 type  2   force =     0.00000000    0.00000000    0.00095490
     atom   10 type  2   force =     0.00000000    0.00000000   -0.00035739
     atom   11 type  2   force =     0.00000000   -0.00000000    0.00137381
     atom   12 type  2   force =     0.00000000    0.00000000   -0.00095490
     atom   13 type  2   force =     0.00000000    0.00000000    0.00035739

     Total force =     0.003482     Total SCF correction =     0.000130


     Computing stress (Cartesian axis) and pressure

          total   stress  (Ry/bohr**3)                   (kbar)     P=       -0.27
   0.00000000   0.00000000   0.00000000            0.00        0.00        0.00
   0.00000000   0.00000000   0.00000000            0.00        0.00        0.00
   0.00000000   0.00000000  -0.00000544            0.00        0.00       -0.80


     number of scf cycles    =   3
     number of bfgs steps    =   2

     enthalpy old            =   -3067.1030587149 Ry
     enthalpy new            =   -3067.1030988576 Ry

     CASE: enthalpy_new < enthalpy_old

     new trust radius        =       0.0028780165 bohr
     new conv_thr            =       0.0000000040 Ry

     new unit-cell volume =   1122.91589 a.u.^3 (   166.39897 Ang^3 )
     density =     15.12430 g/cm^3

CELL_PARAMETERS (alat= 16.92857042)
   0.264859237  -0.152916552   0.952501136
  -0.000000000   0.305833103   0.952501136
  -0.264859237  -0.152916552   0.952501136

ATOMIC_POSITIONS (crystal)
Co            0.0000000000        0.0000000000       -0.0000000000
Co            0.0898749103        0.0898749103        0.5899939691
Co            0.0898749103        0.5899939691        0.0898749103
Co            0.5899939691        0.0898749103        0.0898749103
Co           -0.0898749103       -0.0898749103       -0.5899939691
Co           -0.0898749103       -0.5899939691       -0.0898749103
Co           -0.5899939691       -0.0898749103       -0.0898749103
W             0.1656305006        0.1656305006        0.1656305006
W             0.3466520256        0.3466520256        0.3466520256
W             0.4503318312        0.4503318312        0.4503318312
W            -0.1656305006       -0.1656305006       -0.1656305006
W            -0.3466520256       -0.3466520256       -0.3466520256
W            -0.4503318312       -0.4503318312       -0.4503318312


     NEW-OLD atomic charge density approx. for the potential
     extrapolated charge  202.98719, renormalised to  203.00000

     total cpu time spent up to now is    13141.1 secs

     Self-consistent Calculation

     iteration #  1     ecut=   130.00 Ry     beta= 0.70
     Davidson diagonalization with overlap
     ethr =  1.00E-06,  avg # of iterations =  3.0

     total cpu time spent up to now is    13492.1 secs

     total energy              =   -3067.10260249 Ry
     estimated scf accuracy    <       0.00055213 Ry

     iteration #  2     ecut=   130.00 Ry     beta= 0.70
     Davidson diagonalization with overlap
     ethr =  2.72E-07,  avg # of iterations =  4.7

     total cpu time spent up to now is    13829.9 secs

     total energy              =   -3067.09744505 Ry
     estimated scf accuracy    <       0.18130476 Ry

     iteration #  3     ecut=   130.00 Ry     beta= 0.70
     Davidson diagonalization with overlap
     ethr =  2.72E-07,  avg # of iterations =  4.8

     total cpu time spent up to now is    14146.3 secs

     total energy              =   -3067.10257967 Ry
     estimated scf accuracy    <       0.01467027 Ry

     iteration #  4     ecut=   130.00 Ry     beta= 0.70
     Davidson diagonalization with overlap
     ethr =  2.72E-07,  avg # of iterations =  2.8

     total cpu time spent up to now is    14398.4 secs

     total energy              =   -3067.10311372 Ry
     estimated scf accuracy    <       0.00047544 Ry

     iteration #  5     ecut=   130.00 Ry     beta= 0.70
     Davidson diagonalization with overlap
     ethr =  2.34E-07,  avg # of iterations =  1.0

     total cpu time spent up to now is    14618.7 secs

     total energy              =   -3067.10311555 Ry
     estimated scf accuracy    <       0.00028606 Ry

     iteration #  6     ecut=   130.00 Ry     beta= 0.70
     Davidson diagonalization with overlap
     ethr =  1.41E-07,  avg # of iterations =  1.0

     total cpu time spent up to now is    14840.2 secs

     total energy              =   -3067.10311087 Ry
     estimated scf accuracy    <       0.00011326 Ry

     iteration #  7     ecut=   130.00 Ry     beta= 0.70
     Davidson diagonalization with overlap
     ethr =  5.58E-08,  avg # of iterations =  1.0

     total cpu time spent up to now is    15061.1 secs

     total energy              =   -3067.10311274 Ry
     estimated scf accuracy    <       0.00001460 Ry

     iteration #  8     ecut=   130.00 Ry     beta= 0.70
     Davidson diagonalization with overlap
     ethr =  7.19E-09,  avg # of iterations =  3.2

     total cpu time spent up to now is    15304.6 secs

     total energy              =   -3067.10311429 Ry
     estimated scf accuracy    <       0.00000030 Ry

     iteration #  9     ecut=   130.00 Ry     beta= 0.70
     Davidson diagonalization with overlap
     ethr =  1.46E-10,  avg # of iterations =  3.5

     total cpu time spent up to now is    15584.2 secs

     total energy              =   -3067.10311438 Ry
     estimated scf accuracy    <       0.00000012 Ry

     iteration # 10     ecut=   130.00 Ry     beta= 0.70
     Davidson diagonalization with overlap
     ethr =  5.76E-11,  avg # of iterations =  1.5

     total cpu time spent up to now is    15805.4 secs

     total energy              =   -3067.10311438 Ry
     estimated scf accuracy    <          4.7E-09 Ry

     iteration # 11     ecut=   130.00 Ry     beta= 0.70
     Davidson diagonalization with overlap
     ethr =  2.32E-12,  avg # of iterations =  3.3

     total cpu time spent up to now is    16089.6 secs

     End of self-consistent calculation

     Number of k-points >= 100: set verbosity='high' to print the bands.

     the Fermi energy is    21.5388 ev

!    total energy              =   -3067.10311439 Ry
     estimated scf accuracy    <          4.9E-10 Ry
     smearing contrib. (-TS)   =       0.00069456 Ry
     internal energy E=F+TS    =   -3067.10380895 Ry

     The total energy is F=E-TS. E is the sum of the following terms:
     one-electron contribution =   -1179.30309813 Ry
     hartree contribution      =     734.78735732 Ry
     xc contribution           =    -594.32998132 Ry
     ewald contribution        =   -2028.25808682 Ry

     convergence has been achieved in  11 iterations

     Forces acting on atoms (cartesian axes, Ry/au):

     atom    1 type  1   force =     0.00000000    0.00000000    0.00000000
     atom    2 type  1   force =     0.00058104    0.00033546    0.00057331
     atom    3 type  1   force =    -0.00000000   -0.00067093    0.00057331
     atom    4 type  1   force =    -0.00058104    0.00033546    0.00057331
     atom    5 type  1   force =    -0.00058104   -0.00033546   -0.00057331
     atom    6 type  1   force =    -0.00000000    0.00067093   -0.00057331
     atom    7 type  1   force =     0.00058104   -0.00033546   -0.00057331
     atom    8 type  2   force =     0.00000000   -0.00000000   -0.00084753
     atom    9 type  2   force =     0.00000000    0.00000000    0.00095317
     atom   10 type  2   force =     0.00000000    0.00000000   -0.00063943
     atom   11 type  2   force =     0.00000000    0.00000000    0.00084753
     atom   12 type  2   force =     0.00000000    0.00000000   -0.00095317
     atom   13 type  2   force =     0.00000000    0.00000000    0.00063943

     Total force =     0.002957     Total SCF correction =     0.000213


     Computing stress (Cartesian axis) and pressure

          total   stress  (Ry/bohr**3)                   (kbar)     P=       -0.09
   0.00000121   0.00000000  -0.00000000            0.18        0.00       -0.00
   0.00000000   0.00000121   0.00000000            0.00        0.18        0.00
  -0.00000000   0.00000000  -0.00000428           -0.00        0.00       -0.63


     number of scf cycles    =   4
     number of bfgs steps    =   3

     enthalpy old            =   -3067.1030988576 Ry
     enthalpy new            =   -3067.1031143855 Ry

     CASE: enthalpy_new < enthalpy_old

     new trust radius        =       0.0031658808 bohr
     new conv_thr            =       0.0000000016 Ry

     new unit-cell volume =   1122.90683 a.u.^3 (   166.39762 Ang^3 )
     density =     15.12442 g/cm^3

CELL_PARAMETERS (alat= 16.92857042)
   0.264861605  -0.152917919   0.952476422
  -0.000000000   0.305835837   0.952476422
  -0.264861605  -0.152917919   0.952476422

ATOMIC_POSITIONS (crystal)
Co            0.0000000000        0.0000000000       -0.0000000000
Co            0.0899511736        0.0899511736        0.5899653455
Co            0.0899511736        0.5899653455        0.0899511736
Co            0.5899653455        0.0899511736        0.0899511736
Co           -0.0899511736       -0.0899511736       -0.5899653455
Co           -0.0899511736       -0.5899653455       -0.0899511736
Co           -0.5899653455       -0.0899511736       -0.0899511736
W             0.1655650539        0.1655650539        0.1655650539
W             0.3466906050        0.3466906050        0.3466906050
W             0.4503302116        0.4503302116        0.4503302116
W            -0.1655650539       -0.1655650539       -0.1655650539
W            -0.3466906050       -0.3466906050       -0.3466906050
W            -0.4503302116       -0.4503302116       -0.4503302116


     NEW-OLD atomic charge density approx. for the potential
     extrapolated charge  202.99836, renormalised to  203.00000

     total cpu time spent up to now is    16169.4 secs

     Self-consistent Calculation

     iteration #  1     ecut=   130.00 Ry     beta= 0.70
     Davidson diagonalization with overlap
     ethr =  1.00E-06,  avg # of iterations =  3.0

     Threshold (ethr) on eigenvalues was too large:
     Diagonalizing with lowered threshold

     Davidson diagonalization with overlap
     ethr =  2.23E-08,  avg # of iterations =  2.1

     total cpu time spent up to now is    16751.6 secs

     total energy              =   -3067.10309046 Ry
     estimated scf accuracy    <       0.00004511 Ry

     iteration #  2     ecut=   130.00 Ry     beta= 0.70
     Davidson diagonalization with overlap
     ethr =  2.22E-08,  avg # of iterations =  4.2

     total cpu time spent up to now is    17054.3 secs

     total energy              =   -3067.10261695 Ry
     estimated scf accuracy    <       0.01698606 Ry

     iteration #  3     ecut=   130.00 Ry     beta= 0.70
     Davidson diagonalization with overlap
     ethr =  2.22E-08,  avg # of iterations =  4.2

     total cpu time spent up to now is    17348.5 secs

     total energy              =   -3067.10309997 Ry
     estimated scf accuracy    <       0.00060872 Ry

     iteration #  4     ecut=   130.00 Ry     beta= 0.70
     Davidson diagonalization with overlap
     ethr =  2.22E-08,  avg # of iterations =  2.5

     total cpu time spent up to now is    17590.5 secs

     total energy              =   -3067.10312726 Ry
     estimated scf accuracy    <       0.00000603 Ry

     iteration #  5     ecut=   130.00 Ry     beta= 0.70
     Davidson diagonalization with overlap
     ethr =  2.97E-09,  avg # of iterations =  2.8

     total cpu time spent up to now is    17839.1 secs

     total energy              =   -3067.10312755 Ry
     estimated scf accuracy    <       0.00000480 Ry

     iteration #  6     ecut=   130.00 Ry     beta= 0.70
     Davidson diagonalization with overlap
     ethr =  2.36E-09,  avg # of iterations =  2.0

     total cpu time spent up to now is    18065.1 secs

     total energy              =   -3067.10312801 Ry
     estimated scf accuracy    <       0.00000049 Ry

     iteration #  7     ecut=   130.00 Ry     beta= 0.70
     Davidson diagonalization with overlap
     ethr =  2.40E-10,  avg # of iterations =  3.0

     total cpu time spent up to now is    18324.0 secs

     total energy              =   -3067.10312803 Ry
     estimated scf accuracy    <       0.00000145 Ry

     iteration #  8     ecut=   130.00 Ry     beta= 0.70
     Davidson diagonalization with overlap
     ethr =  2.40E-10,  avg # of iterations =  2.0

     total cpu time spent up to now is    18551.2 secs

     total energy              =   -3067.10312814 Ry
     estimated scf accuracy    <       0.00000002 Ry

     iteration #  9     ecut=   130.00 Ry     beta= 0.70
     Davidson diagonalization with overlap
     ethr =  8.64E-12,  avg # of iterations =  3.3

     total cpu time spent up to now is    18816.6 secs

     total energy              =   -3067.10312815 Ry
     estimated scf accuracy    <          6.0E-09 Ry

     iteration # 10     ecut=   130.00 Ry     beta= 0.70
     Davidson diagonalization with overlap
     ethr =  2.96E-12,  avg # of iterations =  1.0

     total cpu time spent up to now is    19036.6 secs

     End of self-consistent calculation

     Number of k-points >= 100: set verbosity='high' to print the bands.

     the Fermi energy is    21.5393 ev

!    total energy              =   -3067.10312815 Ry
     estimated scf accuracy    <          3.5E-10 Ry
     smearing contrib. (-TS)   =       0.00071615 Ry
     internal energy E=F+TS    =   -3067.10384430 Ry

     The total energy is F=E-TS. E is the sum of the following terms:
     one-electron contribution =   -1179.66507055 Ry
     hartree contribution      =     734.96952433 Ry
     xc contribution           =    -594.32991602 Ry
     ewald contribution        =   -2028.07838206 Ry

     convergence has been achieved in  10 iterations

     Forces acting on atoms (cartesian axes, Ry/au):

     atom    1 type  1   force =     0.00000000    0.00000000   -0.00000000
     atom    2 type  1   force =     0.00043794    0.00025284    0.00019779
     atom    3 type  1   force =     0.00000000   -0.00050569    0.00019779
     atom    4 type  1   force =    -0.00043794    0.00025284    0.00019779
     atom    5 type  1   force =    -0.00043794   -0.00025284   -0.00019779
     atom    6 type  1   force =     0.00000000    0.00050569   -0.00019779
     atom    7 type  1   force =     0.00043794   -0.00025284   -0.00019779
     atom    8 type  2   force =     0.00000000   -0.00000000   -0.00039283
     atom    9 type  2   force =     0.00000000    0.00000000    0.00071903
     atom   10 type  2   force =     0.00000000    0.00000000   -0.00045781
     atom   11 type  2   force =     0.00000000    0.00000000    0.00039283
     atom   12 type  2   force =     0.00000000    0.00000000   -0.00071903
     atom   13 type  2   force =     0.00000000    0.00000000    0.00045781

     Total force =     0.001879     Total SCF correction =     0.000101


     Computing stress (Cartesian axis) and pressure

          total   stress  (Ry/bohr**3)                   (kbar)     P=       -0.08
   0.00000026   0.00000000   0.00000000            0.04        0.00        0.00
   0.00000000   0.00000026   0.00000000            0.00        0.04        0.00
  -0.00000000   0.00000000  -0.00000216           -0.00        0.00       -0.32


     number of scf cycles    =   5
     number of bfgs steps    =   4

     enthalpy old            =   -3067.1031143855 Ry
     enthalpy new            =   -3067.1031281469 Ry

     CASE: enthalpy_new < enthalpy_old

     new trust radius        =       0.0031464928 bohr
     new conv_thr            =       0.0000000014 Ry

     new unit-cell volume =   1122.88607 a.u.^3 (   166.39455 Ang^3 )
     density =     15.12470 g/cm^3

CELL_PARAMETERS (alat= 16.92857042)
   0.264863325  -0.152918912   0.952446446
  -0.000000000   0.305837824   0.952446446
  -0.264863325  -0.152918912   0.952446446

ATOMIC_POSITIONS (crystal)
Co            0.0000000000        0.0000000000       -0.0000000000
Co            0.0900494241        0.0900494241        0.5898838827
Co            0.0900494241        0.5898838827        0.0900494241
Co            0.5898838827        0.0900494241        0.0900494241
Co           -0.0900494241       -0.0900494241       -0.5898838827
Co           -0.0900494241       -0.5898838827       -0.0900494241
Co           -0.5898838827       -0.0900494241       -0.0900494241
W             0.1655000063        0.1655000063        0.1655000063
W             0.3467404296        0.3467404296        0.3467404296
W             0.4503217688        0.4503217688        0.4503217688
W            -0.1655000063       -0.1655000063       -0.1655000063
W            -0.3467404296       -0.3467404296       -0.3467404296
W            -0.4503217688       -0.4503217688       -0.4503217688


     NEW-OLD atomic charge density approx. for the potential
     extrapolated charge  202.99625, renormalised to  203.00000

     total cpu time spent up to now is    19116.3 secs

     Self-consistent Calculation

     iteration #  1     ecut=   130.00 Ry     beta= 0.70
     Davidson diagonalization with overlap
     ethr =  1.00E-06,  avg # of iterations =  3.0

     Threshold (ethr) on eigenvalues was too large:
     Diagonalizing with lowered threshold

     Davidson diagonalization with overlap
     ethr =  4.03E-08,  avg # of iterations =  1.2

     total cpu time spent up to now is    19693.9 secs

     total energy              =   -3067.10306259 Ry
     estimated scf accuracy    <       0.00008152 Ry

     iteration #  2     ecut=   130.00 Ry     beta= 0.70
     Davidson diagonalization with overlap
     ethr =  4.02E-08,  avg # of iterations =  4.2

     total cpu time spent up to now is    20004.4 secs

     total energy              =   -3067.10225200 Ry
     estimated scf accuracy    <       0.02863876 Ry

     iteration #  3     ecut=   130.00 Ry     beta= 0.70
     Davidson diagonalization with overlap
     ethr =  4.02E-08,  avg # of iterations =  4.4

     total cpu time spent up to now is    20301.8 secs

     total energy              =   -3067.10307357 Ry
     estimated scf accuracy    <       0.00156102 Ry

     iteration #  4     ecut=   130.00 Ry     beta= 0.70
     Davidson diagonalization with overlap
     ethr =  4.02E-08,  avg # of iterations =  2.7

     total cpu time spent up to now is    20548.7 secs

     total energy              =   -3067.10313253 Ry
     estimated scf accuracy    <       0.00002714 Ry

     iteration #  5     ecut=   130.00 Ry     beta= 0.70
     Davidson diagonalization with overlap
     ethr =  1.34E-08,  avg # of iterations =  2.0

     total cpu time spent up to now is    20772.2 secs

     total energy              =   -3067.10313187 Ry
     estimated scf accuracy    <       0.00003320 Ry

     iteration #  6     ecut=   130.00 Ry     beta= 0.70
     Davidson diagonalization with overlap
     ethr =  1.34E-08,  avg # of iterations =  1.0

     total cpu time spent up to now is    20994.4 secs

     total energy              =   -3067.10313378 Ry
     estimated scf accuracy    <       0.00000551 Ry

     iteration #  7     ecut=   130.00 Ry     beta= 0.70
     Davidson diagonalization with overlap
     ethr =  2.72E-09,  avg # of iterations =  1.7

     total cpu time spent up to now is    21218.3 secs

     total energy              =   -3067.10313415 Ry
     estimated scf accuracy    <       0.00000066 Ry

     iteration #  8     ecut=   130.00 Ry     beta= 0.70
     Davidson diagonalization with overlap
     ethr =  3.26E-10,  avg # of iterations =  3.6

     total cpu time spent up to now is    21475.6 secs

     total energy              =   -3067.10313426 Ry
     estimated scf accuracy    <       0.00000009 Ry

     iteration #  9     ecut=   130.00 Ry     beta= 0.70
     Davidson diagonalization with overlap
     ethr =  4.29E-11,  avg # of iterations =  1.7

     total cpu time spent up to now is    21699.7 secs

     total energy              =   -3067.10313426 Ry
     estimated scf accuracy    <       0.00000002 Ry

     iteration # 10     ecut=   130.00 Ry     beta= 0.70
     Davidson diagonalization with overlap
     ethr =  9.64E-12,  avg # of iterations =  1.5

     total cpu time spent up to now is    21920.9 secs

     End of self-consistent calculation

     Number of k-points >= 100: set verbosity='high' to print the bands.

     the Fermi energy is    21.5401 ev

!    total energy              =   -3067.10313426 Ry
     estimated scf accuracy    <          3.0E-10 Ry
     smearing contrib. (-TS)   =       0.00073889 Ry
     internal energy E=F+TS    =   -3067.10387315 Ry

     The total energy is F=E-TS. E is the sum of the following terms:
     one-electron contribution =   -1179.98581690 Ry
     hartree contribution      =     735.13214776 Ry
     xc contribution           =    -594.32988559 Ry
     ewald contribution        =   -2027.92031843 Ry

     convergence has been achieved in  10 iterations

     Forces acting on atoms (cartesian axes, Ry/au):

     atom    1 type  1   force =     0.00000000    0.00000000    0.00000000
     atom    2 type  1   force =     0.00009127    0.00005270   -0.00012579
     atom    3 type  1   force =     0.00000000   -0.00010539   -0.00012579
     atom    4 type  1   force =    -0.00009127    0.00005270   -0.00012579
     atom    5 type  1   force =    -0.00009127   -0.00005270    0.00012579
     atom    6 type  1   force =     0.00000000    0.00010539    0.00012579
     atom    7 type  1   force =     0.00009127   -0.00005270    0.00012579
     atom    8 type  2   force =     0.00000000    0.00000000   -0.00002290
     atom    9 type  2   force =     0.00000000    0.00000000    0.00031263
     atom   10 type  2   force =     0.00000000   -0.00000000   -0.00000909
     atom   11 type  2   force =     0.00000000   -0.00000000    0.00002290
     atom   12 type  2   force =     0.00000000    0.00000000   -0.00031263
     atom   13 type  2   force =     0.00000000    0.00000000    0.00000909

     Total force =     0.000599     Total SCF correction =     0.000087
     SCF correction compared to forces is large: reduce conv_thr to get better values


     Computing stress (Cartesian axis) and pressure

          total   stress  (Ry/bohr**3)                   (kbar)     P=       -0.11
  -0.00000106   0.00000000   0.00000000           -0.16        0.00        0.00
   0.00000000  -0.00000106  -0.00000000            0.00       -0.16       -0.00
   0.00000000  -0.00000000  -0.00000004            0.00       -0.00       -0.01


     number of scf cycles    =   6
     number of bfgs steps    =   5

     enthalpy old            =   -3067.1031281469 Ry
     enthalpy new            =   -3067.1031342636 Ry

     CASE: enthalpy_new < enthalpy_old

     new trust radius        =       0.0004644306 bohr
     new conv_thr            =       0.0000000010 Ry

     new unit-cell volume =   1122.85122 a.u.^3 (   166.38938 Ang^3 )
     density =     15.12517 g/cm^3

CELL_PARAMETERS (alat= 16.92857042)
   0.264858704  -0.152916244   0.952450116
  -0.000000000   0.305832488   0.952450116
  -0.264858704  -0.152916244   0.952450116

ATOMIC_POSITIONS (crystal)
Co            0.0000000000        0.0000000000       -0.0000000000
Co            0.0900593770        0.0900593770        0.5898623001
Co            0.0900593770        0.5898623001        0.0900593770
Co            0.5898623001        0.0900593770        0.0900593770
Co           -0.0900593770       -0.0900593770       -0.5898623001
Co           -0.0900593770       -0.5898623001       -0.0900593770
Co           -0.5898623001       -0.0900593770       -0.0900593770
W             0.1654958835        0.1654958835        0.1654958835
W             0.3467500311        0.3467500311        0.3467500311
W             0.4503210982        0.4503210982        0.4503210982
W            -0.1654958835       -0.1654958835       -0.1654958835
W            -0.3467500311       -0.3467500311       -0.3467500311
W            -0.4503210982       -0.4503210982       -0.4503210982


     NEW-OLD atomic charge density approx. for the potential
     extrapolated charge  202.99370, renormalised to  203.00000

     total cpu time spent up to now is    22000.4 secs

     Self-consistent Calculation

     iteration #  1     ecut=   130.00 Ry     beta= 0.70
     Davidson diagonalization with overlap
     ethr =  1.00E-06,  avg # of iterations =  2.0

     Threshold (ethr) on eigenvalues was too large:
     Diagonalizing with lowered threshold

     Davidson diagonalization with overlap
     ethr =  4.22E-08,  avg # of iterations =  2.0

     total cpu time spent up to now is    22453.2 secs

     total energy              =   -3067.10304778 Ry
     estimated scf accuracy    <       0.00009159 Ry

     iteration #  2     ecut=   130.00 Ry     beta= 0.70
     Davidson diagonalization with overlap
     ethr =  4.51E-08,  avg # of iterations =  4.2

     total cpu time spent up to now is    22772.1 secs

     total energy              =   -3067.10234436 Ry
     estimated scf accuracy    <       0.02290352 Ry

     iteration #  3     ecut=   130.00 Ry     beta= 0.70
     Davidson diagonalization with overlap
     ethr =  4.51E-08,  avg # of iterations =  4.2

     total cpu time spent up to now is    23068.3 secs

     total energy              =   -3067.10303236 Ry
     estimated scf accuracy    <       0.00297261 Ry

     iteration #  4     ecut=   130.00 Ry     beta= 0.70
     Davidson diagonalization with overlap
     ethr =  4.51E-08,  avg # of iterations =  2.9

     total cpu time spent up to now is    23321.4 secs

     total energy              =   -3067.10313503 Ry
     estimated scf accuracy    <       0.00011847 Ry

     iteration #  5     ecut=   130.00 Ry     beta= 0.70
     Davidson diagonalization with overlap
     ethr =  4.51E-08,  avg # of iterations =  1.0

     total cpu time spent up to now is    23541.6 secs

     total energy              =   -3067.10313558 Ry
     estimated scf accuracy    <       0.00006807 Ry

     iteration #  6     ecut=   130.00 Ry     beta= 0.70
     Davidson diagonalization with overlap
     ethr =  3.35E-08,  avg # of iterations =  1.0

     total cpu time spent up to now is    23762.8 secs

     total energy              =   -3067.10313470 Ry
     estimated scf accuracy    <       0.00003287 Ry

     iteration #  7     ecut=   130.00 Ry     beta= 0.70
     Davidson diagonalization with overlap
     ethr =  1.62E-08,  avg # of iterations =  1.0

     total cpu time spent up to now is    23984.2 secs

     total energy              =   -3067.10313456 Ry
     estimated scf accuracy    <       0.00001217 Ry

     iteration #  8     ecut=   130.00 Ry     beta= 0.70
     Davidson diagonalization with overlap
     ethr =  6.00E-09,  avg # of iterations =  1.0

     total cpu time spent up to now is    24206.8 secs

     total energy              =   -3067.10313437 Ry
     estimated scf accuracy    <       0.00000456 Ry

     iteration #  9     ecut=   130.00 Ry     beta= 0.70
     Davidson diagonalization with overlap
     ethr =  2.24E-09,  avg # of iterations =  1.5

     total cpu time spent up to now is    24428.0 secs

     total energy              =   -3067.10313454 Ry
     estimated scf accuracy    <       0.00000027 Ry

     iteration # 10     ecut=   130.00 Ry     beta= 0.70
     Davidson diagonalization with overlap
     ethr =  1.34E-10,  avg # of iterations =  3.8

     total cpu time spent up to now is    24711.4 secs

     total energy              =   -3067.10313463 Ry
     estimated scf accuracy    <       0.00000001 Ry

     iteration # 11     ecut=   130.00 Ry     beta= 0.70
     Davidson diagonalization with overlap
     ethr =  7.17E-12,  avg # of iterations =  1.6

     total cpu time spent up to now is    24934.7 secs

     total energy              =   -3067.10313462 Ry
     estimated scf accuracy    <       0.00000005 Ry

     iteration # 12     ecut=   130.00 Ry     beta= 0.70
     Davidson diagonalization with overlap
     ethr =  7.17E-12,  avg # of iterations =  1.5

     total cpu time spent up to now is    25155.6 secs

     total energy              =   -3067.10313463 Ry
     estimated scf accuracy    <       0.00000001 Ry

     iteration # 13     ecut=   130.00 Ry     beta= 0.70
     Davidson diagonalization with overlap
     ethr =  5.11E-12,  avg # of iterations =  1.0

     total cpu time spent up to now is    25375.0 secs

     total energy              =   -3067.10313463 Ry
     estimated scf accuracy    <          2.7E-09 Ry

     iteration # 14     ecut=   130.00 Ry     beta= 0.70
     Davidson diagonalization with overlap
     ethr =  1.33E-12,  avg # of iterations =  2.8

     total cpu time spent up to now is    25607.2 secs

     total energy              =   -3067.10313463 Ry
     estimated scf accuracy    <          2.2E-09 Ry

     iteration # 15     ecut=   130.00 Ry     beta= 0.70
     Davidson diagonalization with overlap
     ethr =  1.08E-12,  avg # of iterations =  1.0

     total cpu time spent up to now is    25826.9 secs

     End of self-consistent calculation

     Number of k-points >= 100: set verbosity='high' to print the bands.

     the Fermi energy is    21.5408 ev

!    total energy              =   -3067.10313463 Ry
     estimated scf accuracy    <          7.4E-11 Ry
     smearing contrib. (-TS)   =       0.00074007 Ry
     internal energy E=F+TS    =   -3067.10387469 Ry

     The total energy is F=E-TS. E is the sum of the following terms:
     one-electron contribution =   -1179.94043042 Ry
     hartree contribution      =     735.11521946 Ry
     xc contribution           =    -594.33035983 Ry
     ewald contribution        =   -2027.94830390 Ry

     convergence has been achieved in  15 iterations

     Forces acting on atoms (cartesian axes, Ry/au):

     atom    1 type  1   force =     0.00000000    0.00000000   -0.00000000
     atom    2 type  1   force =     0.00001541    0.00000890   -0.00011188
     atom    3 type  1   force =     0.00000000   -0.00001779   -0.00011188
     atom    4 type  1   force =    -0.00001541    0.00000890   -0.00011188
     atom    5 type  1   force =    -0.00001541   -0.00000890    0.00011188
     atom    6 type  1   force =     0.00000000    0.00001779    0.00011188
     atom    7 type  1   force =     0.00001541   -0.00000890    0.00011188
     atom    8 type  2   force =     0.00000000    0.00000000   -0.00002828
     atom    9 type  2   force =     0.00000000    0.00000000    0.00021112
     atom   10 type  2   force =     0.00000000    0.00000000    0.00007168
     atom   11 type  2   force =     0.00000000   -0.00000000    0.00002828
     atom   12 type  2   force =     0.00000000    0.00000000   -0.00021112
     atom   13 type  2   force =     0.00000000    0.00000000   -0.00007168

     Total force =     0.000422     Total SCF correction =     0.000058
     SCF correction compared to forces is large: reduce conv_thr to get better values


     Computing stress (Cartesian axis) and pressure

          total   stress  (Ry/bohr**3)                   (kbar)     P=       -0.01
  -0.00000029  -0.00000000  -0.00000000           -0.04       -0.00       -0.00
   0.00000000  -0.00000029  -0.00000000            0.00       -0.04       -0.00
   0.00000000  -0.00000000   0.00000043            0.00       -0.00        0.06


     number of scf cycles    =   7
     number of bfgs steps    =   6

     enthalpy old            =   -3067.1031342636 Ry
     enthalpy new            =   -3067.1031346253 Ry

     CASE: enthalpy_new < enthalpy_old

     new trust radius        =       0.0005108756 bohr
     new conv_thr            =       0.0000000010 Ry

     new unit-cell volume =   1122.83493 a.u.^3 (   166.38697 Ang^3 )
     density =     15.12539 g/cm^3

CELL_PARAMETERS (alat= 16.92857042)
   0.264854826  -0.152914005   0.952464186
  -0.000000000   0.305828010   0.952464186
  -0.264854826  -0.152914005   0.952464186

ATOMIC_POSITIONS (crystal)
Co            0.0000000000        0.0000000000       -0.0000000000
Co            0.0900624524        0.0900624524        0.5898451632
Co            0.0900624524        0.5898451632        0.0900624524
Co            0.5898451632        0.0900624524        0.0900624524
Co           -0.0900624524       -0.0900624524       -0.5898451632
Co           -0.0900624524       -0.5898451632       -0.0900624524
Co           -0.5898451632       -0.0900624524       -0.0900624524
W             0.1654933984        0.1654933984        0.1654933984
W             0.3467605927        0.3467605927        0.3467605927
W             0.4503226890        0.4503226890        0.4503226890
W            -0.1654933984       -0.1654933984       -0.1654933984
W            -0.3467605927       -0.3467605927       -0.3467605927
W            -0.4503226890       -0.4503226890       -0.4503226890


     NEW-OLD atomic charge density approx. for the potential
     extrapolated charge  202.99705, renormalised to  203.00000

     total cpu time spent up to now is    25906.6 secs

     Self-consistent Calculation

     iteration #  1     ecut=   130.00 Ry     beta= 0.70
     Davidson diagonalization with overlap
     ethr =  1.00E-06,  avg # of iterations =  2.0

     Threshold (ethr) on eigenvalues was too large:
     Diagonalizing with lowered threshold

     Davidson diagonalization with overlap
     ethr =  8.55E-09,  avg # of iterations =  3.0

     total cpu time spent up to now is    26408.2 secs

     total energy              =   -3067.10311903 Ry
     estimated scf accuracy    <       0.00001660 Ry

     iteration #  2     ecut=   130.00 Ry     beta= 0.70
     Davidson diagonalization with overlap
     ethr =  8.18E-09,  avg # of iterations =  4.0

     total cpu time spent up to now is    26725.9 secs

     total energy              =   -3067.10300520 Ry
     estimated scf accuracy    <       0.00359527 Ry

     iteration #  3     ecut=   130.00 Ry     beta= 0.70
     Davidson diagonalization with overlap
     ethr =  8.18E-09,  avg # of iterations =  4.1

     total cpu time spent up to now is    27020.3 secs

     total energy              =   -3067.10311514 Ry
     estimated scf accuracy    <       0.00058061 Ry

     iteration #  4     ecut=   130.00 Ry     beta= 0.70
     Davidson diagonalization with overlap
     ethr =  8.18E-09,  avg # of iterations =  2.9

     total cpu time spent up to now is    27274.5 secs

     total energy              =   -3067.10313491 Ry
     estimated scf accuracy    <       0.00002657 Ry

     iteration #  5     ecut=   130.00 Ry     beta= 0.70
     Davidson diagonalization with overlap
     ethr =  8.18E-09,  avg # of iterations =  1.0

     total cpu time spent up to now is    27494.9 secs

     total energy              =   -3067.10313508 Ry
     estimated scf accuracy    <       0.00001534 Ry

     iteration #  6     ecut=   130.00 Ry     beta= 0.70
     Davidson diagonalization with overlap
     ethr =  7.56E-09,  avg # of iterations =  1.0

     total cpu time spent up to now is    27716.9 secs

     total energy              =   -3067.10313504 Ry
     estimated scf accuracy    <       0.00000687 Ry

     iteration #  7     ecut=   130.00 Ry     beta= 0.70
     Davidson diagonalization with overlap
     ethr =  3.38E-09,  avg # of iterations =  1.0

     total cpu time spent up to now is    27938.2 secs

     total energy              =   -3067.10313470 Ry
     estimated scf accuracy    <       0.00000404 Ry

     iteration #  8     ecut=   130.00 Ry     beta= 0.70
     Davidson diagonalization with overlap
     ethr =  1.99E-09,  avg # of iterations =  1.0

     total cpu time spent up to now is    28160.0 secs

     total energy              =   -3067.10313487 Ry
     estimated scf accuracy    <       0.00000006 Ry

     iteration #  9     ecut=   130.00 Ry     beta= 0.70
     Davidson diagonalization with overlap
     ethr =  3.02E-11,  avg # of iterations =  4.0

     total cpu time spent up to now is    28456.8 secs

     total energy              =   -3067.10313490 Ry
     estimated scf accuracy    <       0.00000006 Ry

     iteration # 10     ecut=   130.00 Ry     beta= 0.70
     Davidson diagonalization with overlap
     ethr =  2.81E-11,  avg # of iterations =  1.0

     total cpu time spent up to now is    28676.9 secs

     total energy              =   -3067.10313490 Ry
     estimated scf accuracy    <       0.00000003 Ry

     iteration # 11     ecut=   130.00 Ry     beta= 0.70
     Davidson diagonalization with overlap
     ethr =  1.51E-11,  avg # of iterations =  1.0

     total cpu time spent up to now is    28897.0 secs

     total energy              =   -3067.10313490 Ry
     estimated scf accuracy    <          1.5E-09 Ry

     iteration # 12     ecut=   130.00 Ry     beta= 0.70
     Davidson diagonalization with overlap
     ethr =  7.62E-13,  avg # of iterations =  2.5

     total cpu time spent up to now is    29135.9 secs

     End of self-consistent calculation

     Number of k-points >= 100: set verbosity='high' to print the bands.

     the Fermi energy is    21.5411 ev

!    total energy              =   -3067.10313490 Ry
     estimated scf accuracy    <          6.0E-11 Ry
     smearing contrib. (-TS)   =       0.00074049 Ry
     internal energy E=F+TS    =   -3067.10387539 Ry

     The total energy is F=E-TS. E is the sum of the following terms:
     one-electron contribution =   -1179.87549510 Ry
     hartree contribution      =     735.08547542 Ry
     xc contribution           =    -594.33061402 Ry
     ewald contribution        =   -2027.98324169 Ry

     convergence has been achieved in  12 iterations

     Forces acting on atoms (cartesian axes, Ry/au):

     atom    1 type  1   force =     0.00000000   -0.00000000   -0.00000000
     atom    2 type  1   force =    -0.00003207   -0.00001852   -0.00006590
     atom    3 type  1   force =     0.00000000    0.00003704   -0.00006590
     atom    4 type  1   force =     0.00003207   -0.00001852   -0.00006590
     atom    5 type  1   force =     0.00003207    0.00001852    0.00006590
     atom    6 type  1   force =     0.00000000   -0.00003704    0.00006590
     atom    7 type  1   force =    -0.00003207    0.00001852    0.00006590
     atom    8 type  2   force =     0.00000000    0.00000000   -0.00004049
     atom    9 type  2   force =     0.00000000   -0.00000000    0.00009859
     atom   10 type  2   force =     0.00000000    0.00000000    0.00009398
     atom   11 type  2   force =     0.00000000    0.00000000    0.00004049
     atom   12 type  2   force =     0.00000000    0.00000000   -0.00009859
     atom   13 type  2   force =     0.00000000    0.00000000   -0.00009398

     Total force =     0.000273     Total SCF correction =     0.000017


     Computing stress (Cartesian axis) and pressure

          total   stress  (Ry/bohr**3)                   (kbar)     P=        0.05
   0.00000027  -0.00000000   0.00000000            0.04       -0.00        0.00
  -0.00000000   0.00000027   0.00000000           -0.00        0.04        0.00
  -0.00000000   0.00000000   0.00000042           -0.00        0.00        0.06


     bfgs converged in   8 scf cycles and   7 bfgs steps
     (criteria: energy <  1.0E-05 Ry, force <  1.0E-04Ry/Bohr, cell <  1.0E-01kbar)

     End of BFGS Geometry Optimization

     Final enthalpy =   -3067.1031349021 Ry

     File ./bulk.bfgs deleted, as requested
Begin final coordinates
     new unit-cell volume =   1122.83493 a.u.^3 (   166.38697 Ang^3 )
     density =     15.12539 g/cm^3

CELL_PARAMETERS (alat= 16.92857042)
   0.264854826  -0.152914005   0.952464186
  -0.000000000   0.305828010   0.952464186
  -0.264854826  -0.152914005   0.952464186

ATOMIC_POSITIONS (crystal)
Co            0.0000000000        0.0000000000       -0.0000000000
Co            0.0900624524        0.0900624524        0.5898451632
Co            0.0900624524        0.5898451632        0.0900624524
Co            0.5898451632        0.0900624524        0.0900624524
Co           -0.0900624524       -0.0900624524       -0.5898451632
Co           -0.0900624524       -0.5898451632       -0.0900624524
Co           -0.5898451632       -0.0900624524       -0.0900624524
W             0.1654933984        0.1654933984        0.1654933984
W             0.3467605927        0.3467605927        0.3467605927
W             0.4503226890        0.4503226890        0.4503226890
W            -0.1654933984       -0.1654933984       -0.1654933984
W            -0.3467605927       -0.3467605927       -0.3467605927
W            -0.4503226890       -0.4503226890       -0.4503226890
End final coordinates



     Final scf calculation at the relaxed structure.
     The G-vectors are recalculated for the final unit cell
     Results may differ from those at the preceding step.
 
     Parallelization info
     --------------------
     sticks:   dense  smooth     PW     G-vecs:    dense   smooth      PW
     Min         758     758    214                28124    28124    4239
     Max         759     759    215                28125    28125    4240
     Sum        6067    6067   1715               224997   224997   33915
 

     Title: 
     bulk                                                                       


     bravais-lattice index     =            5
     lattice parameter (alat)  =      16.9286  a.u.
     unit-cell volume          =    1122.8349 (a.u.)^3
     number of atoms/cell      =           13
     number of atomic types    =            2
     number of electrons       =       203.00
     number of Kohn-Sham states=          122
     kinetic-energy cutoff     =     130.0000  Ry
     charge density cutoff     =     520.0000  Ry
     convergence threshold     =      1.0E-09
     mixing beta               =       0.7000
     number of iterations used =            8  plain     mixing
     Exchange-correlation= PBE
                           (   1   4   3   4   0   0   0)

     celldm(1)=  16.928570  celldm(2)=   0.000000  celldm(3)=   0.000000
     celldm(4)=   0.859404  celldm(5)=   0.000000  celldm(6)=   0.000000

     crystal axes: (cart. coord. in units of alat)
               a(1) = (   0.264855  -0.152914   0.952464 )  
               a(2) = (  -0.000000   0.305828   0.952464 )  
               a(3) = (  -0.264855  -0.152914   0.952464 )  

     reciprocal axes: (cart. coord. in units 2 pi/alat)
               b(1) = (  1.887827 -1.089937  0.349969 )  
               b(2) = (  0.000000  2.179874  0.349969 )  
               b(3) = ( -1.887827 -1.089937  0.349969 )  


     PseudoPot. # 1 for Co read from file:
     /gpfs/share/home/1600011702/pseudo/Co.nc.fr.pbe.stringent.upf
     MD5 check sum: 5025e55def73e686899be73cabb26c16
     Pseudo is Norm-conserving + core correction, Zval = 17.0
     Generated using ONCVPSP code by D. R. Hamann
     Using radial grid of 1388 points,  6 beta functions with: 
                l(1) =   0
                l(2) =   0
                l(3) =   1
                l(4) =   1
                l(5) =   2
                l(6) =   2

     PseudoPot. # 2 for W  read from file:
     /gpfs/share/home/1600011702/pseudo/W.nc.fr.pbe.stringent.upf
     MD5 check sum: 75b1d432d85d028982bb81b068264ebf
     Pseudo is Norm-conserving + core correction, Zval = 14.0
     Generated using ONCVPSP code by D. R. Hamann
     Using radial grid of 1396 points,  8 beta functions with: 
                l(1) =   0
                l(2) =   0
                l(3) =   1
                l(4) =   1
                l(5) =   2
                l(6) =   2
                l(7) =   3
                l(8) =   3

     atomic species   valence    mass     pseudopotential
        Co            17.00    58.93320     Co( 1.00)
        W             14.00   183.84000     W ( 1.00)

     12 Sym. Ops., with inversion, found



   Cartesian axes

     site n.     atom                  positions (alat units)
         1           Co  tau(   1) = (   0.0000000   0.0000000  -0.0000000  )
         2           Co  tau(   2) = (  -0.1323699  -0.0764238   0.7333689  )
         3           Co  tau(   3) = (   0.0000000   0.1528476   0.7333689  )
         4           Co  tau(   4) = (   0.1323699  -0.0764238   0.7333689  )
         5           Co  tau(   5) = (   0.1323699   0.0764238  -0.7333689  )
         6           Co  tau(   6) = (   0.0000000  -0.1528476  -0.7333689  )
         7           Co  tau(   7) = (  -0.1323699   0.0764238  -0.7333689  )
         8           W   tau(   8) = (   0.0000000  -0.0000000   0.4728796  )
         9           W   tau(   9) = (   0.0000000  -0.0000000   0.9908311  )
        10           W   tau(  10) = (   0.0000000  -0.0000000   1.2867487  )
        11           W   tau(  11) = (   0.0000000   0.0000000  -0.4728796  )
        12           W   tau(  12) = (   0.0000000   0.0000000  -0.9908311  )
        13           W   tau(  13) = (   0.0000000   0.0000000  -1.2867487  )

     number of k points=   116  Methfessel-Paxton smearing, width (Ry)=  0.0200

     Number of k-points >= 100: set verbosity='high' to print them.

     Dense  grid:   224997 G-vectors     FFT dimensions: ( 125, 125, 125)

     Estimated max dynamical RAM per process >     324.76 MB

     Estimated total dynamical RAM >      10.15 GB

     Initial potential from superposition of free atoms

     starting charge  202.99483, renormalised to  203.00000
     Starting wfcs are  130 randomized atomic wfcs

     total cpu time spent up to now is    29299.3 secs

     Self-consistent Calculation

     iteration #  1     ecut=   130.00 Ry     beta= 0.70
     Davidson diagonalization with overlap
     c_bands:  2 eigenvalues not converged
     c_bands:  2 eigenvalues not converged
     c_bands:  2 eigenvalues not converged

     Program stopped by user request
     Calculation stopped in k-point loop, point #    28
     Calculation stopped in scf loop at iteration #     0
 
     init_run     :    169.08s CPU    173.98s WALL (       2 calls)
     electrons    :  28327.87s CPU  29072.90s WALL (       9 calls)
     update_pot   :     26.91s CPU     27.89s WALL (       7 calls)
     forces       :     51.50s CPU     52.59s WALL (       8 calls)
     stress       :    542.09s CPU    553.58s WALL (       8 calls)

     Called by init_run:
     wfcinit      :    166.12s CPU    170.95s WALL (       2 calls)
     potinit      :      1.48s CPU      1.52s WALL (       2 calls)
     hinit0       :      1.36s CPU      1.38s WALL (       2 calls)

     Called by electrons:
     c_bands      :  22651.76s CPU  23249.78s WALL (     113 calls)
     sum_band     :   5642.72s CPU   5788.76s WALL (     112 calls)
     v_of_rho     :     29.43s CPU     30.45s WALL (     117 calls)
     mix_rho      :      3.58s CPU      3.76s WALL (     112 calls)

     Called by c_bands:
     init_us_2    :     66.34s CPU     68.07s WALL (    7046 calls)
     cegterg      :  21834.64s CPU  22395.17s WALL (    3276 calls)

     Called by *egterg:
     cdiaghg      :    335.59s CPU    341.27s WALL (   11417 calls)
     h_psi        :  20915.59s CPU  21460.95s WALL (   11793 calls)
     g_psi        :     14.09s CPU     14.37s WALL (    8459 calls)

     Called by h_psi:
     h_psi:calbec :    261.06s CPU    267.33s WALL (   11793 calls)
     vloc_psi     :  20316.97s CPU  20849.80s WALL (   11793 calls)
     add_vuspsi   :    287.26s CPU    292.18s WALL (   11793 calls)

     General routines
     calbec       :    300.66s CPU    308.09s WALL (   12953 calls)
     fft          :     22.06s CPU     23.10s WALL (    1374 calls)
     ffts         :      1.42s CPU      1.49s WALL (     112 calls)
     fftw         :  21372.91s CPU  21953.94s WALL ( 2348248 calls)
     davcio       :      0.00s CPU      0.37s WALL (      29 calls)
 
     Parallel routines
     fft_scatt_xy :   7884.62s CPU   8071.80s WALL ( 2349734 calls)
     fft_scatt_yz :   2519.66s CPU   2687.28s WALL ( 2349734 calls)
 
     PWSCF        :      8h 5m CPU      8h18m WALL

 
   This run was terminated on:  10:34:52  30Apr2020            

=------------------------------------------------------------------------------=
   JOB DONE.
=------------------------------------------------------------------------------=
