
     Program PWSCF v.6.5 starts on 12May2020 at 19:30:16 

     This program is part of the open-source Quantum ESPRESSO suite
     for quantum simulation of materials; please cite
         "P. Giannozzi et al., J. Phys.:Condens. Matter 21 395502 (2009);
         "P. Giannozzi et al., J. Phys.:Condens. Matter 29 465901 (2017);
          URL http://www.quantum-espresso.org", 
     in publications or presentations arising from this work. More details at
     http://www.quantum-espresso.org/quote

     Parallel version (MPI), running on    64 processors

     MPI processes distributed on     2 nodes
     K-points division:     npool     =       4
     R & G space division:  proc/nbgrp/npool/nimage =      16
     Fft bands division:     nmany     =       1
     Reading input from bulk.col.in

     Current dimensions of program PWSCF are:
     Max number of different atomic species (ntypx) = 10
     Max number of k-points (npk) =  40000
     Max angular momentum in pseudopotentials (lmaxx) =  3

     Subspace diagonalization in iterative solution of the eigenvalue problem:
     a serial algorithm will be used

 
     Parallelization info
     --------------------
     sticks:   dense  smooth     PW     G-vecs:    dense   smooth      PW
     Min         379     379    107                14062    14062    2119
     Max         380     380    108                14063    14063    2120
     Sum        6067    6067   1715               224997   224997   33915
 

     Title: 
     bulk                                                                       


     bravais-lattice index     =            5
     lattice parameter (alat)  =      16.9347  a.u.
     unit-cell volume          =    1122.8349 (a.u.)^3
     number of atoms/cell      =           13
     number of atomic types    =            2
     number of electrons       =       203.00
     number of Kohn-Sham states=          122
     kinetic-energy cutoff     =     130.0000  Ry
     charge density cutoff     =     520.0000  Ry
     convergence threshold     =      1.0E-07
     mixing beta               =       0.7000
     number of iterations used =            8  plain     mixing
     Exchange-correlation= PBE
                           (   1   4   3   4   0   0   0)
     nstep                     =           50


     celldm(1)=  16.934653  celldm(2)=   0.000000  celldm(3)=   0.000000
     celldm(4)=   0.859805  celldm(5)=   0.000000  celldm(6)=   0.000000

     crystal axes: (cart. coord. in units of alat)
               a(1) = (   0.264760  -0.152859   0.952122 )  
               a(2) = (   0.000000   0.305718   0.952122 )  
               a(3) = (  -0.264760  -0.152859   0.952122 )  

     reciprocal axes: (cart. coord. in units 2 pi/alat)
               b(1) = (  1.888505 -1.090329  0.350095 )  
               b(2) = (  0.000000  2.180658  0.350095 )  
               b(3) = ( -1.888505 -1.090329  0.350095 )  


     PseudoPot. # 1 for Co read from file:
     /gpfs/share/home/1600011702/pseudo/Co.nc.fr.pbe.stringent.upf
     MD5 check sum: 5025e55def73e686899be73cabb26c16
     Pseudo is Norm-conserving + core correction, Zval = 17.0
     Generated using ONCVPSP code by D. R. Hamann
     Using radial grid of 1388 points,  6 beta functions with: 
                l(1) =   0
                l(2) =   0
                l(3) =   1
                l(4) =   1
                l(5) =   2
                l(6) =   2

     PseudoPot. # 2 for W  read from file:
     /gpfs/share/home/1600011702/pseudo/W.nc.fr.pbe.stringent.upf
     MD5 check sum: 75b1d432d85d028982bb81b068264ebf
     Pseudo is Norm-conserving + core correction, Zval = 14.0
     Generated using ONCVPSP code by D. R. Hamann
     Using radial grid of 1396 points,  8 beta functions with: 
                l(1) =   0
                l(2) =   0
                l(3) =   1
                l(4) =   1
                l(5) =   2
                l(6) =   2
                l(7) =   3
                l(8) =   3

     atomic species   valence    mass     pseudopotential
        Co            17.00    58.93320     Co( 1.00)
        W             14.00   183.84000     W ( 1.00)

     Starting magnetic structure 
     atomic species   magnetization
        Co           0.000
        W            0.000

     12 Sym. Ops., with inversion, found



   Cartesian axes

     site n.     atom                  positions (alat units)
         1           Co  tau(   1) = (   0.0000000   0.0000000   0.0000000  )
         2           Co  tau(   2) = (  -0.1323223  -0.0763963   0.7331055  )
         3           Co  tau(   3) = (   0.0000000   0.1527926   0.7331055  )
         4           Co  tau(   4) = (   0.1323223  -0.0763963   0.7331055  )
         5           Co  tau(   5) = (   0.1323223   0.0763963  -0.7331055  )
         6           Co  tau(   6) = (   0.0000000  -0.1527926  -0.7331055  )
         7           Co  tau(   7) = (  -0.1323223   0.0763963  -0.7331055  )
         8           W   tau(   8) = (   0.0000000  -0.0000000   0.4727097  )
         9           W   tau(   9) = (   0.0000000  -0.0000000   0.9904752  )
        10           W   tau(  10) = (   0.0000000  -0.0000000   1.2862865  )
        11           W   tau(  11) = (   0.0000000   0.0000000  -0.4727097  )
        12           W   tau(  12) = (   0.0000000   0.0000000  -0.9904752  )
        13           W   tau(  13) = (   0.0000000   0.0000000  -1.2862865  )

     number of k points=   116  Methfessel-Paxton smearing, width (Ry)=  0.0200

     Number of k-points >= 100: set verbosity='high' to print them.

     Dense  grid:   224997 G-vectors     FFT dimensions: ( 125, 125, 125)

     Estimated max dynamical RAM per process >     280.52 MB

     Estimated total dynamical RAM >      17.53 GB
     Generating pointlists ...
     new r_m :   0.1092 (alat units)  1.8487 (a.u.) for type    1
     new r_m :   0.1171 (alat units)  1.9824 (a.u.) for type    2

     Initial potential from superposition of free atoms

     starting charge  202.99483, renormalised to  203.00000
     Starting wfcs are  130 randomized atomic wfcs

     total cpu time spent up to now is       62.4 secs

     Self-consistent Calculation

     iteration #  1     ecut=   130.00 Ry     beta= 0.70
     Davidson diagonalization with overlap
     ethr =  1.00E-02,  avg # of iterations =  3.4

     total cpu time spent up to now is      256.9 secs

     total energy              =   -3062.25190394 Ry
     estimated scf accuracy    <       6.28141331 Ry

     total magnetization       =     0.00 Bohr mag/cell
     absolute magnetization    =     0.00 Bohr mag/cell

     iteration #  2     ecut=   130.00 Ry     beta= 0.70
     Davidson diagonalization with overlap
     ethr =  3.09E-03,  avg # of iterations =  5.0

     total cpu time spent up to now is      516.0 secs

     total energy              =   -3047.36377169 Ry
     estimated scf accuracy    <     348.04958653 Ry

     total magnetization       =     0.00 Bohr mag/cell
     absolute magnetization    =     0.00 Bohr mag/cell

     iteration #  3     ecut=   130.00 Ry     beta= 0.70
     Davidson diagonalization with overlap
     ethr =  3.09E-03,  avg # of iterations =  6.0

     total cpu time spent up to now is      807.7 secs

     total energy              =   -3064.65372794 Ry
     estimated scf accuracy    <      44.50049943 Ry

     total magnetization       =     0.00 Bohr mag/cell
     absolute magnetization    =     0.00 Bohr mag/cell

     iteration #  4     ecut=   130.00 Ry     beta= 0.70
     Davidson diagonalization with overlap
     ethr =  3.09E-03,  avg # of iterations =  3.2

     total cpu time spent up to now is      975.8 secs

     total energy              =   -3066.90497078 Ry
     estimated scf accuracy    <       5.03414889 Ry

     total magnetization       =     0.00 Bohr mag/cell
     absolute magnetization    =     0.00 Bohr mag/cell

     iteration #  5     ecut=   130.00 Ry     beta= 0.70
     Davidson diagonalization with overlap
     ethr =  2.48E-03,  avg # of iterations =  1.0

     total cpu time spent up to now is     1133.6 secs

     total energy              =   -3067.06011856 Ry
     estimated scf accuracy    <       0.24204378 Ry

     total magnetization       =     0.00 Bohr mag/cell
     absolute magnetization    =     0.00 Bohr mag/cell

     iteration #  6     ecut=   130.00 Ry     beta= 0.70
     Davidson diagonalization with overlap
     ethr =  1.19E-04,  avg # of iterations =  6.2

     total cpu time spent up to now is     1335.5 secs

     total energy              =   -3067.07418395 Ry
     estimated scf accuracy    <       0.15829938 Ry

     total magnetization       =     0.00 Bohr mag/cell
     absolute magnetization    =     0.00 Bohr mag/cell

     iteration #  7     ecut=   130.00 Ry     beta= 0.70
     Davidson diagonalization with overlap
     ethr =  7.80E-05,  avg # of iterations =  3.7

     total cpu time spent up to now is     1508.8 secs

     total energy              =   -3067.09527971 Ry
     estimated scf accuracy    <       0.06814137 Ry

     total magnetization       =     0.00 Bohr mag/cell
     absolute magnetization    =     0.00 Bohr mag/cell

     iteration #  8     ecut=   130.00 Ry     beta= 0.70
     Davidson diagonalization with overlap
     ethr =  3.36E-05,  avg # of iterations =  2.0

     total cpu time spent up to now is     1668.0 secs

     total energy              =   -3067.10191195 Ry
     estimated scf accuracy    <       0.00815913 Ry

     total magnetization       =     0.00 Bohr mag/cell
     absolute magnetization    =     0.00 Bohr mag/cell

     iteration #  9     ecut=   130.00 Ry     beta= 0.70
     Davidson diagonalization with overlap
     ethr =  4.02E-06,  avg # of iterations =  4.7

     total cpu time spent up to now is     1857.7 secs

     total energy              =   -3067.10304805 Ry
     estimated scf accuracy    <       0.00055674 Ry

     total magnetization       =     0.00 Bohr mag/cell
     absolute magnetization    =     0.00 Bohr mag/cell

     iteration # 10     ecut=   130.00 Ry     beta= 0.70
     Davidson diagonalization with overlap
     ethr =  2.74E-07,  avg # of iterations =  2.5

     total cpu time spent up to now is     2027.1 secs

     total energy              =   -3067.10308708 Ry
     estimated scf accuracy    <       0.00009960 Ry

     total magnetization       =     0.00 Bohr mag/cell
     absolute magnetization    =     0.00 Bohr mag/cell

     iteration # 11     ecut=   130.00 Ry     beta= 0.70
     Davidson diagonalization with overlap
     ethr =  4.91E-08,  avg # of iterations =  2.3

     total cpu time spent up to now is     2188.1 secs

     total energy              =   -3067.10309715 Ry
     estimated scf accuracy    <       0.00000483 Ry

     total magnetization       =     0.00 Bohr mag/cell
     absolute magnetization    =     0.00 Bohr mag/cell

     iteration # 12     ecut=   130.00 Ry     beta= 0.70
     Davidson diagonalization with overlap
     ethr =  2.38E-09,  avg # of iterations =  3.9

     total cpu time spent up to now is     2385.3 secs

     total energy              =   -3067.10309848 Ry
     estimated scf accuracy    <       0.00000170 Ry

     total magnetization       =     0.00 Bohr mag/cell
     absolute magnetization    =     0.00 Bohr mag/cell

     iteration # 13     ecut=   130.00 Ry     beta= 0.70
     Davidson diagonalization with overlap
     ethr =  8.35E-10,  avg # of iterations =  1.3

     total cpu time spent up to now is     2542.6 secs

     total energy              =   -3067.10309860 Ry
     estimated scf accuracy    <       0.00000065 Ry

     total magnetization       =     0.00 Bohr mag/cell
     absolute magnetization    =     0.00 Bohr mag/cell

     iteration # 14     ecut=   130.00 Ry     beta= 0.70
     Davidson diagonalization with overlap
     ethr =  3.19E-10,  avg # of iterations =  1.3

     total cpu time spent up to now is     2700.1 secs

     total energy              =   -3067.10309858 Ry
     estimated scf accuracy    <       0.00000203 Ry

     total magnetization       =     0.00 Bohr mag/cell
     absolute magnetization    =     0.00 Bohr mag/cell

     iteration # 15     ecut=   130.00 Ry     beta= 0.70
     Davidson diagonalization with overlap
     ethr =  3.19E-10,  avg # of iterations =  1.0
 
     Magnetic moment per site:
     atom:    1    charge:   15.3909    magn:    0.0000    constr:    0.0000
     atom:    2    charge:   15.4475    magn:    0.0000    constr:    0.0000
     atom:    3    charge:   15.4475    magn:    0.0000    constr:    0.0000
     atom:    4    charge:   15.4475    magn:    0.0000    constr:    0.0000
     atom:    5    charge:   15.4475    magn:    0.0000    constr:    0.0000
     atom:    6    charge:   15.4475    magn:    0.0000    constr:    0.0000
     atom:    7    charge:   15.4475    magn:    0.0000    constr:    0.0000
     atom:    8    charge:   10.7863    magn:    0.0000    constr:    0.0000
     atom:    9    charge:   10.7597    magn:    0.0000    constr:    0.0000
     atom:   10    charge:   10.8561    magn:    0.0000    constr:    0.0000
     atom:   11    charge:   10.7863    magn:    0.0000    constr:    0.0000
     atom:   12    charge:   10.7597    magn:    0.0000    constr:    0.0000
     atom:   13    charge:   10.8561    magn:    0.0000    constr:    0.0000

     total cpu time spent up to now is     2859.4 secs

     End of self-consistent calculation

     Number of k-points >= 100: set verbosity='high' to print the bands.

     the Fermi energy is    21.5411 ev

!    total energy              =   -3067.10309860 Ry
     estimated scf accuracy    <       0.00000006 Ry
     smearing contrib. (-TS)   =       0.00074042 Ry
     internal energy E=F+TS    =   -3067.10383902 Ry

     The total energy is F=E-TS. E is the sum of the following terms:
     one-electron contribution =   -1179.87551621 Ry
     hartree contribution      =     735.08557025 Ry
     xc contribution           =    -594.33064986 Ry
     ewald contribution        =   -2027.98324321 Ry

     total magnetization       =     0.00 Bohr mag/cell
     absolute magnetization    =     0.00 Bohr mag/cell

     convergence has been achieved in  15 iterations

     Forces acting on atoms (cartesian axes, Ry/au):

     atom    1 type  1   force =     0.00000000    0.00000000    0.00000000
     atom    2 type  1   force =    -0.00002803   -0.00001618   -0.00005411
     atom    3 type  1   force =     0.00000000    0.00003237   -0.00005411
     atom    4 type  1   force =     0.00002803   -0.00001618   -0.00005411
     atom    5 type  1   force =     0.00002803    0.00001618    0.00005411
     atom    6 type  1   force =     0.00000000   -0.00003237    0.00005411
     atom    7 type  1   force =    -0.00002803    0.00001618    0.00005411
     atom    8 type  2   force =     0.00000000    0.00000000   -0.00004263
     atom    9 type  2   force =     0.00000000    0.00000000    0.00009100
     atom   10 type  2   force =     0.00000000    0.00000000    0.00008891
     atom   11 type  2   force =     0.00000000    0.00000000    0.00004263
     atom   12 type  2   force =     0.00000000    0.00000000   -0.00009100
     atom   13 type  2   force =     0.00000000    0.00000000   -0.00008891

     Total force =     0.000245     Total SCF correction =     0.000506
     SCF correction compared to forces is large: reduce conv_thr to get better values


     Computing stress (Cartesian axis) and pressure

          total   stress  (Ry/bohr**3)                   (kbar)     P=        0.08
   0.00000034   0.00000000   0.00000000            0.05        0.00        0.00
   0.00000000   0.00000034   0.00000000            0.00        0.05        0.00
   0.00000000   0.00000000   0.00000090            0.00        0.00        0.13


     BFGS Geometry Optimization

     number of scf cycles    =   1
     number of bfgs steps    =   0

     enthalpy new            =   -3067.1030986004 Ry

     new trust radius        =       0.0001505642 bohr
     new conv_thr            =       0.0000001000 Ry

     new unit-cell volume =   1122.87918 a.u.^3 (   166.39353 Ang^3 )
     density =     15.12479 g/cm^3

CELL_PARAMETERS (alat= 16.93465343)
   0.264761932  -0.152860373   0.952143447
   0.000000000   0.305720746   0.952143447
  -0.264761932  -0.152860373   0.952143447

ATOMIC_POSITIONS (crystal)
Co            0.0000000000       -0.0000000000       -0.0000000000
Co            0.0900592499        0.0900592499        0.5898482121
Co            0.0900592499        0.5898482121        0.0900592499
Co            0.5898482121        0.0900592499        0.0900592499
Co           -0.0900592499       -0.0900592499       -0.5898482121
Co           -0.0900592499       -0.5898482121       -0.0900592499
Co           -0.5898482121       -0.0900592499       -0.0900592499
W             0.1654925170        0.1654925170        0.1654925170
W             0.3467624739        0.3467624739        0.3467624739
W             0.4503245271        0.4503245271        0.4503245271
W            -0.1654925170       -0.1654925170       -0.1654925170
W            -0.3467624739       -0.3467624739       -0.3467624739
W            -0.4503245271       -0.4503245271       -0.4503245271


     NEW-OLD atomic charge density approx. for the potential
     extrapolated charge  203.00800, renormalised to  203.00000
     Generating pointlists ...

     total cpu time spent up to now is     2938.6 secs

     Self-consistent Calculation

     iteration #  1     ecut=   130.00 Ry     beta= 0.70
     Davidson diagonalization with overlap
     ethr =  1.00E-06,  avg # of iterations =  2.0

     Threshold (ethr) on eigenvalues was too large:
     Diagonalizing with lowered threshold

     Davidson diagonalization with overlap
     ethr =  6.84E-08,  avg # of iterations =  1.0

     total cpu time spent up to now is     3260.3 secs

     total energy              =   -3067.10295766 Ry
     estimated scf accuracy    <       0.00015166 Ry

     total magnetization       =     0.00 Bohr mag/cell
     absolute magnetization    =     0.00 Bohr mag/cell

     iteration #  2     ecut=   130.00 Ry     beta= 0.70
     Davidson diagonalization with overlap
     ethr =  7.47E-08,  avg # of iterations =  4.1

     total cpu time spent up to now is     3486.1 secs

     total energy              =   -3067.10215664 Ry
     estimated scf accuracy    <       0.02047359 Ry

     total magnetization       =     0.00 Bohr mag/cell
     absolute magnetization    =     0.00 Bohr mag/cell

     iteration #  3     ecut=   130.00 Ry     beta= 0.70
     Davidson diagonalization with overlap
     ethr =  7.47E-08,  avg # of iterations =  4.3

     total cpu time spent up to now is     3708.6 secs

     total energy              =   -3067.10305729 Ry
     estimated scf accuracy    <       0.00119350 Ry

     total magnetization       =     0.00 Bohr mag/cell
     absolute magnetization    =     0.00 Bohr mag/cell

     iteration #  4     ecut=   130.00 Ry     beta= 0.70
     Davidson diagonalization with overlap
     ethr =  7.47E-08,  avg # of iterations =  2.0

     total cpu time spent up to now is     3867.6 secs

     total energy              =   -3067.10310019 Ry
     estimated scf accuracy    <       0.00027677 Ry

     total magnetization       =     0.00 Bohr mag/cell
     absolute magnetization    =     0.00 Bohr mag/cell

     iteration #  5     ecut=   130.00 Ry     beta= 0.70
     Davidson diagonalization with overlap
     ethr =  7.47E-08,  avg # of iterations =  1.0

     total cpu time spent up to now is     4025.1 secs

     total energy              =   -3067.10310045 Ry
     estimated scf accuracy    <       0.00010435 Ry

     total magnetization       =     0.00 Bohr mag/cell
     absolute magnetization    =     0.00 Bohr mag/cell

     iteration #  6     ecut=   130.00 Ry     beta= 0.70
     Davidson diagonalization with overlap
     ethr =  5.14E-08,  avg # of iterations =  1.0

     total cpu time spent up to now is     4182.3 secs

     total energy              =   -3067.10310063 Ry
     estimated scf accuracy    <       0.00005327 Ry

     total magnetization       =     0.00 Bohr mag/cell
     absolute magnetization    =     0.00 Bohr mag/cell

     iteration #  7     ecut=   130.00 Ry     beta= 0.70
     Davidson diagonalization with overlap
     ethr =  2.62E-08,  avg # of iterations =  1.0

     total cpu time spent up to now is     4338.2 secs

     total energy              =   -3067.10309910 Ry
     estimated scf accuracy    <       0.00004291 Ry

     total magnetization       =     0.00 Bohr mag/cell
     absolute magnetization    =     0.00 Bohr mag/cell

     iteration #  8     ecut=   130.00 Ry     beta= 0.70
     Davidson diagonalization with overlap
     ethr =  2.11E-08,  avg # of iterations =  1.0

     total cpu time spent up to now is     4495.1 secs

     total energy              =   -3067.10309852 Ry
     estimated scf accuracy    <       0.00001721 Ry

     total magnetization       =     0.00 Bohr mag/cell
     absolute magnetization    =     0.00 Bohr mag/cell

     iteration #  9     ecut=   130.00 Ry     beta= 0.70
     Davidson diagonalization with overlap
     ethr =  8.48E-09,  avg # of iterations =  1.0

     total cpu time spent up to now is     4652.0 secs

     total energy              =   -3067.10309854 Ry
     estimated scf accuracy    <       0.00000414 Ry

     total magnetization       =     0.00 Bohr mag/cell
     absolute magnetization    =     0.00 Bohr mag/cell

     iteration # 10     ecut=   130.00 Ry     beta= 0.70
     Davidson diagonalization with overlap
     ethr =  2.04E-09,  avg # of iterations =  1.3

     total cpu time spent up to now is     4809.0 secs

     total energy              =   -3067.10309858 Ry
     estimated scf accuracy    <       0.00000071 Ry

     total magnetization       =     0.00 Bohr mag/cell
     absolute magnetization    =     0.00 Bohr mag/cell

     iteration # 11     ecut=   130.00 Ry     beta= 0.70
     Davidson diagonalization with overlap
     ethr =  3.50E-10,  avg # of iterations =  3.5
 
     Magnetic moment per site:
     atom:    1    charge:   15.3911    magn:    0.0000    constr:    0.0000
     atom:    2    charge:   15.4473    magn:    0.0000    constr:    0.0000
     atom:    3    charge:   15.4473    magn:    0.0000    constr:    0.0000
     atom:    4    charge:   15.4473    magn:    0.0000    constr:    0.0000
     atom:    5    charge:   15.4473    magn:    0.0000    constr:    0.0000
     atom:    6    charge:   15.4473    magn:    0.0000    constr:    0.0000
     atom:    7    charge:   15.4473    magn:    0.0000    constr:    0.0000
     atom:    8    charge:   10.7863    magn:    0.0000    constr:    0.0000
     atom:    9    charge:   10.7597    magn:    0.0000    constr:    0.0000
     atom:   10    charge:   10.8562    magn:    0.0000    constr:    0.0000
     atom:   11    charge:   10.7863    magn:    0.0000    constr:    0.0000
     atom:   12    charge:   10.7597    magn:    0.0000    constr:    0.0000
     atom:   13    charge:   10.8562    magn:    0.0000    constr:    0.0000

     total cpu time spent up to now is     4993.7 secs

     End of self-consistent calculation

     Number of k-points >= 100: set verbosity='high' to print the bands.

     the Fermi energy is    21.5402 ev

!    total energy              =   -3067.10309866 Ry
     estimated scf accuracy    <       0.00000005 Ry
     smearing contrib. (-TS)   =       0.00074100 Ry
     internal energy E=F+TS    =   -3067.10383967 Ry

     The total energy is F=E-TS. E is the sum of the following terms:
     one-electron contribution =   -1179.89190217 Ry
     hartree contribution      =     735.08135522 Ry
     xc contribution           =    -594.32907115 Ry
     ewald contribution        =   -2027.96422156 Ry

     total magnetization       =     0.00 Bohr mag/cell
     absolute magnetization    =     0.00 Bohr mag/cell

     convergence has been achieved in  11 iterations

     Forces acting on atoms (cartesian axes, Ry/au):

     atom    1 type  1   force =     0.00000000    0.00000000   -0.00000000
     atom    2 type  1   force =    -0.00001056   -0.00000610   -0.00005834
     atom    3 type  1   force =     0.00000000    0.00001219   -0.00005834
     atom    4 type  1   force =     0.00001056   -0.00000610   -0.00005834
     atom    5 type  1   force =     0.00001056    0.00000610    0.00005834
     atom    6 type  1   force =     0.00000000   -0.00001219    0.00005834
     atom    7 type  1   force =    -0.00001056    0.00000610    0.00005834
     atom    8 type  2   force =     0.00000000    0.00000000   -0.00003405
     atom    9 type  2   force =     0.00000000    0.00000000    0.00009063
     atom   10 type  2   force =    -0.00000000    0.00000000    0.00004672
     atom   11 type  2   force =     0.00000000    0.00000000    0.00003405
     atom   12 type  2   force =     0.00000000    0.00000000   -0.00009063
     atom   13 type  2   force =     0.00000000   -0.00000000   -0.00004672

     Total force =     0.000211     Total SCF correction =     0.000332
     SCF correction compared to forces is large: reduce conv_thr to get better values


     Computing stress (Cartesian axis) and pressure

          total   stress  (Ry/bohr**3)                   (kbar)     P=       -0.43
  -0.00000282  -0.00000000   0.00000000           -0.41       -0.00        0.00
  -0.00000000  -0.00000282  -0.00000000           -0.00       -0.41       -0.00
   0.00000000  -0.00000000  -0.00000311            0.00       -0.00       -0.46


     number of scf cycles    =   2
     number of bfgs steps    =   1

     enthalpy old            =   -3067.1030986004 Ry
     enthalpy new            =   -3067.1030986647 Ry

     CASE: enthalpy_new < enthalpy_old

     new trust radius        =       0.0001656202 bohr
     new conv_thr            =       0.0000000010 Ry

     new unit-cell volume =   1122.85370 a.u.^3 (   166.38975 Ang^3 )
     density =     15.12513 g/cm^3

CELL_PARAMETERS (alat= 16.93465343)
   0.264758374  -0.152858318   0.952147436
   0.000000000   0.305716637   0.952147436
  -0.264758374  -0.152858318   0.952147436

ATOMIC_POSITIONS (crystal)
Co            0.0000000000        0.0000000000       -0.0000000000
Co            0.0900538600        0.0900538600        0.5898527827
Co            0.0900538600        0.5898527827        0.0900538600
Co            0.5898527827        0.0900538600        0.0900538600
Co           -0.0900538600       -0.0900538600       -0.5898527827
Co           -0.0900538600       -0.5898527827       -0.0900538600
Co           -0.5898527827       -0.0900538600       -0.0900538600
W             0.1654909766        0.1654909766        0.1654909766
W             0.3467658978        0.3467658978        0.3467658978
W             0.4503275559        0.4503275559        0.4503275559
W            -0.1654909766       -0.1654909766       -0.1654909766
W            -0.3467658978       -0.3467658978       -0.3467658978
W            -0.4503275559       -0.4503275559       -0.4503275559


     NEW-OLD atomic charge density approx. for the potential
     extrapolated charge  202.99539, renormalised to  203.00000
     Generating pointlists ...

     total cpu time spent up to now is     5073.1 secs

     Self-consistent Calculation

     iteration #  1     ecut=   130.00 Ry     beta= 0.70
     Davidson diagonalization with overlap
     ethr =  1.00E-06,  avg # of iterations =  1.7

     Threshold (ethr) on eigenvalues was too large:
     Diagonalizing with lowered threshold

     Davidson diagonalization with overlap
     ethr =  4.43E-08,  avg # of iterations =  1.0

     total cpu time spent up to now is     5388.6 secs

     total energy              =   -3067.10301200 Ry
     estimated scf accuracy    <       0.00009576 Ry

     total magnetization       =     0.00 Bohr mag/cell
     absolute magnetization    =     0.00 Bohr mag/cell

     iteration #  2     ecut=   130.00 Ry     beta= 0.70
     Davidson diagonalization with overlap
     ethr =  4.72E-08,  avg # of iterations =  4.1

     total cpu time spent up to now is     5618.4 secs

     total energy              =   -3067.10232369 Ry
     estimated scf accuracy    <       0.02061513 Ry

     total magnetization       =     0.00 Bohr mag/cell
     absolute magnetization    =     0.00 Bohr mag/cell

     iteration #  3     ecut=   130.00 Ry     beta= 0.70
     Davidson diagonalization with overlap
     ethr =  4.72E-08,  avg # of iterations =  4.2

     total cpu time spent up to now is     5833.8 secs

     total energy              =   -3067.10297963 Ry
     estimated scf accuracy    <       0.00340442 Ry

     total magnetization       =     0.00 Bohr mag/cell
     absolute magnetization    =     0.00 Bohr mag/cell

     iteration #  4     ecut=   130.00 Ry     beta= 0.70
     Davidson diagonalization with overlap
     ethr =  4.72E-08,  avg # of iterations =  2.9

     total cpu time spent up to now is     6017.1 secs

     total energy              =   -3067.10309683 Ry
     estimated scf accuracy    <       0.00009209 Ry

     total magnetization       =     0.00 Bohr mag/cell
     absolute magnetization    =     0.00 Bohr mag/cell

     iteration #  5     ecut=   130.00 Ry     beta= 0.70
     Davidson diagonalization with overlap
     ethr =  4.54E-08,  avg # of iterations =  1.0

     total cpu time spent up to now is     6173.5 secs

     total energy              =   -3067.10309907 Ry
     estimated scf accuracy    <       0.00003462 Ry

     total magnetization       =     0.00 Bohr mag/cell
     absolute magnetization    =     0.00 Bohr mag/cell

     iteration #  6     ecut=   130.00 Ry     beta= 0.70
     Davidson diagonalization with overlap
     ethr =  1.71E-08,  avg # of iterations =  1.0

     total cpu time spent up to now is     6330.6 secs

     total energy              =   -3067.10309888 Ry
     estimated scf accuracy    <       0.00001619 Ry

     total magnetization       =     0.00 Bohr mag/cell
     absolute magnetization    =     0.00 Bohr mag/cell

     iteration #  7     ecut=   130.00 Ry     beta= 0.70
     Davidson diagonalization with overlap
     ethr =  7.97E-09,  avg # of iterations =  1.0

     total cpu time spent up to now is     6487.8 secs

     total energy              =   -3067.10309881 Ry
     estimated scf accuracy    <       0.00000766 Ry

     total magnetization       =     0.00 Bohr mag/cell
     absolute magnetization    =     0.00 Bohr mag/cell

     iteration #  8     ecut=   130.00 Ry     beta= 0.70
     Davidson diagonalization with overlap
     ethr =  3.77E-09,  avg # of iterations =  1.0

     total cpu time spent up to now is     6644.4 secs

     total energy              =   -3067.10309868 Ry
     estimated scf accuracy    <       0.00000389 Ry

     total magnetization       =     0.00 Bohr mag/cell
     absolute magnetization    =     0.00 Bohr mag/cell

     iteration #  9     ecut=   130.00 Ry     beta= 0.70
     Davidson diagonalization with overlap
     ethr =  1.92E-09,  avg # of iterations =  1.1

     total cpu time spent up to now is     6801.7 secs

     total energy              =   -3067.10309869 Ry
     estimated scf accuracy    <       0.00000089 Ry

     total magnetization       =     0.00 Bohr mag/cell
     absolute magnetization    =     0.00 Bohr mag/cell

     iteration # 10     ecut=   130.00 Ry     beta= 0.70
     Davidson diagonalization with overlap
     ethr =  4.38E-10,  avg # of iterations =  3.0

     total cpu time spent up to now is     6964.2 secs

     total energy              =   -3067.10309876 Ry
     estimated scf accuracy    <          6.6E-09 Ry

     total magnetization       =     0.00 Bohr mag/cell
     absolute magnetization    =     0.00 Bohr mag/cell

     iteration # 11     ecut=   130.00 Ry     beta= 0.70
     Davidson diagonalization with overlap
     ethr =  3.26E-12,  avg # of iterations =  4.4

     total cpu time spent up to now is     7182.9 secs

     total energy              =   -3067.10309877 Ry
     estimated scf accuracy    <          8.2E-09 Ry

     total magnetization       =     0.00 Bohr mag/cell
     absolute magnetization    =     0.00 Bohr mag/cell

     iteration # 12     ecut=   130.00 Ry     beta= 0.70
     Davidson diagonalization with overlap
     ethr =  3.26E-12,  avg # of iterations =  1.0

     total cpu time spent up to now is     7338.5 secs

     total energy              =   -3067.10309877 Ry
     estimated scf accuracy    <       0.00000001 Ry

     total magnetization       =     0.00 Bohr mag/cell
     absolute magnetization    =     0.00 Bohr mag/cell

     iteration # 13     ecut=   130.00 Ry     beta= 0.70
     Davidson diagonalization with overlap
     ethr =  3.26E-12,  avg # of iterations =  2.0

     total cpu time spent up to now is     7520.0 secs

     total energy              =   -3067.10309877 Ry
     estimated scf accuracy    <          2.0E-09 Ry

     total magnetization       =     0.00 Bohr mag/cell
     absolute magnetization    =     0.00 Bohr mag/cell

     iteration # 14     ecut=   130.00 Ry     beta= 0.70
     Davidson diagonalization with overlap
     ethr =  9.97E-13,  avg # of iterations =  1.0
 
     Magnetic moment per site:
     atom:    1    charge:   15.3911    magn:    0.0000    constr:    0.0000
     atom:    2    charge:   15.4475    magn:    0.0000    constr:    0.0000
     atom:    3    charge:   15.4475    magn:    0.0000    constr:    0.0000
     atom:    4    charge:   15.4475    magn:    0.0000    constr:    0.0000
     atom:    5    charge:   15.4475    magn:    0.0000    constr:    0.0000
     atom:    6    charge:   15.4475    magn:    0.0000    constr:    0.0000
     atom:    7    charge:   15.4475    magn:    0.0000    constr:    0.0000
     atom:    8    charge:   10.7863    magn:    0.0000    constr:    0.0000
     atom:    9    charge:   10.7596    magn:    0.0000    constr:    0.0000
     atom:   10    charge:   10.8562    magn:    0.0000    constr:    0.0000
     atom:   11    charge:   10.7863    magn:    0.0000    constr:    0.0000
     atom:   12    charge:   10.7596    magn:    0.0000    constr:    0.0000
     atom:   13    charge:   10.8562    magn:    0.0000    constr:    0.0000

     total cpu time spent up to now is     7674.7 secs

     End of self-consistent calculation

     Number of k-points >= 100: set verbosity='high' to print the bands.

     the Fermi energy is    21.5407 ev

!    total energy              =   -3067.10309877 Ry
     estimated scf accuracy    <          5.8E-10 Ry
     smearing contrib. (-TS)   =       0.00074048 Ry
     internal energy E=F+TS    =   -3067.10383925 Ry

     The total energy is F=E-TS. E is the sum of the following terms:
     one-electron contribution =   -1179.84865209 Ry
     hartree contribution      =     735.06893588 Ry
     xc contribution           =    -594.33031870 Ry
     ewald contribution        =   -2027.99380434 Ry

     total magnetization       =     0.00 Bohr mag/cell
     absolute magnetization    =     0.00 Bohr mag/cell

     convergence has been achieved in  14 iterations

     Forces acting on atoms (cartesian axes, Ry/au):

     atom    1 type  1   force =     0.00000000   -0.00000000   -0.00000000
     atom    2 type  1   force =     0.00002180    0.00001259   -0.00002941
     atom    3 type  1   force =     0.00000000   -0.00002518   -0.00002941
     atom    4 type  1   force =    -0.00002180    0.00001259   -0.00002941
     atom    5 type  1   force =    -0.00002180   -0.00001259    0.00002941
     atom    6 type  1   force =     0.00000000    0.00002518    0.00002941
     atom    7 type  1   force =     0.00002180   -0.00001259    0.00002941
     atom    8 type  2   force =     0.00000000    0.00000000   -0.00001535
     atom    9 type  2   force =     0.00000000    0.00000000    0.00006335
     atom   10 type  2   force =     0.00000000    0.00000000   -0.00001256
     atom   11 type  2   force =     0.00000000    0.00000000    0.00001535
     atom   12 type  2   force =     0.00000000    0.00000000   -0.00006335
     atom   13 type  2   force =     0.00000000    0.00000000    0.00001256

     Total force =     0.000133     Total SCF correction =     0.000061
     SCF correction compared to forces is large: reduce conv_thr to get better values


     Computing stress (Cartesian axis) and pressure

          total   stress  (Ry/bohr**3)                   (kbar)     P=       -0.03
  -0.00000003  -0.00000000   0.00000000           -0.00       -0.00        0.00
   0.00000000  -0.00000003  -0.00000000            0.00       -0.00       -0.00
  -0.00000000  -0.00000000  -0.00000059           -0.00       -0.00       -0.09

Begin final coordinates
     new unit-cell volume =   1122.85370 a.u.^3 (   166.38975 Ang^3 )
     density =     15.12513 g/cm^3

CELL_PARAMETERS (alat= 16.93465343)
   0.264758374  -0.152858318   0.952147436
   0.000000000   0.305716637   0.952147436
  -0.264758374  -0.152858318   0.952147436

ATOMIC_POSITIONS (crystal)
Co            0.0000000000        0.0000000000       -0.0000000000
Co            0.0900538600        0.0900538600        0.5898527827
Co            0.0900538600        0.5898527827        0.0900538600
Co            0.5898527827        0.0900538600        0.0900538600
Co           -0.0900538600       -0.0900538600       -0.5898527827
Co           -0.0900538600       -0.5898527827       -0.0900538600
Co           -0.5898527827       -0.0900538600       -0.0900538600
W             0.1654909766        0.1654909766        0.1654909766
W             0.3467658978        0.3467658978        0.3467658978
W             0.4503275559        0.4503275559        0.4503275559
W            -0.1654909766       -0.1654909766       -0.1654909766
W            -0.3467658978       -0.3467658978       -0.3467658978
W            -0.4503275559       -0.4503275559       -0.4503275559
End final coordinates



     lsda relaxation :  a final configuration with zero
                        absolute magnetization has been found

     the program is checking if it is really the minimum energy structure
     by performing a new scf iteration without any "electronic" history

     Initial potential from superposition of free atoms

     starting charge  202.99483, renormalised to  203.00000

     total cpu time spent up to now is     7752.0 secs

     Self-consistent Calculation

     iteration #  1     ecut=   130.00 Ry     beta= 0.70
     Davidson diagonalization with overlap
     c_bands:  1 eigenvalues not converged
     ethr =  1.00E-06,  avg # of iterations =  7.2

     total cpu time spent up to now is     8081.7 secs

     total energy              =   -3062.36179143 Ry
     estimated scf accuracy    <       6.22960830 Ry

     total magnetization       =     0.00 Bohr mag/cell
     absolute magnetization    =     0.00 Bohr mag/cell

     iteration #  2     ecut=   130.00 Ry     beta= 0.70
     Davidson diagonalization with overlap
     ethr =  3.07E-03,  avg # of iterations =  5.2

     total cpu time spent up to now is     8334.8 secs

     total energy              =   -3047.41870365 Ry
     estimated scf accuracy    <     344.38261921 Ry

     total magnetization       =     0.00 Bohr mag/cell
     absolute magnetization    =     0.00 Bohr mag/cell

     iteration #  3     ecut=   130.00 Ry     beta= 0.70
     Davidson diagonalization with overlap
     ethr =  3.07E-03,  avg # of iterations =  6.0

     total cpu time spent up to now is     8632.4 secs

     total energy              =   -3064.58889346 Ry
     estimated scf accuracy    <      44.44339433 Ry

     total magnetization       =     0.00 Bohr mag/cell
     absolute magnetization    =     0.00 Bohr mag/cell

     iteration #  4     ecut=   130.00 Ry     beta= 0.70
     Davidson diagonalization with overlap
     ethr =  3.07E-03,  avg # of iterations =  3.3

     total cpu time spent up to now is     8804.1 secs

     total energy              =   -3066.84033962 Ry
     estimated scf accuracy    <       5.02159112 Ry

     total magnetization       =     0.00 Bohr mag/cell
     absolute magnetization    =     0.00 Bohr mag/cell

     iteration #  5     ecut=   130.00 Ry     beta= 0.70
     Davidson diagonalization with overlap
     ethr =  2.47E-03,  avg # of iterations =  1.0

     total cpu time spent up to now is     8960.5 secs

     total energy              =   -3067.04932613 Ry
     estimated scf accuracy    <       0.66046768 Ry

     total magnetization       =     0.00 Bohr mag/cell
     absolute magnetization    =     0.00 Bohr mag/cell

     iteration #  6     ecut=   130.00 Ry     beta= 0.70
     Davidson diagonalization with overlap
     ethr =  3.25E-04,  avg # of iterations =  7.0

     total cpu time spent up to now is     9143.7 secs

     total energy              =   -3067.07620789 Ry
     estimated scf accuracy    <       0.16610853 Ry

     total magnetization       =     0.00 Bohr mag/cell
     absolute magnetization    =     0.00 Bohr mag/cell

     iteration #  7     ecut=   130.00 Ry     beta= 0.70
     Davidson diagonalization with overlap
     ethr =  8.18E-05,  avg # of iterations =  4.9

     total cpu time spent up to now is     9320.4 secs

     total energy              =   -3067.09926390 Ry
     estimated scf accuracy    <       0.04903994 Ry

     total magnetization       =     0.00 Bohr mag/cell
     absolute magnetization    =     0.00 Bohr mag/cell

     iteration #  8     ecut=   130.00 Ry     beta= 0.70
     Davidson diagonalization with overlap
     ethr =  2.42E-05,  avg # of iterations =  2.0

     total cpu time spent up to now is     9482.3 secs

     total energy              =   -3067.10262293 Ry
     estimated scf accuracy    <       0.00207689 Ry

     total magnetization       =     0.00 Bohr mag/cell
     absolute magnetization    =     0.00 Bohr mag/cell

     iteration #  9     ecut=   130.00 Ry     beta= 0.70
     Davidson diagonalization with overlap
     ethr =  1.02E-06,  avg # of iterations =  5.3

     total cpu time spent up to now is     9697.0 secs

     total energy              =   -3067.10304372 Ry
     estimated scf accuracy    <       0.00072816 Ry

     total magnetization       =     0.00 Bohr mag/cell
     absolute magnetization    =     0.00 Bohr mag/cell

     iteration # 10     ecut=   130.00 Ry     beta= 0.70
     Davidson diagonalization with overlap
     ethr =  3.59E-07,  avg # of iterations =  2.0

     total cpu time spent up to now is     9854.7 secs

     total energy              =   -3067.10309112 Ry
     estimated scf accuracy    <       0.00005154 Ry

     total magnetization       =     0.00 Bohr mag/cell
     absolute magnetization    =     0.00 Bohr mag/cell

     iteration # 11     ecut=   130.00 Ry     beta= 0.70
     Davidson diagonalization with overlap
     ethr =  2.54E-08,  avg # of iterations =  2.8

     total cpu time spent up to now is    10026.2 secs

     total energy              =   -3067.10309843 Ry
     estimated scf accuracy    <       0.00000151 Ry

     total magnetization       =     0.00 Bohr mag/cell
     absolute magnetization    =     0.00 Bohr mag/cell

     iteration # 12     ecut=   130.00 Ry     beta= 0.70
     Davidson diagonalization with overlap
     ethr =  7.44E-10,  avg # of iterations =  3.8

     total cpu time spent up to now is    10216.9 secs

     total energy              =   -3067.10309872 Ry
     estimated scf accuracy    <       0.00000070 Ry

     total magnetization       =     0.00 Bohr mag/cell
     absolute magnetization    =     0.00 Bohr mag/cell

     iteration # 13     ecut=   130.00 Ry     beta= 0.70
     Davidson diagonalization with overlap
     ethr =  3.44E-10,  avg # of iterations =  1.1

     total cpu time spent up to now is    10371.5 secs

     total energy              =   -3067.10309875 Ry
     estimated scf accuracy    <       0.00000011 Ry

     total magnetization       =     0.00 Bohr mag/cell
     absolute magnetization    =     0.00 Bohr mag/cell

     iteration # 14     ecut=   130.00 Ry     beta= 0.70
     Davidson diagonalization with overlap
     ethr =  5.63E-11,  avg # of iterations =  2.4

     total cpu time spent up to now is    10537.7 secs

     total energy              =   -3067.10309877 Ry
     estimated scf accuracy    <       0.00000005 Ry

     total magnetization       =     0.00 Bohr mag/cell
     absolute magnetization    =     0.00 Bohr mag/cell

     iteration # 15     ecut=   130.00 Ry     beta= 0.70
     Davidson diagonalization with overlap
     ethr =  2.51E-11,  avg # of iterations =  1.0

     total cpu time spent up to now is    10692.9 secs

     total energy              =   -3067.10309877 Ry
     estimated scf accuracy    <          1.3E-09 Ry

     total magnetization       =     0.00 Bohr mag/cell
     absolute magnetization    =     0.00 Bohr mag/cell

     iteration # 16     ecut=   130.00 Ry     beta= 0.70
     Davidson diagonalization with overlap
     ethr =  6.55E-13,  avg # of iterations =  3.4

     total cpu time spent up to now is    10898.2 secs

     total energy              =   -3067.10309877 Ry
     estimated scf accuracy    <          3.5E-09 Ry

     total magnetization       =     0.00 Bohr mag/cell
     absolute magnetization    =     0.00 Bohr mag/cell

     iteration # 17     ecut=   130.00 Ry     beta= 0.70
     Davidson diagonalization with overlap
     ethr =  6.55E-13,  avg # of iterations =  2.2
 
     Magnetic moment per site:
     atom:    1    charge:   15.3911    magn:    0.0000    constr:    0.0000
     atom:    2    charge:   15.4474    magn:    0.0000    constr:    0.0000
     atom:    3    charge:   15.4474    magn:    0.0000    constr:    0.0000
     atom:    4    charge:   15.4474    magn:    0.0000    constr:    0.0000
     atom:    5    charge:   15.4474    magn:    0.0000    constr:    0.0000
     atom:    6    charge:   15.4474    magn:    0.0000    constr:    0.0000
     atom:    7    charge:   15.4474    magn:    0.0000    constr:    0.0000
     atom:    8    charge:   10.7863    magn:    0.0000    constr:    0.0000
     atom:    9    charge:   10.7596    magn:    0.0000    constr:    0.0000
     atom:   10    charge:   10.8562    magn:    0.0000    constr:    0.0000
     atom:   11    charge:   10.7863    magn:    0.0000    constr:    0.0000
     atom:   12    charge:   10.7596    magn:    0.0000    constr:    0.0000
     atom:   13    charge:   10.8562    magn:    0.0000    constr:    0.0000

     total cpu time spent up to now is    11062.9 secs

     End of self-consistent calculation

     Number of k-points >= 100: set verbosity='high' to print the bands.

     the Fermi energy is    21.5407 ev

!    total energy              =   -3067.10309877 Ry
     estimated scf accuracy    <          2.2E-10 Ry
     smearing contrib. (-TS)   =       0.00074051 Ry
     internal energy E=F+TS    =   -3067.10383928 Ry

     The total energy is F=E-TS. E is the sum of the following terms:
     one-electron contribution =   -1179.84810488 Ry
     hartree contribution      =     735.06835327 Ry
     xc contribution           =    -594.33028334 Ry
     ewald contribution        =   -2027.99380434 Ry

     total magnetization       =     0.00 Bohr mag/cell
     absolute magnetization    =     0.00 Bohr mag/cell

     convergence has been achieved in  17 iterations

     Forces acting on atoms (cartesian axes, Ry/au):

     atom    1 type  1   force =     0.00000000    0.00000000   -0.00000000
     atom    2 type  1   force =     0.00002080    0.00001201   -0.00003114
     atom    3 type  1   force =     0.00000000   -0.00002402   -0.00003114
     atom    4 type  1   force =    -0.00002080    0.00001201   -0.00003114
     atom    5 type  1   force =    -0.00002080   -0.00001201    0.00003114
     atom    6 type  1   force =    -0.00000000    0.00002402    0.00003114
     atom    7 type  1   force =     0.00002080   -0.00001201    0.00003114
     atom    8 type  2   force =     0.00000000    0.00000000   -0.00001553
     atom    9 type  2   force =     0.00000000    0.00000000    0.00006389
     atom   10 type  2   force =     0.00000000    0.00000000   -0.00001117
     atom   11 type  2   force =     0.00000000    0.00000000    0.00001553
     atom   12 type  2   force =     0.00000000    0.00000000   -0.00006389
     atom   13 type  2   force =     0.00000000    0.00000000    0.00001117

     Total force =     0.000135     Total SCF correction =     0.000022
     SCF correction compared to forces is large: reduce conv_thr to get better values


     Computing stress (Cartesian axis) and pressure

          total   stress  (Ry/bohr**3)                   (kbar)     P=       -0.04
  -0.00000006  -0.00000000   0.00000000           -0.01       -0.00        0.00
  -0.00000000  -0.00000006  -0.00000000           -0.00       -0.01       -0.00
  -0.00000000  -0.00000000  -0.00000065           -0.00       -0.00       -0.10


     bfgs converged in   3 scf cycles and   2 bfgs steps
     (criteria: energy <  1.0E-05 Ry, force <  1.0E-04Ry/Bohr, cell <  1.0E-01kbar)

     End of BFGS Geometry Optimization

     Final enthalpy =   -3067.1030987709 Ry

     File ./bulk.bfgs deleted, as requested
Begin final coordinates
     new unit-cell volume =   1122.85370 a.u.^3 (   166.38975 Ang^3 )
     density =     15.12513 g/cm^3

CELL_PARAMETERS (alat= 16.93465343)
   0.264758374  -0.152858318   0.952147436
   0.000000000   0.305716637   0.952147436
  -0.264758374  -0.152858318   0.952147436

ATOMIC_POSITIONS (crystal)
Co            0.0000000000        0.0000000000       -0.0000000000
Co            0.0900538600        0.0900538600        0.5898527827
Co            0.0900538600        0.5898527827        0.0900538600
Co            0.5898527827        0.0900538600        0.0900538600
Co           -0.0900538600       -0.0900538600       -0.5898527827
Co           -0.0900538600       -0.5898527827       -0.0900538600
Co           -0.5898527827       -0.0900538600       -0.0900538600
W             0.1654909766        0.1654909766        0.1654909766
W             0.3467658978        0.3467658978        0.3467658978
W             0.4503275559        0.4503275559        0.4503275559
W            -0.1654909766       -0.1654909766       -0.1654909766
W            -0.3467658978       -0.3467658978       -0.3467658978
W            -0.4503275559       -0.4503275559       -0.4503275559
End final coordinates



     Final scf calculation at the relaxed structure.
     The G-vectors are recalculated for the final unit cell
     Results may differ from those at the preceding step.
 
     Parallelization info
     --------------------
     sticks:   dense  smooth     PW     G-vecs:    dense   smooth      PW
     Min         379     379    107                14062    14062    2119
     Max         380     380    108                14063    14063    2120
     Sum        6067    6067   1715               224997   224997   33915
 

     Title: 
     bulk                                                                       


     bravais-lattice index     =            5
     lattice parameter (alat)  =      16.9347  a.u.
     unit-cell volume          =    1122.8537 (a.u.)^3
     number of atoms/cell      =           13
     number of atomic types    =            2
     number of electrons       =       203.00
     number of Kohn-Sham states=          122
     kinetic-energy cutoff     =     130.0000  Ry
     charge density cutoff     =     520.0000  Ry
     convergence threshold     =      1.0E-09
     mixing beta               =       0.7000
     number of iterations used =            8  plain     mixing
     Exchange-correlation= PBE
                           (   1   4   3   4   0   0   0)

     celldm(1)=  16.934653  celldm(2)=   0.000000  celldm(3)=   0.000000
     celldm(4)=   0.859805  celldm(5)=   0.000000  celldm(6)=   0.000000

     crystal axes: (cart. coord. in units of alat)
               a(1) = (   0.264758  -0.152858   0.952147 )  
               a(2) = (   0.000000   0.305717   0.952147 )  
               a(3) = (  -0.264758  -0.152858   0.952147 )  

     reciprocal axes: (cart. coord. in units 2 pi/alat)
               b(1) = (  1.888514 -1.090334  0.350086 )  
               b(2) = (  0.000000  2.180669  0.350086 )  
               b(3) = ( -1.888514 -1.090334  0.350086 )  


     PseudoPot. # 1 for Co read from file:
     /gpfs/share/home/1600011702/pseudo/Co.nc.fr.pbe.stringent.upf
     MD5 check sum: 5025e55def73e686899be73cabb26c16
     Pseudo is Norm-conserving + core correction, Zval = 17.0
     Generated using ONCVPSP code by D. R. Hamann
     Using radial grid of 1388 points,  6 beta functions with: 
                l(1) =   0
                l(2) =   0
                l(3) =   1
                l(4) =   1
                l(5) =   2
                l(6) =   2

     PseudoPot. # 2 for W  read from file:
     /gpfs/share/home/1600011702/pseudo/W.nc.fr.pbe.stringent.upf
     MD5 check sum: 75b1d432d85d028982bb81b068264ebf
     Pseudo is Norm-conserving + core correction, Zval = 14.0
     Generated using ONCVPSP code by D. R. Hamann
     Using radial grid of 1396 points,  8 beta functions with: 
                l(1) =   0
                l(2) =   0
                l(3) =   1
                l(4) =   1
                l(5) =   2
                l(6) =   2
                l(7) =   3
                l(8) =   3

     atomic species   valence    mass     pseudopotential
        Co            17.00    58.93320     Co( 1.00)
        W             14.00   183.84000     W ( 1.00)

     Starting magnetic structure 
     atomic species   magnetization
        Co           0.000
        W            0.000

     12 Sym. Ops., with inversion, found



   Cartesian axes

     site n.     atom                  positions (alat units)
         1           Co  tau(   1) = (   0.0000000   0.0000000  -0.0000000  )
         2           Co  tau(   2) = (  -0.1323260  -0.0763984   0.7331159  )
         3           Co  tau(   3) = (   0.0000000   0.1527968   0.7331159  )
         4           Co  tau(   4) = (   0.1323260  -0.0763984   0.7331159  )
         5           Co  tau(   5) = (   0.1323260   0.0763984  -0.7331159  )
         6           Co  tau(   6) = (   0.0000000  -0.1527968  -0.7331159  )
         7           Co  tau(   7) = (  -0.1323260   0.0763984  -0.7331159  )
         8           W   tau(   8) = (   0.0000000  -0.0000000   0.4727154  )
         9           W   tau(   9) = (   0.0000000  -0.0000000   0.9905168  )
        10           W   tau(  10) = (   0.0000000  -0.0000000   1.2863347  )
        11           W   tau(  11) = (   0.0000000   0.0000000  -0.4727154  )
        12           W   tau(  12) = (   0.0000000   0.0000000  -0.9905168  )
        13           W   tau(  13) = (   0.0000000   0.0000000  -1.2863347  )

     number of k points=   116  Methfessel-Paxton smearing, width (Ry)=  0.0200

     Number of k-points >= 100: set verbosity='high' to print them.

     Dense  grid:   224997 G-vectors     FFT dimensions: ( 125, 125, 125)

     Estimated max dynamical RAM per process >     280.73 MB

     Estimated total dynamical RAM >      17.55 GB
     Generating pointlists ...

     Initial potential from superposition of free atoms

     starting charge  202.99483, renormalised to  203.00000
     Starting wfcs are  130 randomized atomic wfcs

     total cpu time spent up to now is    11201.3 secs

     Self-consistent Calculation

     iteration #  1     ecut=   130.00 Ry     beta= 0.70
     Davidson diagonalization with overlap
     c_bands:  2 eigenvalues not converged
     c_bands:  2 eigenvalues not converged
     c_bands:  1 eigenvalues not converged
     c_bands:  1 eigenvalues not converged
     c_bands:  1 eigenvalues not converged
     c_bands:  1 eigenvalues not converged
     c_bands:  2 eigenvalues not converged
     c_bands:  1 eigenvalues not converged
     c_bands:  1 eigenvalues not converged
     ethr =  1.00E-06,  avg # of iterations = 14.5

     total cpu time spent up to now is    11674.6 secs

     total energy              =   -3062.36017602 Ry
     estimated scf accuracy    <       6.23151094 Ry

     total magnetization       =     0.00 Bohr mag/cell
     absolute magnetization    =     0.00 Bohr mag/cell

     iteration #  2     ecut=   130.00 Ry     beta= 0.70
     Davidson diagonalization with overlap
     ethr =  3.07E-03,  avg # of iterations =  5.2

     total cpu time spent up to now is    11924.3 secs

     total energy              =   -3047.41499162 Ry
     estimated scf accuracy    <     344.45034758 Ry

     total magnetization       =     0.00 Bohr mag/cell
     absolute magnetization    =     0.00 Bohr mag/cell

     iteration #  3     ecut=   130.00 Ry     beta= 0.70
     Davidson diagonalization with overlap
     ethr =  3.07E-03,  avg # of iterations =  6.0

     total cpu time spent up to now is    12211.7 secs

     total energy              =   -3064.58803688 Ry
     estimated scf accuracy    <      44.45425510 Ry

     total magnetization       =     0.00 Bohr mag/cell
     absolute magnetization    =     0.00 Bohr mag/cell

     iteration #  4     ecut=   130.00 Ry     beta= 0.70
     Davidson diagonalization with overlap
     ethr =  3.07E-03,  avg # of iterations =  3.2

     total cpu time spent up to now is    12375.3 secs

     total energy              =   -3066.83973856 Ry
     estimated scf accuracy    <       5.02079004 Ry

     total magnetization       =     0.00 Bohr mag/cell
     absolute magnetization    =     0.00 Bohr mag/cell

     iteration #  5     ecut=   130.00 Ry     beta= 0.70
     Davidson diagonalization with overlap
     ethr =  2.47E-03,  avg # of iterations =  1.0

     total cpu time spent up to now is    12531.3 secs

     total energy              =   -3067.04898300 Ry
     estimated scf accuracy    <       0.66202567 Ry

     total magnetization       =     0.00 Bohr mag/cell
     absolute magnetization    =     0.00 Bohr mag/cell

     iteration #  6     ecut=   130.00 Ry     beta= 0.70
     Davidson diagonalization with overlap
     ethr =  3.26E-04,  avg # of iterations =  7.0

     total cpu time spent up to now is    12707.0 secs

     total energy              =   -3067.07615553 Ry
     estimated scf accuracy    <       0.16554416 Ry

     total magnetization       =     0.00 Bohr mag/cell
     absolute magnetization    =     0.00 Bohr mag/cell

     iteration #  7     ecut=   130.00 Ry     beta= 0.70
     Davidson diagonalization with overlap
     ethr =  8.15E-05,  avg # of iterations =  5.0

     total cpu time spent up to now is    12880.6 secs

     total energy              =   -3067.09925182 Ry
     estimated scf accuracy    <       0.04911097 Ry

     total magnetization       =     0.00 Bohr mag/cell
     absolute magnetization    =     0.00 Bohr mag/cell

     iteration #  8     ecut=   130.00 Ry     beta= 0.70
     Davidson diagonalization with overlap
     ethr =  2.42E-05,  avg # of iterations =  1.9

     total cpu time spent up to now is    13037.2 secs

     total energy              =   -3067.10262077 Ry
     estimated scf accuracy    <       0.00206514 Ry

     total magnetization       =     0.00 Bohr mag/cell
     absolute magnetization    =     0.00 Bohr mag/cell

     iteration #  9     ecut=   130.00 Ry     beta= 0.70
     Davidson diagonalization with overlap
     ethr =  1.02E-06,  avg # of iterations =  5.3

     total cpu time spent up to now is    13246.9 secs

     total energy              =   -3067.10304322 Ry
     estimated scf accuracy    <       0.00073826 Ry

     total magnetization       =     0.00 Bohr mag/cell
     absolute magnetization    =     0.00 Bohr mag/cell

     iteration # 10     ecut=   130.00 Ry     beta= 0.70
     Davidson diagonalization with overlap
     ethr =  3.64E-07,  avg # of iterations =  2.0

     total cpu time spent up to now is    13403.9 secs

     total energy              =   -3067.10309090 Ry
     estimated scf accuracy    <       0.00005359 Ry

     total magnetization       =     0.00 Bohr mag/cell
     absolute magnetization    =     0.00 Bohr mag/cell

     iteration # 11     ecut=   130.00 Ry     beta= 0.70
     Davidson diagonalization with overlap
     ethr =  2.64E-08,  avg # of iterations =  2.8

     total cpu time spent up to now is    13575.3 secs

     total energy              =   -3067.10309846 Ry
     estimated scf accuracy    <       0.00000155 Ry

     total magnetization       =     0.00 Bohr mag/cell
     absolute magnetization    =     0.00 Bohr mag/cell

     iteration # 12     ecut=   130.00 Ry     beta= 0.70
     Davidson diagonalization with overlap
     ethr =  7.61E-10,  avg # of iterations =  3.8

     total cpu time spent up to now is    13767.2 secs

     total energy              =   -3067.10309877 Ry
     estimated scf accuracy    <       0.00000071 Ry

     total magnetization       =     0.00 Bohr mag/cell
     absolute magnetization    =     0.00 Bohr mag/cell

     iteration # 13     ecut=   130.00 Ry     beta= 0.70
     Davidson diagonalization with overlap
     ethr =  3.49E-10,  avg # of iterations =  1.1

     total cpu time spent up to now is    13922.2 secs

     total energy              =   -3067.10309880 Ry
     estimated scf accuracy    <       0.00000014 Ry

     total magnetization       =     0.00 Bohr mag/cell
     absolute magnetization    =     0.00 Bohr mag/cell

     iteration # 14     ecut=   130.00 Ry     beta= 0.70
     Davidson diagonalization with overlap
     ethr =  6.74E-11,  avg # of iterations =  2.3

     total cpu time spent up to now is    14083.7 secs

     total energy              =   -3067.10309882 Ry
     estimated scf accuracy    <       0.00000005 Ry

     total magnetization       =     0.00 Bohr mag/cell
     absolute magnetization    =     0.00 Bohr mag/cell

     iteration # 15     ecut=   130.00 Ry     beta= 0.70
     Davidson diagonalization with overlap
     ethr =  2.64E-11,  avg # of iterations =  1.0

     total cpu time spent up to now is    14237.5 secs

     total energy              =   -3067.10309882 Ry
     estimated scf accuracy    <          1.6E-09 Ry

     total magnetization       =     0.00 Bohr mag/cell
     absolute magnetization    =     0.00 Bohr mag/cell

     iteration # 16     ecut=   130.00 Ry     beta= 0.70
     Davidson diagonalization with overlap
     ethr =  7.68E-13,  avg # of iterations =  3.4

     total cpu time spent up to now is    14436.7 secs

     total energy              =   -3067.10309882 Ry
     estimated scf accuracy    <          3.4E-09 Ry

     total magnetization       =     0.00 Bohr mag/cell
     absolute magnetization    =     0.00 Bohr mag/cell

     iteration # 17     ecut=   130.00 Ry     beta= 0.70
     Davidson diagonalization with overlap
     ethr =  7.68E-13,  avg # of iterations =  2.0
 
     Magnetic moment per site:
     atom:    1    charge:   15.3911    magn:    0.0000    constr:    0.0000
     atom:    2    charge:   15.4474    magn:    0.0000    constr:    0.0000
     atom:    3    charge:   15.4474    magn:    0.0000    constr:    0.0000
     atom:    4    charge:   15.4474    magn:    0.0000    constr:    0.0000
     atom:    5    charge:   15.4474    magn:    0.0000    constr:    0.0000
     atom:    6    charge:   15.4474    magn:    0.0000    constr:    0.0000
     atom:    7    charge:   15.4474    magn:    0.0000    constr:    0.0000
     atom:    8    charge:   10.7863    magn:    0.0000    constr:    0.0000
     atom:    9    charge:   10.7596    magn:    0.0000    constr:    0.0000
     atom:   10    charge:   10.8562    magn:    0.0000    constr:    0.0000
     atom:   11    charge:   10.7863    magn:    0.0000    constr:    0.0000
     atom:   12    charge:   10.7596    magn:    0.0000    constr:    0.0000
     atom:   13    charge:   10.8562    magn:    0.0000    constr:    0.0000

     total cpu time spent up to now is    14594.8 secs

     End of self-consistent calculation

     Number of k-points >= 100: set verbosity='high' to print the bands.

     the Fermi energy is    21.5407 ev

!    total energy              =   -3067.10309882 Ry
     estimated scf accuracy    <          2.5E-10 Ry
     smearing contrib. (-TS)   =       0.00074051 Ry
     internal energy E=F+TS    =   -3067.10383933 Ry

     The total energy is F=E-TS. E is the sum of the following terms:
     one-electron contribution =   -1179.84812439 Ry
     hartree contribution      =     735.06837424 Ry
     xc contribution           =    -594.33028484 Ry
     ewald contribution        =   -2027.99380434 Ry

     total magnetization       =     0.00 Bohr mag/cell
     absolute magnetization    =     0.00 Bohr mag/cell

     convergence has been achieved in  17 iterations

     Forces acting on atoms (cartesian axes, Ry/au):

     atom    1 type  1   force =    -0.00000000   -0.00000000   -0.00000000
     atom    2 type  1   force =     0.00002090    0.00001207   -0.00003119
     atom    3 type  1   force =     0.00000000   -0.00002414   -0.00003119
     atom    4 type  1   force =    -0.00002090    0.00001207   -0.00003119
     atom    5 type  1   force =    -0.00002090   -0.00001207    0.00003119
     atom    6 type  1   force =     0.00000000    0.00002414    0.00003119
     atom    7 type  1   force =     0.00002090   -0.00001207    0.00003119
     atom    8 type  2   force =     0.00000000   -0.00000000   -0.00001553
     atom    9 type  2   force =     0.00000000    0.00000000    0.00006383
     atom   10 type  2   force =     0.00000000    0.00000000   -0.00001128
     atom   11 type  2   force =     0.00000000   -0.00000000    0.00001553
     atom   12 type  2   force =     0.00000000    0.00000000   -0.00006383
     atom   13 type  2   force =     0.00000000    0.00000000    0.00001128

     Total force =     0.000135     Total SCF correction =     0.000036
     SCF correction compared to forces is large: reduce conv_thr to get better values


     Computing stress (Cartesian axis) and pressure

          total   stress  (Ry/bohr**3)                   (kbar)     P=       -0.04
  -0.00000005   0.00000000   0.00000000           -0.01        0.00        0.00
  -0.00000000  -0.00000005  -0.00000000           -0.00       -0.01       -0.00
   0.00000000  -0.00000000  -0.00000065            0.00       -0.00       -0.10

 
     init_run     :    120.60s CPU    123.16s WALL (       2 calls)
     electrons    :  13865.05s CPU  14158.09s WALL (       5 calls)
     update_pot   :      4.14s CPU      4.33s WALL (       2 calls)
     forces       :     33.73s CPU     34.65s WALL (       5 calls)
     stress       :    342.81s CPU    349.74s WALL (       5 calls)

     Called by init_run:
     wfcinit      :    118.17s CPU    120.62s WALL (       2 calls)
     potinit      :      1.42s CPU      1.48s WALL (       3 calls)
     hinit0       :      0.84s CPU      0.89s WALL (       2 calls)

     Called by electrons:
     c_bands      :  11358.00s CPU  11598.82s WALL (      76 calls)
     sum_band     :   2485.10s CPU   2536.45s WALL (      76 calls)
     v_of_rho     :     18.55s CPU     19.15s WALL (      79 calls)
     mix_rho      :      1.96s CPU      2.08s WALL (      76 calls)

     Called by c_bands:
     init_us_2    :     44.75s CPU     45.38s WALL (    9512 calls)
     cegterg      :  10980.04s CPU  11207.48s WALL (    4408 calls)

     Called by *egterg:
     cdiaghg      :    507.75s CPU    515.22s WALL (   17445 calls)
     h_psi        :  10054.77s CPU  10266.77s WALL (   17851 calls)
     g_psi        :      8.69s CPU      8.80s WALL (   13327 calls)

     Called by h_psi:
     h_psi:calbec :    191.91s CPU    196.71s WALL (   17851 calls)
     vloc_psi     :   9637.20s CPU   9841.25s WALL (   17851 calls)
     add_vuspsi   :    193.59s CPU    195.90s WALL (   17851 calls)

     General routines
     calbec       :    235.85s CPU    242.54s WALL (   19301 calls)
     fft          :     11.96s CPU     12.36s WALL (    1705 calls)
     ffts         :      1.25s CPU      1.27s WALL (     152 calls)
     fftw         :  10482.58s CPU  10712.61s WALL ( 3224144 calls)
 
     Parallel routines
     fft_scatt_xy :   3265.79s CPU   3325.64s WALL ( 3226001 calls)
     fft_scatt_yz :   2164.95s CPU   2251.18s WALL ( 3226001 calls)
 
     PWSCF        :      3h59m CPU      4h 4m WALL

 
   This run was terminated on:  23:34:48  12May2020            

=------------------------------------------------------------------------------=
   JOB DONE.
=------------------------------------------------------------------------------=
