
     Program PWSCF v.6.5 starts on 30Apr2020 at 14:52:37 

     This program is part of the open-source Quantum ESPRESSO suite
     for quantum simulation of materials; please cite
         "P. Giannozzi et al., J. Phys.:Condens. Matter 21 395502 (2009);
         "P. Giannozzi et al., J. Phys.:Condens. Matter 29 465901 (2017);
          URL http://www.quantum-espresso.org", 
     in publications or presentations arising from this work. More details at
     http://www.quantum-espresso.org/quote

     Parallel version (MPI), running on    20 processors

     MPI processes distributed on    10 nodes
     K-points division:     npool     =       4
     R & G space division:  proc/nbgrp/npool/nimage =       5
     Reading input from w.in

     Current dimensions of program PWSCF are:
     Max number of different atomic species (ntypx) = 10
     Max number of k-points (npk) =  40000
     Max angular momentum in pseudopotentials (lmaxx) =  3

     Subspace diagonalization in iterative solution of the eigenvalue problem:
     a serial algorithm will be used

 
     Parallelization info
     --------------------
     sticks:   dense  smooth     PW     G-vecs:    dense   smooth      PW
     Min         210     210     63                 4353     4353     711
     Max         211     211     63                 4355     4355     712
     Sum        1051    1051    315                21769    21769    3559
 


     bravais-lattice index     =            3
     lattice parameter (alat)  =       6.0169  a.u.
     unit-cell volume          =     108.9130 (a.u.)^3
     number of atoms/cell      =            1
     number of atomic types    =            1
     number of electrons       =        14.00
     number of Kohn-Sham states=           22
     kinetic-energy cutoff     =     130.0000  Ry
     charge density cutoff     =     520.0000  Ry
     convergence threshold     =      1.0E-07
     mixing beta               =       0.7000
     number of iterations used =            8  plain     mixing
     Exchange-correlation= PBE
                           (   1   4   3   4   0   0   0)
     nstep                     =           50

     Non magnetic calculation with spin-orbit


     celldm(1)=   6.016860  celldm(2)=   0.000000  celldm(3)=   0.000000
     celldm(4)=   0.000000  celldm(5)=   0.000000  celldm(6)=   0.000000

     crystal axes: (cart. coord. in units of alat)
               a(1) = (   0.500000   0.500000   0.500000 )  
               a(2) = (  -0.500000   0.500000   0.500000 )  
               a(3) = (  -0.500000  -0.500000   0.500000 )  

     reciprocal axes: (cart. coord. in units 2 pi/alat)
               b(1) = (  1.000000  0.000000  1.000000 )  
               b(2) = ( -1.000000  1.000000  0.000000 )  
               b(3) = (  0.000000 -1.000000  1.000000 )  


     PseudoPot. # 1 for W  read from file:
     /nfs-share/home/1600011702/pseudo/W.nc.fr.pbe.stringent.upf
     MD5 check sum: 75b1d432d85d028982bb81b068264ebf
     Pseudo is Norm-conserving + core correction, Zval = 14.0
     Generated using ONCVPSP code by D. R. Hamann
     Using radial grid of 1396 points, 14 beta functions with: 
                l(1) =   0
                l(2) =   0
                l(3) =   1
                l(4) =   1
                l(5) =   1
                l(6) =   1
                l(7) =   2
                l(8) =   2
                l(9) =   2
               l(10) =   2
               l(11) =   3
               l(12) =   3
               l(13) =   3
               l(14) =   3

     atomic species   valence    mass     pseudopotential
        W             14.00   183.84000     W ( 1.00)

     48 Sym. Ops., with inversion, found



   Cartesian axes

     site n.     atom                  positions (alat units)
         1           W   tau(   1) = (   0.0000000   0.0000000   0.0000000  )

     number of k points=  1240  Methfessel-Paxton smearing, width (Ry)=  0.0200

     Number of k-points >= 100: set verbosity='high' to print them.

     Dense  grid:    21769 G-vectors     FFT dimensions: (  40,  40,  40)

     Estimated max dynamical RAM per process >     150.31 MB

     Estimated total dynamical RAM >       2.94 GB

     Initial potential from superposition of free atoms

     starting charge   13.99948, renormalised to   14.00000
     Starting wfcs are   20 randomized atomic wfcs +    2 random wfcs

     total cpu time spent up to now is       29.0 secs

     Self-consistent Calculation

     iteration #  1     ecut=   130.00 Ry     beta= 0.70
     Davidson diagonalization with overlap
     ethr =  1.00E-02,  avg # of iterations =  4.0

     Threshold (ethr) on eigenvalues was too large:
     Diagonalizing with lowered threshold

     Davidson diagonalization with overlap
     ethr =  2.52E-04,  avg # of iterations =  2.2

     total cpu time spent up to now is      281.6 secs

     total energy              =    -151.99577654 Ry
     estimated scf accuracy    <       0.03709427 Ry

     iteration #  2     ecut=   130.00 Ry     beta= 0.70
     Davidson diagonalization with overlap
     ethr =  2.65E-04,  avg # of iterations =  2.0

     total cpu time spent up to now is      395.5 secs

     total energy              =    -152.00241523 Ry
     estimated scf accuracy    <       0.00148221 Ry

     iteration #  3     ecut=   130.00 Ry     beta= 0.70
     Davidson diagonalization with overlap
     ethr =  1.06E-05,  avg # of iterations =  2.8

     total cpu time spent up to now is      523.2 secs

     total energy              =    -152.00270711 Ry
     estimated scf accuracy    <       0.00010799 Ry

     iteration #  4     ecut=   130.00 Ry     beta= 0.70
     Davidson diagonalization with overlap
     ethr =  7.71E-07,  avg # of iterations =  1.6

     total cpu time spent up to now is      624.4 secs

     total energy              =    -152.00271195 Ry
     estimated scf accuracy    <       0.00000074 Ry

     iteration #  5     ecut=   130.00 Ry     beta= 0.70
     Davidson diagonalization with overlap
     ethr =  5.28E-09,  avg # of iterations =  3.1

     total cpu time spent up to now is      766.8 secs

     End of self-consistent calculation

     Number of k-points >= 100: set verbosity='high' to print the bands.

     the Fermi energy is    22.1123 ev

!    total energy              =    -152.00271260 Ry
     estimated scf accuracy    <       0.00000007 Ry
     smearing contrib. (-TS)   =       0.00007067 Ry
     internal energy E=F+TS    =    -152.00278327 Ry

     The total energy is F=E-TS. E is the sum of the following terms:
     one-electron contribution =     -16.53466532 Ry
     hartree contribution      =      16.31806824 Ry
     xc contribution           =     -33.23768035 Ry
     ewald contribution        =    -118.54850584 Ry

     convergence has been achieved in   5 iterations

     Forces acting on atoms (cartesian axes, Ry/au):

     atom    1 type  1   force =     0.00000000    0.00000000    0.00000000

     Total force =     0.000000     Total SCF correction =     0.000000


     Computing stress (Cartesian axis) and pressure

          total   stress  (Ry/bohr**3)                   (kbar)     P=        7.51
   0.00005108  -0.00000000   0.00000000            7.51       -0.00        0.00
  -0.00000000   0.00005108  -0.00000000           -0.00        7.51       -0.00
   0.00000000  -0.00000000   0.00005108            0.00       -0.00        7.51


     BFGS Geometry Optimization

     number of scf cycles    =   1
     number of bfgs steps    =   0

     enthalpy new            =    -152.0027125977 Ry

     new trust radius        =       0.0026652639 bohr
     new conv_thr            =       0.0000001000 Ry

     new unit-cell volume =    109.33076 a.u.^3 (    16.20115 Ang^3 )
     density =     18.84271 g/cm^3

CELL_PARAMETERS (alat=  6.01685994)
   0.500638470   0.500638470   0.500638470
  -0.500638470   0.500638470   0.500638470
  -0.500638470  -0.500638470   0.500638470

ATOMIC_POSITIONS (crystal)
W             0.0000000000        0.0000000000        0.0000000000



     Writing output data file ./tungsten.save/
     NEW-OLD atomic charge density approx. for the potential
     extrapolated charge   14.05349, renormalised to   14.00000

     total cpu time spent up to now is      779.3 secs

     Self-consistent Calculation

     iteration #  1     ecut=   130.00 Ry     beta= 0.70
     Davidson diagonalization with overlap
     ethr =  1.00E-06,  avg # of iterations =  2.6

     total cpu time spent up to now is      913.8 secs

     total energy              =    -152.00236276 Ry
     estimated scf accuracy    <       0.00021178 Ry

     iteration #  2     ecut=   130.00 Ry     beta= 0.70
     Davidson diagonalization with overlap
     ethr =  1.51E-06,  avg # of iterations =  3.2

     total cpu time spent up to now is     1061.3 secs

     total energy              =    -152.00272648 Ry
     estimated scf accuracy    <       0.00028122 Ry

     iteration #  3     ecut=   130.00 Ry     beta= 0.70
     Davidson diagonalization with overlap
     ethr =  1.51E-06,  avg # of iterations =  2.0

     total cpu time spent up to now is     1166.6 secs

     total energy              =    -152.00270473 Ry
     estimated scf accuracy    <       0.00005282 Ry

     iteration #  4     ecut=   130.00 Ry     beta= 0.70
     Davidson diagonalization with overlap
     ethr =  3.77E-07,  avg # of iterations =  2.2

     total cpu time spent up to now is     1285.8 secs

     total energy              =    -152.00272111 Ry
     estimated scf accuracy    <       0.00000366 Ry

     iteration #  5     ecut=   130.00 Ry     beta= 0.70
     Davidson diagonalization with overlap
     ethr =  2.62E-08,  avg # of iterations =  2.0

     total cpu time spent up to now is     1395.9 secs

     total energy              =    -152.00272176 Ry
     estimated scf accuracy    <       0.00000014 Ry

     iteration #  6     ecut=   130.00 Ry     beta= 0.70
     Davidson diagonalization with overlap
     ethr =  1.01E-09,  avg # of iterations =  2.0

     total cpu time spent up to now is     1503.9 secs

     total energy              =    -152.00272173 Ry
     estimated scf accuracy    <       0.00000016 Ry

     iteration #  7     ecut=   130.00 Ry     beta= 0.70
     Davidson diagonalization with overlap
     ethr =  1.01E-09,  avg # of iterations =  3.0

     total cpu time spent up to now is     1639.7 secs

     total energy              =    -152.00272157 Ry
     estimated scf accuracy    <       0.00000082 Ry

     iteration #  8     ecut=   130.00 Ry     beta= 0.70
     Davidson diagonalization with overlap
     ethr =  1.01E-09,  avg # of iterations =  2.0

     total cpu time spent up to now is     1759.8 secs

     End of self-consistent calculation

     Number of k-points >= 100: set verbosity='high' to print the bands.

     the Fermi energy is    22.0153 ev

!    total energy              =    -152.00272169 Ry
     estimated scf accuracy    <       0.00000001 Ry
     smearing contrib. (-TS)   =       0.00007159 Ry
     internal energy E=F+TS    =    -152.00279328 Ry

     The total energy is F=E-TS. E is the sum of the following terms:
     one-electron contribution =     -16.74554743 Ry
     hartree contribution      =      16.37255314 Ry
     xc contribution           =     -33.23247939 Ry
     ewald contribution        =    -118.39731960 Ry

     convergence has been achieved in   8 iterations

     Forces acting on atoms (cartesian axes, Ry/au):

     atom    1 type  1   force =     0.00000000    0.00000000    0.00000000

     Total force =     0.000000     Total SCF correction =     0.000000


     Computing stress (Cartesian axis) and pressure

          total   stress  (Ry/bohr**3)                   (kbar)     P=       -1.93
  -0.00001313   0.00000000  -0.00000000           -1.93        0.00       -0.00
   0.00000000  -0.00001313   0.00000000            0.00       -1.93        0.00
  -0.00000000   0.00000000  -0.00001313           -0.00        0.00       -1.93


     number of scf cycles    =   2
     number of bfgs steps    =   1

     enthalpy old            =    -152.0027125977 Ry
     enthalpy new            =    -152.0027216924 Ry

     CASE: enthalpy_new < enthalpy_old

     new trust radius        =       0.0005466304 bohr
     new conv_thr            =       0.0000000010 Ry

     new unit-cell volume =    109.24504 a.u.^3 (    16.18845 Ang^3 )
     density =     18.85749 g/cm^3

CELL_PARAMETERS (alat=  6.01685994)
   0.500507607   0.500507607   0.500507607
  -0.500507607   0.500507607   0.500507607
  -0.500507607  -0.500507607   0.500507607

ATOMIC_POSITIONS (crystal)
W             0.0000000000        0.0000000000        0.0000000000



     Writing output data file ./tungsten.save/
     NEW-OLD atomic charge density approx. for the potential
     extrapolated charge   13.98902, renormalised to   14.00000

     total cpu time spent up to now is     1772.4 secs

     Self-consistent Calculation

     iteration #  1     ecut=   130.00 Ry     beta= 0.70
     Davidson diagonalization with overlap
     ethr =  1.00E-06,  avg # of iterations =  1.2

     Threshold (ethr) on eigenvalues was too large:
     Diagonalizing with lowered threshold

     Davidson diagonalization with overlap
     ethr =  5.89E-08,  avg # of iterations =  1.1

     total cpu time spent up to now is     1956.5 secs

     total energy              =    -152.00270792 Ry
     estimated scf accuracy    <       0.00000854 Ry

     iteration #  2     ecut=   130.00 Ry     beta= 0.70
     Davidson diagonalization with overlap
     ethr =  6.10E-08,  avg # of iterations =  3.0

     total cpu time spent up to now is     2091.5 secs

     total energy              =    -152.00272270 Ry
     estimated scf accuracy    <       0.00001140 Ry

     iteration #  3     ecut=   130.00 Ry     beta= 0.70
     Davidson diagonalization with overlap
     ethr =  6.10E-08,  avg # of iterations =  2.0

     total cpu time spent up to now is     2197.4 secs

     total energy              =    -152.00272172 Ry
     estimated scf accuracy    <       0.00000221 Ry

     iteration #  4     ecut=   130.00 Ry     beta= 0.70
     Davidson diagonalization with overlap
     ethr =  1.58E-08,  avg # of iterations =  2.5

     total cpu time spent up to now is     2321.8 secs

     total energy              =    -152.00272248 Ry
     estimated scf accuracy    <       0.00000023 Ry

     iteration #  5     ecut=   130.00 Ry     beta= 0.70
     Davidson diagonalization with overlap
     ethr =  1.62E-09,  avg # of iterations =  2.0

     total cpu time spent up to now is     2430.1 secs

     total energy              =    -152.00272251 Ry
     estimated scf accuracy    <       0.00000002 Ry

     iteration #  6     ecut=   130.00 Ry     beta= 0.70
     Davidson diagonalization with overlap
     ethr =  1.23E-10,  avg # of iterations =  1.1

     total cpu time spent up to now is     2522.7 secs

     total energy              =    -152.00272249 Ry
     estimated scf accuracy    <       0.00000002 Ry

     iteration #  7     ecut=   130.00 Ry     beta= 0.70
     Davidson diagonalization with overlap
     ethr =  1.23E-10,  avg # of iterations =  2.7

     total cpu time spent up to now is     2654.2 secs

     total energy              =    -152.00272250 Ry
     estimated scf accuracy    <       0.00000002 Ry

     iteration #  8     ecut=   130.00 Ry     beta= 0.70
     Davidson diagonalization with overlap
     ethr =  1.09E-10,  avg # of iterations =  2.0

     total cpu time spent up to now is     2760.4 secs

     total energy              =    -152.00272250 Ry
     estimated scf accuracy    <          2.0E-09 Ry

     iteration #  9     ecut=   130.00 Ry     beta= 0.70
     Davidson diagonalization with overlap
     ethr =  1.40E-11,  avg # of iterations =  2.2

     total cpu time spent up to now is     2873.9 secs

     End of self-consistent calculation

     Number of k-points >= 100: set verbosity='high' to print the bands.

     the Fermi energy is    22.0352 ev

!    total energy              =    -152.00272250 Ry
     estimated scf accuracy    <          1.0E-10 Ry
     smearing contrib. (-TS)   =       0.00007140 Ry
     internal energy E=F+TS    =    -152.00279390 Ry

     The total energy is F=E-TS. E is the sum of the following terms:
     one-electron contribution =     -16.70226675 Ry
     hartree contribution      =      16.36125720 Ry
     xc contribution           =     -33.23350851 Ry
     ewald contribution        =    -118.42827583 Ry

     convergence has been achieved in   9 iterations

     Forces acting on atoms (cartesian axes, Ry/au):

     atom    1 type  1   force =     0.00000000    0.00000000    0.00000000

     Total force =     0.000000     Total SCF correction =     0.000000


     Computing stress (Cartesian axis) and pressure

          total   stress  (Ry/bohr**3)                   (kbar)     P=       -0.27
  -0.00000184   0.00000000  -0.00000000           -0.27        0.00       -0.00
   0.00000000  -0.00000184   0.00000000            0.00       -0.27        0.00
  -0.00000000   0.00000000  -0.00000184           -0.00        0.00       -0.27


     number of scf cycles    =   3
     number of bfgs steps    =   2

     enthalpy old            =    -152.0027216924 Ry
     enthalpy new            =    -152.0027224988 Ry

     CASE: enthalpy_new < enthalpy_old

     small trust_radius: resetting bfgs history

     new trust radius        =       0.0000961360 bohr
     new conv_thr            =       0.0000000010 Ry

     new unit-cell volume =    109.22997 a.u.^3 (    16.18621 Ang^3 )
     density =     18.86010 g/cm^3

CELL_PARAMETERS (alat=  6.01685994)
   0.500484589   0.500484589   0.500484589
  -0.500484589   0.500484589   0.500484589
  -0.500484589  -0.500484589   0.500484589

ATOMIC_POSITIONS (crystal)
W             0.0000000000        0.0000000000        0.0000000000



     Writing output data file ./tungsten.save/
     NEW-OLD atomic charge density approx. for the potential
     extrapolated charge   13.99807, renormalised to   14.00000

     total cpu time spent up to now is     2886.2 secs

     Self-consistent Calculation

     iteration #  1     ecut=   130.00 Ry     beta= 0.70
     Davidson diagonalization with overlap
     ethr =  1.00E-06,  avg # of iterations =  1.0

     Threshold (ethr) on eigenvalues was too large:
     Diagonalizing with lowered threshold

     Davidson diagonalization with overlap
     ethr =  1.94E-09,  avg # of iterations =  1.1

     total cpu time spent up to now is     3069.1 secs

     total energy              =    -152.00272204 Ry
     estimated scf accuracy    <       0.00000028 Ry

     iteration #  2     ecut=   130.00 Ry     beta= 0.70
     Davidson diagonalization with overlap
     ethr =  2.01E-09,  avg # of iterations =  3.0

     total cpu time spent up to now is     3201.5 secs

     total energy              =    -152.00272250 Ry
     estimated scf accuracy    <       0.00000035 Ry

     iteration #  3     ecut=   130.00 Ry     beta= 0.70
     Davidson diagonalization with overlap
     ethr =  2.01E-09,  avg # of iterations =  2.0

     total cpu time spent up to now is     3306.2 secs

     total energy              =    -152.00272248 Ry
     estimated scf accuracy    <       0.00000007 Ry

     iteration #  4     ecut=   130.00 Ry     beta= 0.70
     Davidson diagonalization with overlap
     ethr =  4.75E-10,  avg # of iterations =  2.6

     total cpu time spent up to now is     3431.6 secs

     total energy              =    -152.00272250 Ry
     estimated scf accuracy    <          5.3E-09 Ry

     iteration #  5     ecut=   130.00 Ry     beta= 0.70
     Davidson diagonalization with overlap
     ethr =  3.80E-11,  avg # of iterations =  2.0

     total cpu time spent up to now is     3538.8 secs

     End of self-consistent calculation

     Number of k-points >= 100: set verbosity='high' to print the bands.

     the Fermi energy is    22.0386 ev

!    total energy              =    -152.00272250 Ry
     estimated scf accuracy    <          6.7E-10 Ry
     smearing contrib. (-TS)   =       0.00007137 Ry
     internal energy E=F+TS    =    -152.00279387 Ry

     The total energy is F=E-TS. E is the sum of the following terms:
     one-electron contribution =     -16.69479264 Ry
     hartree contribution      =      16.35946155 Ry
     xc contribution           =     -33.23374029 Ry
     ewald contribution        =    -118.43372250 Ry

     convergence has been achieved in   5 iterations

     Forces acting on atoms (cartesian axes, Ry/au):

     atom    1 type  1   force =     0.00000000    0.00000000    0.00000000

     Total force =     0.000000     Total SCF correction =     0.000000


     Computing stress (Cartesian axis) and pressure

          total   stress  (Ry/bohr**3)                   (kbar)     P=        0.38
   0.00000260   0.00000000  -0.00000000            0.38        0.00       -0.00
   0.00000000   0.00000260   0.00000000            0.00        0.38        0.00
  -0.00000000   0.00000000   0.00000260           -0.00        0.00        0.38


     number of scf cycles    =   4
     number of bfgs steps    =   3

     enthalpy old            =    -152.0027224988 Ry
     enthalpy new            =    -152.0027224981 Ry

     CASE: enthalpy_new > enthalpy_old

     new trust radius        =       0.0000468114 bohr

     trust_radius < trust_radius_min

     resetting bfgs history

     Message from routine bfgs:
     history already reset at previous step: stopping
     new conv_thr            =       0.0000000010 Ry

     new unit-cell volume =    109.22997 a.u.^3 (    16.18621 Ang^3 )
     density =     18.86010 g/cm^3

CELL_PARAMETERS (alat=  6.01685994)
   0.500484588   0.500484588   0.500484588
  -0.500484588   0.500484588   0.500484588
  -0.500484588  -0.500484588   0.500484588

ATOMIC_POSITIONS (crystal)
W             0.0000000000        0.0000000000        0.0000000000



     Writing output data file ./tungsten.save/
     NEW-OLD atomic charge density approx. for the potential

     total cpu time spent up to now is     3551.3 secs

     Self-consistent Calculation

     iteration #  1     ecut=   130.00 Ry     beta= 0.70
     Davidson diagonalization with overlap
     ethr =  1.00E-06,  avg # of iterations =  1.0

     Threshold (ethr) on eigenvalues was too large:
     Diagonalizing with lowered threshold

     Davidson diagonalization with overlap
     ethr =  2.91E-12,  avg # of iterations =  1.9

     total cpu time spent up to now is     3745.7 secs

     End of self-consistent calculation

     Number of k-points >= 100: set verbosity='high' to print the bands.

     the Fermi energy is    22.0387 ev

!    total energy              =    -152.00272250 Ry
     estimated scf accuracy    <          4.4E-10 Ry
     smearing contrib. (-TS)   =       0.00007137 Ry
     internal energy E=F+TS    =    -152.00279387 Ry

     The total energy is F=E-TS. E is the sum of the following terms:
     one-electron contribution =     -16.69466680 Ry
     hartree contribution      =      16.35929262 Ry
     xc contribution           =     -33.23369694 Ry
     ewald contribution        =    -118.43372275 Ry

     convergence has been achieved in   1 iterations

     Forces acting on atoms (cartesian axes, Ry/au):

     atom    1 type  1   force =     0.00000000    0.00000000    0.00000000

     Total force =     0.000000     Total SCF correction =     0.000000


     Computing stress (Cartesian axis) and pressure

          total   stress  (Ry/bohr**3)                   (kbar)     P=        0.09
   0.00000063  -0.00000000   0.00000000            0.09       -0.00        0.00
  -0.00000000   0.00000063  -0.00000000           -0.00        0.09       -0.00
   0.00000000  -0.00000000   0.00000063            0.00       -0.00        0.09


     bfgs converged in   5 scf cycles and   3 bfgs steps
     (criteria: energy <  1.0E-05 Ry, force <  1.0E-04Ry/Bohr, cell <  1.0E-01kbar)

     End of BFGS Geometry Optimization

     Final enthalpy =    -152.0027224981 Ry

     File ./tungsten.bfgs deleted, as requested
Begin final coordinates
     new unit-cell volume =    109.22997 a.u.^3 (    16.18621 Ang^3 )
     density =     18.86010 g/cm^3

CELL_PARAMETERS (alat=  6.01685994)
   0.500484588   0.500484588   0.500484588
  -0.500484588   0.500484588   0.500484588
  -0.500484588  -0.500484588   0.500484588

ATOMIC_POSITIONS (crystal)
W             0.0000000000        0.0000000000        0.0000000000
End final coordinates



     Writing output data file ./tungsten.save/

     Final scf calculation at the relaxed structure.
     The G-vectors are recalculated for the final unit cell
     Results may differ from those at the preceding step.
 
     Parallelization info
     --------------------
     sticks:   dense  smooth     PW     G-vecs:    dense   smooth      PW
     Min         210     210     63                 4353     4353     711
     Max         211     211     63                 4355     4355     712
     Sum        1051    1051    315                21769    21769    3559
 


     bravais-lattice index     =            3
     lattice parameter (alat)  =       6.0169  a.u.
     unit-cell volume          =     109.2300 (a.u.)^3
     number of atoms/cell      =            1
     number of atomic types    =            1
     number of electrons       =        14.00
     number of Kohn-Sham states=           22
     kinetic-energy cutoff     =     130.0000  Ry
     charge density cutoff     =     520.0000  Ry
     convergence threshold     =      1.0E-09
     mixing beta               =       0.7000
     number of iterations used =            8  plain     mixing
     Exchange-correlation= PBE
                           (   1   4   3   4   0   0   0)
     Non magnetic calculation with spin-orbit


     celldm(1)=   6.016860  celldm(2)=   0.000000  celldm(3)=   0.000000
     celldm(4)=   0.000000  celldm(5)=   0.000000  celldm(6)=   0.000000

     crystal axes: (cart. coord. in units of alat)
               a(1) = (   0.500485   0.500485   0.500485 )  
               a(2) = (  -0.500485   0.500485   0.500485 )  
               a(3) = (  -0.500485  -0.500485   0.500485 )  

     reciprocal axes: (cart. coord. in units 2 pi/alat)
               b(1) = (  0.999032  0.000000  0.999032 )  
               b(2) = ( -0.999032  0.999032  0.000000 )  
               b(3) = (  0.000000 -0.999032  0.999032 )  


     PseudoPot. # 1 for W  read from file:
     /nfs-share/home/1600011702/pseudo/W.nc.fr.pbe.stringent.upf
     MD5 check sum: 75b1d432d85d028982bb81b068264ebf
     Pseudo is Norm-conserving + core correction, Zval = 14.0
     Generated using ONCVPSP code by D. R. Hamann
     Using radial grid of 1396 points, 14 beta functions with: 
                l(1) =   0
                l(2) =   0
                l(3) =   1
                l(4) =   1
                l(5) =   1
                l(6) =   1
                l(7) =   2
                l(8) =   2
                l(9) =   2
               l(10) =   2
               l(11) =   3
               l(12) =   3
               l(13) =   3
               l(14) =   3

     atomic species   valence    mass     pseudopotential
        W             14.00   183.84000     W ( 1.00)

     48 Sym. Ops., with inversion, found



   Cartesian axes

     site n.     atom                  positions (alat units)
         1           W   tau(   1) = (   0.0000000   0.0000000   0.0000000  )

     number of k points=  1240  Methfessel-Paxton smearing, width (Ry)=  0.0200

     Number of k-points >= 100: set verbosity='high' to print them.

     Dense  grid:    21769 G-vectors     FFT dimensions: (  40,  40,  40)

     Estimated max dynamical RAM per process >     150.56 MB

     Estimated total dynamical RAM >       2.94 GB

     Initial potential from superposition of free atoms

     starting charge   13.99948, renormalised to   14.00000
     Starting wfcs are   20 randomized atomic wfcs +    2 random wfcs

     total cpu time spent up to now is     3782.5 secs

     Self-consistent Calculation

     iteration #  1     ecut=   130.00 Ry     beta= 0.70
     Davidson diagonalization with overlap
     c_bands:  2 eigenvalues not converged
     c_bands:  1 eigenvalues not converged
     c_bands:  1 eigenvalues not converged
     c_bands:  2 eigenvalues not converged
     c_bands:  1 eigenvalues not converged
     c_bands:  1 eigenvalues not converged
     ethr =  1.00E-06,  avg # of iterations = 10.2

     total cpu time spent up to now is     4078.9 secs

     total energy              =    -151.99503058 Ry
     estimated scf accuracy    <       0.03858059 Ry

     iteration #  2     ecut=   130.00 Ry     beta= 0.70
     Davidson diagonalization with overlap
     ethr =  2.76E-04,  avg # of iterations =  2.1

     total cpu time spent up to now is     4194.5 secs

     total energy              =    -152.00236186 Ry
     estimated scf accuracy    <       0.00179078 Ry

     iteration #  3     ecut=   130.00 Ry     beta= 0.70
     Davidson diagonalization with overlap
     ethr =  1.28E-05,  avg # of iterations =  2.5

     total cpu time spent up to now is     4315.6 secs

     total energy              =    -152.00271644 Ry
     estimated scf accuracy    <       0.00011510 Ry

     iteration #  4     ecut=   130.00 Ry     beta= 0.70
     Davidson diagonalization with overlap
     ethr =  8.22E-07,  avg # of iterations =  1.7

     total cpu time spent up to now is     4416.0 secs

     total energy              =    -152.00272252 Ry
     estimated scf accuracy    <       0.00000068 Ry

     iteration #  5     ecut=   130.00 Ry     beta= 0.70
     Davidson diagonalization with overlap
     ethr =  4.84E-09,  avg # of iterations =  3.0

     total cpu time spent up to now is     4559.3 secs

     total energy              =    -152.00272304 Ry
     estimated scf accuracy    <       0.00000005 Ry

     iteration #  6     ecut=   130.00 Ry     beta= 0.70
     Davidson diagonalization with overlap
     ethr =  3.86E-10,  avg # of iterations =  2.0

     total cpu time spent up to now is     4679.2 secs

     total energy              =    -152.00272305 Ry
     estimated scf accuracy    <          6.5E-09 Ry

     iteration #  7     ecut=   130.00 Ry     beta= 0.70
     Davidson diagonalization with overlap
     ethr =  4.62E-11,  avg # of iterations =  2.0

     total cpu time spent up to now is     4798.8 secs

     End of self-consistent calculation

     Number of k-points >= 100: set verbosity='high' to print the bands.

     the Fermi energy is    22.0387 ev

!    total energy              =    -152.00272305 Ry
     estimated scf accuracy    <          6.3E-11 Ry
     smearing contrib. (-TS)   =       0.00007137 Ry
     internal energy E=F+TS    =    -152.00279442 Ry

     The total energy is F=E-TS. E is the sum of the following terms:
     one-electron contribution =     -16.69470244 Ry
     hartree contribution      =      16.35933989 Ry
     xc contribution           =     -33.23370912 Ry
     ewald contribution        =    -118.43372275 Ry

     convergence has been achieved in   7 iterations

     Forces acting on atoms (cartesian axes, Ry/au):

     atom    1 type  1   force =     0.00000000    0.00000000    0.00000000

     Total force =     0.000000     Total SCF correction =     0.000000


     Computing stress (Cartesian axis) and pressure

          total   stress  (Ry/bohr**3)                   (kbar)     P=        0.18
   0.00000121  -0.00000000   0.00000000            0.18       -0.00        0.00
  -0.00000000   0.00000121  -0.00000000           -0.00        0.18       -0.00
   0.00000000  -0.00000000   0.00000121            0.00       -0.00        0.18


     Writing output data file ./tungsten.save/
 
     init_run     :     32.47s CPU     47.44s WALL (       2 calls)
     electrons    :   3836.21s CPU   4684.69s WALL (       6 calls)
     update_pot   :      0.41s CPU      0.42s WALL (       4 calls)
     forces       :     24.96s CPU     34.68s WALL (       6 calls)
     stress       :     35.72s CPU     37.03s WALL (       6 calls)

     Called by init_run:
     wfcinit      :     32.16s CPU     47.10s WALL (       2 calls)
     potinit      :      0.09s CPU      0.09s WALL (       2 calls)
     hinit0       :      0.14s CPU      0.15s WALL (       2 calls)

     Called by electrons:
     c_bands      :   3692.43s CPU   4331.28s WALL (      39 calls)
     sum_band     :    131.04s CPU    335.75s WALL (      39 calls)
     v_of_rho     :      2.09s CPU      2.36s WALL (      41 calls)
     mix_rho      :      2.94s CPU      3.06s WALL (      39 calls)

     Called by c_bands:
     init_us_2    :      6.78s CPU      7.86s WALL (   28520 calls)
     cegterg      :   1396.56s CPU   1978.52s WALL (   12090 calls)

     Called by sum_band:

     Called by *egterg:
     h_psi        :    679.43s CPU   1119.26s WALL (   42844 calls)
     g_psi        :      1.42s CPU      1.50s WALL (   30134 calls)
     cdiaghg      :     33.15s CPU     34.85s WALL (   39744 calls)

     Called by h_psi:
     h_psi:calbec :    227.36s CPU    237.59s WALL (   42844 calls)
     vloc_psi     :    428.30s CPU    856.61s WALL (   42844 calls)
     add_vuspsi   :     22.36s CPU     23.45s WALL (   42844 calls)

     General routines
     calbec       :    240.56s CPU    251.30s WALL (   52144 calls)
     fft          :      0.27s CPU      0.68s WALL (     685 calls)
     ffts         :      0.19s CPU      0.73s WALL (     156 calls)
     fftw         :    515.93s CPU   1109.76s WALL ( 3266772 calls)
 
     Parallel routines
     fft_scatt_xy :     29.18s CPU     49.53s WALL ( 3267613 calls)
     fft_scatt_yz :    341.36s CPU    817.42s WALL ( 3267613 calls)
 
     PWSCF        :      1h 6m CPU      1h21m WALL

 
   This run was terminated on:  16:14:13  30Apr2020            

=------------------------------------------------------------------------------=
   JOB DONE.
=------------------------------------------------------------------------------=
